"Dstat 0.7.2 CSV output"
"Author:","Dag Wieers <dag@wieers.com>",,,,"URL:","http://dag.wieers.com/home-made/dstat/"
"Host:","Middleware1",,,,"User:","maki"
"Cmdline:","dstat --output dstat.csv 1 70",,,,"Date:","20 Nov 2018 07:54:18 UTC"

"total cpu usage",,,,,,"dsk/total",,"net/total",,"paging",,"system",
"usr","sys","idl","wai","hiq","siq","read","writ","recv","send","in","out","int","csw"
1.829,1.573,96.099,0.099,0.0,0.399,8763.565,186373.857,0.0,0.0,0.0,0.0,1997.813,5746.372
23.118,2.906,73.448,0.0,0.0,0.528,0.0,0.0,5068389.0,4900470.0,0.0,0.0,3266.0,8648.0
17.323,1.969,79.659,0.0,0.0,1.050,0.0,12288.0,6641137.0,6458763.0,0.0,0.0,2608.0,7479.0
5.364,2.682,91.826,0.0,0.0,0.128,0.0,0.0,6948028.0,6740472.0,0.0,0.0,2555.0,7675.0
4.866,1.921,92.574,0.0,0.0,0.640,0.0,0.0,6705928.0,6501535.0,0.0,0.0,2453.0,7453.0
12.205,1.575,85.564,0.0,0.0,0.656,0.0,0.0,6602208.0,6414908.0,0.0,0.0,2531.0,7366.0
1.398,2.287,96.188,0.0,0.0,0.127,0.0,0.0,7030116.0,6823062.0,0.0,0.0,2578.0,7696.0
1.401,1.656,96.433,0.382,0.0,0.127,0.0,143360.0,6758492.0,6558107.0,0.0,0.0,2422.0,7385.0
1.646,1.899,95.949,0.0,0.0,0.506,0.0,0.0,6816561.0,6614377.0,0.0,0.0,2461.0,7515.0
1.277,1.533,96.807,0.0,0.0,0.383,0.0,0.0,6961488.0,6757802.0,0.0,0.0,2544.0,7549.0
1.779,1.525,96.188,0.0,0.0,0.508,0.0,0.0,6823057.0,6619726.0,0.0,0.0,2542.0,7566.0
1.019,1.783,96.815,0.0,0.0,0.382,0.0,0.0,6916748.0,6714382.0,0.0,0.0,2513.0,7397.0
0.634,2.408,96.324,0.0,0.0,0.634,0.0,8192.0,6810702.0,6610038.0,0.0,0.0,2439.0,7432.0
1.398,1.906,96.188,0.0,0.0,0.508,0.0,0.0,6848001.0,6644898.0,0.0,0.0,2522.0,7603.0
1.652,1.398,96.569,0.0,0.0,0.381,0.0,0.0,6918269.0,6714437.0,0.0,0.0,2502.0,7512.0
1.271,2.160,96.442,0.0,0.0,0.127,0.0,0.0,6846610.0,6644968.0,0.0,0.0,2477.0,7456.0
1.023,1.535,96.931,0.0,0.0,0.512,0.0,0.0,6926918.0,6719025.0,0.0,0.0,2512.0,7586.0
1.017,2.160,96.442,0.0,0.0,0.381,0.0,0.0,6869028.0,6666648.0,0.0,0.0,2543.0,7578.0
1.269,1.904,96.193,0.0,0.0,0.635,0.0,0.0,6886918.0,6684088.0,0.0,0.0,2501.0,7548.0
1.643,2.276,95.828,0.0,0.0,0.253,0.0,0.0,6807713.0,6605798.0,0.0,0.0,2518.0,7374.0
1.894,1.641,95.960,0.0,0.0,0.505,0.0,0.0,6833124.0,6631878.0,0.0,0.0,2492.0,7429.0
0.771,1.157,97.686,0.0,0.0,0.386,0.0,0.0,6690148.0,6498350.0,0.0,0.0,2523.0,7420.0
1.020,1.403,96.684,0.0,0.0,0.893,0.0,1015808.0,7033669.0,6815001.0,0.0,0.0,2673.0,7675.0
1.157,1.157,97.429,0.0,0.0,0.257,0.0,0.0,6922526.0,6718562.0,0.0,0.0,2643.0,7715.0
1.529,1.783,96.433,0.0,0.0,0.255,0.0,0.0,6797280.0,6597090.0,0.0,0.0,2658.0,7636.0
1.777,1.523,96.066,0.0,0.0,0.635,0.0,0.0,6861376.0,6658033.0,0.0,0.0,2572.0,7576.0
1.523,1.650,96.193,0.0,0.0,0.635,0.0,0.0,6849513.0,6644861.0,0.0,0.0,2581.0,7522.0
1.772,1.899,95.696,0.0,0.0,0.633,0.0,0.0,6822753.0,6623237.0,0.0,0.0,2590.0,7518.0
1.276,1.786,96.556,0.0,0.0,0.383,0.0,0.0,6910619.0,6705668.0,0.0,0.0,2549.0,7625.0
1.264,2.149,96.207,0.0,0.0,0.379,0.0,0.0,6871992.0,6670946.0,0.0,0.0,2589.0,7577.0
2.020,1.768,95.960,0.0,0.0,0.253,0.0,0.0,6635897.0,6436655.0,0.0,0.0,2523.0,7331.0
1.519,1.899,96.076,0.0,0.0,0.506,0.0,0.0,6674898.0,6475477.0,0.0,0.0,2527.0,7306.0
1.899,1.519,96.329,0.0,0.0,0.253,0.0,8192.0,6733192.0,6536238.0,0.0,0.0,2528.0,7447.0
1.020,1.786,96.811,0.0,0.0,0.383,0.0,0.0,6694441.0,6497209.0,0.0,0.0,2521.0,7357.0
0.889,1.779,96.569,0.0,0.0,0.762,0.0,0.0,6704732.0,6505853.0,0.0,0.0,2552.0,7380.0
1.529,1.529,96.688,0.0,0.0,0.255,0.0,0.0,6734526.0,6536262.0,0.0,0.0,2619.0,7530.0
1.023,1.535,97.187,0.0,0.0,0.256,0.0,0.0,6698755.0,6501469.0,0.0,0.0,2519.0,7410.0
1.263,2.525,94.949,0.253,0.0,1.010,0.0,57344.0,6710172.0,6510257.0,0.0,0.0,2541.0,7446.0
1.279,1.790,96.547,0.0,0.0,0.384,0.0,0.0,6909253.0,6705685.0,0.0,0.0,2588.0,7655.0
1.392,2.025,96.203,0.0,0.0,0.380,0.0,0.0,6730141.0,6531853.0,0.0,0.0,2581.0,7387.0
1.525,2.033,96.188,0.0,0.0,0.254,0.0,0.0,6897215.0,6692738.0,0.0,0.0,2634.0,7623.0
1.148,1.786,96.939,0.0,0.0,0.128,0.0,0.0,6791262.0,6588326.0,0.0,0.0,2491.0,7287.0
1.392,1.899,96.076,0.0,0.0,0.633,0.0,0.0,6807745.0,6610091.0,0.0,0.0,2484.0,7358.0
2.293,1.656,95.287,0.0,0.0,0.764,0.0,0.0,6818068.0,6614501.0,0.0,0.0,2615.0,7455.0
0.896,1.152,97.439,0.0,0.0,0.512,0.0,0.0,6743620.0,6545014.0,0.0,0.0,2447.0,7316.0
0.895,1.407,97.187,0.0,0.0,0.512,0.0,0.0,6627185.0,6432011.0,0.0,0.0,2430.0,7095.0
1.515,2.146,95.960,0.0,0.0,0.379,0.0,0.0,6779392.0,6579813.0,0.0,0.0,2479.0,7373.0
1.768,2.146,95.833,0.0,0.0,0.253,0.0,0.0,6855537.0,6653553.0,0.0,0.0,2532.0,7333.0
0.897,1.410,97.308,0.0,0.0,0.385,0.0,0.0,6734626.0,6536206.0,0.0,0.0,2483.0,7291.0
1.643,1.770,95.828,0.0,0.0,0.759,0.0,0.0,6807612.0,6605775.0,0.0,0.0,2586.0,7534.0
1.266,1.899,96.076,0.0,0.0,0.759,0.0,0.0,6927100.0,6723004.0,0.0,0.0,2558.0,7468.0
1.144,2.033,96.188,0.0,0.0,0.635,0.0,0.0,6785351.0,6584247.0,0.0,0.0,2492.0,7370.0
1.401,1.656,96.433,0.0,0.0,0.510,0.0,0.0,6819642.0,6618953.0,0.0,0.0,2528.0,7644.0
1.266,2.025,96.076,0.0,0.0,0.633,0.0,1499136.0,6951055.0,6744911.0,0.0,0.0,2578.0,7665.0
1.521,1.901,96.071,0.0,0.0,0.507,0.0,0.0,6962994.0,6758074.0,0.0,0.0,2546.0,7559.0
1.904,1.650,95.812,0.0,0.0,0.635,0.0,0.0,6869057.0,6666677.0,0.0,0.0,2588.0,7623.0
1.884,2.638,95.352,0.0,0.0,0.126,0.0,0.0,6825391.0,6619144.0,0.0,0.0,2502.0,7523.0
0.893,1.913,96.939,0.0,0.0,0.255,0.0,0.0,6904888.0,6701452.0,0.0,0.0,2491.0,7413.0
1.148,1.658,96.939,0.0,0.0,0.255,0.0,0.0,6748155.0,6549417.0,0.0,0.0,2513.0,7524.0
1.405,1.277,96.935,0.0,0.0,0.383,0.0,0.0,6852465.0,6649464.0,0.0,0.0,2485.0,7520.0
1.519,1.646,96.203,0.0,0.0,0.633,0.0,0.0,6846518.0,6644798.0,0.0,0.0,2522.0,7385.0
1.017,2.160,96.696,0.0,0.0,0.127,0.0,0.0,6703193.0,6505697.0,0.0,0.0,2454.0,7292.0
1.772,2.025,95.823,0.0,0.0,0.380,0.0,0.0,6883780.0,6679621.0,0.0,0.0,2519.0,7547.0
1.022,1.916,96.935,0.0,0.0,0.128,0.0,8192.0,6880395.0,6671323.0,0.0,0.0,2559.0,7492.0
1.266,2.025,96.203,0.0,0.0,0.506,0.0,0.0,6819677.0,6619061.0,0.0,0.0,2518.0,7537.0
1.786,1.403,96.684,0.0,0.0,0.128,0.0,0.0,6834516.0,6631809.0,0.0,0.0,2529.0,7584.0
1.271,1.779,96.569,0.0,0.0,0.381,0.0,0.0,6861549.0,6658201.0,0.0,0.0,2494.0,7467.0
1.790,1.662,93.350,2.813,0.0,0.384,0.0,57344.0,6845177.0,6645079.0,0.0,0.0,2538.0,7567.0
1.401,1.783,96.561,0.0,0.0,0.255,0.0,65536.0,6901737.0,6697128.0,0.0,0.0,2532.0,7520.0
1.149,1.405,97.190,0.0,0.0,0.255,0.0,0.0,6922726.0,6718840.0,0.0,0.0,2515.0,7532.0
1.523,1.650,96.320,0.0,0.0,0.508,0.0,0.0,6881977.0,6674208.0,0.0,0.0,2525.0,7643.0
