2         Threads
4         Connections per thread
70        Seconds


ALL STATS
========================================================================
Type        Ops/sec     Hits/sec   Misses/sec      Latency       KB/sec 
------------------------------------------------------------------------
Sets           0.00          ---          ---      0.00000         0.00 
Gets         990.14       990.14         0.00      8.07000      4010.62 
Waits          0.00          ---          ---      0.00000          --- 
Totals       990.14       990.14         0.00      8.07000      4010.62 


Request Latency Distribution
Type     <= msec         Percent
------------------------------------------------------------------------
---
GET       0.980         0.00
GET       1.100         0.01
GET       1.200         0.06
GET       1.300         0.19
GET       1.400         0.57
GET       1.500         1.23
GET       1.600         2.26
GET       1.700         3.82
GET       1.800         5.67
GET       1.900         7.78
GET       2.000        10.26
GET       2.100        12.83
GET       2.200        15.50
GET       2.300        18.35
GET       2.400        21.09
GET       2.500        24.04
GET       2.600        26.76
GET       2.700        29.24
GET       2.800        31.59
GET       2.900        33.65
GET       3.000        35.53
GET       3.100        37.19
GET       3.200        38.51
GET       3.300        39.69
GET       3.400        40.76
GET       3.500        41.62
GET       3.600        42.36
GET       3.700        42.98
GET       3.800        43.55
GET       3.900        44.03
GET       4.000        44.39
GET       4.100        44.71
GET       4.200        44.98
GET       4.300        45.26
GET       4.400        45.48
GET       4.500        45.69
GET       4.600        45.89
GET       4.700        46.07
GET       4.800        46.27
GET       4.900        46.43
GET       5.000        46.58
GET       5.100        46.74
GET       5.200        46.85
GET       5.300        46.95
GET       5.400        47.04
GET       5.500        47.12
GET       5.600        47.19
GET       5.700        47.27
GET       5.800        47.37
GET       5.900        47.44
GET       6.000        47.51
GET       6.100        47.57
GET       6.200        47.64
GET       6.300        47.71
GET       6.400        47.78
GET       6.500        47.84
GET       6.600        47.88
GET       6.700        47.95
GET       6.800        48.03
GET       6.900        48.07
GET       7.000        48.12
GET       7.100        48.19
GET       7.200        48.24
GET       7.300        48.31
GET       7.400        48.37
GET       7.500        48.44
GET       7.600        48.52
GET       7.700        48.59
GET       7.800        48.66
GET       7.900        48.73
GET       8.000        48.79
GET       8.100        48.89
GET       8.200        48.95
GET       8.300        49.01
GET       8.400        49.06
GET       8.500        49.11
GET       8.600        49.16
GET       8.700        49.23
GET       8.800        49.29
GET       8.900        49.35
GET       9.000        49.42
GET       9.100        49.48
GET       9.200        49.54
GET       9.300        49.61
GET       9.400        49.68
GET       9.500        49.78
GET       9.600        49.87
GET       9.700        49.94
GET       9.800        50.03
GET       9.900        50.14
GET      10.000        50.81
GET      11.000        53.23
GET      12.000        62.02
GET      13.000        83.85
GET      14.000        95.89
GET      15.000        98.36
GET      16.000        99.62
GET      17.000        99.76
GET      18.000        99.85
GET      19.000        99.88
GET      20.000        99.90
GET      21.000        99.91
GET      22.000        99.92
GET      24.000        99.93
GET      26.000        99.93
GET      27.000        99.93
GET      28.000        99.96
GET      29.000        99.98
GET      34.000        99.98
GET      38.000        99.98
GET      41.000        99.99
GET      42.000        99.99
GET     230.000       100.00
GET     240.000       100.00
GET     250.000       100.00
---
