1         Threads
32        Connections per thread
70        Seconds


ALL STATS
========================================================================
Type        Ops/sec     Hits/sec   Misses/sec      Latency       KB/sec 
------------------------------------------------------------------------
Sets           0.00          ---          ---      0.00000         0.00 
Gets        1517.13      1517.13         0.00     21.08100      6145.22 
Waits          0.00          ---          ---      0.00000          --- 
Totals      1517.13      1517.13         0.00     21.08100      6145.22 


Request Latency Distribution
Type     <= msec         Percent
------------------------------------------------------------------------
---
GET       7.500         0.00
GET       7.600         0.00
GET       7.700         0.00
GET       7.900         0.00
GET       8.000         0.01
GET       8.100         0.01
GET       8.200         0.01
GET       8.300         0.01
GET       8.400         0.02
GET       8.500         0.02
GET       8.600         0.02
GET       8.700         0.03
GET       8.800         0.03
GET       8.900         0.04
GET       9.000         0.05
GET       9.100         0.06
GET       9.200         0.06
GET       9.300         0.07
GET       9.400         0.08
GET       9.500         0.09
GET       9.600         0.10
GET       9.700         0.11
GET       9.800         0.12
GET       9.900         0.14
GET      10.000         0.22
GET      11.000         0.49
GET      12.000         0.79
GET      13.000         1.17
GET      14.000         1.75
GET      15.000         2.81
GET      16.000         5.42
GET      17.000        13.73
GET      18.000        32.86
GET      19.000        48.49
GET      20.000        57.18
GET      21.000        62.35
GET      22.000        66.30
GET      23.000        70.28
GET      24.000        75.26
GET      25.000        82.13
GET      26.000        89.62
GET      27.000        95.00
GET      28.000        97.49
GET      29.000        98.42
GET      30.000        98.90
GET      31.000        99.19
GET      32.000        99.44
GET      33.000        99.57
GET      34.000        99.65
GET      35.000        99.71
GET      36.000        99.75
GET      37.000        99.79
GET      38.000        99.83
GET      39.000        99.85
GET      40.000        99.87
GET      41.000        99.89
GET      42.000        99.91
GET      43.000        99.93
GET      44.000        99.95
GET      45.000        99.95
GET      46.000        99.95
GET      47.000        99.96
GET      48.000        99.96
GET      49.000        99.97
GET      51.000        99.97
GET      52.000        99.97
GET      55.000        99.97
GET     210.000        99.98
GET     220.000       100.00
---
