2         Threads
1         Connections per thread
70        Seconds


ALL STATS
========================================================================
Type        Ops/sec     Hits/sec   Misses/sec      Latency       KB/sec 
------------------------------------------------------------------------
Sets           0.00          ---          ---      0.00000         0.00 
Gets         972.12       972.12         0.00      2.04700      3937.64 
Waits          0.00          ---          ---      0.00000          --- 
Totals       972.12       972.12         0.00      2.04700      3937.64 


Request Latency Distribution
Type     <= msec         Percent
------------------------------------------------------------------------
---
GET       0.790         0.00
GET       0.800         0.00
GET       0.810         0.01
GET       0.820         0.01
GET       0.830         0.03
GET       0.840         0.03
GET       0.850         0.04
GET       0.860         0.05
GET       0.870         0.07
GET       0.880         0.09
GET       0.890         0.12
GET       0.900         0.15
GET       0.910         0.20
GET       0.920         0.24
GET       0.930         0.29
GET       0.940         0.34
GET       0.950         0.42
GET       0.960         0.49
GET       0.970         0.58
GET       0.980         0.70
GET       0.990         0.80
GET       1.000         1.92
GET       1.100         5.71
GET       1.200        12.28
GET       1.300        21.05
GET       1.400        30.68
GET       1.500        40.06
GET       1.600        48.42
GET       1.700        55.65
GET       1.800        61.62
GET       1.900        66.47
GET       2.000        70.46
GET       2.100        73.81
GET       2.200        76.59
GET       2.300        78.95
GET       2.400        80.84
GET       2.500        82.53
GET       2.600        83.90
GET       2.700        85.17
GET       2.800        86.32
GET       2.900        87.30
GET       3.000        88.14
GET       3.100        88.93
GET       3.200        89.64
GET       3.300        90.24
GET       3.400        90.80
GET       3.500        91.34
GET       3.600        91.86
GET       3.700        92.30
GET       3.800        92.74
GET       3.900        93.15
GET       4.000        93.55
GET       4.100        93.92
GET       4.200        94.25
GET       4.300        94.54
GET       4.400        94.88
GET       4.500        95.19
GET       4.600        95.47
GET       4.700        95.73
GET       4.800        95.99
GET       4.900        96.27
GET       5.000        96.50
GET       5.100        96.72
GET       5.200        96.93
GET       5.300        97.13
GET       5.400        97.34
GET       5.500        97.52
GET       5.600        97.70
GET       5.700        97.87
GET       5.800        98.03
GET       5.900        98.19
GET       6.000        98.33
GET       6.100        98.47
GET       6.200        98.57
GET       6.300        98.68
GET       6.400        98.77
GET       6.500        98.86
GET       6.600        98.93
GET       6.700        99.01
GET       6.800        99.08
GET       6.900        99.16
GET       7.000        99.23
GET       7.100        99.30
GET       7.200        99.34
GET       7.300        99.39
GET       7.400        99.44
GET       7.500        99.48
GET       7.600        99.52
GET       7.700        99.55
GET       7.800        99.58
GET       7.900        99.60
GET       8.000        99.62
GET       8.100        99.64
GET       8.200        99.66
GET       8.300        99.68
GET       8.400        99.69
GET       8.500        99.71
GET       8.600        99.72
GET       8.700        99.74
GET       8.800        99.76
GET       8.900        99.78
GET       9.000        99.79
GET       9.100        99.81
GET       9.200        99.82
GET       9.300        99.83
GET       9.400        99.84
GET       9.500        99.85
GET       9.600        99.86
GET       9.700        99.88
GET       9.800        99.89
GET       9.900        99.90
GET      10.000        99.93
GET      11.000        99.96
GET      12.000        99.96
GET      13.000        99.97
GET      14.000        99.98
GET      15.000        99.98
GET      16.000        99.98
GET      18.000        99.99
GET      19.000        99.99
GET      20.000        99.99
GET      21.000        99.99
GET      24.000       100.00
GET     200.000       100.00
---
