2         Threads
42        Connections per thread
70        Seconds


ALL STATS
========================================================================
Type        Ops/sec     Hits/sec   Misses/sec      Latency       KB/sec 
------------------------------------------------------------------------
Sets           0.00          ---          ---      0.00000         0.00 
Gets         987.42       987.42         0.00     85.05800      3999.66 
Waits          0.00          ---          ---      0.00000          --- 
Totals       987.42       987.42         0.00     85.05800      3999.66 


Request Latency Distribution
Type     <= msec         Percent
------------------------------------------------------------------------
---
GET       2.000         0.00
GET       2.100         0.00
GET       2.200         0.00
GET       2.900         0.01
GET       3.000         0.01
GET       3.700         0.01
GET       3.800         0.01
GET       3.900         0.01
GET       4.000         0.02
GET       4.100         0.03
GET       4.200         0.03
GET       5.400         0.03
GET       5.500         0.03
GET       5.600         0.03
GET       5.900         0.04
GET       6.000         0.04
GET       6.100         0.05
GET       6.200         0.05
GET       6.300         0.05
GET       6.400         0.05
GET       6.500         0.05
GET       6.600         0.05
GET       6.700         0.06
GET       6.800         0.06
GET       7.300         0.06
GET       7.400         0.06
GET       7.500         0.07
GET       7.600         0.07
GET       7.700         0.07
GET       7.900         0.08
GET       8.000         0.09
GET       8.100         0.09
GET       8.200         0.10
GET       8.400         0.10
GET       8.600         0.11
GET       8.700         0.11
GET       8.800         0.11
GET       8.900         0.12
GET       9.300         0.12
GET       9.400         0.12
GET       9.500         0.13
GET       9.600         0.13
GET       9.700         0.13
GET       9.800         0.14
GET       9.900         0.14
GET      10.000         0.17
GET      11.000         0.20
GET      12.000         0.25
GET      13.000         0.26
GET      14.000         0.29
GET      15.000         0.46
GET      16.000         0.61
GET      17.000         0.63
GET      18.000         0.65
GET      19.000         0.67
GET      20.000         0.68
GET      21.000         0.68
GET      22.000         0.70
GET      23.000         0.71
GET      24.000         0.74
GET      25.000         0.76
GET      26.000         0.78
GET      27.000         0.80
GET      28.000         0.80
GET      29.000         0.82
GET      30.000         0.85
GET      31.000         0.98
GET      32.000         1.07
GET      33.000         1.08
GET      34.000         1.10
GET      35.000         1.12
GET      36.000         1.15
GET      37.000         1.15
GET      38.000         1.17
GET      39.000         1.19
GET      40.000         1.22
GET      41.000         1.26
GET      42.000         1.30
GET      43.000         1.31
GET      44.000         1.32
GET      45.000         1.36
GET      46.000         1.57
GET      47.000         1.92
GET      48.000         2.09
GET      49.000         2.12
GET      50.000         2.14
GET      51.000         2.19
GET      52.000         2.22
GET      53.000         2.26
GET      54.000         2.30
GET      55.000         2.32
GET      56.000         2.37
GET      57.000         2.39
GET      58.000         2.41
GET      59.000         2.44
GET      60.000         2.51
GET      61.000         2.64
GET      62.000         3.44
GET      63.000         4.48
GET      64.000         4.76
GET      65.000         4.90
GET      66.000         4.97
GET      67.000         5.01
GET      68.000         5.05
GET      69.000         5.12
GET      70.000         5.16
GET      71.000         5.20
GET      72.000         5.28
GET      73.000         5.39
GET      74.000         5.62
GET      75.000         5.94
GET      76.000         6.70
GET      77.000        13.34
GET      78.000        50.90
GET      79.000        68.38
GET      80.000        70.67
GET      81.000        71.43
GET      82.000        71.82
GET      83.000        72.04
GET      84.000        72.20
GET      85.000        72.28
GET      86.000        72.31
GET      87.000        72.37
GET      88.000        72.48
GET      89.000        72.69
GET      90.000        73.02
GET      91.000        73.60
GET      92.000        75.42
GET      93.000        82.47
GET      94.000        89.19
GET      95.000        90.44
GET      96.000        90.69
GET      97.000        90.82
GET      98.000        90.92
GET      99.000        90.97
GET     100.000        91.09
GET     110.000        95.77
GET     120.000        97.16
GET     130.000        97.72
GET     140.000        98.53
GET     150.000        98.59
GET     160.000        98.97
GET     170.000        99.15
GET     180.000        99.16
GET     190.000        99.27
GET     200.000        99.37
GET     210.000        99.38
GET     220.000        99.45
GET     230.000        99.46
GET     240.000        99.46
GET     250.000        99.48
GET     270.000        99.51
GET     280.000        99.54
GET     290.000        99.57
GET     300.000        99.59
GET     310.000        99.61
GET     320.000        99.64
GET     330.000        99.69
GET     340.000        99.70
GET     350.000        99.70
GET     360.000        99.72
GET     370.000        99.74
GET     380.000        99.75
GET     390.000        99.75
GET     400.000        99.75
GET     410.000        99.77
GET     420.000        99.81
GET     430.000        99.83
GET     440.000        99.86
GET     450.000        99.89
GET     460.000        99.90
GET     470.000        99.90
GET     480.000        99.91
GET     490.000        99.92
GET     500.000        99.92
GET     510.000        99.92
GET     530.000        99.92
GET     540.000        99.93
GET     550.000        99.94
GET     560.000        99.95
GET     570.000        99.97
GET     580.000        99.98
GET     590.000        99.98
GET     600.000        99.99
GET     620.000        99.99
GET     670.000        99.99
GET     700.000        99.99
GET     730.000       100.00
---
