2         Threads
22        Connections per thread
70        Seconds


ALL STATS
========================================================================
Type        Ops/sec     Hits/sec   Misses/sec      Latency       KB/sec 
------------------------------------------------------------------------
Sets           0.00          ---          ---      0.00000         0.00 
Gets         974.75       974.75         0.00     44.49500      3948.28 
Waits          0.00          ---          ---      0.00000          --- 
Totals       974.75       974.75         0.00     44.49500      3948.28 


Request Latency Distribution
Type     <= msec         Percent
------------------------------------------------------------------------
---
GET       1.800         0.00
GET       2.400         0.00
GET       2.500         0.01
GET       3.500         0.01
GET       3.600         0.01
GET       3.800         0.01
GET       4.100         0.02
GET       4.200         0.02
GET       4.400         0.02
GET       4.500         0.02
GET       4.600         0.02
GET       4.700         0.03
GET       4.800         0.03
GET       4.900         0.03
GET       5.000         0.04
GET       5.200         0.04
GET       5.300         0.04
GET       5.700         0.04
GET       5.800         0.04
GET       5.900         0.05
GET      11.000         0.05
GET      12.000         0.06
GET      13.000         0.07
GET      14.000         0.09
GET      15.000         0.28
GET      16.000         0.56
GET      17.000         0.70
GET      18.000         0.76
GET      19.000         0.80
GET      20.000         0.83
GET      21.000         0.86
GET      22.000         0.88
GET      23.000         0.90
GET      24.000         0.91
GET      25.000         0.92
GET      26.000         0.94
GET      27.000         0.97
GET      28.000         1.00
GET      29.000         1.08
GET      30.000         1.33
GET      31.000         2.17
GET      32.000         8.11
GET      33.000        17.86
GET      34.000        20.32
GET      35.000        21.03
GET      36.000        21.33
GET      37.000        21.52
GET      38.000        21.68
GET      39.000        21.83
GET      40.000        22.00
GET      41.000        22.21
GET      42.000        22.51
GET      43.000        23.09
GET      44.000        24.67
GET      45.000        31.37
GET      46.000        53.75
GET      47.000        87.27
GET      48.000        92.62
GET      49.000        93.67
GET      50.000        94.12
GET      51.000        94.45
GET      52.000        94.61
GET      53.000        94.71
GET      54.000        94.81
GET      55.000        94.87
GET      56.000        94.95
GET      57.000        95.06
GET      58.000        95.18
GET      59.000        95.54
GET      60.000        96.60
GET      61.000        98.79
GET      62.000        99.49
GET      63.000        99.63
GET      64.000        99.67
GET      65.000        99.68
GET      66.000        99.69
GET      67.000        99.70
GET      68.000        99.71
GET      69.000        99.71
GET      70.000        99.72
GET      71.000        99.72
GET      73.000        99.72
GET      74.000        99.72
GET      75.000        99.72
GET      76.000        99.73
GET      77.000        99.74
GET      78.000        99.76
GET      79.000        99.76
GET      80.000        99.76
GET      84.000        99.77
GET      85.000        99.77
GET      88.000        99.77
GET      91.000        99.78
GET      92.000        99.79
GET      93.000        99.79
GET      94.000        99.81
GET      95.000        99.81
GET      96.000        99.82
GET     100.000        99.83
GET     110.000        99.84
GET     120.000        99.85
GET     130.000        99.85
GET     140.000        99.85
GET     150.000        99.86
GET     160.000        99.86
GET     170.000        99.86
GET     220.000        99.88
GET     230.000        99.92
GET     240.000        99.92
GET     250.000        99.94
GET     260.000        99.95
GET     280.000        99.95
GET     290.000        99.96
GET     300.000        99.96
GET     320.000        99.97
GET     330.000        99.98
GET     340.000        99.98
GET     350.000        99.98
GET     360.000        99.98
GET     400.000        99.99
GET     420.000        99.99
GET     620.000       100.00
---
