1         Threads
22        Connections per thread
70        Seconds


ALL STATS
========================================================================
Type        Ops/sec     Hits/sec   Misses/sec      Latency       KB/sec 
------------------------------------------------------------------------
Sets           0.00          ---          ---      0.00000         0.00 
Gets         478.72       478.72         0.00     45.94500      1939.10 
Waits          0.00          ---          ---      0.00000          --- 
Totals       478.72       478.72         0.00     45.94500      1939.10 


Request Latency Distribution
Type     <= msec         Percent
------------------------------------------------------------------------
---
GET      18.000         0.02
GET      19.000         0.03
GET      20.000         0.04
GET      21.000         0.05
GET      22.000         0.08
GET      23.000         0.10
GET      24.000         0.11
GET      25.000         0.12
GET      26.000         0.13
GET      27.000         0.16
GET      28.000         0.18
GET      29.000         0.19
GET      30.000         0.30
GET      31.000         0.60
GET      32.000         0.77
GET      33.000         1.97
GET      34.000         6.20
GET      35.000         7.63
GET      36.000         8.11
GET      37.000         8.30
GET      38.000         8.46
GET      39.000         8.57
GET      40.000         8.74
GET      41.000         9.03
GET      42.000         9.50
GET      43.000        10.38
GET      44.000        12.18
GET      45.000        18.86
GET      46.000        41.18
GET      47.000        85.47
GET      48.000        93.46
GET      49.000        95.68
GET      50.000        96.64
GET      51.000        97.19
GET      52.000        97.59
GET      53.000        97.79
GET      54.000        97.97
GET      55.000        98.07
GET      56.000        98.15
GET      57.000        98.24
GET      58.000        98.41
GET      59.000        98.82
GET      60.000        99.51
GET      61.000        99.70
GET      62.000        99.85
GET      63.000        99.90
GET      64.000        99.92
GET      65.000        99.93
GET      66.000        99.93
GET     230.000        99.96
GET     240.000        99.97
GET     250.000        99.99
GET     260.000       100.00
---
