1         Threads
2         Connections per thread
70        Seconds


ALL STATS
========================================================================
Type        Ops/sec     Hits/sec   Misses/sec      Latency       KB/sec 
------------------------------------------------------------------------
Sets           0.00          ---          ---      0.00000         0.00 
Gets         484.78       484.78         0.00      4.11400      1963.63 
Waits          0.00          ---          ---      0.00000          --- 
Totals       484.78       484.78         0.00      4.11400      1963.63 


Request Latency Distribution
Type     <= msec         Percent
------------------------------------------------------------------------
---
GET       0.900         0.00
GET       0.930         0.01
GET       0.940         0.01
GET       0.950         0.01
GET       0.960         0.01
GET       0.980         0.02
GET       1.000         0.06
GET       1.100         0.33
GET       1.200         1.18
GET       1.300         3.04
GET       1.400         6.23
GET       1.500        10.78
GET       1.600        16.43
GET       1.700        23.13
GET       1.800        29.77
GET       1.900        36.48
GET       2.000        42.20
GET       2.100        47.17
GET       2.200        51.12
GET       2.300        54.59
GET       2.400        57.32
GET       2.500        59.39
GET       2.600        60.96
GET       2.700        62.50
GET       2.800        63.70
GET       2.900        64.79
GET       3.000        65.73
GET       3.100        66.49
GET       3.200        67.06
GET       3.300        67.61
GET       3.400        68.14
GET       3.500        68.66
GET       3.600        69.10
GET       3.700        69.51
GET       3.800        69.87
GET       3.900        70.23
GET       4.000        70.49
GET       4.100        70.73
GET       4.200        70.99
GET       4.300        71.26
GET       4.400        71.44
GET       4.500        71.66
GET       4.600        71.83
GET       4.700        72.02
GET       4.800        72.18
GET       4.900        72.35
GET       5.000        72.48
GET       5.100        72.65
GET       5.200        72.81
GET       5.300        72.93
GET       5.400        73.06
GET       5.500        73.21
GET       5.600        73.32
GET       5.700        73.46
GET       5.800        73.60
GET       5.900        73.77
GET       6.000        73.89
GET       6.100        74.02
GET       6.200        74.16
GET       6.300        74.30
GET       6.400        74.41
GET       6.500        74.57
GET       6.600        74.72
GET       6.700        74.87
GET       6.800        75.02
GET       6.900        75.17
GET       7.000        75.36
GET       7.100        75.54
GET       7.200        75.72
GET       7.300        75.93
GET       7.400        76.16
GET       7.500        76.42
GET       7.600        76.69
GET       7.700        76.96
GET       7.800        77.26
GET       7.900        77.50
GET       8.000        77.81
GET       8.100        78.26
GET       8.200        78.57
GET       8.300        78.95
GET       8.400        79.36
GET       8.500        79.73
GET       8.600        80.25
GET       8.700        80.68
GET       8.800        81.25
GET       8.900        81.81
GET       9.000        82.40
GET       9.100        83.06
GET       9.200        83.77
GET       9.300        84.54
GET       9.400        85.32
GET       9.500        86.13
GET       9.600        87.03
GET       9.700        88.00
GET       9.800        88.86
GET       9.900        89.85
GET      10.000        94.63
GET      11.000        98.70
GET      12.000        99.53
GET      13.000        99.71
GET      14.000        99.83
GET      15.000        99.86
GET      16.000        99.88
GET      17.000        99.89
GET      18.000        99.89
GET      19.000        99.90
GET      20.000        99.91
GET      21.000        99.92
GET      22.000        99.92
GET      23.000        99.94
GET      24.000        99.96
GET      25.000        99.98
GET      26.000        99.99
GET      27.000        99.99
GET      98.000        99.99
GET     100.000       100.00
GET     210.000       100.00
---
