"Dstat 0.7.2 CSV output"
"Author:","Dag Wieers <dag@wieers.com>",,,,"URL:","http://dag.wieers.com/home-made/dstat/"
"Host:","Server1",,,,"User:","maki"
"Cmdline:","dstat --output server_8_set_4_42.csv 1 70",,,,"Date:","25 Nov 2018 01:07:41 UTC"

"total cpu usage",,,,,,"dsk/total",,"net/total",,"paging",,"system",
"usr","sys","idl","wai","hiq","siq","read","writ","recv","send","in","out","int","csw"
3.322,5.568,88.617,1.837,0.0,0.656,44780.032,254334.959,0.0,0.0,0.0,0.0,18.882,1587.577
6.667,11.111,81.111,0.0,0.0,1.111,0.0,0.0,25112375.0,814128.0,0.0,0.0,18.0,4705.0
4.651,13.953,80.233,0.0,0.0,1.163,0.0,0.0,27437895.0,889314.0,0.0,0.0,19.0,5055.0
6.742,14.607,77.528,0.0,0.0,1.124,0.0,0.0,30481291.0,986474.0,0.0,0.0,18.0,3876.0
10.0,15.556,71.111,0.0,0.0,3.333,0.0,0.0,31534275.0,1024536.0,0.0,0.0,18.0,3776.0
4.762,22.619,71.429,0.0,0.0,1.190,0.0,0.0,31825314.0,1029940.0,0.0,0.0,18.0,3814.0
7.792,16.883,71.429,1.299,0.0,2.597,0.0,36864.0,32694537.0,1058088.0,0.0,0.0,18.0,3852.0
10.989,18.681,68.132,0.0,0.0,2.198,0.0,0.0,32790639.0,1064576.0,0.0,0.0,19.0,3789.0
5.747,11.494,82.759,0.0,0.0,0.0,0.0,0.0,30988663.0,1004180.0,0.0,0.0,18.0,3956.0
7.292,20.833,67.708,0.0,0.0,4.167,0.0,0.0,33999704.0,1101348.0,0.0,0.0,18.0,4412.0
8.046,12.644,78.161,0.0,0.0,1.149,0.0,0.0,31743947.0,1030976.0,0.0,0.0,18.0,3922.0
7.778,13.333,77.778,0.0,0.0,1.111,0.0,0.0,32685391.0,1058854.0,0.0,0.0,18.0,4289.0
7.955,12.500,78.409,0.0,0.0,1.136,0.0,0.0,30839795.0,998094.0,0.0,0.0,19.0,3788.0
10.112,12.360,76.404,0.0,0.0,1.124,0.0,0.0,31990170.0,1041056.0,0.0,0.0,18.0,3969.0
7.059,12.941,77.647,0.0,0.0,2.353,0.0,0.0,32099705.0,1039394.0,0.0,0.0,18.0,3973.0
4.494,15.730,77.528,0.0,0.0,2.247,0.0,0.0,32464767.0,1050594.0,0.0,0.0,18.0,4237.0
9.639,16.867,69.880,0.0,0.0,3.614,0.0,0.0,33715606.0,1095096.0,0.0,0.0,18.0,3928.0
3.614,19.277,74.699,0.0,0.0,2.410,0.0,0.0,31153196.0,1008314.0,0.0,0.0,19.0,3833.0
6.250,8.750,82.500,0.0,0.0,2.500,0.0,0.0,31470938.0,1020914.0,0.0,0.0,18.0,3682.0
9.412,17.647,68.235,0.0,0.0,4.706,0.0,0.0,32985235.0,1070876.0,0.0,0.0,18.0,4229.0
7.317,18.293,73.171,0.0,0.0,1.220,0.0,0.0,30844042.0,998860.0,0.0,0.0,18.0,3976.0
11.538,24.359,61.538,0.0,0.0,2.564,0.0,0.0,31851184.0,1029808.0,0.0,0.0,19.0,4095.0
10.714,28.571,55.952,0.0,0.0,4.762,0.0,0.0,30683198.0,997820.0,0.0,0.0,18.0,3824.0
7.059,21.176,68.235,0.0,0.0,3.529,0.0,0.0,29573058.0,958754.0,0.0,0.0,18.0,3651.0
7.895,21.053,68.421,0.0,0.0,2.632,0.0,0.0,31366891.0,1016014.0,0.0,0.0,18.0,4031.0
7.317,20.732,67.073,0.0,0.0,4.878,0.0,0.0,32033388.0,1040216.0,0.0,0.0,18.0,4067.0
4.444,16.667,76.667,0.0,0.0,2.222,0.0,0.0,31562275.0,1020074.0,0.0,0.0,19.0,3883.0
11.765,17.647,68.235,0.0,0.0,2.353,0.0,0.0,32261823.0,1045834.0,0.0,0.0,18.0,3905.0
8.046,16.092,74.713,0.0,0.0,1.149,0.0,0.0,33245534.0,1079696.0,0.0,0.0,18.0,3893.0
8.235,17.647,72.941,0.0,0.0,1.176,0.0,0.0,33608734.0,1088394.0,0.0,0.0,18.0,4052.0
5.952,16.667,76.190,0.0,0.0,1.190,0.0,8192.0,32296378.0,1045274.0,0.0,0.0,18.0,4220.0
7.865,25.843,64.045,0.0,0.0,2.247,0.0,0.0,31839145.0,1033982.0,0.0,0.0,19.0,4126.0
7.407,16.049,74.074,0.0,0.0,2.469,0.0,0.0,32459706.0,1051260.0,0.0,0.0,18.0,3974.0
7.317,14.634,76.829,0.0,0.0,1.220,0.0,0.0,31413803.0,1019448.0,0.0,0.0,18.0,3777.0
9.091,17.045,70.455,0.0,0.0,3.409,0.0,0.0,32150719.0,1043728.0,0.0,0.0,18.0,4009.0
8.889,14.444,75.556,0.0,0.0,1.111,0.0,4096.0,31286569.0,1012654.0,0.0,0.0,18.0,3711.0
7.229,21.687,68.675,0.0,0.0,2.410,0.0,0.0,32482341.0,1052974.0,0.0,0.0,19.0,4132.0
11.765,21.176,62.353,1.176,0.0,3.529,0.0,20480.0,32643347.0,1060796.0,0.0,0.0,18.0,4067.0
5.618,16.854,74.157,0.0,0.0,3.371,0.0,0.0,29773569.0,962674.0,0.0,0.0,18.0,3744.0
10.843,20.482,66.265,0.0,0.0,2.410,0.0,0.0,31275502.0,1017881.0,0.0,0.0,23.0,3852.0
11.905,16.667,69.048,0.0,0.0,2.381,0.0,0.0,32755674.0,1064716.0,0.0,0.0,18.0,4093.0
4.706,12.941,80.0,0.0,0.0,2.353,0.0,12288.0,29907848.0,966454.0,0.0,0.0,19.0,3972.0
6.667,23.333,67.778,0.0,0.0,2.222,0.0,0.0,33286263.0,1079714.0,0.0,0.0,18.0,4334.0
9.639,10.843,75.904,0.0,0.0,3.614,0.0,0.0,32115679.0,1043156.0,0.0,0.0,18.0,4064.0
8.140,15.116,75.581,0.0,0.0,1.163,0.0,0.0,31924886.0,1033514.0,0.0,0.0,18.0,3927.0
5.556,17.778,72.222,0.0,0.0,4.444,0.0,0.0,31976674.0,1036734.0,0.0,0.0,19.0,4169.0
11.392,20.253,65.823,0.0,0.0,2.532,0.0,0.0,30646096.0,994082.0,0.0,0.0,18.0,3984.0
8.140,20.930,68.605,0.0,0.0,2.326,0.0,0.0,32309157.0,1047728.0,0.0,0.0,18.0,3993.0
7.059,18.824,72.941,0.0,0.0,1.176,0.0,0.0,33579800.0,1085454.0,0.0,0.0,18.0,4081.0
11.905,17.857,69.048,0.0,0.0,1.190,0.0,0.0,33490940.0,1088162.0,0.0,0.0,18.0,4161.0
10.465,18.605,68.605,0.0,0.0,2.326,0.0,0.0,30858808.0,998794.0,0.0,0.0,19.0,3998.0
9.302,18.605,69.767,0.0,0.0,2.326,0.0,0.0,32676725.0,1060608.0,0.0,0.0,18.0,3970.0
8.861,15.190,73.418,0.0,0.0,2.532,0.0,0.0,32613223.0,1057996.0,0.0,0.0,18.0,3791.0
6.977,13.953,76.744,0.0,0.0,2.326,0.0,0.0,31825335.0,1031834.0,0.0,0.0,18.0,3852.0
4.651,20.930,72.093,0.0,0.0,2.326,0.0,0.0,32940285.0,1065854.0,0.0,0.0,18.0,3947.0
9.302,17.442,68.605,0.0,0.0,4.651,0.0,0.0,32980223.0,1069756.0,0.0,0.0,19.0,3937.0
7.229,18.072,72.289,0.0,0.0,2.410,0.0,0.0,33511310.0,1087554.0,0.0,0.0,18.0,3902.0
7.317,18.293,73.171,0.0,0.0,1.220,0.0,0.0,32227023.0,1042894.0,0.0,0.0,18.0,3867.0
6.742,21.348,65.169,0.0,0.0,6.742,0.0,0.0,31878142.0,1034476.0,0.0,0.0,18.0,3897.0
4.706,16.471,75.294,0.0,0.0,3.529,0.0,0.0,33264796.0,1078792.0,0.0,0.0,18.0,4311.0
8.642,13.580,75.309,0.0,0.0,2.469,0.0,0.0,33057605.0,1070120.0,0.0,0.0,19.0,4167.0
7.229,15.663,74.699,0.0,0.0,2.410,0.0,0.0,33196969.0,1077036.0,0.0,0.0,18.0,3866.0
11.111,13.580,72.840,0.0,0.0,2.469,0.0,0.0,31252344.0,1012028.0,0.0,0.0,18.0,3858.0
7.317,18.293,73.171,0.0,0.0,1.220,0.0,0.0,32248551.0,1045694.0,0.0,0.0,18.0,3867.0
5.682,20.455,70.455,0.0,0.0,3.409,0.0,0.0,31204000.0,1012216.0,0.0,0.0,18.0,3920.0
6.024,19.277,72.289,0.0,0.0,2.410,0.0,0.0,32006757.0,1038974.0,0.0,0.0,19.0,3682.0
9.195,14.943,72.414,0.0,0.0,3.448,0.0,8192.0,32186358.0,1041634.0,0.0,0.0,18.0,3879.0
11.364,19.318,65.909,2.273,0.0,1.136,0.0,45056.0,32020839.0,1038396.0,0.0,0.0,18.0,3931.0
6.897,19.540,71.264,0.0,0.0,2.299,0.0,0.0,33243102.0,1076774.0,0.0,0.0,18.0,4034.0
9.302,18.605,72.093,0.0,0.0,0.0,0.0,0.0,32307276.0,1046394.0,0.0,0.0,18.0,3859.0
7.955,14.773,77.273,0.0,0.0,0.0,0.0,0.0,27958390.0,910436.0,0.0,0.0,19.0,3440.0
