"Dstat 0.7.2 CSV output"
"Author:","Dag Wieers <dag@wieers.com>",,,,"URL:","http://dag.wieers.com/home-made/dstat/"
"Host:","Server1",,,,"User:","maki"
"Cmdline:","dstat --output server_32_set_3_1.csv 1 70",,,,"Date:","25 Nov 2018 02:47:17 UTC"

"total cpu usage",,,,,,"dsk/total",,"net/total",,"paging",,"system",
"usr","sys","idl","wai","hiq","siq","read","writ","recv","send","in","out","int","csw"
4.438,8.469,84.854,0.955,0.0,1.284,21926.848,125526.733,0.0,0.0,0.0,0.0,18.575,1781.309
2.105,5.263,91.579,0.0,0.0,1.053,0.0,0.0,8142982.0,262882.0,0.0,0.0,19.0,2908.0
2.105,4.211,92.632,0.0,0.0,1.053,0.0,0.0,8153795.0,265176.0,0.0,0.0,18.0,2920.0
2.041,7.143,89.796,0.0,0.0,1.020,0.0,0.0,9033292.0,291794.0,0.0,0.0,18.0,3128.0
2.062,7.216,88.660,0.0,0.0,2.062,0.0,0.0,10707617.0,345834.0,0.0,0.0,18.0,3613.0
2.151,4.301,90.323,0.0,0.0,3.226,0.0,0.0,11068127.0,360936.0,0.0,0.0,18.0,3496.0
4.301,3.226,90.323,0.0,0.0,2.151,0.0,0.0,9535000.0,307754.0,0.0,0.0,19.0,3249.0
1.042,9.375,88.542,0.0,0.0,1.042,0.0,0.0,10824339.0,350174.0,0.0,0.0,18.0,3509.0
2.128,7.447,88.298,0.0,0.0,2.128,0.0,0.0,11033188.0,360096.0,0.0,0.0,18.0,3549.0
3.191,5.319,89.362,0.0,0.0,2.128,0.0,0.0,11669344.0,377474.0,0.0,0.0,18.0,3637.0
4.082,7.143,86.735,0.0,0.0,2.041,0.0,0.0,10950709.0,353674.0,0.0,0.0,18.0,3585.0
4.211,8.421,84.211,0.0,0.0,3.158,0.0,16384.0,11258618.0,366456.0,0.0,0.0,18.0,3732.0
2.105,7.368,87.368,0.0,0.0,3.158,0.0,0.0,12226458.0,395954.0,0.0,0.0,19.0,3977.0
2.105,9.474,88.421,0.0,0.0,0.0,0.0,0.0,11068761.0,357314.0,0.0,0.0,18.0,3526.0
2.222,3.333,91.111,0.0,0.0,3.333,0.0,0.0,12113519.0,395236.0,0.0,0.0,18.0,3946.0
3.191,5.319,87.234,0.0,0.0,4.255,0.0,0.0,12366210.0,400154.0,0.0,0.0,18.0,4022.0
4.301,5.376,87.097,2.151,0.0,1.075,0.0,45056.0,11338652.0,367114.0,0.0,0.0,19.0,3762.0
6.122,5.102,82.653,0.0,0.0,6.122,0.0,0.0,11633454.0,379568.0,0.0,0.0,18.0,3910.0
4.396,6.593,85.714,0.0,0.0,3.297,0.0,0.0,11331301.0,370499.0,0.0,0.0,23.0,3726.0
2.151,7.527,88.172,0.0,0.0,2.151,0.0,0.0,12010330.0,388954.0,0.0,0.0,18.0,3927.0
6.250,6.250,84.375,0.0,0.0,3.125,0.0,0.0,12561331.0,408676.0,0.0,0.0,18.0,4080.0
4.211,8.421,85.263,0.0,0.0,2.105,0.0,0.0,12232987.0,396300.0,0.0,0.0,19.0,3916.0
3.191,6.383,87.234,0.0,0.0,3.191,0.0,0.0,12315862.0,398828.0,0.0,0.0,18.0,4061.0
3.158,5.263,87.368,0.0,0.0,4.211,0.0,0.0,11005620.0,358416.0,0.0,0.0,18.0,3669.0
2.062,9.278,85.567,0.0,0.0,3.093,0.0,0.0,11898689.0,384680.0,0.0,0.0,18.0,3942.0
2.128,6.383,88.298,0.0,0.0,3.191,0.0,0.0,12468205.0,403728.0,0.0,0.0,18.0,4215.0
5.208,6.250,85.417,0.0,0.0,3.125,0.0,0.0,10730441.0,349736.0,0.0,0.0,19.0,3580.0
3.191,3.191,89.362,0.0,0.0,4.255,0.0,0.0,11743576.0,379994.0,0.0,0.0,18.0,3908.0
1.075,6.452,90.323,0.0,0.0,2.151,0.0,0.0,11105187.0,358714.0,0.0,0.0,18.0,3571.0
3.125,6.250,86.458,0.0,0.0,4.167,0.0,0.0,11131051.0,362830.0,0.0,0.0,18.0,3776.0
3.261,5.435,89.130,0.0,0.0,2.174,0.0,0.0,11844558.0,383280.0,0.0,0.0,19.0,3993.0
5.208,8.333,83.333,0.0,0.0,3.125,0.0,0.0,11770841.0,381254.0,0.0,0.0,18.0,4044.0
1.053,8.421,89.474,0.0,0.0,1.053,0.0,12288.0,11319162.0,365294.0,0.0,0.0,18.0,3786.0
4.211,6.316,85.263,0.0,0.0,4.211,0.0,0.0,12088740.0,394536.0,0.0,0.0,18.0,4000.0
3.191,5.319,88.298,0.0,0.0,3.191,0.0,0.0,12799208.0,414294.0,0.0,0.0,18.0,4704.0
3.093,7.216,86.598,0.0,0.0,3.093,0.0,0.0,12501758.0,404634.0,0.0,0.0,19.0,4346.0
6.452,4.301,87.097,0.0,0.0,2.151,0.0,0.0,11852018.0,385576.0,0.0,0.0,18.0,3971.0
2.041,10.204,85.714,0.0,0.0,2.041,0.0,0.0,12155002.0,393714.0,0.0,0.0,18.0,4164.0
3.158,4.211,89.474,0.0,0.0,3.158,0.0,0.0,10953572.0,354234.0,0.0,0.0,18.0,3612.0
4.082,8.163,85.714,0.0,0.0,2.041,0.0,0.0,11387260.0,371296.0,0.0,0.0,18.0,3960.0
3.261,5.435,90.217,0.0,0.0,1.087,0.0,0.0,12215475.0,395114.0,0.0,0.0,18.0,4104.0
4.040,7.071,85.859,0.0,0.0,3.030,0.0,0.0,10698050.0,345554.0,0.0,0.0,19.0,3600.0
3.333,4.444,91.111,0.0,0.0,1.111,0.0,0.0,11560814.0,377176.0,0.0,0.0,18.0,3742.0
2.174,4.348,92.391,0.0,0.0,1.087,0.0,0.0,10893848.0,352134.0,0.0,0.0,18.0,3644.0
4.211,4.211,88.421,0.0,0.0,3.158,0.0,0.0,11347124.0,366974.0,0.0,0.0,18.0,3771.0
2.174,6.522,88.043,0.0,0.0,3.261,0.0,0.0,11843280.0,385996.0,0.0,0.0,19.0,4122.0
3.261,6.522,85.870,2.174,0.0,2.174,0.0,45056.0,11618820.0,376074.0,0.0,0.0,18.0,4028.0
2.174,3.261,90.217,0.0,0.0,4.348,0.0,49152.0,11282411.0,364594.0,0.0,0.0,18.0,3979.0
4.082,8.163,83.673,0.0,0.0,4.082,0.0,0.0,11385380.0,370736.0,0.0,0.0,18.0,3928.0
4.124,6.186,86.598,0.0,0.0,3.093,0.0,0.0,12095050.0,391754.0,0.0,0.0,18.0,4039.0
1.075,4.301,91.398,0.0,0.0,3.226,0.0,0.0,10725745.0,346814.0,0.0,0.0,19.0,3284.0
4.396,5.495,87.912,0.0,0.0,2.198,0.0,0.0,11580366.0,377036.0,0.0,0.0,18.0,3809.0
5.263,5.263,87.368,0.0,0.0,2.105,0.0,4096.0,11448799.0,370334.0,0.0,0.0,18.0,3730.0
2.083,4.167,88.542,0.0,0.0,5.208,0.0,0.0,10684925.0,345554.0,0.0,0.0,18.0,3460.0
4.301,5.376,87.097,0.0,0.0,3.226,0.0,0.0,11620766.0,378576.0,0.0,0.0,18.0,3751.0
3.226,7.527,89.247,0.0,0.0,0.0,0.0,0.0,12414612.0,401134.0,0.0,0.0,19.0,4181.0
3.226,5.376,88.172,0.0,0.0,3.226,0.0,0.0,10762215.0,348494.0,0.0,0.0,18.0,3651.0
4.301,5.376,88.172,0.0,0.0,2.151,0.0,0.0,12397485.0,403776.0,0.0,0.0,18.0,4199.0
3.226,5.376,89.247,0.0,0.0,2.151,0.0,0.0,11570068.0,374394.0,0.0,0.0,18.0,3868.0
2.128,4.255,89.362,0.0,0.0,4.255,0.0,0.0,11094342.0,358714.0,0.0,0.0,18.0,3619.0
4.211,6.316,86.316,0.0,0.0,3.158,0.0,0.0,11740192.0,382636.0,0.0,0.0,19.0,3821.0
5.263,7.368,85.263,0.0,0.0,2.105,0.0,0.0,11908640.0,385454.0,0.0,0.0,18.0,3991.0
6.122,6.122,85.714,0.0,0.0,2.041,0.0,0.0,11723862.0,379154.0,0.0,0.0,18.0,3910.0
4.255,6.383,88.298,0.0,0.0,1.064,0.0,0.0,11470128.0,373816.0,0.0,0.0,18.0,3712.0
2.128,4.255,89.362,0.0,0.0,4.255,0.0,0.0,11740075.0,379854.0,0.0,0.0,19.0,3933.0
0.0,3.333,95.556,0.0,0.0,1.111,0.0,0.0,10626689.0,343314.0,0.0,0.0,18.0,3363.0
5.208,5.208,87.500,0.0,0.0,2.083,0.0,0.0,11585233.0,377596.0,0.0,0.0,18.0,3811.0
2.151,8.602,88.172,0.0,0.0,1.075,0.0,8192.0,11984930.0,387414.0,0.0,0.0,18.0,3896.0
2.083,4.167,90.625,0.0,0.0,3.125,0.0,0.0,10500980.0,339954.0,0.0,0.0,18.0,3460.0
5.376,3.226,89.247,0.0,0.0,2.151,0.0,0.0,11819080.0,385156.0,0.0,0.0,19.0,3999.0
2.105,6.316,90.526,0.0,0.0,1.053,0.0,0.0,10214998.0,330434.0,0.0,0.0,18.0,3361.0
