"Dstat 0.7.2 CSV output"
"Author:","Dag Wieers <dag@wieers.com>",,,,"URL:","http://dag.wieers.com/home-made/dstat/"
"Host:","Server1",,,,"User:","maki"
"Cmdline:","dstat --output server_32_set_2_14.csv 1 70",,,,"Date:","25 Nov 2018 02:39:01 UTC"

"total cpu usage",,,,,,"dsk/total",,"net/total",,"paging",,"system",
"usr","sys","idl","wai","hiq","siq","read","writ","recv","send","in","out","int","csw"
4.313,8.117,85.393,0.992,0.0,1.184,22896.588,130995.385,0.0,0.0,0.0,0.0,18.587,1808.042
10.753,22.581,62.366,0.0,0.0,4.301,0.0,0.0,32589942.0,1058282.0,0.0,0.0,18.0,4265.0
10.256,26.923,56.410,0.0,0.0,6.410,0.0,0.0,37911748.0,1224614.0,0.0,0.0,18.0,3415.0
12.658,36.709,41.772,0.0,0.0,8.861,0.0,4096.0,45589258.0,1479834.0,0.0,0.0,19.0,2440.0
14.815,33.333,43.210,0.0,0.0,8.642,0.0,0.0,42303322.0,1371472.0,0.0,0.0,18.0,2050.0
15.190,36.709,41.772,0.0,0.0,6.329,0.0,0.0,42139730.0,1363280.0,0.0,0.0,18.0,2060.0
13.333,32.0,40.0,0.0,0.0,14.667,0.0,0.0,42960920.0,1390934.0,0.0,0.0,18.0,2168.0
15.068,36.986,35.616,0.0,0.0,12.329,0.0,0.0,46160767.0,1492070.0,0.0,0.0,19.0,2039.0
16.883,35.065,44.156,0.0,0.0,3.896,0.0,0.0,44473980.0,1443714.0,0.0,0.0,18.0,2404.0
7.895,39.474,40.789,0.0,0.0,11.842,0.0,0.0,45803872.0,1488298.0,0.0,0.0,18.0,2174.0
10.127,31.646,51.899,0.0,0.0,6.329,0.0,0.0,45292419.0,1462960.0,0.0,0.0,18.0,2503.0
14.286,35.065,44.156,0.0,0.0,6.494,0.0,0.0,44205541.0,1437396.0,0.0,0.0,18.0,2233.0
10.256,37.179,43.590,0.0,0.0,8.974,0.0,0.0,46579116.0,1504474.0,0.0,0.0,18.0,2208.0
13.953,38.372,34.884,0.0,0.0,12.791,0.0,0.0,46502882.0,1508188.0,0.0,0.0,19.0,2063.0
11.538,38.462,44.872,0.0,0.0,5.128,0.0,0.0,43192267.0,1402990.0,0.0,0.0,18.0,2006.0
11.538,33.333,48.718,0.0,0.0,6.410,0.0,0.0,47655698.0,1543254.0,0.0,0.0,18.0,2376.0
11.250,40.0,43.750,0.0,0.0,5.0,0.0,0.0,45377569.0,1470594.0,0.0,0.0,18.0,1955.0
9.639,31.325,50.602,0.0,0.0,8.434,0.0,0.0,42733949.0,1384056.0,0.0,0.0,19.0,2247.0
17.333,37.333,37.333,0.0,0.0,8.0,0.0,0.0,46099483.0,1490334.0,0.0,0.0,18.0,1886.0
12.987,40.260,37.662,0.0,0.0,9.091,0.0,0.0,46461046.0,1511422.0,0.0,0.0,18.0,1919.0
13.095,25.0,57.143,0.0,0.0,4.762,0.0,0.0,41779724.0,1354236.0,0.0,0.0,18.0,2324.0
15.190,37.975,37.975,0.0,0.0,8.861,0.0,0.0,45394601.0,1472274.0,0.0,0.0,18.0,1903.0
18.605,37.209,38.372,0.0,0.0,5.814,0.0,0.0,45842477.0,1485030.0,0.0,0.0,18.0,2129.0
17.073,29.268,45.122,0.0,0.0,8.537,0.0,0.0,44578581.0,1446142.0,0.0,0.0,19.0,2289.0
15.854,31.707,47.561,0.0,0.0,4.878,0.0,0.0,43826631.0,1419304.0,0.0,0.0,18.0,2085.0
9.639,33.735,50.602,0.0,0.0,6.024,0.0,0.0,44473799.0,1437488.0,0.0,0.0,18.0,2881.0
10.588,23.529,61.176,0.0,0.0,4.706,0.0,0.0,44066276.0,1435532.0,0.0,0.0,18.0,2573.0
10.256,34.615,42.308,0.0,0.0,12.821,0.0,0.0,45947314.0,1486834.0,0.0,0.0,19.0,2262.0
14.667,36.0,41.333,0.0,0.0,8.0,0.0,0.0,46358698.0,1499640.0,0.0,0.0,18.0,2070.0
14.634,34.146,40.244,0.0,0.0,10.976,0.0,0.0,44699894.0,1452030.0,0.0,0.0,18.0,2054.0
17.073,29.268,50.0,0.0,0.0,3.659,0.0,0.0,47050495.0,1518194.0,0.0,0.0,18.0,2205.0
16.456,31.646,45.570,1.266,0.0,5.063,0.0,40960.0,45582075.0,1483478.0,0.0,0.0,18.0,2184.0
14.286,36.364,42.857,0.0,0.0,6.494,0.0,0.0,46199975.0,1499630.0,0.0,0.0,19.0,2117.0
13.253,33.735,43.373,0.0,0.0,9.639,0.0,0.0,44141244.0,1431031.0,0.0,0.0,23.0,2346.0
15.0,35.0,42.500,0.0,0.0,7.500,0.0,20480.0,47014575.0,1519030.0,0.0,0.0,18.0,2271.0
14.458,31.325,48.193,0.0,0.0,6.024,0.0,0.0,44305960.0,1441976.0,0.0,0.0,18.0,2296.0
11.392,29.114,51.899,0.0,0.0,7.595,0.0,0.0,43798880.0,1413474.0,0.0,0.0,18.0,2138.0
13.514,36.486,43.243,0.0,0.0,6.757,0.0,0.0,46060452.0,1496280.0,0.0,0.0,19.0,1927.0
13.953,30.233,46.512,0.0,0.0,9.302,0.0,0.0,46109002.0,1490950.0,0.0,0.0,18.0,2241.0
13.415,34.146,46.341,0.0,0.0,6.098,0.0,0.0,44810789.0,1457574.0,0.0,0.0,18.0,2202.0
12.821,29.487,51.282,0.0,0.0,6.410,0.0,0.0,46009835.0,1490272.0,0.0,0.0,18.0,2523.0
12.500,27.500,53.750,0.0,0.0,6.250,0.0,0.0,44129181.0,1428856.0,0.0,0.0,18.0,2330.0
11.111,32.099,45.679,0.0,0.0,11.111,0.0,0.0,43650442.0,1413260.0,0.0,0.0,19.0,2010.0
15.190,30.380,46.835,0.0,0.0,7.595,0.0,0.0,46571890.0,1509934.0,0.0,0.0,18.0,2206.0
17.073,35.366,41.463,0.0,0.0,6.098,0.0,0.0,45676758.0,1480796.0,0.0,0.0,18.0,2086.0
12.329,39.726,42.466,0.0,0.0,5.479,0.0,0.0,43204186.0,1398848.0,0.0,0.0,18.0,1816.0
14.634,34.146,43.902,0.0,0.0,7.317,0.0,0.0,44231494.0,1429952.0,0.0,0.0,18.0,2276.0
16.456,36.709,40.506,0.0,0.0,6.329,0.0,0.0,45344986.0,1473828.0,0.0,0.0,18.0,2380.0
16.883,35.065,37.662,0.0,0.0,10.390,0.0,0.0,44149446.0,1431608.0,0.0,0.0,19.0,2097.0
17.333,42.667,30.667,0.0,0.0,9.333,0.0,0.0,45633827.0,1478232.0,0.0,0.0,18.0,2059.0
18.919,29.730,43.243,0.0,0.0,8.108,0.0,0.0,45049983.0,1460776.0,0.0,0.0,18.0,2219.0
11.268,36.620,45.070,0.0,0.0,7.042,0.0,0.0,44655583.0,1448614.0,0.0,0.0,18.0,2173.0
19.231,33.333,38.462,0.0,0.0,8.974,0.0,0.0,45909209.0,1485294.0,0.0,0.0,19.0,2149.0
24.0,29.333,37.333,0.0,0.0,9.333,0.0,0.0,45460783.0,1473796.0,0.0,0.0,18.0,1823.0
14.103,34.615,46.154,0.0,0.0,5.128,0.0,0.0,44296844.0,1429294.0,0.0,0.0,18.0,2046.0
15.789,32.895,46.053,0.0,0.0,5.263,0.0,0.0,47344354.0,1535974.0,0.0,0.0,18.0,2421.0
15.789,34.211,43.421,0.0,0.0,6.579,0.0,0.0,43788212.0,1416240.0,0.0,0.0,18.0,2107.0
16.049,35.802,37.037,0.0,0.0,11.111,0.0,0.0,43442158.0,1412052.0,0.0,0.0,19.0,2145.0
15.190,34.177,41.772,0.0,0.0,8.861,0.0,0.0,46571854.0,1510494.0,0.0,0.0,18.0,2465.0
17.284,35.802,39.506,0.0,0.0,7.407,0.0,0.0,45770747.0,1479134.0,0.0,0.0,18.0,1786.0
15.190,31.646,41.772,0.0,0.0,11.392,0.0,0.0,41561232.0,1351996.0,0.0,0.0,18.0,1890.0
21.333,33.333,38.667,0.0,0.0,6.667,0.0,0.0,44997007.0,1456594.0,0.0,0.0,19.0,1898.0
20.779,35.065,38.961,1.299,0.0,3.896,0.0,45056.0,47059145.0,1526034.0,0.0,0.0,17.0,2316.0
17.949,34.615,42.308,0.0,0.0,5.128,0.0,0.0,44116322.0,1426542.0,0.0,0.0,19.0,2282.0
12.987,28.571,51.948,0.0,0.0,6.494,0.0,0.0,43406237.0,1409768.0,0.0,0.0,18.0,2515.0
15.584,32.468,48.052,0.0,0.0,3.896,0.0,12288.0,43378582.0,1402700.0,0.0,0.0,18.0,2296.0
9.412,27.059,60.0,0.0,0.0,3.529,0.0,0.0,39322120.0,1276956.0,0.0,0.0,19.0,2330.0
12.821,28.205,53.846,0.0,0.0,5.128,0.0,0.0,45965327.0,1489288.0,0.0,0.0,18.0,2409.0
16.456,27.848,49.367,0.0,0.0,6.329,0.0,0.0,46730479.0,1516374.0,0.0,0.0,18.0,2306.0
15.789,38.158,38.158,0.0,0.0,7.895,0.0,0.0,44806347.0,1454080.0,0.0,0.0,18.0,1897.0
10.588,23.529,61.176,0.0,0.0,4.706,0.0,0.0,35624930.0,1153774.0,0.0,0.0,18.0,1931.0
