"Dstat 0.7.2 CSV output"
"Author:","Dag Wieers <dag@wieers.com>",,,,"URL:","http://dag.wieers.com/home-made/dstat/"
"Host:","Server1",,,,"User:","maki"
"Cmdline:","dstat --output server_32_set_4_4.csv 1 70",,,,"Date:","25 Nov 2018 03:07:22 UTC"

"total cpu usage",,,,,,"dsk/total",,"net/total",,"paging",,"system",
"usr","sys","idl","wai","hiq","siq","read","writ","recv","send","in","out","int","csw"
4.512,8.704,84.541,0.873,0.0,1.369,19905.314,113995.843,0.0,0.0,0.0,0.0,18.547,1792.537
4.211,11.579,82.105,0.0,0.0,2.105,0.0,0.0,19574001.0,633528.0,0.0,0.0,18.0,4227.0
3.297,12.088,82.418,0.0,0.0,2.198,0.0,0.0,21566102.0,698690.0,0.0,0.0,19.0,4559.0
2.247,22.472,73.034,0.0,0.0,2.247,0.0,0.0,29089468.0,945314.0,0.0,0.0,18.0,4740.0
3.409,15.909,77.273,0.0,0.0,3.409,0.0,0.0,29270463.0,947340.0,0.0,0.0,18.0,4314.0
5.952,16.667,76.190,0.0,0.0,1.190,0.0,0.0,30261602.0,982610.0,0.0,0.0,18.0,4492.0
7.865,13.483,77.528,0.0,0.0,1.124,0.0,0.0,29530084.0,957140.0,0.0,0.0,18.0,4549.0
5.682,18.182,71.591,0.0,0.0,4.545,0.0,0.0,29119491.0,941608.0,0.0,0.0,19.0,4037.0
7.407,14.815,75.309,0.0,0.0,2.469,0.0,0.0,28925958.0,940956.0,0.0,0.0,18.0,4345.0
5.747,22.989,70.115,0.0,0.0,1.149,0.0,0.0,30165482.0,977094.0,0.0,0.0,18.0,4336.0
7.059,16.471,74.118,0.0,0.0,2.353,0.0,0.0,30156988.0,976814.0,0.0,0.0,18.0,4371.0
6.818,18.182,71.591,0.0,0.0,3.409,0.0,0.0,28670795.0,931716.0,0.0,0.0,18.0,4003.0
9.524,16.667,70.238,0.0,0.0,3.571,0.0,0.0,29871665.0,967748.0,0.0,0.0,19.0,4232.0
6.818,14.773,73.864,2.273,0.0,2.273,0.0,32768.0,28923650.0,935538.0,0.0,0.0,18.0,4290.0
9.091,18.182,70.455,0.0,0.0,2.273,0.0,0.0,29419600.0,955656.0,0.0,0.0,18.0,4069.0
9.302,17.442,72.093,0.0,0.0,1.163,0.0,0.0,31427822.0,1018254.0,0.0,0.0,18.0,4365.0
7.955,15.909,73.864,0.0,0.0,2.273,0.0,0.0,29437013.0,954948.0,0.0,0.0,19.0,4063.0
9.091,21.591,65.909,0.0,0.0,3.409,0.0,0.0,29358936.0,955220.0,0.0,0.0,18.0,4058.0
6.818,17.045,73.864,0.0,0.0,2.273,0.0,0.0,28804074.0,931734.0,0.0,0.0,18.0,4514.0
5.882,18.824,74.118,0.0,0.0,1.176,0.0,0.0,29231499.0,946014.0,0.0,0.0,18.0,4403.0
11.364,15.909,69.318,0.0,0.0,3.409,0.0,0.0,28636233.0,932276.0,0.0,0.0,18.0,4076.0
8.046,13.793,75.862,0.0,0.0,2.299,0.0,0.0,29754893.0,963794.0,0.0,0.0,18.0,4132.0
8.046,16.092,73.563,0.0,0.0,2.299,0.0,0.0,30174118.0,975060.0,0.0,0.0,19.0,4188.0
8.235,17.647,70.588,0.0,0.0,3.529,0.0,0.0,28817762.0,938230.0,0.0,0.0,18.0,4078.0
5.882,16.471,76.471,0.0,0.0,1.176,0.0,0.0,30273611.0,980734.0,0.0,0.0,18.0,4414.0
7.317,15.854,73.171,0.0,0.0,3.659,0.0,0.0,30074837.0,973314.0,0.0,0.0,18.0,4044.0
9.756,12.195,74.390,0.0,0.0,3.659,0.0,0.0,29461678.0,957756.0,0.0,0.0,18.0,4040.0
6.593,12.088,78.022,0.0,0.0,3.297,0.0,0.0,30114260.0,974854.0,0.0,0.0,19.0,4403.0
5.319,15.957,75.532,0.0,0.0,3.191,0.0,0.0,29339964.0,950914.0,0.0,0.0,18.0,4631.0
11.494,11.494,74.713,0.0,0.0,2.299,0.0,0.0,30378713.0,986468.0,0.0,0.0,18.0,4475.0
7.865,12.360,76.404,0.0,0.0,3.371,0.0,12288.0,29964683.0,968274.0,0.0,0.0,18.0,4426.0
4.762,14.286,77.381,0.0,0.0,3.571,0.0,0.0,30493765.0,990394.0,0.0,0.0,19.0,4558.0
13.750,23.750,56.250,0.0,0.0,6.250,0.0,0.0,28774717.0,931782.0,0.0,0.0,18.0,4282.0
7.143,19.048,69.048,0.0,0.0,4.762,0.0,0.0,29577526.0,960928.0,0.0,0.0,18.0,4135.0
7.317,13.415,76.829,0.0,0.0,2.439,0.0,0.0,29876119.0,966100.0,0.0,0.0,18.0,4107.0
8.537,20.732,68.293,0.0,0.0,2.439,0.0,0.0,29051582.0,944316.0,0.0,0.0,18.0,3918.0
13.333,18.889,63.333,0.0,0.0,4.444,0.0,4096.0,30649954.0,991868.0,0.0,0.0,19.0,4279.0
6.410,16.667,70.513,0.0,0.0,6.410,0.0,0.0,29015628.0,941954.0,0.0,0.0,18.0,4369.0
9.412,18.824,69.412,0.0,0.0,2.353,0.0,0.0,29414483.0,954536.0,0.0,0.0,18.0,3970.0
9.195,14.943,73.563,0.0,0.0,2.299,0.0,0.0,29819677.0,966314.0,0.0,0.0,18.0,4350.0
6.250,18.750,73.750,0.0,0.0,1.250,0.0,0.0,29763242.0,964634.0,0.0,0.0,18.0,4651.0
9.756,13.415,74.390,0.0,0.0,2.439,0.0,0.0,29552822.0,956776.0,0.0,0.0,18.0,4626.0
12.644,13.793,71.264,0.0,0.0,2.299,0.0,0.0,28638269.0,929420.0,0.0,0.0,19.0,4538.0
10.127,21.519,65.823,0.0,0.0,2.532,0.0,0.0,28539925.0,922428.0,0.0,0.0,18.0,4488.0
11.494,13.793,64.368,6.897,0.0,3.448,0.0,32768.0,30198425.0,981624.0,0.0,0.0,18.0,4758.0
8.537,14.634,74.390,0.0,0.0,2.439,0.0,0.0,29792705.0,967226.0,0.0,0.0,18.0,4519.0
6.522,17.391,75.0,0.0,0.0,1.087,0.0,32768.0,30351475.0,981014.0,0.0,0.0,19.0,4574.0
3.704,19.753,75.309,0.0,0.0,1.235,0.0,0.0,29145900.0,945174.0,0.0,0.0,18.0,4423.0
11.628,15.116,70.930,0.0,0.0,2.326,0.0,0.0,27626259.0,897444.0,0.0,0.0,18.0,3955.0
4.598,14.943,78.161,0.0,0.0,2.299,0.0,0.0,28510886.0,923820.0,0.0,0.0,18.0,4019.0
5.682,9.091,82.955,0.0,0.0,2.273,0.0,0.0,23983276.0,777580.0,0.0,0.0,18.0,3998.0
3.371,10.112,85.393,0.0,0.0,1.124,0.0,0.0,21089171.0,685660.0,0.0,0.0,19.0,4068.0
5.319,12.766,79.787,0.0,0.0,2.128,0.0,0.0,23777665.0,771452.0,0.0,0.0,18.0,4742.0
9.890,12.088,74.725,0.0,0.0,3.297,0.0,0.0,24832548.0,803596.0,0.0,0.0,18.0,4060.0
5.882,12.941,78.824,0.0,0.0,2.353,0.0,0.0,28360728.0,922364.0,0.0,0.0,18.0,4458.0
6.977,17.442,72.093,0.0,0.0,3.488,0.0,0.0,30494013.0,986194.0,0.0,0.0,18.0,4416.0
5.618,12.360,78.652,0.0,0.0,3.371,0.0,0.0,28946871.0,939328.0,0.0,0.0,19.0,4237.0
8.235,17.647,71.765,0.0,0.0,2.353,0.0,0.0,27932357.0,907356.0,0.0,0.0,18.0,4252.0
11.364,17.045,68.182,0.0,0.0,3.409,0.0,0.0,29340399.0,949234.0,0.0,0.0,18.0,4277.0
8.046,13.793,77.011,0.0,0.0,1.149,0.0,0.0,28000116.0,906426.0,0.0,0.0,18.0,4379.0
9.890,16.484,71.429,0.0,0.0,2.198,0.0,0.0,30019526.0,973362.0,0.0,0.0,18.0,4330.0
6.897,11.494,78.161,0.0,0.0,3.448,0.0,0.0,29754853.0,964008.0,0.0,0.0,19.0,4617.0
4.545,15.909,78.409,0.0,0.0,1.136,0.0,0.0,28565926.0,926900.0,0.0,0.0,18.0,4310.0
11.765,22.353,63.529,0.0,0.0,2.353,0.0,0.0,30136674.0,979950.0,0.0,0.0,18.0,4364.0
8.434,18.072,73.494,0.0,0.0,0.0,0.0,0.0,30736598.0,993120.0,0.0,0.0,18.0,4227.0
5.556,16.667,76.667,0.0,0.0,1.111,0.0,0.0,28536345.0,925854.0,0.0,0.0,18.0,4166.0
9.890,19.780,68.132,0.0,0.0,2.198,0.0,0.0,29085905.0,945930.0,0.0,0.0,19.0,4046.0
7.865,15.730,73.034,0.0,0.0,3.371,0.0,0.0,30079382.0,973100.0,0.0,0.0,18.0,4510.0
7.865,17.978,71.910,0.0,0.0,2.247,0.0,0.0,29206097.0,946788.0,0.0,0.0,18.0,4506.0
6.742,21.348,68.539,0.0,0.0,3.371,0.0,0.0,29200041.0,945716.0,0.0,0.0,18.0,4083.0
5.747,10.345,80.460,0.0,0.0,3.448,0.0,0.0,24856709.0,808114.0,0.0,0.0,19.0,3759.0
