"Dstat 0.7.2 CSV output"
"Author:","Dag Wieers <dag@wieers.com>",,,,"URL:","http://dag.wieers.com/home-made/dstat/"
"Host:","Server1",,,,"User:","maki"
"Cmdline:","dstat --output server_64_set_1_8.csv 1 70",,,,"Date:","25 Nov 2018 03:25:32 UTC"

"total cpu usage",,,,,,"dsk/total",,"net/total",,"paging",,"system",
"usr","sys","idl","wai","hiq","siq","read","writ","recv","send","in","out","int","csw"
4.598,8.940,84.138,0.814,0.0,1.509,18355.674,105278.844,0.0,0.0,0.0,0.0,18.526,1800.157
5.319,9.574,76.596,0.0,0.0,8.511,0.0,0.0,27979868.0,903382.0,0.0,0.0,18.0,4359.0
7.609,18.478,66.304,0.0,0.0,7.609,0.0,0.0,32017816.0,1035894.0,0.0,0.0,18.0,4479.0
12.791,22.093,54.651,0.0,0.0,10.465,0.0,0.0,35900947.0,1166076.0,0.0,0.0,19.0,3443.0
9.302,18.605,66.279,0.0,0.0,5.814,0.0,0.0,38288208.0,1238054.0,0.0,0.0,17.0,3379.0
9.195,14.943,67.816,0.0,0.0,8.046,0.0,0.0,39224001.0,1269492.0,0.0,0.0,19.0,3279.0
10.227,26.136,56.818,1.136,0.0,5.682,0.0,32768.0,39520375.0,1280316.0,0.0,0.0,18.0,3165.0
9.412,17.647,62.353,0.0,0.0,10.588,0.0,0.0,37740806.0,1221674.0,0.0,0.0,18.0,3129.0
6.593,21.978,63.736,0.0,0.0,7.692,0.0,0.0,37906497.0,1224990.0,0.0,0.0,19.0,3187.0
14.118,22.353,51.765,0.0,0.0,11.765,0.0,0.0,37264209.0,1211951.0,0.0,0.0,24.0,2990.0
7.143,20.238,66.667,0.0,0.0,5.952,0.0,0.0,38783930.0,1260180.0,0.0,0.0,18.0,3190.0
5.814,19.767,62.791,0.0,0.0,11.628,0.0,0.0,38329342.0,1237914.0,0.0,0.0,18.0,3319.0
10.112,22.472,62.921,0.0,0.0,4.494,0.0,0.0,39352301.0,1276974.0,0.0,0.0,18.0,3460.0
9.524,25.0,55.952,0.0,0.0,9.524,0.0,0.0,37019309.0,1198490.0,0.0,0.0,18.0,3008.0
9.302,15.116,69.767,0.0,0.0,5.814,0.0,0.0,38678562.0,1253660.0,0.0,0.0,19.0,3672.0
14.286,29.762,47.619,0.0,0.0,8.333,0.0,0.0,39865990.0,1287968.0,0.0,0.0,18.0,2959.0
9.302,23.256,62.791,0.0,0.0,4.651,0.0,0.0,38882772.0,1263162.0,0.0,0.0,18.0,3341.0
12.360,25.843,55.056,0.0,0.0,6.742,0.0,0.0,37850829.0,1225948.0,0.0,0.0,18.0,3106.0
9.412,22.353,60.0,0.0,0.0,8.235,0.0,0.0,38891337.0,1259540.0,0.0,0.0,18.0,3351.0
11.494,18.391,58.621,0.0,0.0,11.494,0.0,0.0,37791132.0,1227190.0,0.0,0.0,19.0,3248.0
8.434,24.096,59.036,0.0,0.0,8.434,0.0,0.0,38920365.0,1257514.0,0.0,0.0,18.0,3168.0
11.765,25.882,51.765,0.0,0.0,10.588,0.0,0.0,39817142.0,1288750.0,0.0,0.0,18.0,2915.0
8.333,26.190,52.381,0.0,0.0,13.095,0.0,0.0,38119107.0,1237772.0,0.0,0.0,18.0,2964.0
5.682,26.136,61.364,0.0,0.0,6.818,0.0,0.0,38281216.0,1239812.0,0.0,0.0,19.0,3561.0
12.360,25.843,53.933,0.0,0.0,7.865,0.0,0.0,38370185.0,1242954.0,0.0,0.0,18.0,2991.0
9.333,37.333,40.0,0.0,0.0,13.333,0.0,0.0,39806407.0,1288082.0,0.0,0.0,18.0,3168.0
13.043,23.913,53.261,0.0,0.0,9.783,0.0,0.0,38465178.0,1248302.0,0.0,0.0,18.0,3531.0
9.211,27.632,53.947,0.0,0.0,9.211,0.0,0.0,38612692.0,1249954.0,0.0,0.0,18.0,2801.0
10.0,28.750,48.750,0.0,0.0,12.500,0.0,0.0,39110322.0,1270516.0,0.0,0.0,19.0,3047.0
10.976,28.049,53.659,0.0,0.0,7.317,0.0,0.0,37711877.0,1219294.0,0.0,0.0,18.0,3024.0
11.392,30.380,45.570,0.0,0.0,12.658,0.0,8192.0,39258063.0,1268170.0,0.0,0.0,18.0,3089.0
14.286,31.169,42.857,0.0,0.0,11.688,0.0,0.0,39253634.0,1275136.0,0.0,0.0,18.0,3006.0
9.639,26.506,53.012,0.0,0.0,10.843,0.0,0.0,36952052.0,1196272.0,0.0,0.0,19.0,3201.0
9.211,26.316,46.053,0.0,0.0,18.421,0.0,0.0,37813189.0,1224334.0,0.0,0.0,17.0,3319.0
11.628,29.070,46.512,0.0,0.0,12.791,0.0,0.0,38045536.0,1235524.0,0.0,0.0,19.0,3102.0
8.235,21.176,61.176,0.0,0.0,9.412,0.0,4096.0,36745981.0,1189054.0,0.0,0.0,18.0,3184.0
9.639,27.711,54.217,0.0,0.0,8.434,0.0,45056.0,40129558.0,1298888.0,0.0,0.0,18.0,3053.0
10.465,24.419,55.814,0.0,0.0,9.302,0.0,0.0,38674874.0,1254976.0,0.0,0.0,19.0,2997.0
11.236,19.101,60.674,0.0,0.0,8.989,0.0,0.0,37543435.0,1216916.0,0.0,0.0,18.0,3350.0
10.638,23.404,60.638,0.0,0.0,5.319,0.0,0.0,39125712.0,1268014.0,0.0,0.0,18.0,3283.0
10.714,29.762,46.429,0.0,0.0,13.095,0.0,40960.0,40057957.0,1299636.0,0.0,0.0,18.0,2868.0
9.877,24.691,58.025,0.0,0.0,7.407,0.0,0.0,35794410.0,1158534.0,0.0,0.0,18.0,3196.0
9.195,25.287,58.621,0.0,0.0,6.897,0.0,0.0,39294746.0,1272354.0,0.0,0.0,18.0,3079.0
11.494,24.138,56.322,0.0,0.0,8.046,0.0,0.0,36090945.0,1169016.0,0.0,0.0,19.0,3139.0
13.793,22.989,54.023,0.0,0.0,9.195,0.0,0.0,35935976.0,1164472.0,0.0,0.0,18.0,3154.0
9.474,14.737,67.368,0.0,0.0,8.421,0.0,0.0,35640772.0,1154054.0,0.0,0.0,18.0,3681.0
11.494,24.138,55.172,0.0,0.0,9.195,0.0,0.0,35466627.0,1149696.0,0.0,0.0,18.0,3415.0
5.882,12.941,74.118,0.0,0.0,7.059,0.0,0.0,35503204.0,1149574.0,0.0,0.0,19.0,3837.0
8.791,21.978,60.440,0.0,0.0,8.791,0.0,0.0,38231587.0,1235814.0,0.0,0.0,18.0,3377.0
12.195,29.268,50.0,0.0,0.0,8.537,0.0,0.0,38061071.0,1236882.0,0.0,0.0,18.0,2908.0
8.791,18.681,65.934,0.0,0.0,6.593,0.0,0.0,38128637.0,1232100.0,0.0,0.0,18.0,3379.0
13.095,29.762,45.238,0.0,0.0,11.905,0.0,0.0,39742393.0,1286214.0,0.0,0.0,18.0,2811.0
11.905,29.762,48.810,0.0,0.0,9.524,0.0,0.0,39043617.0,1269610.0,0.0,0.0,19.0,2784.0
12.222,24.444,56.667,0.0,0.0,6.667,0.0,0.0,36613512.0,1183734.0,0.0,0.0,18.0,2992.0
11.905,19.048,58.333,0.0,0.0,10.714,0.0,0.0,38165420.0,1236864.0,0.0,0.0,18.0,2866.0
9.195,21.839,62.069,0.0,0.0,6.897,0.0,0.0,35723351.0,1157676.0,0.0,0.0,18.0,3294.0
9.091,18.182,67.045,0.0,0.0,5.682,0.0,0.0,36903479.0,1194934.0,0.0,0.0,19.0,3594.0
10.843,24.096,55.422,0.0,0.0,9.639,0.0,0.0,35999995.0,1162256.0,0.0,0.0,18.0,3218.0
11.458,19.792,56.250,0.0,0.0,12.500,0.0,0.0,35727253.0,1163350.0,0.0,0.0,18.0,3424.0
10.227,23.864,61.364,0.0,0.0,4.545,0.0,0.0,36404404.0,1174560.0,0.0,0.0,18.0,2948.0
10.843,18.072,61.446,0.0,0.0,9.639,0.0,0.0,38252639.0,1242188.0,0.0,0.0,18.0,3103.0
14.773,27.273,50.0,0.0,0.0,7.955,0.0,0.0,39408888.0,1278562.0,0.0,0.0,18.0,2842.0
9.302,25.581,56.977,0.0,0.0,8.140,0.0,0.0,37298742.0,1205228.0,0.0,0.0,19.0,3005.0
9.091,25.0,57.955,0.0,0.0,7.955,0.0,0.0,37306515.0,1208300.0,0.0,0.0,18.0,3100.0
9.091,20.779,59.740,0.0,0.0,10.390,0.0,0.0,37232816.0,1206482.0,0.0,0.0,18.0,2918.0
9.639,28.916,53.012,0.0,0.0,8.434,0.0,0.0,39314149.0,1275574.0,0.0,0.0,18.0,2894.0
8.235,23.529,60.0,1.176,0.0,7.059,0.0,28672.0,39040659.0,1261372.0,0.0,0.0,18.0,3200.0
14.286,23.810,53.571,0.0,0.0,8.333,0.0,0.0,39820094.0,1288222.0,0.0,0.0,19.0,3019.0
9.890,28.571,52.747,0.0,0.0,8.791,0.0,0.0,37963939.0,1234628.0,0.0,0.0,18.0,2999.0
13.253,37.349,38.554,0.0,0.0,10.843,0.0,0.0,36898526.0,1198069.0,0.0,0.0,25.0,2902.0
7.955,17.045,69.318,0.0,0.0,5.682,0.0,0.0,32023703.0,1036998.0,0.0,0.0,18.0,2715.0
