"Dstat 0.7.2 CSV output"
"Author:","Dag Wieers <dag@wieers.com>",,,,"URL:","http://dag.wieers.com/home-made/dstat/"
"Host:","Server1",,,,"User:","maki"
"Cmdline:","dstat --output server_32_set_3_14.csv 1 70",,,,"Date:","25 Nov 2018 02:55:04 UTC"

"total cpu usage",,,,,,"dsk/total",,"net/total",,"paging",,"system",
"usr","sys","idl","wai","hiq","siq","read","writ","recv","send","in","out","int","csw"
4.444,8.479,84.863,0.921,0.0,1.293,21110.816,120788.634,0.0,0.0,0.0,0.0,18.564,1807.412
8.791,18.681,70.330,0.0,0.0,2.198,0.0,0.0,32451611.0,1050010.0,0.0,0.0,18.0,3778.0
6.897,24.138,65.517,0.0,0.0,3.448,0.0,0.0,38520060.0,1250654.0,0.0,0.0,18.0,3495.0
8.861,34.177,51.899,1.266,0.0,3.797,0.0,49152.0,41375329.0,1340656.0,0.0,0.0,19.0,2171.0
10.588,25.882,58.824,0.0,0.0,4.706,0.0,0.0,42429170.0,1375394.0,0.0,0.0,18.0,2537.0
13.580,29.630,51.852,0.0,0.0,4.938,0.0,0.0,44391963.0,1435174.0,0.0,0.0,18.0,1970.0
12.500,28.750,51.250,0.0,0.0,7.500,0.0,0.0,42832319.0,1390496.0,0.0,0.0,18.0,2255.0
12.500,27.273,52.273,0.0,0.0,7.955,0.0,4096.0,46249182.0,1497210.0,0.0,0.0,18.0,2445.0
9.091,29.870,55.844,0.0,0.0,5.195,0.0,0.0,44326491.0,1437694.0,0.0,0.0,18.0,2285.0
11.842,31.579,50.0,0.0,0.0,6.579,0.0,0.0,46307708.0,1500256.0,0.0,0.0,19.0,2239.0
12.048,36.145,46.988,0.0,0.0,4.819,0.0,0.0,45459540.0,1472274.0,0.0,0.0,18.0,2152.0
11.538,32.051,50.0,0.0,0.0,6.410,0.0,0.0,43803715.0,1417254.0,0.0,0.0,18.0,2245.0
11.594,34.783,46.377,0.0,0.0,7.246,0.0,0.0,46424577.0,1507042.0,0.0,0.0,18.0,2015.0
13.924,27.848,50.633,0.0,0.0,7.595,0.0,0.0,44792280.0,1454864.0,0.0,0.0,18.0,2134.0
15.789,28.947,47.368,0.0,0.0,7.895,0.0,0.0,45135349.0,1459040.0,0.0,0.0,19.0,2051.0
17.949,37.179,37.179,0.0,0.0,7.692,0.0,0.0,47053063.0,1526090.0,0.0,0.0,18.0,2046.0
13.253,27.711,53.012,0.0,0.0,6.024,0.0,0.0,46573551.0,1508814.0,0.0,0.0,18.0,2680.0
13.415,35.366,45.122,0.0,0.0,6.098,0.0,0.0,45965452.0,1485854.0,0.0,0.0,18.0,2016.0
21.429,29.762,41.667,0.0,0.0,7.143,0.0,0.0,46839801.0,1524056.0,0.0,0.0,19.0,2081.0
8.537,21.951,65.854,0.0,0.0,3.659,0.0,0.0,43988231.0,1423290.0,0.0,0.0,18.0,2543.0
13.095,29.762,51.190,0.0,0.0,5.952,0.0,0.0,43769112.0,1420614.0,0.0,0.0,18.0,2332.0
12.987,40.260,38.961,0.0,0.0,7.792,0.0,0.0,46420270.0,1502496.0,0.0,0.0,18.0,2016.0
17.105,35.526,39.474,0.0,0.0,7.895,0.0,4096.0,45312322.0,1468914.0,0.0,0.0,18.0,1843.0
12.500,30.0,50.0,0.0,0.0,7.500,0.0,0.0,44172274.0,1426852.0,0.0,0.0,19.0,2324.0
17.073,35.366,42.683,0.0,0.0,4.878,0.0,0.0,44258749.0,1439282.0,0.0,0.0,18.0,2220.0
16.216,28.378,50.0,0.0,0.0,5.405,0.0,0.0,46090517.0,1493908.0,0.0,0.0,18.0,2267.0
18.824,31.765,42.353,0.0,0.0,7.059,0.0,0.0,43820844.0,1418440.0,0.0,0.0,18.0,1998.0
17.910,32.836,38.806,0.0,0.0,10.448,0.0,0.0,46258985.0,1501268.0,0.0,0.0,18.0,1926.0
7.692,29.487,56.410,0.0,0.0,6.410,0.0,0.0,45442237.0,1473040.0,0.0,0.0,19.0,2295.0
13.514,36.486,44.595,0.0,0.0,5.405,0.0,0.0,44988440.0,1455688.0,0.0,0.0,18.0,2094.0
16.667,36.905,39.286,0.0,0.0,7.143,0.0,0.0,45011190.0,1460076.0,0.0,0.0,18.0,1989.0
12.360,32.584,44.944,0.0,0.0,10.112,0.0,0.0,46765166.0,1514480.0,0.0,0.0,18.0,2132.0
17.073,32.927,42.683,0.0,0.0,7.317,0.0,12288.0,45080402.0,1467485.0,0.0,0.0,23.0,2116.0
13.750,38.750,40.0,1.250,0.0,6.250,0.0,49152.0,47936620.0,1543674.0,0.0,0.0,19.0,2063.0
13.095,23.810,58.333,0.0,0.0,4.762,0.0,0.0,38859136.0,1268696.0,0.0,0.0,18.0,1917.0
10.127,35.443,44.304,0.0,0.0,10.127,0.0,0.0,46194493.0,1493554.0,0.0,0.0,18.0,2151.0
11.392,34.177,49.367,0.0,0.0,5.063,0.0,0.0,46626790.0,1513854.0,0.0,0.0,18.0,2121.0
18.519,33.333,37.037,0.0,0.0,11.111,0.0,0.0,45542156.0,1472740.0,0.0,0.0,18.0,1828.0
13.580,29.630,53.086,0.0,0.0,3.704,0.0,45056.0,46812525.0,1519874.0,0.0,0.0,18.0,2501.0
11.236,32.584,51.685,0.0,0.0,4.494,0.0,0.0,43419076.0,1403954.0,0.0,0.0,19.0,2140.0
12.346,25.926,58.025,0.0,0.0,3.704,0.0,0.0,45585885.0,1482270.0,0.0,0.0,18.0,2429.0
9.524,25.0,59.524,0.0,0.0,5.952,0.0,0.0,42619135.0,1378614.0,0.0,0.0,18.0,2428.0
15.584,35.065,44.156,0.0,0.0,5.195,0.0,0.0,45983029.0,1488362.0,0.0,0.0,18.0,1903.0
16.667,33.333,42.857,0.0,0.0,7.143,0.0,0.0,47198437.0,1533856.0,0.0,0.0,19.0,1935.0
8.434,27.711,60.241,0.0,0.0,3.614,0.0,0.0,43466675.0,1406194.0,0.0,0.0,18.0,2431.0
10.0,40.0,41.429,0.0,0.0,8.571,0.0,0.0,45878794.0,1481580.0,0.0,0.0,18.0,2075.0
13.636,32.955,47.727,0.0,0.0,5.682,0.0,0.0,46506700.0,1510690.0,0.0,0.0,18.0,2240.0
13.095,28.571,55.952,0.0,0.0,2.381,0.0,0.0,45174203.0,1467688.0,0.0,0.0,18.0,2473.0
12.941,31.765,50.588,0.0,0.0,4.706,0.0,0.0,45580479.0,1476334.0,0.0,0.0,19.0,2259.0
14.815,32.099,46.914,0.0,0.0,6.173,0.0,0.0,45685456.0,1477576.0,0.0,0.0,18.0,2063.0
14.286,29.870,49.351,0.0,0.0,6.494,0.0,0.0,46012858.0,1495094.0,0.0,0.0,18.0,2224.0
10.526,44.737,36.842,0.0,0.0,7.895,0.0,0.0,47011581.0,1516020.0,0.0,0.0,18.0,1830.0
17.333,33.333,33.333,0.0,0.0,16.0,0.0,0.0,45910334.0,1494030.0,0.0,0.0,19.0,1869.0
9.639,31.325,54.217,0.0,0.0,4.819,0.0,0.0,46600719.0,1508208.0,0.0,0.0,18.0,2206.0
12.048,26.506,56.627,0.0,0.0,4.819,0.0,0.0,42991109.0,1392614.0,0.0,0.0,18.0,2148.0
20.0,31.250,41.250,0.0,0.0,7.500,0.0,0.0,46813764.0,1519016.0,0.0,0.0,18.0,1984.0
12.500,33.750,47.500,0.0,0.0,6.250,0.0,0.0,44638215.0,1447914.0,0.0,0.0,18.0,2063.0
21.333,33.333,41.333,0.0,0.0,4.0,0.0,0.0,44852760.0,1449470.0,0.0,0.0,19.0,2138.0
22.078,37.662,32.468,0.0,0.0,7.792,0.0,0.0,47137850.0,1530142.0,0.0,0.0,18.0,1867.0
13.924,26.582,49.367,0.0,0.0,10.127,0.0,0.0,43194154.0,1398662.0,0.0,0.0,18.0,2223.0
12.658,40.506,36.709,0.0,0.0,10.127,0.0,0.0,46410619.0,1504054.0,0.0,0.0,18.0,2020.0
16.456,35.443,37.975,0.0,0.0,10.127,0.0,0.0,45689847.0,1484576.0,0.0,0.0,18.0,1998.0
13.253,36.145,43.373,0.0,0.0,7.229,0.0,0.0,44418682.0,1429818.0,0.0,0.0,18.0,1979.0
12.821,33.333,46.154,0.0,0.0,7.692,0.0,12288.0,44880406.0,1453514.0,0.0,0.0,19.0,2170.0
13.953,22.093,55.814,0.0,0.0,8.140,0.0,20480.0,42656540.0,1393094.0,0.0,0.0,18.0,2380.0
12.658,30.380,50.633,0.0,0.0,6.329,0.0,0.0,45364488.0,1466814.0,0.0,0.0,18.0,2285.0
12.346,28.395,56.790,0.0,0.0,2.469,0.0,0.0,43554584.0,1413272.0,0.0,0.0,18.0,2470.0
21.795,39.744,29.487,0.0,0.0,8.974,0.0,0.0,45815127.0,1486116.0,0.0,0.0,19.0,1913.0
11.688,29.870,53.247,0.0,0.0,5.195,0.0,0.0,46821227.0,1510140.0,0.0,0.0,18.0,2371.0
15.854,30.488,47.561,0.0,0.0,6.098,0.0,0.0,43812338.0,1424748.0,0.0,0.0,18.0,1951.0
10.976,23.171,58.537,0.0,0.0,7.317,0.0,0.0,36516566.0,1186236.0,0.0,0.0,18.0,1745.0
