"Dstat 0.7.2 CSV output"
"Author:","Dag Wieers <dag@wieers.com>",,,,"URL:","http://dag.wieers.com/home-made/dstat/"
"Host:","Server1",,,,"User:","maki"
"Cmdline:","dstat --output server_32_set_1_42.csv 1 70",,,,"Date:","25 Nov 2018 02:27:02 UTC"

"total cpu usage",,,,,,"dsk/total",,"net/total",,"paging",,"system",
"usr","sys","idl","wai","hiq","siq","read","writ","recv","send","in","out","int","csw"
4.248,7.939,85.640,1.055,0.0,1.119,24465.949,139849.079,0.0,0.0,0.0,0.0,18.610,1794.695
8.235,22.353,67.059,0.0,0.0,2.353,0.0,0.0,38173178.0,1237158.0,0.0,0.0,18.0,3373.0
9.877,23.457,59.259,0.0,0.0,7.407,0.0,4096.0,43700982.0,1418514.0,0.0,0.0,18.0,2989.0
12.987,29.870,49.351,0.0,0.0,7.792,0.0,0.0,43177878.0,1400856.0,0.0,0.0,19.0,1900.0
10.256,37.179,43.590,0.0,0.0,8.974,0.0,0.0,46730922.0,1513762.0,0.0,0.0,18.0,2173.0
12.500,31.250,52.500,0.0,0.0,3.750,0.0,0.0,46454144.0,1498120.0,0.0,0.0,18.0,1939.0
12.500,31.250,47.500,0.0,0.0,8.750,0.0,0.0,47751770.0,1550656.0,0.0,0.0,18.0,1661.0
13.158,28.947,51.316,0.0,0.0,6.579,0.0,0.0,49376088.0,1603528.0,0.0,0.0,18.0,1891.0
13.750,32.500,46.250,0.0,0.0,7.500,0.0,0.0,48714758.0,1572234.0,0.0,0.0,19.0,2025.0
12.346,34.568,48.148,0.0,0.0,4.938,0.0,0.0,48639246.0,1579776.0,0.0,0.0,18.0,1790.0
9.091,26.136,57.955,0.0,0.0,6.818,0.0,0.0,41401623.0,1347562.0,0.0,0.0,18.0,2708.0
8.889,18.889,66.667,0.0,0.0,5.556,0.0,0.0,38674973.0,1255162.0,0.0,0.0,18.0,3042.0
9.302,22.093,63.953,0.0,0.0,4.651,0.0,0.0,36981239.0,1199842.0,0.0,0.0,18.0,2971.0
6.667,22.222,67.778,0.0,0.0,3.333,0.0,0.0,39309256.0,1277494.0,0.0,0.0,19.0,3584.0
9.639,18.072,67.470,0.0,0.0,4.819,0.0,0.0,39928946.0,1296344.0,0.0,0.0,18.0,3096.0
6.173,20.988,65.432,0.0,0.0,7.407,0.0,0.0,39732135.0,1292224.0,0.0,0.0,18.0,2812.0
10.714,25.0,58.333,0.0,0.0,5.952,0.0,0.0,41928245.0,1360176.0,0.0,0.0,18.0,2411.0
15.190,36.709,40.506,0.0,0.0,7.595,0.0,16384.0,48191568.0,1559774.0,0.0,0.0,19.0,1668.0
17.284,35.802,39.506,0.0,0.0,7.407,0.0,0.0,47937416.0,1554436.0,0.0,0.0,18.0,1877.0
10.465,36.047,47.674,0.0,0.0,5.814,0.0,0.0,46316802.0,1503852.0,0.0,0.0,18.0,1779.0
11.250,37.500,45.0,0.0,0.0,6.250,0.0,0.0,46535831.0,1507554.0,0.0,0.0,18.0,1676.0
16.667,15.476,65.476,0.0,0.0,2.381,0.0,0.0,43490056.0,1411816.0,0.0,0.0,18.0,2710.0
8.235,23.529,61.176,0.0,0.0,7.059,0.0,0.0,41323495.0,1338596.0,0.0,0.0,19.0,2754.0
8.602,29.032,54.839,0.0,0.0,7.527,0.0,0.0,41845122.0,1358392.0,0.0,0.0,18.0,2788.0
10.714,23.810,58.333,0.0,0.0,7.143,0.0,0.0,41541384.0,1352560.0,0.0,0.0,18.0,2873.0
4.878,25.610,60.976,0.0,0.0,8.537,0.0,0.0,39237880.0,1274454.0,0.0,0.0,18.0,2676.0
8.046,17.241,71.264,0.0,0.0,3.448,0.0,0.0,38776153.0,1259856.0,0.0,0.0,18.0,2908.0
13.793,21.839,59.770,0.0,0.0,4.598,0.0,0.0,37969993.0,1231230.0,0.0,0.0,18.0,2766.0
12.048,26.506,54.217,0.0,0.0,7.229,0.0,0.0,45684050.0,1482148.0,0.0,0.0,19.0,1737.0
10.0,36.250,46.250,0.0,0.0,7.500,0.0,0.0,49484312.0,1600794.0,0.0,0.0,18.0,1839.0
14.667,32.0,42.667,0.0,0.0,10.667,0.0,28672.0,46042484.0,1486816.0,0.0,0.0,20.0,1578.0
14.634,31.707,45.122,0.0,0.0,8.537,0.0,4096.0,43851214.0,1429037.0,0.0,0.0,21.0,1648.0
15.854,30.488,47.561,0.0,0.0,6.098,0.0,12288.0,48245970.0,1564904.0,0.0,0.0,19.0,1863.0
12.644,26.437,58.621,0.0,0.0,2.299,0.0,0.0,47314137.0,1533174.0,0.0,0.0,18.0,2146.0
14.286,34.524,45.238,0.0,0.0,5.952,0.0,0.0,49095211.0,1590218.0,0.0,0.0,18.0,2054.0
12.987,36.364,41.558,0.0,0.0,9.091,0.0,0.0,47659753.0,1543748.0,0.0,0.0,18.0,1707.0
9.302,20.930,67.442,0.0,0.0,2.326,0.0,0.0,46842903.0,1520854.0,0.0,0.0,18.0,2324.0
11.494,26.437,55.172,0.0,0.0,6.897,0.0,0.0,45685409.0,1481776.0,0.0,0.0,19.0,1853.0
8.642,32.099,50.617,0.0,0.0,8.642,0.0,0.0,49497269.0,1600654.0,0.0,0.0,18.0,2063.0
9.639,19.277,61.446,0.0,0.0,9.639,0.0,0.0,47590868.0,1543534.0,0.0,0.0,18.0,2100.0
10.976,39.024,43.902,0.0,0.0,6.098,0.0,0.0,44403974.0,1440514.0,0.0,0.0,18.0,1490.0
12.048,26.506,54.217,0.0,0.0,7.229,0.0,0.0,46413517.0,1504350.0,0.0,0.0,18.0,2116.0
12.162,25.676,58.108,0.0,0.0,4.054,0.0,0.0,48255934.0,1554910.0,0.0,0.0,19.0,2121.0
14.458,32.530,48.193,0.0,0.0,4.819,0.0,0.0,46248755.0,1505510.0,0.0,0.0,18.0,1641.0
12.987,33.766,49.351,0.0,0.0,3.896,0.0,0.0,48953824.0,1580980.0,0.0,0.0,18.0,1754.0
14.634,30.488,43.902,0.0,0.0,10.976,0.0,0.0,46570959.0,1511386.0,0.0,0.0,18.0,1882.0
11.250,33.750,45.0,0.0,0.0,10.0,0.0,0.0,44327930.0,1435510.0,0.0,0.0,18.0,1662.0
15.0,26.250,51.250,0.0,0.0,7.500,0.0,0.0,49549100.0,1603454.0,0.0,0.0,19.0,1974.0
7.407,30.864,55.556,0.0,0.0,6.173,0.0,0.0,48118012.0,1563554.0,0.0,0.0,18.0,2269.0
8.235,22.353,65.882,0.0,0.0,3.529,0.0,0.0,44098527.0,1430816.0,0.0,0.0,18.0,2044.0
15.0,32.500,47.500,0.0,0.0,5.0,0.0,0.0,47535983.0,1538218.0,0.0,0.0,18.0,2002.0
8.989,26.966,59.551,0.0,0.0,4.494,0.0,0.0,48481489.0,1574128.0,0.0,0.0,18.0,1940.0
19.277,28.916,46.988,0.0,0.0,4.819,0.0,0.0,47047009.0,1524476.0,0.0,0.0,18.0,1713.0
13.415,31.707,50.0,0.0,0.0,4.878,0.0,0.0,48040185.0,1554734.0,0.0,0.0,19.0,1874.0
8.434,24.096,61.446,0.0,0.0,6.024,0.0,0.0,47542993.0,1540314.0,0.0,0.0,18.0,2017.0
15.116,30.233,50.0,0.0,0.0,4.651,0.0,0.0,45214042.0,1469876.0,0.0,0.0,18.0,1799.0
12.346,30.864,51.852,0.0,0.0,4.938,0.0,0.0,47927963.0,1546754.0,0.0,0.0,18.0,1978.0
14.458,25.301,55.422,0.0,0.0,4.819,0.0,0.0,47953805.0,1552494.0,0.0,0.0,18.0,2333.0
11.538,35.897,43.590,0.0,0.0,8.974,0.0,0.0,49657726.0,1615476.0,0.0,0.0,19.0,1991.0
11.538,30.769,51.282,0.0,0.0,6.410,0.0,0.0,48511194.0,1571740.0,0.0,0.0,18.0,1884.0
13.580,32.099,43.210,0.0,0.0,11.111,0.0,0.0,46454285.0,1505676.0,0.0,0.0,18.0,1983.0
14.103,33.333,42.308,2.564,0.0,7.692,0.0,45056.0,46044381.0,1493956.0,0.0,0.0,18.0,1893.0
6.757,29.730,54.054,0.0,0.0,9.459,0.0,0.0,46150705.0,1495202.0,0.0,0.0,19.0,2280.0
6.897,19.540,68.966,0.0,0.0,4.598,0.0,49152.0,38099551.0,1237442.0,0.0,0.0,18.0,3552.0
12.500,30.682,51.136,0.0,0.0,5.682,0.0,0.0,40701160.0,1318580.0,0.0,0.0,18.0,2280.0
10.127,31.646,50.633,0.0,0.0,7.595,0.0,0.0,41324768.0,1342462.0,0.0,0.0,18.0,2562.0
6.024,24.096,63.855,0.0,0.0,6.024,0.0,0.0,36861018.0,1198308.0,0.0,0.0,19.0,2599.0
9.195,24.138,59.770,0.0,0.0,6.897,0.0,0.0,40748416.0,1324426.0,0.0,0.0,18.0,2368.0
10.714,21.429,64.286,0.0,0.0,3.571,0.0,0.0,39762796.0,1286768.0,0.0,0.0,18.0,2505.0
10.843,31.325,54.217,0.0,0.0,3.614,0.0,0.0,49696003.0,1609688.0,0.0,0.0,18.0,2070.0
8.642,29.630,55.556,0.0,0.0,6.173,0.0,0.0,39261654.0,1277796.0,0.0,0.0,18.0,1356.0
