"Dstat 0.7.2 CSV output"
"Author:","Dag Wieers <dag@wieers.com>",,,,"URL:","http://dag.wieers.com/home-made/dstat/"
"Host:","Server1",,,,"User:","maki"
"Cmdline:","dstat --output server_16_set_2_1.csv 1 70",,,,"Date:","25 Nov 2018 01:27:30 UTC"

"total cpu usage",,,,,,"dsk/total",,"net/total",,"paging",,"system",
"usr","sys","idl","wai","hiq","siq","read","writ","recv","send","in","out","int","csw"
3.653,6.447,87.554,1.545,0.0,0.801,37088.901,210985.120,0.0,0.0,0.0,0.0,18.781,1675.523
2.128,3.191,92.553,0.0,0.0,2.128,0.0,0.0,7704980.0,249862.0,0.0,0.0,18.0,2844.0
2.105,4.211,92.632,0.0,0.0,1.053,0.0,0.0,7797290.0,252314.0,0.0,0.0,18.0,2752.0
4.255,4.255,91.489,0.0,0.0,0.0,0.0,0.0,8833339.0,288976.0,0.0,0.0,19.0,3014.0
3.191,6.383,89.362,0.0,0.0,1.064,0.0,0.0,9506474.0,308034.0,0.0,0.0,18.0,3218.0
2.174,4.348,89.130,3.261,0.0,1.087,0.0,53248.0,10859434.0,351640.0,0.0,0.0,18.0,3661.0
2.222,2.222,94.444,0.0,0.0,1.111,0.0,0.0,9408853.0,307810.0,0.0,0.0,18.0,3234.0
3.158,6.316,90.526,0.0,0.0,0.0,0.0,0.0,10820385.0,350314.0,0.0,0.0,18.0,3605.0
4.211,5.263,90.526,0.0,0.0,0.0,0.0,0.0,10219863.0,331414.0,0.0,0.0,19.0,3227.0
4.211,7.368,87.368,0.0,0.0,1.053,0.0,0.0,10376055.0,338536.0,0.0,0.0,18.0,3195.0
4.255,4.255,91.489,0.0,0.0,0.0,0.0,0.0,9916684.0,321474.0,0.0,0.0,18.0,3306.0
2.198,4.396,93.407,0.0,0.0,0.0,0.0,0.0,10280439.0,332954.0,0.0,0.0,18.0,3286.0
2.222,4.444,93.333,0.0,0.0,0.0,0.0,0.0,10804062.0,352990.0,0.0,0.0,18.0,3560.0
2.151,6.452,91.398,0.0,0.0,0.0,0.0,0.0,10487383.0,339814.0,0.0,0.0,19.0,3378.0
4.124,8.247,86.598,0.0,0.0,1.031,0.0,0.0,10461696.0,338974.0,0.0,0.0,18.0,3439.0
2.174,6.522,91.304,0.0,0.0,0.0,0.0,0.0,10410803.0,339516.0,0.0,0.0,18.0,3170.0
3.191,3.191,92.553,0.0,0.0,1.064,0.0,0.0,9588381.0,310834.0,0.0,0.0,18.0,3063.0
2.222,3.333,94.444,0.0,0.0,0.0,0.0,0.0,10669086.0,345834.0,0.0,0.0,18.0,3367.0
3.093,10.309,85.567,0.0,0.0,1.031,0.0,0.0,11085091.0,361776.0,0.0,0.0,19.0,3688.0
3.226,4.301,91.398,0.0,0.0,1.075,0.0,0.0,10102626.0,327214.0,0.0,0.0,18.0,3273.0
5.319,4.255,89.362,0.0,0.0,1.064,0.0,0.0,10708244.0,347094.0,0.0,0.0,18.0,3509.0
2.247,4.494,93.258,0.0,0.0,0.0,0.0,0.0,10752717.0,350856.0,0.0,0.0,18.0,3603.0
2.174,4.348,93.478,0.0,0.0,0.0,0.0,0.0,10288662.0,333374.0,0.0,0.0,18.0,3470.0
3.226,5.376,90.323,0.0,0.0,1.075,0.0,0.0,11014794.0,356334.0,0.0,0.0,19.0,3594.0
3.226,6.452,88.172,0.0,0.0,2.151,0.0,0.0,10566693.0,345396.0,0.0,0.0,18.0,3551.0
2.222,3.333,94.444,0.0,0.0,0.0,0.0,8192.0,10863640.0,351574.0,0.0,0.0,18.0,3587.0
4.167,5.208,89.583,0.0,0.0,1.042,0.0,0.0,9840035.0,319234.0,0.0,0.0,18.0,3201.0
6.522,4.348,89.130,0.0,0.0,0.0,0.0,0.0,11322970.0,369616.0,0.0,0.0,18.0,3698.0
4.124,8.247,87.629,0.0,0.0,0.0,0.0,0.0,10945902.0,354234.0,0.0,0.0,19.0,3531.0
3.261,5.435,91.304,0.0,0.0,0.0,0.0,0.0,10403005.0,337512.0,0.0,0.0,18.0,3533.0
3.226,6.452,90.323,0.0,0.0,0.0,0.0,4096.0,10281270.0,335736.0,0.0,0.0,18.0,3287.0
2.151,5.376,92.473,0.0,0.0,0.0,0.0,0.0,10059875.0,325674.0,0.0,0.0,18.0,3354.0
3.191,6.383,89.362,0.0,0.0,1.064,0.0,0.0,10936758.0,354374.0,0.0,0.0,18.0,3770.0
4.211,7.368,87.368,0.0,0.0,1.053,0.0,0.0,11370339.0,370456.0,0.0,0.0,19.0,3859.0
5.263,4.211,89.474,0.0,0.0,1.053,0.0,0.0,10768407.0,349054.0,0.0,0.0,18.0,3743.0
2.174,5.435,91.304,0.0,0.0,1.087,0.0,36864.0,11356710.0,368374.0,0.0,0.0,18.0,3842.0
5.208,6.250,86.458,1.042,0.0,1.042,0.0,20480.0,10704931.0,349176.0,0.0,0.0,18.0,3602.0
2.083,6.250,90.625,0.0,0.0,1.042,0.0,0.0,10474715.0,339534.0,0.0,0.0,18.0,3487.0
3.061,9.184,87.755,0.0,0.0,0.0,0.0,0.0,10941443.0,354234.0,0.0,0.0,19.0,3533.0
3.158,9.474,87.368,0.0,0.0,0.0,0.0,0.0,10432268.0,340916.0,0.0,0.0,18.0,3313.0
2.151,4.301,93.548,0.0,0.0,0.0,0.0,0.0,10119670.0,327354.0,0.0,0.0,18.0,3241.0
2.128,5.319,91.489,0.0,0.0,1.064,0.0,0.0,9982199.0,323360.0,0.0,0.0,18.0,3161.0
3.226,5.376,90.323,0.0,0.0,1.075,0.0,0.0,10549285.0,344490.0,0.0,0.0,19.0,3439.0
4.255,5.319,90.426,0.0,0.0,0.0,0.0,0.0,10759743.0,349054.0,0.0,0.0,18.0,3442.0
2.151,6.452,90.323,0.0,0.0,1.075,0.0,0.0,9878284.0,319934.0,0.0,0.0,18.0,3284.0
5.376,3.226,90.323,0.0,0.0,1.075,0.0,0.0,10376118.0,338816.0,0.0,0.0,18.0,3489.0
2.128,6.383,91.489,0.0,0.0,0.0,0.0,0.0,10820533.0,350594.0,0.0,0.0,18.0,3460.0
1.064,9.574,89.362,0.0,0.0,0.0,0.0,0.0,10772857.0,348634.0,0.0,0.0,19.0,3566.0
4.124,9.278,85.567,0.0,0.0,1.031,0.0,0.0,10410953.0,339796.0,0.0,0.0,18.0,3509.0
3.191,7.447,89.362,0.0,0.0,0.0,0.0,0.0,10712470.0,347094.0,0.0,0.0,18.0,3484.0
3.158,5.263,90.526,0.0,0.0,1.053,0.0,0.0,10379367.0,336594.0,0.0,0.0,18.0,3470.0
3.191,8.511,87.234,0.0,0.0,1.064,0.0,0.0,10865155.0,354636.0,0.0,0.0,18.0,3613.0
2.105,7.368,90.526,0.0,0.0,0.0,0.0,0.0,11023451.0,357034.0,0.0,0.0,19.0,3549.0
3.297,6.593,87.912,0.0,0.0,2.198,0.0,0.0,9660256.0,317195.0,0.0,0.0,23.0,3223.0
5.319,6.383,88.298,0.0,0.0,0.0,0.0,0.0,10847440.0,353656.0,0.0,0.0,18.0,3596.0
3.191,5.319,90.426,0.0,0.0,1.064,0.0,0.0,10985065.0,356194.0,0.0,0.0,18.0,3600.0
2.128,5.319,91.489,0.0,0.0,1.064,0.0,0.0,10375295.0,336034.0,0.0,0.0,18.0,3259.0
4.124,9.278,85.567,0.0,0.0,1.031,0.0,0.0,11422616.0,371996.0,0.0,0.0,19.0,3785.0
5.208,5.208,88.542,0.0,0.0,1.042,0.0,0.0,11248385.0,365014.0,0.0,0.0,18.0,3742.0
2.198,5.495,92.308,0.0,0.0,0.0,0.0,0.0,10076821.0,326654.0,0.0,0.0,18.0,3329.0
3.297,5.495,91.209,0.0,0.0,0.0,0.0,0.0,10696502.0,349888.0,0.0,0.0,18.0,3569.0
4.211,6.316,89.474,0.0,0.0,0.0,0.0,0.0,11369249.0,368234.0,0.0,0.0,18.0,3977.0
2.083,7.292,89.583,0.0,0.0,1.042,0.0,0.0,10561052.0,342054.0,0.0,0.0,19.0,3473.0
4.211,5.263,89.474,0.0,0.0,1.053,0.0,0.0,10808637.0,352676.0,0.0,0.0,18.0,3533.0
3.125,10.417,86.458,0.0,0.0,0.0,0.0,0.0,10816041.0,350734.0,0.0,0.0,18.0,3645.0
3.191,4.255,90.426,0.0,0.0,2.128,0.0,0.0,10422447.0,337574.0,0.0,0.0,18.0,3545.0
2.128,8.511,89.362,0.0,0.0,0.0,0.0,8192.0,10415519.0,339796.0,0.0,0.0,18.0,3411.0
5.435,3.261,89.130,2.174,0.0,0.0,0.0,45056.0,10911303.0,353534.0,0.0,0.0,19.0,3587.0
5.319,4.255,90.426,0.0,0.0,0.0,0.0,0.0,10889664.0,352834.0,0.0,0.0,18.0,3613.0
2.151,5.376,91.398,0.0,0.0,1.075,0.0,0.0,9278544.0,301200.0,0.0,0.0,18.0,3253.0
3.158,5.263,91.579,0.0,0.0,0.0,0.0,0.0,8346158.0,272710.0,0.0,0.0,18.0,2800.0
