"Dstat 0.7.2 CSV output"
"Author:","Dag Wieers <dag@wieers.com>",,,,"URL:","http://dag.wieers.com/home-made/dstat/"
"Host:","Server1",,,,"User:","maki"
"Cmdline:","dstat --output server_16_set_4_1.csv 1 70",,,,"Date:","25 Nov 2018 01:59:38 UTC"

"total cpu usage",,,,,,"dsk/total",,"net/total",,"paging",,"system",
"usr","sys","idl","wai","hiq","siq","read","writ","recv","send","in","out","int","csw"
4.025,7.384,86.373,1.234,0.0,0.983,29008.669,165451.862,0.0,0.0,0.0,0.0,18.672,1747.793
4.167,6.250,89.583,0.0,0.0,0.0,0.0,0.0,8530160.0,276182.0,0.0,0.0,18.0,2875.0
1.075,4.301,93.548,0.0,0.0,1.075,0.0,0.0,7438658.0,244036.0,0.0,0.0,18.0,2577.0
1.087,5.435,93.478,0.0,0.0,0.0,0.0,0.0,8914837.0,288854.0,0.0,0.0,18.0,3006.0
5.263,6.316,88.421,0.0,0.0,0.0,0.0,0.0,10548558.0,341560.0,0.0,0.0,19.0,3439.0
3.297,7.692,87.912,0.0,0.0,1.099,0.0,0.0,10752464.0,351210.0,0.0,0.0,18.0,3612.0
2.062,7.216,89.691,0.0,0.0,1.031,0.0,0.0,9905026.0,320774.0,0.0,0.0,18.0,3123.0
3.226,6.452,90.323,0.0,0.0,0.0,0.0,0.0,11421119.0,370194.0,0.0,0.0,18.0,3749.0
5.435,3.261,91.304,0.0,0.0,0.0,0.0,0.0,11007314.0,359256.0,0.0,0.0,18.0,3617.0
2.247,2.247,95.506,0.0,0.0,0.0,0.0,0.0,10328097.0,334354.0,0.0,0.0,19.0,3299.0
4.348,5.435,86.957,2.174,0.0,1.087,0.0,90112.0,10993193.0,356334.0,0.0,0.0,18.0,3638.0
4.396,5.495,90.110,0.0,0.0,0.0,0.0,0.0,10786899.0,352116.0,0.0,0.0,18.0,3606.0
4.167,6.250,88.542,0.0,0.0,1.042,0.0,0.0,10214942.0,330920.0,0.0,0.0,18.0,3361.0
3.261,4.348,92.391,0.0,0.0,0.0,0.0,0.0,10340654.0,334848.0,0.0,0.0,18.0,3458.0
6.186,5.155,86.598,0.0,0.0,2.062,0.0,0.0,10501593.0,343156.0,0.0,0.0,19.0,3572.0
4.167,7.292,87.500,0.0,0.0,1.042,0.0,0.0,10677591.0,345414.0,0.0,0.0,18.0,3471.0
2.273,3.409,94.318,0.0,0.0,0.0,0.0,0.0,11196592.0,363334.0,0.0,0.0,18.0,3792.0
3.297,5.495,90.110,0.0,0.0,1.099,0.0,0.0,10661993.0,348488.0,0.0,0.0,18.0,3503.0
4.211,5.263,90.526,0.0,0.0,0.0,0.0,0.0,9568803.0,309714.0,0.0,0.0,18.0,3050.0
3.226,5.376,91.398,0.0,0.0,0.0,0.0,0.0,10500599.0,340300.0,0.0,0.0,19.0,3335.0
5.319,7.447,85.106,0.0,0.0,2.128,0.0,8192.0,10609902.0,346310.0,0.0,0.0,18.0,3646.0
3.261,3.261,93.478,0.0,0.0,0.0,0.0,0.0,10232635.0,331760.0,0.0,0.0,18.0,3377.0
3.261,4.348,92.391,0.0,0.0,0.0,0.0,0.0,10697270.0,346748.0,0.0,0.0,18.0,3537.0
3.125,2.083,92.708,0.0,0.0,2.083,0.0,0.0,6837108.0,224582.0,0.0,0.0,18.0,2335.0
2.083,5.208,92.708,0.0,0.0,0.0,0.0,0.0,6167602.0,199780.0,0.0,0.0,18.0,2197.0
2.105,5.263,92.632,0.0,0.0,0.0,0.0,0.0,7116057.0,231316.0,0.0,0.0,19.0,2630.0
3.125,4.167,91.667,0.0,0.0,1.042,0.0,0.0,7327939.0,239922.0,0.0,0.0,18.0,2604.0
3.191,6.383,90.426,0.0,0.0,0.0,0.0,0.0,8478384.0,274854.0,0.0,0.0,18.0,3015.0
2.105,4.211,92.632,0.0,0.0,1.053,0.0,0.0,8113811.0,262892.0,0.0,0.0,18.0,2789.0
2.151,3.226,94.624,0.0,0.0,0.0,0.0,0.0,8105044.0,264476.0,0.0,0.0,19.0,2771.0
6.122,7.143,84.694,0.0,0.0,2.041,0.0,0.0,9321035.0,302574.0,0.0,0.0,18.0,3118.0
0.0,2.174,97.826,0.0,0.0,0.0,0.0,8192.0,6964156.0,226018.0,0.0,0.0,18.0,2485.0
2.174,1.087,96.739,0.0,0.0,0.0,0.0,0.0,5637169.0,185108.0,0.0,0.0,18.0,2146.0
0.0,3.333,95.556,0.0,0.0,1.111,0.0,0.0,8463917.0,274664.0,0.0,0.0,18.0,2879.0
4.255,4.255,91.489,0.0,0.0,0.0,0.0,0.0,9313716.0,301734.0,0.0,0.0,19.0,3175.0
5.319,5.319,88.298,0.0,0.0,1.064,0.0,0.0,9762085.0,318594.0,0.0,0.0,18.0,3222.0
3.226,6.452,90.323,0.0,0.0,0.0,0.0,0.0,10548327.0,342194.0,0.0,0.0,18.0,3499.0
2.174,5.435,92.391,0.0,0.0,0.0,0.0,0.0,10469881.0,338974.0,0.0,0.0,18.0,3440.0
2.222,4.444,92.222,0.0,0.0,1.111,0.0,0.0,10441226.0,340982.0,0.0,0.0,19.0,3518.0
2.151,5.376,91.398,0.0,0.0,1.075,0.0,0.0,10172212.0,329528.0,0.0,0.0,18.0,3535.0
3.226,7.527,89.247,0.0,0.0,0.0,0.0,0.0,10318811.0,333934.0,0.0,0.0,18.0,3451.0
3.226,5.376,88.172,3.226,0.0,0.0,0.0,20480.0,10316768.0,337136.0,0.0,0.0,18.0,3500.0
3.191,6.383,90.426,0.0,0.0,0.0,0.0,0.0,9753034.0,316294.0,0.0,0.0,18.0,3320.0
2.151,6.452,91.398,0.0,0.0,0.0,0.0,0.0,10016713.0,324274.0,0.0,0.0,19.0,3408.0
4.348,5.435,89.130,0.0,0.0,1.087,0.0,0.0,10216422.0,333496.0,0.0,0.0,18.0,3414.0
4.348,5.435,90.217,0.0,0.0,0.0,0.0,0.0,9999806.0,323994.0,0.0,0.0,18.0,3430.0
2.062,9.278,87.629,0.0,0.0,1.031,0.0,0.0,10302177.0,333654.0,0.0,0.0,18.0,3427.0
4.211,7.368,87.368,0.0,0.0,1.053,0.0,0.0,10211955.0,333842.0,0.0,0.0,18.0,3467.0
1.087,5.435,92.391,0.0,0.0,1.087,0.0,0.0,10444990.0,338208.0,0.0,0.0,19.0,3542.0
2.151,4.301,93.548,0.0,0.0,0.0,0.0,0.0,8160331.0,264724.0,0.0,0.0,18.0,2843.0
8.511,5.319,84.043,0.0,0.0,2.128,0.0,0.0,7556134.0,251035.0,0.0,0.0,23.0,2854.0
4.348,6.522,89.130,0.0,0.0,0.0,0.0,0.0,10768510.0,349054.0,0.0,0.0,18.0,3588.0
2.105,6.316,90.526,0.0,0.0,1.053,0.0,0.0,10336032.0,334914.0,0.0,0.0,18.0,3488.0
5.495,4.396,90.110,0.0,0.0,0.0,0.0,0.0,10467286.0,341336.0,0.0,0.0,19.0,3598.0
1.124,3.371,95.506,0.0,0.0,0.0,0.0,0.0,10379610.0,336734.0,0.0,0.0,18.0,3489.0
4.211,7.368,87.368,0.0,0.0,1.053,0.0,0.0,10470500.0,339114.0,0.0,0.0,18.0,3427.0
3.226,7.527,89.247,0.0,0.0,0.0,0.0,0.0,10285475.0,336090.0,0.0,0.0,18.0,3509.0
2.151,5.376,91.398,0.0,0.0,1.075,0.0,0.0,10617342.0,343800.0,0.0,0.0,18.0,3416.0
1.087,6.522,92.391,0.0,0.0,0.0,0.0,0.0,10055281.0,325674.0,0.0,0.0,19.0,3339.0
4.255,5.319,89.362,0.0,0.0,1.064,0.0,0.0,10379458.0,336454.0,0.0,0.0,18.0,3389.0
2.105,11.579,85.263,0.0,0.0,1.053,0.0,0.0,11106744.0,362512.0,0.0,0.0,18.0,3766.0
2.174,4.348,92.391,0.0,0.0,1.087,0.0,0.0,10087574.0,326374.0,0.0,0.0,18.0,3340.0
1.087,7.609,91.304,0.0,0.0,0.0,0.0,8192.0,11408432.0,369634.0,0.0,0.0,18.0,3804.0
3.261,5.435,90.217,0.0,0.0,1.087,0.0,0.0,11167152.0,364576.0,0.0,0.0,19.0,3734.0
1.087,6.522,92.391,0.0,0.0,0.0,0.0,0.0,10418647.0,337154.0,0.0,0.0,18.0,3393.0
3.158,9.474,86.316,0.0,0.0,1.053,0.0,0.0,10993169.0,356194.0,0.0,0.0,18.0,3666.0
4.396,4.396,91.209,0.0,0.0,0.0,0.0,0.0,10415240.0,340496.0,0.0,0.0,18.0,3497.0
2.174,6.522,91.304,0.0,0.0,0.0,0.0,0.0,10240882.0,331414.0,0.0,0.0,18.0,3388.0
5.208,6.250,87.500,0.0,0.0,1.042,0.0,0.0,11045575.0,358014.0,0.0,0.0,19.0,3691.0
3.261,5.435,90.217,0.0,0.0,1.087,0.0,0.0,11020202.0,359116.0,0.0,0.0,18.0,3740.0
2.198,3.297,94.505,0.0,0.0,0.0,0.0,0.0,7227407.0,234846.0,0.0,0.0,18.0,2628.0
