"Dstat 0.7.2 CSV output"
"Author:","Dag Wieers <dag@wieers.com>",,,,"URL:","http://dag.wieers.com/home-made/dstat/"
"Host:","Server1",,,,"User:","maki"
"Cmdline:","dstat --output server_64_set_1_64.csv 1 70",,,,"Date:","25 Nov 2018 03:33:43 UTC"

"total cpu usage",,,,,,"dsk/total",,"net/total",,"paging",,"system",
"usr","sys","idl","wai","hiq","siq","read","writ","recv","send","in","out","int","csw"
4.703,9.244,83.632,0.790,0.0,1.631,17734.232,101783.792,0.0,0.0,0.0,0.0,18.519,1778.678
13.514,33.784,44.595,0.0,0.0,8.108,0.0,0.0,45021025.0,1445932.0,0.0,0.0,19.0,1959.0
14.286,33.766,44.156,0.0,0.0,7.792,0.0,0.0,47636256.0,1550468.0,0.0,0.0,18.0,2142.0
16.456,43.038,30.380,0.0,0.0,10.127,0.0,4096.0,54392911.0,1750900.0,0.0,0.0,19.0,1224.0
11.842,50.0,27.632,0.0,0.0,10.526,0.0,0.0,54223556.0,1771728.0,0.0,0.0,17.0,868.0
14.667,41.333,36.0,0.0,0.0,8.0,0.0,0.0,52911388.0,1714280.0,0.0,0.0,18.0,1165.0
12.162,44.595,32.432,0.0,0.0,10.811,0.0,0.0,55072949.0,1779664.0,0.0,0.0,19.0,1000.0
16.250,46.250,22.500,0.0,0.0,15.0,0.0,0.0,57126611.0,1857334.0,0.0,0.0,18.0,924.0
17.333,49.333,25.333,0.0,0.0,8.0,0.0,106496.0,56889213.0,1837254.0,0.0,0.0,18.0,923.0
14.103,46.154,29.487,0.0,0.0,10.256,0.0,0.0,56837309.0,1844674.0,0.0,0.0,19.0,1006.0
16.216,44.595,25.676,0.0,0.0,13.514,0.0,0.0,56272364.0,1825962.0,0.0,0.0,18.0,893.0
14.667,42.667,29.333,0.0,0.0,13.333,0.0,0.0,55409149.0,1789756.0,0.0,0.0,18.0,1183.0
12.346,46.914,28.395,0.0,0.0,12.346,0.0,0.0,56616490.0,1826894.0,0.0,0.0,18.0,834.0
16.438,46.575,19.178,0.0,0.0,17.808,0.0,0.0,57133702.0,1852478.0,0.0,0.0,18.0,1008.0
15.584,44.156,25.974,0.0,0.0,14.286,0.0,0.0,56400966.0,1840054.0,0.0,0.0,19.0,810.0
16.883,44.156,27.273,0.0,0.0,11.688,0.0,0.0,56346292.0,1813532.0,0.0,0.0,18.0,950.0
17.105,50.0,21.053,0.0,0.0,11.842,0.0,0.0,57901073.0,1884880.0,0.0,0.0,18.0,880.0
15.584,41.558,29.870,0.0,0.0,12.987,0.0,0.0,54718312.0,1774690.0,0.0,0.0,18.0,1079.0
13.889,45.833,27.778,0.0,0.0,12.500,0.0,0.0,57503335.0,1853354.0,0.0,0.0,18.0,875.0
15.584,45.455,27.273,0.0,0.0,11.688,0.0,0.0,54313519.0,1770662.0,0.0,0.0,19.0,996.0
16.456,44.304,26.582,0.0,0.0,12.658,0.0,0.0,56430763.0,1829768.0,0.0,0.0,18.0,986.0
17.105,44.737,22.368,0.0,0.0,15.789,0.0,0.0,56397708.0,1818844.0,0.0,0.0,18.0,1022.0
19.737,38.158,31.579,0.0,0.0,10.526,0.0,0.0,55871236.0,1813076.0,0.0,0.0,18.0,894.0
21.053,44.737,21.053,0.0,0.0,13.158,0.0,0.0,58378361.0,1891232.0,0.0,0.0,18.0,851.0
11.842,44.737,28.947,0.0,0.0,14.474,0.0,0.0,57034907.0,1856376.0,0.0,0.0,18.0,1010.0
15.0,40.0,27.500,0.0,0.0,17.500,0.0,0.0,56438070.0,1832068.0,0.0,0.0,19.0,970.0
16.901,40.845,28.169,0.0,0.0,14.085,0.0,0.0,57166423.0,1848056.0,0.0,0.0,18.0,693.0
15.190,43.038,30.380,0.0,0.0,11.392,0.0,0.0,54015105.0,1748234.0,0.0,0.0,18.0,1234.0
19.737,43.421,18.421,0.0,0.0,18.421,0.0,0.0,55217373.0,1796034.0,0.0,0.0,18.0,803.0
16.049,48.148,18.519,0.0,0.0,17.284,0.0,0.0,57921830.0,1869940.0,0.0,0.0,19.0,887.0
18.421,42.105,22.368,0.0,0.0,17.105,0.0,0.0,57040320.0,1848874.0,0.0,0.0,18.0,810.0
17.722,51.899,18.987,0.0,0.0,11.392,0.0,0.0,55084156.0,1787822.0,0.0,0.0,18.0,785.0
9.877,45.679,29.630,0.0,0.0,14.815,0.0,0.0,53132521.0,1723294.0,0.0,0.0,18.0,1107.0
20.253,40.506,24.051,0.0,0.0,15.190,0.0,12288.0,56369050.0,1819474.0,0.0,0.0,18.0,959.0
11.250,40.0,37.500,0.0,0.0,11.250,0.0,0.0,49914750.0,1625976.0,0.0,0.0,19.0,1267.0
11.842,43.421,31.579,0.0,0.0,13.158,0.0,0.0,53250976.0,1721272.0,0.0,0.0,18.0,1207.0
14.667,41.333,29.333,0.0,0.0,14.667,0.0,0.0,53741559.0,1740032.0,0.0,0.0,18.0,1144.0
23.457,35.802,25.926,0.0,0.0,14.815,0.0,0.0,54259107.0,1762262.0,0.0,0.0,18.0,1168.0
16.667,46.154,20.513,1.282,0.0,15.385,0.0,20480.0,58191956.0,1885068.0,0.0,0.0,18.0,878.0
19.178,46.575,21.918,0.0,0.0,12.329,0.0,0.0,57925395.0,1875680.0,0.0,0.0,19.0,1054.0
14.667,46.667,26.667,0.0,0.0,12.0,0.0,0.0,56038605.0,1814716.0,0.0,0.0,18.0,1012.0
23.077,41.026,25.641,0.0,0.0,10.256,0.0,0.0,55393406.0,1786994.0,0.0,0.0,18.0,906.0
15.385,41.026,29.487,0.0,0.0,14.103,0.0,0.0,56638287.0,1840548.0,0.0,0.0,18.0,1007.0
18.667,45.333,25.333,0.0,0.0,10.667,0.0,0.0,54823470.0,1770854.0,0.0,0.0,18.0,1141.0
19.737,42.105,26.316,0.0,0.0,11.842,0.0,0.0,56220643.0,1820594.0,0.0,0.0,19.0,909.0
14.286,40.260,27.273,0.0,0.0,18.182,0.0,0.0,56484092.0,1830546.0,0.0,0.0,18.0,948.0
16.456,49.367,24.051,0.0,0.0,10.127,0.0,0.0,56089314.0,1821294.0,0.0,0.0,18.0,881.0
17.105,42.105,27.632,0.0,0.0,13.158,0.0,0.0,54227579.0,1768916.0,0.0,0.0,18.0,1011.0
18.293,46.341,25.610,0.0,0.0,9.756,0.0,0.0,54849064.0,1772220.0,0.0,0.0,19.0,1093.0
13.889,40.278,31.944,0.0,0.0,13.889,0.0,0.0,53769458.0,1740418.0,0.0,0.0,18.0,1044.0
20.779,48.052,20.779,0.0,0.0,10.390,0.0,0.0,56426943.0,1834458.0,0.0,0.0,18.0,929.0
15.584,40.260,32.468,0.0,0.0,11.688,0.0,0.0,53033923.0,1715404.0,0.0,0.0,18.0,1110.0
14.865,41.892,32.432,0.0,0.0,10.811,0.0,0.0,53913677.0,1743252.0,0.0,0.0,18.0,1183.0
19.444,52.778,20.833,0.0,0.0,6.944,0.0,0.0,56690234.0,1840460.0,0.0,0.0,18.0,765.0
11.688,50.649,24.675,0.0,0.0,12.987,0.0,0.0,56539028.0,1824118.0,0.0,0.0,19.0,1048.0
17.333,41.333,30.667,0.0,0.0,10.667,0.0,0.0,55043854.0,1791342.0,0.0,0.0,18.0,1052.0
17.105,43.421,25.0,0.0,0.0,14.474,0.0,0.0,56293860.0,1815322.0,0.0,0.0,18.0,805.0
17.722,41.772,29.114,0.0,0.0,11.392,0.0,0.0,55946904.0,1807854.0,0.0,0.0,18.0,894.0
10.526,47.368,30.263,0.0,0.0,11.842,0.0,0.0,55389450.0,1797634.0,0.0,0.0,19.0,868.0
18.750,45.0,21.250,0.0,0.0,15.0,0.0,0.0,57266950.0,1868376.0,0.0,0.0,18.0,674.0
18.667,48.0,21.333,0.0,0.0,12.0,0.0,0.0,56184260.0,1824286.0,0.0,0.0,18.0,912.0
18.750,45.0,23.750,0.0,0.0,12.500,0.0,0.0,55419607.0,1790774.0,0.0,0.0,18.0,920.0
17.722,43.038,24.051,0.0,0.0,15.190,0.0,0.0,56053154.0,1823734.0,0.0,0.0,18.0,751.0
14.667,44.0,28.0,0.0,0.0,13.333,0.0,0.0,55925380.0,1804914.0,0.0,0.0,19.0,1125.0
14.286,45.455,29.870,0.0,0.0,10.390,0.0,8192.0,54382187.0,1767674.0,0.0,0.0,18.0,952.0
14.865,52.703,18.919,0.0,0.0,13.514,0.0,0.0,57560729.0,1858640.0,0.0,0.0,18.0,871.0
18.182,42.857,22.078,0.0,0.0,16.883,0.0,0.0,56083941.0,1821812.0,0.0,0.0,18.0,1067.0
13.924,45.570,27.848,0.0,0.0,12.658,0.0,0.0,54047797.0,1750552.0,0.0,0.0,19.0,1035.0
16.667,41.026,28.205,0.0,0.0,14.103,0.0,0.0,54763068.0,1775696.0,0.0,0.0,18.0,884.0
19.178,49.315,21.918,0.0,0.0,9.589,0.0,40960.0,56788144.0,1826844.0,0.0,0.0,18.0,887.0
12.941,37.647,40.0,0.0,0.0,9.412,0.0,0.0,46160605.0,1511474.0,0.0,0.0,18.0,1333.0
