"Dstat 0.7.2 CSV output"
"Author:","Dag Wieers <dag@wieers.com>",,,,"URL:","http://dag.wieers.com/home-made/dstat/"
"Host:","Server1",,,,"User:","maki"
"Cmdline:","dstat --output server_64_set_3_22.csv 1 70",,,,"Date:","25 Nov 2018 04:01:43 UTC"

"total cpu usage",,,,,,"dsk/total",,"net/total",,"paging",,"system",
"usr","sys","idl","wai","hiq","siq","read","writ","recv","send","in","out","int","csw"
4.836,9.615,82.888,0.714,0.0,1.947,15891.800,91408.116,0.0,0.0,0.0,0.0,18.494,1779.959
7.317,15.854,68.293,0.0,0.0,8.537,0.0,0.0,34571804.0,1118020.0,0.0,0.0,18.0,3981.0
11.628,25.581,55.814,0.0,0.0,6.977,0.0,0.0,40537432.0,1316390.0,0.0,0.0,18.0,2948.0
14.286,29.870,46.753,0.0,0.0,9.091,0.0,0.0,45169301.0,1459678.0,0.0,0.0,18.0,2258.0
18.421,42.105,31.579,0.0,0.0,7.895,0.0,0.0,50206627.0,1627151.0,0.0,0.0,24.0,1472.0
17.333,41.333,28.0,0.0,0.0,13.333,0.0,0.0,51184100.0,1649356.0,0.0,0.0,18.0,1338.0
8.451,38.028,42.254,0.0,0.0,11.268,0.0,0.0,50335878.0,1645314.0,0.0,0.0,18.0,1584.0
12.987,40.260,35.065,0.0,0.0,11.688,0.0,0.0,51909880.0,1678140.0,0.0,0.0,19.0,1184.0
18.421,34.211,36.842,0.0,0.0,10.526,0.0,0.0,50276720.0,1630858.0,0.0,0.0,18.0,1441.0
13.924,37.975,35.443,0.0,0.0,12.658,0.0,0.0,51706210.0,1666800.0,0.0,0.0,18.0,1313.0
13.750,46.250,31.250,0.0,0.0,8.750,0.0,4096.0,51653173.0,1681104.0,0.0,0.0,18.0,1182.0
15.0,40.0,33.750,0.0,0.0,11.250,0.0,0.0,49446996.0,1597360.0,0.0,0.0,18.0,1296.0
20.779,38.961,29.870,0.0,0.0,10.390,0.0,0.0,52563099.0,1703006.0,0.0,0.0,19.0,1244.0
11.842,43.421,31.579,0.0,0.0,13.158,0.0,0.0,51878938.0,1674640.0,0.0,0.0,18.0,1221.0
17.808,43.836,30.137,0.0,0.0,8.219,0.0,0.0,50916702.0,1664550.0,0.0,0.0,18.0,1103.0
14.667,42.667,32.0,0.0,0.0,10.667,0.0,45056.0,51071333.0,1654182.0,0.0,0.0,18.0,1420.0
16.0,40.0,33.333,0.0,0.0,10.667,0.0,0.0,51057631.0,1653368.0,0.0,0.0,18.0,1449.0
15.385,38.462,37.179,0.0,0.0,8.974,0.0,0.0,50261469.0,1627522.0,0.0,0.0,20.0,1513.0
18.667,41.333,30.667,0.0,0.0,9.333,0.0,0.0,51432572.0,1668394.0,0.0,0.0,18.0,1443.0
18.182,40.260,29.870,0.0,0.0,11.688,0.0,0.0,52008830.0,1684514.0,0.0,0.0,18.0,1619.0
16.0,42.667,26.667,0.0,0.0,14.667,0.0,0.0,51490080.0,1666874.0,0.0,0.0,18.0,1536.0
18.421,38.158,27.632,0.0,0.0,15.789,0.0,0.0,51534436.0,1667696.0,0.0,0.0,19.0,1648.0
17.143,41.429,25.714,0.0,0.0,15.714,0.0,0.0,52285630.0,1696014.0,0.0,0.0,18.0,1585.0
14.706,35.294,38.235,0.0,0.0,11.765,0.0,0.0,49678895.0,1615568.0,0.0,0.0,18.0,1606.0
20.270,43.243,27.027,0.0,0.0,9.459,0.0,0.0,52377570.0,1685756.0,0.0,0.0,18.0,1122.0
12.500,45.0,25.0,0.0,0.0,17.500,0.0,0.0,51993216.0,1693614.0,0.0,0.0,18.0,1306.0
15.190,43.038,29.114,0.0,0.0,12.658,0.0,0.0,51662929.0,1661698.0,0.0,0.0,18.0,1677.0
20.270,40.541,29.730,0.0,0.0,9.459,0.0,0.0,51084742.0,1664822.0,0.0,0.0,18.0,1367.0
18.056,38.889,30.556,0.0,0.0,12.500,0.0,0.0,52211859.0,1695648.0,0.0,0.0,19.0,1252.0
17.333,33.333,34.667,0.0,0.0,14.667,0.0,0.0,50521569.0,1633834.0,0.0,0.0,18.0,1505.0
21.795,38.462,29.487,0.0,0.0,10.256,0.0,12288.0,51862111.0,1684938.0,0.0,0.0,18.0,1162.0
18.182,38.961,31.169,0.0,0.0,11.688,0.0,0.0,51965183.0,1680734.0,0.0,0.0,18.0,1595.0
12.346,46.914,28.395,0.0,0.0,12.346,0.0,0.0,51368561.0,1666454.0,0.0,0.0,19.0,1564.0
16.667,41.667,31.944,0.0,0.0,9.722,0.0,0.0,51493403.0,1670540.0,0.0,0.0,18.0,1398.0
11.111,45.833,31.944,0.0,0.0,11.111,0.0,0.0,53037451.0,1703480.0,0.0,0.0,18.0,1409.0
12.162,43.243,33.784,0.0,0.0,10.811,0.0,8192.0,50249111.0,1641188.0,0.0,0.0,18.0,1619.0
18.987,35.443,32.911,0.0,0.0,12.658,0.0,0.0,51326718.0,1664196.0,0.0,0.0,19.0,1540.0
14.286,41.558,35.065,0.0,0.0,9.091,0.0,0.0,50348638.0,1635654.0,0.0,0.0,18.0,1384.0
11.111,37.500,44.444,0.0,0.0,6.944,0.0,0.0,49389012.0,1595120.0,0.0,0.0,18.0,1851.0
16.456,39.241,31.646,0.0,0.0,12.658,0.0,0.0,50471117.0,1638716.0,0.0,0.0,18.0,1327.0
17.500,43.750,28.750,0.0,0.0,10.0,0.0,0.0,50432262.0,1632586.0,0.0,0.0,18.0,1219.0
14.667,36.0,37.333,0.0,0.0,12.0,0.0,0.0,50307141.0,1630412.0,0.0,0.0,19.0,1522.0
16.250,38.750,31.250,0.0,0.0,13.750,0.0,0.0,50053362.0,1623612.0,0.0,0.0,18.0,1437.0
11.111,40.741,35.802,0.0,0.0,12.346,0.0,0.0,50987551.0,1654772.0,0.0,0.0,18.0,1670.0
18.056,44.444,30.556,0.0,0.0,6.944,0.0,0.0,51892258.0,1672614.0,0.0,0.0,18.0,1196.0
21.333,40.0,28.0,0.0,0.0,10.667,0.0,24576.0,50868970.0,1655680.0,0.0,0.0,18.0,1520.0
17.333,44.0,33.333,0.0,0.0,5.333,0.0,0.0,50412795.0,1632878.0,0.0,0.0,19.0,1443.0
16.667,42.308,30.769,0.0,0.0,10.256,0.0,32768.0,50896140.0,1648394.0,0.0,0.0,18.0,1126.0
15.663,40.964,31.325,0.0,0.0,12.048,0.0,0.0,51138021.0,1660836.0,0.0,0.0,18.0,1382.0
15.278,43.056,33.333,0.0,0.0,8.333,0.0,0.0,51740545.0,1673326.0,0.0,0.0,18.0,1329.0
10.959,45.205,30.137,0.0,0.0,13.699,0.0,0.0,51639329.0,1676084.0,0.0,0.0,19.0,1196.0
22.078,38.961,28.571,0.0,0.0,10.390,0.0,0.0,51743047.0,1667568.0,0.0,0.0,18.0,1439.0
17.722,39.241,32.911,0.0,0.0,10.127,0.0,0.0,51100833.0,1664700.0,0.0,0.0,18.0,1304.0
12.987,45.455,31.169,0.0,0.0,10.390,0.0,0.0,51432407.0,1657226.0,0.0,0.0,18.0,1377.0
16.883,41.558,35.065,0.0,0.0,6.494,0.0,0.0,50744999.0,1647144.0,0.0,0.0,18.0,1644.0
9.756,54.878,24.390,0.0,0.0,10.976,0.0,0.0,52289623.0,1702014.0,0.0,0.0,18.0,1424.0
12.346,49.383,28.395,0.0,0.0,9.877,0.0,0.0,52328449.0,1684794.0,0.0,0.0,19.0,1397.0
22.500,36.250,28.750,0.0,0.0,12.500,0.0,0.0,51820821.0,1686170.0,0.0,0.0,18.0,1484.0
17.105,46.053,27.632,0.0,0.0,9.211,0.0,0.0,52098217.0,1693966.0,0.0,0.0,18.0,1398.0
12.821,42.308,35.897,0.0,0.0,8.974,0.0,0.0,51654109.0,1666808.0,0.0,0.0,18.0,1632.0
15.068,43.836,32.877,0.0,0.0,8.219,0.0,0.0,51503173.0,1669180.0,0.0,0.0,18.0,1514.0
15.0,46.250,25.0,0.0,0.0,13.750,0.0,0.0,53198960.0,1729090.0,0.0,0.0,19.0,1438.0
16.0,37.333,37.333,0.0,0.0,9.333,0.0,0.0,50353069.0,1630614.0,0.0,0.0,18.0,1503.0
15.385,41.026,34.615,0.0,0.0,8.974,0.0,0.0,51194723.0,1651700.0,0.0,0.0,18.0,1756.0
16.0,46.667,25.333,0.0,0.0,12.0,0.0,0.0,50525897.0,1650185.0,0.0,0.0,23.0,1326.0
16.883,41.558,28.571,0.0,0.0,12.987,0.0,0.0,51611570.0,1664708.0,0.0,0.0,18.0,1451.0
13.415,42.683,31.707,0.0,0.0,12.195,0.0,8192.0,52259347.0,1701520.0,0.0,0.0,19.0,1379.0
15.584,44.156,23.377,0.0,0.0,16.883,0.0,0.0,51711499.0,1670290.0,0.0,0.0,18.0,1765.0
17.105,42.105,32.895,0.0,0.0,7.895,0.0,0.0,50919632.0,1647974.0,0.0,0.0,18.0,1454.0
18.310,36.620,32.394,0.0,0.0,12.676,0.0,0.0,50613810.0,1646858.0,0.0,0.0,19.0,1526.0
17.284,38.272,34.568,0.0,0.0,9.877,0.0,0.0,44399704.0,1442946.0,0.0,0.0,17.0,995.0
