"Dstat 0.7.2 CSV output"
"Author:","Dag Wieers <dag@wieers.com>",,,,"URL:","http://dag.wieers.com/home-made/dstat/"
"Host:","Server1",,,,"User:","maki"
"Cmdline:","dstat --output server_8_set_1_42.csv 1 70",,,,"Date:","25 Nov 2018 00:20:26 UTC"

"total cpu usage",,,,,,"dsk/total",,"net/total",,"paging",,"system",
"usr","sys","idl","wai","hiq","siq","read","writ","recv","send","in","out","int","csw"
2.263,2.955,90.988,3.467,0.0,0.327,88523.465,501207.630,0.0,0.0,0.0,0.0,19.476,749.940
5.682,9.091,84.091,0.0,0.0,1.136,0.0,0.0,22382668.0,727384.0,0.0,0.0,18.0,4453.0
2.381,17.857,78.571,0.0,0.0,1.190,0.0,0.0,25743411.0,833940.0,0.0,0.0,18.0,4704.0
8.696,17.391,70.652,0.0,0.0,3.261,0.0,0.0,30546258.0,988368.0,0.0,0.0,18.0,4163.0
6.742,17.978,75.281,0.0,0.0,0.0,0.0,0.0,29272556.0,952156.0,0.0,0.0,18.0,3766.0
5.682,14.773,78.409,0.0,0.0,1.136,0.0,0.0,31470441.0,1017200.0,0.0,0.0,19.0,3767.0
7.059,21.176,68.235,0.0,0.0,3.529,0.0,0.0,31488545.0,1019934.0,0.0,0.0,18.0,3769.0
7.865,23.596,65.169,0.0,0.0,3.371,0.0,0.0,32133646.0,1043650.0,0.0,0.0,18.0,3968.0
9.412,18.824,69.412,0.0,0.0,2.353,0.0,0.0,32395853.0,1049820.0,0.0,0.0,18.0,3928.0
8.333,17.857,71.429,0.0,0.0,2.381,0.0,0.0,32905766.0,1065928.0,0.0,0.0,18.0,3859.0
8.602,19.355,69.892,0.0,0.0,2.151,0.0,0.0,29934942.0,972876.0,0.0,0.0,19.0,3882.0
8.235,17.647,71.765,0.0,0.0,2.353,0.0,0.0,31591731.0,1023574.0,0.0,0.0,18.0,3681.0
6.098,15.854,75.610,0.0,0.0,2.439,0.0,0.0,32439308.0,1050314.0,0.0,0.0,18.0,3899.0
10.465,19.767,66.279,0.0,0.0,3.488,0.0,0.0,30446267.0,989946.0,0.0,0.0,18.0,3724.0
6.897,12.644,78.161,0.0,0.0,2.299,0.0,0.0,31514027.0,1021054.0,0.0,0.0,19.0,3664.0
8.235,15.294,76.471,0.0,0.0,0.0,0.0,0.0,33696876.0,1090634.0,0.0,0.0,18.0,3949.0
8.140,15.116,74.419,0.0,0.0,2.326,0.0,0.0,29861444.0,968536.0,0.0,0.0,18.0,3437.0
4.651,19.767,73.256,0.0,0.0,2.326,0.0,0.0,32015686.0,1038834.0,0.0,0.0,18.0,3732.0
6.818,14.773,76.136,0.0,0.0,2.273,0.0,8192.0,29936263.0,967780.0,0.0,0.0,18.0,3715.0
9.302,15.116,74.419,0.0,0.0,1.163,0.0,0.0,28276064.0,919772.0,0.0,0.0,19.0,3624.0
6.897,16.092,74.713,0.0,0.0,2.299,0.0,0.0,30792412.0,998374.0,0.0,0.0,18.0,3725.0
8.989,17.978,71.910,0.0,0.0,1.124,0.0,0.0,31725912.0,1025394.0,0.0,0.0,18.0,3766.0
7.317,15.854,75.610,0.0,0.0,1.220,0.0,0.0,30174757.0,980016.0,0.0,0.0,18.0,3827.0
7.143,17.857,71.429,0.0,0.0,3.571,0.0,0.0,32144738.0,1043454.0,0.0,0.0,18.0,3771.0
8.989,17.978,70.787,0.0,0.0,2.247,0.0,0.0,31346293.0,1012670.0,0.0,0.0,18.0,3685.0
9.091,18.182,70.455,0.0,0.0,2.273,0.0,0.0,31497311.0,1025096.0,0.0,0.0,19.0,3853.0
5.682,14.773,78.409,0.0,0.0,1.136,0.0,0.0,32815240.0,1060674.0,0.0,0.0,18.0,4036.0
10.465,17.442,72.093,0.0,0.0,0.0,0.0,0.0,32396382.0,1050314.0,0.0,0.0,18.0,3906.0
6.897,16.092,74.713,0.0,0.0,2.299,0.0,16384.0,29225833.0,948236.0,0.0,0.0,18.0,3382.0
5.747,18.391,73.563,0.0,0.0,2.299,0.0,0.0,32114850.0,1041074.0,0.0,0.0,18.0,3929.0
6.818,18.182,73.864,0.0,0.0,1.136,0.0,0.0,31284470.0,1014474.0,0.0,0.0,19.0,3813.0
5.682,15.909,72.727,1.136,0.0,4.545,0.0,32768.0,30483820.0,988976.0,0.0,0.0,18.0,3554.0
12.644,14.943,71.264,0.0,0.0,1.149,0.0,0.0,33377086.0,1082234.0,0.0,0.0,18.0,3933.0
5.618,15.730,76.404,0.0,0.0,2.247,0.0,8192.0,31790486.0,1029874.0,0.0,0.0,18.0,3827.0
8.696,18.478,68.478,0.0,0.0,4.348,0.0,0.0,29281453.0,950056.0,0.0,0.0,19.0,3433.0
8.434,16.867,73.494,0.0,0.0,1.205,0.0,0.0,32879829.0,1064454.0,0.0,0.0,18.0,3827.0
8.140,19.767,70.930,0.0,0.0,1.163,0.0,0.0,31790437.0,1029594.0,0.0,0.0,18.0,3696.0
6.593,20.879,71.429,0.0,0.0,1.099,0.0,0.0,30610671.0,991350.0,0.0,0.0,18.0,3548.0
4.706,12.941,80.0,0.0,0.0,2.353,0.0,0.0,31158047.0,1011820.0,0.0,0.0,18.0,3822.0
4.651,13.953,79.070,0.0,0.0,2.326,0.0,0.0,30855597.0,999814.0,0.0,0.0,19.0,3648.0
6.897,14.943,77.011,0.0,0.0,1.149,0.0,0.0,29718098.0,962534.0,0.0,0.0,18.0,3440.0
10.345,12.644,72.414,0.0,0.0,4.598,0.0,0.0,31510670.0,1022716.0,0.0,0.0,18.0,4038.0
7.955,12.500,77.273,0.0,0.0,2.273,0.0,0.0,32032736.0,1036874.0,0.0,0.0,18.0,3681.0
6.818,14.773,77.273,0.0,0.0,1.136,0.0,0.0,31202473.0,1012160.0,0.0,0.0,18.0,3668.0
7.059,21.176,69.412,0.0,0.0,2.353,0.0,0.0,31208021.0,1012710.0,0.0,0.0,19.0,3661.0
8.989,19.101,69.663,0.0,0.0,2.247,0.0,0.0,30822503.0,999914.0,0.0,0.0,18.0,3692.0
4.706,18.824,75.294,0.0,0.0,1.176,0.0,0.0,31280995.0,1011954.0,0.0,0.0,18.0,3598.0
13.253,19.277,63.855,0.0,0.0,3.614,0.0,0.0,29806195.0,972637.0,0.0,0.0,23.0,3596.0
6.977,17.442,73.256,0.0,0.0,2.326,0.0,0.0,32274535.0,1045274.0,0.0,0.0,19.0,3610.0
5.495,17.582,75.824,0.0,0.0,1.099,0.0,0.0,29021350.0,940134.0,0.0,0.0,18.0,3528.0
9.302,17.442,72.093,0.0,0.0,1.163,0.0,0.0,32163470.0,1044482.0,0.0,0.0,18.0,3967.0
8.140,18.605,70.930,0.0,0.0,2.326,0.0,0.0,31488403.0,1018468.0,0.0,0.0,18.0,4104.0
11.111,18.519,65.432,0.0,0.0,4.938,0.0,0.0,29600951.0,960574.0,0.0,0.0,18.0,3825.0
7.059,20.0,71.765,0.0,0.0,1.176,0.0,0.0,31294415.0,1014036.0,0.0,0.0,19.0,3840.0
7.865,19.101,67.416,0.0,0.0,5.618,0.0,0.0,31045817.0,1007350.0,0.0,0.0,18.0,3888.0
8.989,12.360,77.528,0.0,0.0,1.124,0.0,0.0,30416814.0,985774.0,0.0,0.0,18.0,3690.0
10.843,21.687,62.651,0.0,0.0,4.819,0.0,0.0,30647161.0,993036.0,0.0,0.0,18.0,3985.0
7.229,20.482,71.084,0.0,0.0,1.205,0.0,0.0,31509714.0,1022174.0,0.0,0.0,18.0,3723.0
7.143,21.429,69.048,0.0,0.0,2.381,0.0,0.0,31553024.0,1021334.0,0.0,0.0,19.0,3757.0
10.989,16.484,69.231,0.0,0.0,3.297,0.0,0.0,29588681.0,960276.0,0.0,0.0,18.0,3411.0
4.494,20.225,71.910,0.0,0.0,3.371,0.0,0.0,31297946.0,1014614.0,0.0,0.0,18.0,3792.0
9.302,11.628,76.744,1.163,0.0,1.163,0.0,45056.0,31799330.0,1030854.0,0.0,0.0,18.0,3654.0
9.890,15.385,71.429,0.0,0.0,3.297,0.0,0.0,31843885.0,1033076.0,0.0,0.0,18.0,3842.0
10.345,14.943,73.563,0.0,0.0,1.149,0.0,0.0,31207293.0,1010554.0,0.0,0.0,19.0,3920.0
3.529,22.353,70.588,0.0,0.0,3.529,0.0,45056.0,31816169.0,1030770.0,0.0,0.0,18.0,4024.0
5.682,15.909,75.0,0.0,0.0,3.409,0.0,0.0,29199889.0,949776.0,0.0,0.0,18.0,3768.0
7.595,17.722,72.152,0.0,0.0,2.532,0.0,0.0,31626229.0,1023714.0,0.0,0.0,18.0,3845.0
5.814,18.605,73.256,0.0,0.0,2.326,0.0,0.0,33558782.0,1086714.0,0.0,0.0,18.0,4017.0
6.098,15.854,76.829,0.0,0.0,1.220,0.0,0.0,30611912.0,994856.0,0.0,0.0,19.0,3610.0
8.046,16.092,74.713,0.0,0.0,1.149,0.0,0.0,31518366.0,1019374.0,0.0,0.0,18.0,4025.0
7.955,18.182,70.455,0.0,0.0,3.409,0.0,0.0,33511057.0,1086154.0,0.0,0.0,18.0,4343.0
