2         Threads
8         Connections per thread
70        Seconds


ALL STATS
========================================================================
Type        Ops/sec     Hits/sec   Misses/sec      Latency       KB/sec 
------------------------------------------------------------------------
Sets           0.00          ---          ---      0.00000         0.00 
Gets        1003.72      1003.72         0.00     15.93500      4065.65 
Waits          0.00          ---          ---      0.00000          --- 
Totals      1003.72      1003.72         0.00     15.93500      4065.65 


Request Latency Distribution
Type     <= msec         Percent
------------------------------------------------------------------------
---
GET       0.200         0.00
GET       0.210         0.01
GET       0.220         0.01
GET       0.230         0.01
GET       0.240         0.02
GET       0.250         0.03
GET       0.260         0.04
GET       0.270         0.06
GET       0.280         0.07
GET       0.290         0.09
GET       0.300         0.10
GET       0.310         0.12
GET       0.320         0.14
GET       0.330         0.17
GET       0.340         0.18
GET       0.350         0.20
GET       0.360         0.24
GET       0.370         0.26
GET       0.380         0.28
GET       0.390         0.32
GET       0.400         0.37
GET       0.410         0.40
GET       0.420         0.44
GET       0.430         0.47
GET       0.440         0.52
GET       0.450         0.56
GET       0.460         0.58
GET       0.470         0.62
GET       0.480         0.66
GET       0.490         0.71
GET       0.500         0.74
GET       0.510         0.79
GET       0.520         0.83
GET       0.530         0.86
GET       0.540         0.89
GET       0.550         0.92
GET       0.560         0.95
GET       0.570         0.97
GET       0.580         1.02
GET       0.590         1.07
GET       0.600         1.10
GET       0.610         1.14
GET       0.620         1.18
GET       0.630         1.21
GET       0.640         1.23
GET       0.650         1.27
GET       0.660         1.29
GET       0.670         1.32
GET       0.680         1.36
GET       0.690         1.40
GET       0.700         1.43
GET       0.710         1.47
GET       0.720         1.51
GET       0.730         1.53
GET       0.740         1.57
GET       0.750         1.60
GET       0.760         1.64
GET       0.770         1.66
GET       0.780         1.70
GET       0.790         1.73
GET       0.800         1.77
GET       0.810         1.82
GET       0.820         1.85
GET       0.830         1.88
GET       0.840         1.91
GET       0.850         1.94
GET       0.860         1.98
GET       0.870         2.01
GET       0.880         2.03
GET       0.890         2.05
GET       0.900         2.08
GET       0.910         2.12
GET       0.920         2.14
GET       0.930         2.17
GET       0.940         2.19
GET       0.950         2.21
GET       0.960         2.24
GET       0.970         2.26
GET       0.980         2.28
GET       0.990         2.30
GET       1.000         2.42
GET       1.100         2.59
GET       1.200         2.69
GET       1.300         2.79
GET       1.400         2.83
GET       1.500         2.89
GET       1.600         2.93
GET       1.700         2.96
GET       1.800         2.99
GET       1.900         3.00
GET       2.000         3.01
GET       2.100         3.02
GET       2.200         3.03
GET       2.300         3.05
GET       2.400         3.06
GET       2.500         3.08
GET       2.600         3.08
GET       2.700         3.08
GET       2.800         3.09
GET       2.900         3.10
GET       3.000         3.11
GET       3.200         3.11
GET       3.300         3.11
GET       3.400         3.12
GET       3.600         3.12
GET       3.800         3.12
GET       4.200         3.13
GET       4.300         3.13
GET       4.400         3.13
GET       4.500         3.14
GET       4.600         3.14
GET       4.700         3.15
GET       4.800         3.15
GET       4.900         3.16
GET       5.000         3.16
GET       5.100         3.16
GET       5.300         3.18
GET       5.400         3.19
GET       5.500         3.19
GET       5.600         3.20
GET       5.700         3.20
GET       5.800         3.21
GET       5.900         3.21
GET       6.300         3.21
GET       6.400         3.22
GET       6.500         3.23
GET       6.600         3.25
GET       6.700         3.26
GET       6.800         3.27
GET       6.900         3.27
GET       7.000         3.28
GET       7.100         3.29
GET       7.200         3.31
GET       7.300         3.32
GET       7.500         3.32
GET       7.600         3.33
GET       7.800         3.33
GET       7.900         3.33
GET       8.000         3.33
GET       8.100         3.33
GET       8.200         3.34
GET       8.300         3.35
GET       8.400         3.35
GET       8.600         3.35
GET       8.700         3.35
GET       8.900         3.36
GET       9.000         3.36
GET       9.100         3.36
GET       9.200         3.36
GET       9.300         3.37
GET       9.400         3.37
GET       9.500         3.38
GET       9.600         3.38
GET       9.700         3.38
GET       9.800         3.39
GET       9.900         3.40
GET      10.000         3.42
GET      11.000         3.57
GET      12.000         3.81
GET      13.000         4.30
GET      14.000         5.42
GET      15.000        26.52
GET      16.000        94.47
GET      17.000        95.60
GET      18.000        96.10
GET      19.000        96.36
GET      20.000        96.49
GET      21.000        96.52
GET      22.000        96.55
GET      23.000        96.60
GET      24.000        96.66
GET      25.000        96.67
GET      26.000        96.68
GET      27.000        96.69
GET      28.000        96.74
GET      29.000        96.86
GET      30.000        97.32
GET      31.000        99.24
GET      32.000        99.33
GET      33.000        99.35
GET      34.000        99.36
GET      36.000        99.36
GET      39.000        99.36
GET      40.000        99.38
GET      41.000        99.38
GET      42.000        99.39
GET      43.000        99.39
GET      44.000        99.39
GET      45.000        99.41
GET      46.000        99.65
GET      47.000        99.77
GET      50.000        99.79
GET      51.000        99.80
GET      52.000        99.80
GET      56.000        99.80
GET      62.000        99.85
GET      63.000        99.86
GET      77.000        99.86
GET      78.000        99.87
GET      79.000        99.87
GET      93.000        99.89
GET      96.000        99.90
GET      97.000        99.90
GET     110.000        99.91
GET     140.000        99.93
GET     180.000        99.93
GET     230.000        99.97
GET     280.000        99.99
GET     310.000       100.00
---
