1         Threads
42        Connections per thread
70        Seconds


ALL STATS
========================================================================
Type        Ops/sec     Hits/sec   Misses/sec      Latency       KB/sec 
------------------------------------------------------------------------
Sets           0.00          ---          ---      0.00000         0.00 
Gets         456.28       456.28         0.00     90.73700      1848.19 
Waits          0.00          ---          ---      0.00000          --- 
Totals       456.28       456.28         0.00     90.73700      1848.19 


Request Latency Distribution
Type     <= msec         Percent
------------------------------------------------------------------------
---
GET      30.000         0.02
GET      31.000         0.05
GET      33.000         0.06
GET      36.000         0.06
GET      37.000         0.07
GET      41.000         0.07
GET      42.000         0.07
GET      46.000         0.08
GET      47.000         0.10
GET      48.000         0.11
GET      51.000         0.12
GET      52.000         0.13
GET      53.000         0.13
GET      54.000         0.14
GET      56.000         0.14
GET      59.000         0.15
GET      60.000         0.15
GET      61.000         0.21
GET      62.000         0.73
GET      63.000         1.93
GET      64.000         2.35
GET      65.000         2.40
GET      66.000         2.44
GET      67.000         2.45
GET      68.000         2.46
GET      69.000         2.47
GET      70.000         2.49
GET      71.000         2.53
GET      72.000         2.57
GET      73.000         2.64
GET      74.000         2.75
GET      75.000         2.94
GET      76.000         3.42
GET      77.000         7.30
GET      78.000        25.99
GET      79.000        38.18
GET      80.000        39.92
GET      81.000        40.34
GET      82.000        40.50
GET      83.000        40.67
GET      84.000        40.75
GET      85.000        40.83
GET      86.000        40.88
GET      87.000        40.95
GET      88.000        41.01
GET      89.000        41.16
GET      90.000        41.38
GET      91.000        41.90
GET      92.000        44.20
GET      93.000        59.86
GET      94.000        78.97
GET      95.000        83.06
GET      96.000        83.61
GET      97.000        83.81
GET      98.000        83.90
GET      99.000        83.98
GET     100.000        84.24
GET     110.000        94.85
GET     120.000        96.84
GET     130.000        98.06
GET     140.000        99.14
GET     150.000        99.19
GET     160.000        99.69
GET     170.000        99.88
GET     180.000        99.89
GET     190.000        99.97
GET     200.000        99.99
GET     220.000       100.00
---
