1         Threads
32        Connections per thread
70        Seconds


ALL STATS
========================================================================
Type        Ops/sec     Hits/sec   Misses/sec      Latency       KB/sec 
------------------------------------------------------------------------
Sets           0.00          ---          ---      0.00000         0.00 
Gets         528.90       528.90         0.00     60.49500      2142.34 
Waits          0.00          ---          ---      0.00000          --- 
Totals       528.90       528.90         0.00     60.49500      2142.34 


Request Latency Distribution
Type     <= msec         Percent
------------------------------------------------------------------------
---
GET      12.000         0.01
GET      15.000         0.02
GET      16.000         0.02
GET      17.000         0.03
GET      18.000         0.04
GET      19.000         0.04
GET      20.000         0.05
GET      21.000         0.05
GET      23.000         0.05
GET      24.000         0.06
GET      25.000         0.06
GET      26.000         0.06
GET      27.000         0.07
GET      28.000         0.09
GET      29.000         0.11
GET      30.000         0.19
GET      31.000         1.60
GET      32.000         2.41
GET      33.000         2.52
GET      34.000         2.58
GET      35.000         2.62
GET      36.000         2.63
GET      37.000         2.64
GET      38.000         2.65
GET      39.000         2.66
GET      40.000         2.69
GET      41.000         2.70
GET      42.000         2.72
GET      43.000         2.77
GET      44.000         2.86
GET      45.000         3.04
GET      46.000         6.22
GET      47.000        28.27
GET      48.000        32.03
GET      49.000        32.47
GET      50.000        32.79
GET      51.000        32.95
GET      52.000        33.01
GET      53.000        33.05
GET      54.000        33.10
GET      55.000        33.13
GET      56.000        33.17
GET      57.000        33.23
GET      58.000        33.34
GET      59.000        33.72
GET      60.000        34.32
GET      61.000        36.00
GET      62.000        62.34
GET      63.000        83.26
GET      64.000        84.42
GET      65.000        84.90
GET      66.000        85.12
GET      67.000        85.21
GET      68.000        85.27
GET      69.000        85.33
GET      70.000        85.34
GET      71.000        85.36
GET      72.000        85.39
GET      73.000        85.44
GET      74.000        85.50
GET      75.000        85.63
GET      76.000        85.83
GET      77.000        87.41
GET      78.000        94.07
GET      79.000        95.32
GET      80.000        95.45
GET      81.000        95.51
GET      82.000        95.52
GET      83.000        95.53
GET      85.000        95.54
GET      86.000        95.54
GET      88.000        95.54
GET      89.000        95.55
GET      90.000        95.57
GET      91.000        95.60
GET      92.000        95.71
GET      93.000        96.79
GET      94.000        98.06
GET      95.000        98.19
GET      96.000        98.22
GET      97.000        98.23
GET      98.000        98.23
GET     100.000        98.24
GET     110.000        99.12
GET     120.000        99.40
GET     130.000        99.55
GET     140.000        99.71
GET     160.000        99.78
GET     170.000        99.86
GET     190.000        99.88
GET     200.000        99.96
GET     210.000        99.98
GET     220.000        99.99
GET     230.000       100.00
GET     250.000       100.00
---
