2         Threads
32        Connections per thread
70        Seconds


ALL STATS
========================================================================
Type        Ops/sec     Hits/sec   Misses/sec      Latency       KB/sec 
------------------------------------------------------------------------
Sets        1438.14          ---          ---     44.49700      5804.37 
Gets           0.00         0.00         0.00      0.00000         0.00 
Waits          0.00          ---          ---      0.00000          --- 
Totals      1438.14         0.00         0.00     44.49700      5804.37 


Request Latency Distribution
Type     <= msec         Percent
------------------------------------------------------------------------
SET      19.000         0.00
SET      21.000         0.00
SET      22.000         0.00
SET      23.000         0.01
SET      24.000         0.01
SET      25.000         0.02
SET      26.000         0.02
SET      27.000         0.03
SET      28.000         0.07
SET      29.000         0.22
SET      30.000         0.71
SET      31.000         1.99
SET      32.000         4.14
SET      33.000         7.50
SET      34.000        12.53
SET      35.000        19.17
SET      36.000        26.85
SET      37.000        34.93
SET      38.000        42.98
SET      39.000        50.92
SET      40.000        57.98
SET      41.000        64.13
SET      42.000        69.53
SET      43.000        74.13
SET      44.000        78.12
SET      45.000        81.42
SET      46.000        84.11
SET      47.000        86.36
SET      48.000        88.17
SET      49.000        89.88
SET      50.000        91.39
SET      51.000        92.60
SET      52.000        93.63
SET      53.000        94.44
SET      54.000        95.15
SET      55.000        95.82
SET      56.000        96.43
SET      57.000        96.84
SET      58.000        97.19
SET      59.000        97.48
SET      60.000        97.77
SET      61.000        98.04
SET      62.000        98.20
SET      63.000        98.38
SET      64.000        98.53
SET      65.000        98.62
SET      66.000        98.70
SET      67.000        98.76
SET      68.000        98.82
SET      69.000        98.87
SET      70.000        98.90
SET      71.000        98.94
SET      72.000        98.98
SET      73.000        99.00
SET      74.000        99.02
SET      75.000        99.03
SET      76.000        99.04
SET      77.000        99.04
SET      78.000        99.05
SET      79.000        99.05
SET      80.000        99.05
SET      81.000        99.06
SET      82.000        99.08
SET      83.000        99.09
SET      84.000        99.10
SET      85.000        99.11
SET      86.000        99.11
SET      87.000        99.12
SET      88.000        99.12
SET      89.000        99.12
SET      94.000        99.12
SET     110.000        99.13
SET     120.000        99.13
SET     130.000        99.14
SET     140.000        99.21
SET     150.000        99.26
SET     160.000        99.38
SET     170.000        99.39
SET     180.000        99.41
SET     190.000        99.42
SET     200.000        99.43
SET     210.000        99.43
SET     220.000        99.44
SET     230.000        99.48
SET     240.000        99.55
SET     250.000        99.59
SET     260.000        99.60
SET     330.000        99.62
SET     360.000        99.64
SET     500.000        99.65
SET     510.000        99.69
SET     520.000        99.70
SET     640.000        99.74
SET     650.000        99.74
SET     700.000        99.77
SET     710.000        99.84
SET     720.000        99.87
SET     830.000        99.88
SET     840.000        99.88
SET     850.000        99.93
SET     860.000        99.94
SET     880.000        99.94
SET    1000.000        99.94
SET    1700.000        99.96
SET    1800.000       100.00
---
---
