1         Threads
2         Connections per thread
70        Seconds


ALL STATS
========================================================================
Type        Ops/sec     Hits/sec   Misses/sec      Latency       KB/sec 
------------------------------------------------------------------------
Sets         394.08          ---          ---      2.47000      1590.53 
Gets         394.07      1182.20         0.00      2.58800      4780.89 
Waits          0.00          ---          ---      0.00000          --- 
Totals       788.15      1182.20         0.00      2.52900      6371.42 


Request Latency Distribution
Type     <= msec         Percent
------------------------------------------------------------------------
SET       1.100         0.01
SET       1.200         0.07
SET       1.300         0.75
SET       1.400         2.89
SET       1.500         7.24
SET       1.600        14.32
SET       1.700        22.82
SET       1.800        31.94
SET       1.900        40.73
SET       2.000        48.74
SET       2.100        55.43
SET       2.200        61.06
SET       2.300        65.92
SET       2.400        69.90
SET       2.500        73.43
SET       2.600        76.38
SET       2.700        78.80
SET       2.800        80.83
SET       2.900        82.71
SET       3.000        84.18
SET       3.100        85.38
SET       3.200        86.49
SET       3.300        87.63
SET       3.400        88.47
SET       3.500        89.31
SET       3.600        89.96
SET       3.700        90.54
SET       3.800        91.12
SET       3.900        91.60
SET       4.000        92.01
SET       4.100        92.43
SET       4.200        92.80
SET       4.300        93.15
SET       4.400        93.53
SET       4.500        93.79
SET       4.600        94.03
SET       4.700        94.31
SET       4.800        94.54
SET       4.900        94.74
SET       5.000        94.99
SET       5.100        95.20
SET       5.200        95.39
SET       5.300        95.56
SET       5.400        95.75
SET       5.500        95.94
SET       5.600        96.14
SET       5.700        96.35
SET       5.800        96.53
SET       5.900        96.75
SET       6.000        96.88
SET       6.100        97.02
SET       6.200        97.13
SET       6.300        97.28
SET       6.400        97.38
SET       6.500        97.50
SET       6.600        97.59
SET       6.700        97.68
SET       6.800        97.82
SET       6.900        97.93
SET       7.000        98.04
SET       7.100        98.14
SET       7.200        98.22
SET       7.300        98.30
SET       7.400        98.39
SET       7.500        98.49
SET       7.600        98.58
SET       7.700        98.65
SET       7.800        98.75
SET       7.900        98.81
SET       8.000        98.90
SET       8.100        98.95
SET       8.200        99.00
SET       8.300        99.04
SET       8.400        99.07
SET       8.500        99.10
SET       8.600        99.16
SET       8.700        99.24
SET       8.800        99.28
SET       8.900        99.30
SET       9.000        99.34
SET       9.100        99.38
SET       9.200        99.42
SET       9.300        99.45
SET       9.400        99.48
SET       9.500        99.51
SET       9.600        99.55
SET       9.700        99.57
SET       9.800        99.61
SET       9.900        99.64
SET      10.000        99.77
SET      11.000        99.87
SET      12.000        99.93
SET      13.000        99.96
SET      14.000        99.99
SET      15.000        99.99
SET      16.000       100.00
SET      88.000       100.00
---
GET       1.200         0.00
GET       1.300         0.13
GET       1.400         0.76
GET       1.500         2.84
GET       1.600         7.04
GET       1.700        14.01
GET       1.800        22.77
GET       1.900        32.04
GET       2.000        40.97
GET       2.100        48.68
GET       2.200        55.47
GET       2.300        61.24
GET       2.400        65.99
GET       2.500        70.01
GET       2.600        73.46
GET       2.700        76.40
GET       2.800        78.79
GET       2.900        80.79
GET       3.000        82.47
GET       3.100        84.08
GET       3.200        85.44
GET       3.300        86.53
GET       3.400        87.58
GET       3.500        88.43
GET       3.600        89.28
GET       3.700        90.02
GET       3.800        90.59
GET       3.900        91.10
GET       4.000        91.66
GET       4.100        92.09
GET       4.200        92.53
GET       4.300        92.89
GET       4.400        93.32
GET       4.500        93.59
GET       4.600        93.99
GET       4.700        94.24
GET       4.800        94.52
GET       4.900        94.74
GET       5.000        94.94
GET       5.100        95.16
GET       5.200        95.35
GET       5.300        95.52
GET       5.400        95.70
GET       5.500        95.87
GET       5.600        96.02
GET       5.700        96.20
GET       5.800        96.42
GET       5.900        96.59
GET       6.000        96.70
GET       6.100        96.84
GET       6.200        96.94
GET       6.300        97.05
GET       6.400        97.16
GET       6.500        97.28
GET       6.600        97.40
GET       6.700        97.50
GET       6.800        97.60
GET       6.900        97.74
GET       7.000        97.86
GET       7.100        97.97
GET       7.200        98.06
GET       7.300        98.18
GET       7.400        98.29
GET       7.500        98.37
GET       7.600        98.46
GET       7.700        98.54
GET       7.800        98.63
GET       7.900        98.69
GET       8.000        98.75
GET       8.100        98.80
GET       8.200        98.84
GET       8.300        98.89
GET       8.400        98.93
GET       8.500        98.98
GET       8.600        99.03
GET       8.700        99.07
GET       8.800        99.13
GET       8.900        99.17
GET       9.000        99.21
GET       9.100        99.24
GET       9.200        99.26
GET       9.300        99.29
GET       9.400        99.33
GET       9.500        99.37
GET       9.600        99.38
GET       9.700        99.41
GET       9.800        99.43
GET       9.900        99.48
GET      10.000        99.64
GET      11.000        99.82
GET      12.000        99.91
GET      13.000        99.93
GET      14.000        99.96
GET      15.000        99.97
GET      16.000        99.98
GET      18.000        99.98
GET      21.000        99.99
GET      23.000        99.99
GET      98.000        99.99
GET     200.000       100.00
---
