1         Threads
2         Connections per thread
70        Seconds


ALL STATS
========================================================================
Type        Ops/sec     Hits/sec   Misses/sec      Latency       KB/sec 
------------------------------------------------------------------------
Sets         226.77          ---          ---      4.04100       915.25 
Gets         226.75      1360.53         0.00      4.75700      5499.82 
Waits          0.00          ---          ---      0.00000          --- 
Totals       453.52      1360.53         0.00      4.39900      6415.07 


Request Latency Distribution
Type     <= msec         Percent
------------------------------------------------------------------------
SET       1.300         0.12
SET       1.400         0.55
SET       1.500         1.66
SET       1.600         3.80
SET       1.700         7.13
SET       1.800        11.79
SET       1.900        16.92
SET       2.000        22.43
SET       2.100        27.81
SET       2.200        32.98
SET       2.300        37.28
SET       2.400        41.36
SET       2.500        44.96
SET       2.600        47.88
SET       2.700        50.55
SET       2.800        52.84
SET       2.900        54.87
SET       3.000        56.74
SET       3.100        58.42
SET       3.200        59.99
SET       3.300        61.37
SET       3.400        62.73
SET       3.500        63.82
SET       3.600        64.87
SET       3.700        66.04
SET       3.800        67.02
SET       3.900        68.00
SET       4.000        68.79
SET       4.100        69.52
SET       4.200        70.28
SET       4.300        70.96
SET       4.400        71.63
SET       4.500        72.18
SET       4.600        72.75
SET       4.700        73.23
SET       4.800        73.75
SET       4.900        74.23
SET       5.000        74.68
SET       5.100        75.13
SET       5.200        75.61
SET       5.300        76.08
SET       5.400        76.60
SET       5.500        77.00
SET       5.600        77.47
SET       5.700        78.03
SET       5.800        78.65
SET       5.900        79.17
SET       6.000        79.67
SET       6.100        80.14
SET       6.200        80.52
SET       6.300        80.95
SET       6.400        81.25
SET       6.500        81.58
SET       6.600        81.97
SET       6.700        82.37
SET       6.800        82.76
SET       6.900        83.11
SET       7.000        83.48
SET       7.100        83.84
SET       7.200        84.22
SET       7.300        84.66
SET       7.400        85.05
SET       7.500        85.39
SET       7.600        85.76
SET       7.700        86.24
SET       7.800        86.69
SET       7.900        87.09
SET       8.000        87.53
SET       8.100        88.14
SET       8.200        88.54
SET       8.300        88.98
SET       8.400        89.44
SET       8.500        89.90
SET       8.600        90.33
SET       8.700        90.83
SET       8.800        91.32
SET       8.900        91.70
SET       9.000        92.16
SET       9.100        92.66
SET       9.200        93.19
SET       9.300        93.71
SET       9.400        94.20
SET       9.500        94.80
SET       9.600        95.23
SET       9.700        95.56
SET       9.800        95.93
SET       9.900        96.20
SET      10.000        97.59
SET      11.000        99.24
SET      12.000        99.54
SET      13.000        99.65
SET      14.000        99.72
SET      15.000        99.77
SET      16.000        99.78
SET      17.000        99.82
SET      18.000        99.86
SET      20.000        99.87
SET      21.000        99.91
SET      22.000        99.92
SET      23.000        99.94
SET      24.000        99.95
SET      32.000        99.96
SET      52.000        99.96
SET      54.000        99.97
SET      56.000        99.97
SET     100.000        99.98
SET     130.000        99.99
SET     220.000        99.99
SET     540.000       100.00
---
GET       1.300         0.01
GET       1.500         0.05
GET       1.600         0.31
GET       1.700         0.93
GET       1.800         2.41
GET       1.900         5.04
GET       2.000         8.65
GET       2.100        12.64
GET       2.200        17.29
GET       2.300        22.16
GET       2.400        26.90
GET       2.500        31.11
GET       2.600        35.04
GET       2.700        38.40
GET       2.800        41.04
GET       2.900        43.43
GET       3.000        45.58
GET       3.100        47.45
GET       3.200        49.07
GET       3.300        50.44
GET       3.400        51.89
GET       3.500        53.35
GET       3.600        54.61
GET       3.700        56.01
GET       3.800        57.18
GET       3.900        58.21
GET       4.000        59.23
GET       4.100        60.23
GET       4.200        61.16
GET       4.300        61.93
GET       4.400        62.71
GET       4.500        63.29
GET       4.600        63.99
GET       4.700        64.50
GET       4.800        65.04
GET       4.900        65.72
GET       5.000        66.15
GET       5.100        66.67
GET       5.200        67.19
GET       5.300        67.71
GET       5.400        68.17
GET       5.500        68.57
GET       5.600        69.08
GET       5.700        69.54
GET       5.800        70.09
GET       5.900        70.63
GET       6.000        71.20
GET       6.100        71.80
GET       6.200        72.52
GET       6.300        73.09
GET       6.400        73.67
GET       6.500        74.21
GET       6.600        74.76
GET       6.700        75.24
GET       6.800        75.80
GET       6.900        76.46
GET       7.000        76.98
GET       7.100        77.53
GET       7.200        78.19
GET       7.300        78.84
GET       7.400        79.36
GET       7.500        80.00
GET       7.600        80.64
GET       7.700        81.15
GET       7.800        81.70
GET       7.900        82.28
GET       8.000        82.88
GET       8.100        83.46
GET       8.200        84.18
GET       8.300        84.75
GET       8.400        85.49
GET       8.500        86.14
GET       8.600        86.93
GET       8.700        87.73
GET       8.800        88.34
GET       8.900        88.97
GET       9.000        89.64
GET       9.100        90.36
GET       9.200        90.98
GET       9.300        91.62
GET       9.400        92.26
GET       9.500        92.94
GET       9.600        93.61
GET       9.700        94.19
GET       9.800        94.68
GET       9.900        95.16
GET      10.000        97.02
GET      11.000        98.73
GET      12.000        99.31
GET      13.000        99.50
GET      14.000        99.58
GET      15.000        99.62
GET      16.000        99.67
GET      17.000        99.69
GET      18.000        99.71
GET      19.000        99.77
GET      20.000        99.80
GET      21.000        99.83
GET      22.000        99.85
GET      23.000        99.87
GET      24.000        99.90
GET      25.000        99.91
GET      27.000        99.92
GET      36.000        99.92
GET      49.000        99.93
GET      52.000        99.94
GET      58.000        99.95
GET      60.000        99.96
GET     210.000        99.97
GET     230.000        99.98
GET     250.000        99.99
GET     340.000        99.99
GET     540.000       100.00
---
