1         Threads
2         Connections per thread
70        Seconds


ALL STATS
========================================================================
Type        Ops/sec     Hits/sec   Misses/sec      Latency       KB/sec 
------------------------------------------------------------------------
Sets        1090.79          ---          ---      1.82800      4402.46 
Gets           0.00         0.00         0.00      0.00000         0.00 
Waits          0.00          ---          ---      0.00000          --- 
Totals      1090.79         0.00         0.00      1.82800      4402.46 


Request Latency Distribution
Type     <= msec         Percent
------------------------------------------------------------------------
SET       0.700         0.00
SET       0.750         0.00
SET       0.760         0.01
SET       0.770         0.01
SET       0.780         0.02
SET       0.790         0.03
SET       0.800         0.05
SET       0.810         0.07
SET       0.820         0.10
SET       0.830         0.14
SET       0.840         0.19
SET       0.850         0.23
SET       0.860         0.32
SET       0.870         0.40
SET       0.880         0.51
SET       0.890         0.62
SET       0.900         0.75
SET       0.910         0.90
SET       0.920         1.05
SET       0.930         1.23
SET       0.940         1.46
SET       0.950         1.73
SET       0.960         2.03
SET       0.970         2.32
SET       0.980         2.66
SET       0.990         2.99
SET       1.000         5.86
SET       1.100        13.03
SET       1.200        22.49
SET       1.300        32.77
SET       1.400        42.80
SET       1.500        51.74
SET       1.600        59.48
SET       1.700        66.08
SET       1.800        71.42
SET       1.900        75.80
SET       2.000        79.27
SET       2.100        82.15
SET       2.200        84.47
SET       2.300        86.40
SET       2.400        87.88
SET       2.500        89.18
SET       2.600        90.27
SET       2.700        91.23
SET       2.800        92.03
SET       2.900        92.71
SET       3.000        93.32
SET       3.100        93.85
SET       3.200        94.25
SET       3.300        94.63
SET       3.400        94.98
SET       3.500        95.26
SET       3.600        95.55
SET       3.700        95.83
SET       3.800        96.07
SET       3.900        96.27
SET       4.000        96.46
SET       4.100        96.63
SET       4.200        96.77
SET       4.300        96.91
SET       4.400        97.05
SET       4.500        97.16
SET       4.600        97.28
SET       4.700        97.37
SET       4.800        97.46
SET       4.900        97.58
SET       5.000        97.67
SET       5.100        97.77
SET       5.200        97.88
SET       5.300        97.97
SET       5.400        98.04
SET       5.500        98.10
SET       5.600        98.16
SET       5.700        98.24
SET       5.800        98.30
SET       5.900        98.36
SET       6.000        98.44
SET       6.100        98.52
SET       6.200        98.59
SET       6.300        98.67
SET       6.400        98.75
SET       6.500        98.81
SET       6.600        98.88
SET       6.700        98.96
SET       6.800        99.03
SET       6.900        99.12
SET       7.000        99.18
SET       7.100        99.22
SET       7.200        99.26
SET       7.300        99.31
SET       7.400        99.36
SET       7.500        99.39
SET       7.600        99.44
SET       7.700        99.47
SET       7.800        99.49
SET       7.900        99.52
SET       8.000        99.55
SET       8.100        99.58
SET       8.200        99.60
SET       8.300        99.61
SET       8.400        99.64
SET       8.500        99.66
SET       8.600        99.68
SET       8.700        99.70
SET       8.800        99.71
SET       8.900        99.73
SET       9.000        99.75
SET       9.100        99.76
SET       9.200        99.78
SET       9.300        99.79
SET       9.400        99.80
SET       9.500        99.80
SET       9.600        99.82
SET       9.700        99.83
SET       9.800        99.84
SET       9.900        99.85
SET      10.000        99.87
SET      11.000        99.91
SET      12.000        99.95
SET      13.000        99.97
SET      14.000        99.97
SET      15.000        99.98
SET      16.000        99.98
SET      17.000        99.98
SET      18.000        99.98
SET      19.000        99.99
SET      20.000        99.99
SET      21.000        99.99
SET      22.000        99.99
SET      45.000        99.99
SET      48.000        99.99
SET      52.000        99.99
SET     320.000       100.00
SET     370.000       100.00
SET     410.000       100.00
SET     490.000       100.00
---
---
