1         Threads
1         Connections per thread
70        Seconds


ALL STATS
========================================================================
Type        Ops/sec     Hits/sec   Misses/sec      Latency       KB/sec 
------------------------------------------------------------------------
Sets         542.00          ---          ---      1.83900      2187.52 
Gets           0.00         0.00         0.00      0.00000         0.00 
Waits          0.00          ---          ---      0.00000          --- 
Totals       542.00         0.00         0.00      1.83900      2187.52 


Request Latency Distribution
Type     <= msec         Percent
------------------------------------------------------------------------
SET       0.820         0.00
SET       0.830         0.01
SET       0.840         0.01
SET       0.850         0.02
SET       0.860         0.02
SET       0.870         0.03
SET       0.880         0.06
SET       0.890         0.07
SET       0.900         0.11
SET       0.910         0.14
SET       0.920         0.18
SET       0.930         0.21
SET       0.940         0.26
SET       0.950         0.33
SET       0.960         0.38
SET       0.970         0.47
SET       0.980         0.55
SET       0.990         0.64
SET       1.000         1.71
SET       1.100         5.69
SET       1.200        13.05
SET       1.300        23.43
SET       1.400        34.34
SET       1.500        45.05
SET       1.600        54.11
SET       1.700        61.81
SET       1.800        68.21
SET       1.900        73.37
SET       2.000        77.41
SET       2.100        80.81
SET       2.200        83.55
SET       2.300        85.82
SET       2.400        87.62
SET       2.500        89.21
SET       2.600        90.56
SET       2.700        91.65
SET       2.800        92.50
SET       2.900        93.33
SET       3.000        94.02
SET       3.100        94.56
SET       3.200        95.11
SET       3.300        95.51
SET       3.400        95.87
SET       3.500        96.21
SET       3.600        96.47
SET       3.700        96.71
SET       3.800        96.95
SET       3.900        97.12
SET       4.000        97.31
SET       4.100        97.48
SET       4.200        97.65
SET       4.300        97.76
SET       4.400        97.88
SET       4.500        97.99
SET       4.600        98.09
SET       4.700        98.18
SET       4.800        98.26
SET       4.900        98.31
SET       5.000        98.37
SET       5.100        98.45
SET       5.200        98.50
SET       5.300        98.57
SET       5.400        98.63
SET       5.500        98.68
SET       5.600        98.74
SET       5.700        98.79
SET       5.800        98.85
SET       5.900        98.91
SET       6.000        98.96
SET       6.100        99.02
SET       6.200        99.06
SET       6.300        99.11
SET       6.400        99.15
SET       6.500        99.20
SET       6.600        99.26
SET       6.700        99.33
SET       6.800        99.36
SET       6.900        99.39
SET       7.000        99.44
SET       7.100        99.50
SET       7.200        99.53
SET       7.300        99.55
SET       7.400        99.59
SET       7.500        99.61
SET       7.600        99.63
SET       7.700        99.64
SET       7.800        99.67
SET       7.900        99.69
SET       8.000        99.71
SET       8.100        99.73
SET       8.200        99.75
SET       8.300        99.78
SET       8.400        99.79
SET       8.500        99.80
SET       8.600        99.80
SET       8.700        99.82
SET       8.800        99.83
SET       8.900        99.84
SET       9.000        99.85
SET       9.100        99.86
SET       9.300        99.87
SET       9.400        99.88
SET       9.500        99.88
SET       9.600        99.88
SET       9.700        99.89
SET       9.800        99.89
SET       9.900        99.91
SET      10.000        99.94
SET      11.000        99.97
SET      12.000        99.99
SET      14.000        99.99
SET      15.000        99.99
SET      17.000       100.00
SET      22.000       100.00
---
---
