1         Threads
14        Connections per thread
70        Seconds


ALL STATS
========================================================================
Type        Ops/sec     Hits/sec   Misses/sec      Latency       KB/sec 
------------------------------------------------------------------------
Sets        1678.55          ---          ---      8.33600      6774.68 
Gets           0.00         0.00         0.00      0.00000         0.00 
Waits          0.00          ---          ---      0.00000          --- 
Totals      1678.55         0.00         0.00      8.33600      6774.68 


Request Latency Distribution
Type     <= msec         Percent
------------------------------------------------------------------------
SET       1.500         0.00
SET       1.700         0.00
SET       2.100         0.00
SET       2.200         0.00
SET       2.300         0.01
SET       2.400         0.01
SET       2.500         0.01
SET       2.600         0.02
SET       2.700         0.02
SET       2.800         0.03
SET       2.900         0.04
SET       3.000         0.05
SET       3.100         0.07
SET       3.200         0.08
SET       3.300         0.11
SET       3.400         0.16
SET       3.500         0.21
SET       3.600         0.28
SET       3.700         0.38
SET       3.800         0.49
SET       3.900         0.65
SET       4.000         0.88
SET       4.100         1.16
SET       4.200         1.50
SET       4.300         1.94
SET       4.400         2.49
SET       4.500         3.13
SET       4.600         3.90
SET       4.700         4.77
SET       4.800         5.81
SET       4.900         7.01
SET       5.000         8.25
SET       5.100         9.65
SET       5.200        11.09
SET       5.300        12.71
SET       5.400        14.40
SET       5.500        16.09
SET       5.600        17.82
SET       5.700        19.71
SET       5.800        21.69
SET       5.900        23.68
SET       6.000        25.62
SET       6.100        27.62
SET       6.200        29.63
SET       6.300        31.57
SET       6.400        33.48
SET       6.500        35.40
SET       6.600        37.22
SET       6.700        39.02
SET       6.800        40.85
SET       6.900        42.57
SET       7.000        44.25
SET       7.100        45.97
SET       7.200        47.56
SET       7.300        49.01
SET       7.400        50.34
SET       7.500        51.72
SET       7.600        53.03
SET       7.700        54.30
SET       7.800        55.45
SET       7.900        56.56
SET       8.000        57.63
SET       8.100        58.67
SET       8.200        59.59
SET       8.300        60.53
SET       8.400        61.43
SET       8.500        62.24
SET       8.600        63.04
SET       8.700        63.71
SET       8.800        64.40
SET       8.900        65.05
SET       9.000        65.66
SET       9.100        66.30
SET       9.200        66.84
SET       9.300        67.39
SET       9.400        67.90
SET       9.500        68.42
SET       9.600        68.92
SET       9.700        69.44
SET       9.800        70.01
SET       9.900        70.57
SET      10.000        74.53
SET      11.000        83.78
SET      12.000        90.93
SET      13.000        94.98
SET      14.000        96.90
SET      15.000        97.92
SET      16.000        98.53
SET      17.000        98.93
SET      18.000        99.19
SET      19.000        99.36
SET      20.000        99.52
SET      21.000        99.63
SET      22.000        99.72
SET      23.000        99.78
SET      24.000        99.83
SET      25.000        99.85
SET      26.000        99.87
SET      27.000        99.89
SET      28.000        99.92
SET      29.000        99.94
SET      30.000        99.95
SET      31.000        99.96
SET      32.000        99.97
SET      33.000        99.98
SET      34.000        99.98
SET      35.000        99.98
SET      36.000        99.98
SET      37.000        99.99
SET      38.000        99.99
SET      40.000       100.00
SET      41.000       100.00
SET      70.000       100.00
SET      79.000       100.00
SET      82.000       100.00
---
---
