1         Threads
2         Connections per thread
70        Seconds


ALL STATS
========================================================================
Type        Ops/sec     Hits/sec   Misses/sec      Latency       KB/sec 
------------------------------------------------------------------------
Sets        1059.22          ---          ---      1.88300      4275.04 
Gets           0.00         0.00         0.00      0.00000         0.00 
Waits          0.00          ---          ---      0.00000          --- 
Totals      1059.22         0.00         0.00      1.88300      4275.04 


Request Latency Distribution
Type     <= msec         Percent
------------------------------------------------------------------------
SET       0.750         0.00
SET       0.780         0.00
SET       0.800         0.01
SET       0.810         0.02
SET       0.820         0.02
SET       0.830         0.03
SET       0.840         0.05
SET       0.850         0.07
SET       0.860         0.10
SET       0.870         0.14
SET       0.880         0.18
SET       0.890         0.22
SET       0.900         0.28
SET       0.910         0.36
SET       0.920         0.45
SET       0.930         0.54
SET       0.940         0.67
SET       0.950         0.81
SET       0.960         0.95
SET       0.970         1.15
SET       0.980         1.33
SET       0.990         1.54
SET       1.000         3.18
SET       1.100         8.42
SET       1.200        16.05
SET       1.300        25.59
SET       1.400        35.47
SET       1.500        45.14
SET       1.600        53.70
SET       1.700        60.88
SET       1.800        67.00
SET       1.900        71.92
SET       2.000        75.91
SET       2.100        79.16
SET       2.200        81.92
SET       2.300        84.33
SET       2.400        86.05
SET       2.500        87.55
SET       2.600        88.84
SET       2.700        90.07
SET       2.800        91.05
SET       2.900        91.89
SET       3.000        92.64
SET       3.100        93.29
SET       3.200        93.85
SET       3.300        94.28
SET       3.400        94.70
SET       3.500        95.11
SET       3.600        95.39
SET       3.700        95.66
SET       3.800        95.92
SET       3.900        96.13
SET       4.000        96.34
SET       4.100        96.53
SET       4.200        96.71
SET       4.300        96.87
SET       4.400        97.04
SET       4.500        97.17
SET       4.600        97.31
SET       4.700        97.44
SET       4.800        97.54
SET       4.900        97.64
SET       5.000        97.74
SET       5.100        97.85
SET       5.200        97.96
SET       5.300        98.05
SET       5.400        98.10
SET       5.500        98.18
SET       5.600        98.24
SET       5.700        98.31
SET       5.800        98.39
SET       5.900        98.45
SET       6.000        98.51
SET       6.100        98.59
SET       6.200        98.66
SET       6.300        98.71
SET       6.400        98.77
SET       6.500        98.83
SET       6.600        98.89
SET       6.700        98.95
SET       6.800        99.01
SET       6.900        99.08
SET       7.000        99.12
SET       7.100        99.17
SET       7.200        99.21
SET       7.300        99.26
SET       7.400        99.29
SET       7.500        99.33
SET       7.600        99.37
SET       7.700        99.41
SET       7.800        99.44
SET       7.900        99.48
SET       8.000        99.50
SET       8.100        99.52
SET       8.200        99.54
SET       8.300        99.56
SET       8.400        99.58
SET       8.500        99.60
SET       8.600        99.63
SET       8.700        99.66
SET       8.800        99.68
SET       8.900        99.70
SET       9.000        99.72
SET       9.100        99.73
SET       9.200        99.75
SET       9.300        99.77
SET       9.400        99.78
SET       9.500        99.80
SET       9.600        99.81
SET       9.700        99.82
SET       9.800        99.84
SET       9.900        99.85
SET      10.000        99.90
SET      11.000        99.95
SET      12.000        99.97
SET      13.000        99.97
SET      14.000        99.98
SET      15.000        99.99
SET      16.000        99.99
SET      17.000        99.99
SET      18.000        99.99
SET      19.000       100.00
SET      20.000       100.00
SET      26.000       100.00
SET      29.000       100.00
---
---
