1         Threads
42        Connections per thread
70        Seconds


ALL STATS
========================================================================
Type        Ops/sec     Hits/sec   Misses/sec      Latency       KB/sec 
------------------------------------------------------------------------
Sets        2303.00          ---          ---     18.23200      9294.97 
Gets           0.00         0.00         0.00      0.00000         0.00 
Waits          0.00          ---          ---      0.00000          --- 
Totals      2303.00         0.00         0.00     18.23200      9294.97 


Request Latency Distribution
Type     <= msec         Percent
------------------------------------------------------------------------
SET       3.900         0.00
SET       4.300         0.00
SET       4.400         0.00
SET       4.500         0.00
SET       4.600         0.01
SET       4.800         0.01
SET       4.900         0.01
SET       5.000         0.01
SET       5.100         0.02
SET       5.200         0.02
SET       5.300         0.02
SET       5.400         0.02
SET       5.500         0.02
SET       5.600         0.02
SET       5.700         0.03
SET       5.800         0.03
SET       5.900         0.03
SET       6.100         0.04
SET       6.200         0.04
SET       6.300         0.04
SET       6.400         0.04
SET       6.500         0.05
SET       6.600         0.05
SET       6.700         0.06
SET       6.800         0.08
SET       6.900         0.09
SET       7.000         0.11
SET       7.100         0.12
SET       7.200         0.15
SET       7.300         0.16
SET       7.400         0.19
SET       7.500         0.21
SET       7.600         0.24
SET       7.700         0.26
SET       7.800         0.29
SET       7.900         0.31
SET       8.000         0.35
SET       8.100         0.39
SET       8.200         0.42
SET       8.300         0.46
SET       8.400         0.49
SET       8.500         0.54
SET       8.600         0.57
SET       8.700         0.62
SET       8.800         0.66
SET       8.900         0.70
SET       9.000         0.74
SET       9.100         0.79
SET       9.200         0.85
SET       9.300         0.89
SET       9.400         0.94
SET       9.500         1.01
SET       9.600         1.06
SET       9.700         1.12
SET       9.800         1.18
SET       9.900         1.25
SET      10.000         1.59
SET      11.000         2.40
SET      12.000         5.46
SET      13.000        12.66
SET      14.000        21.80
SET      15.000        30.38
SET      16.000        37.29
SET      17.000        43.34
SET      18.000        50.91
SET      19.000        60.76
SET      20.000        71.47
SET      21.000        81.00
SET      22.000        88.26
SET      23.000        92.70
SET      24.000        95.26
SET      25.000        96.79
SET      26.000        97.68
SET      27.000        98.20
SET      28.000        98.51
SET      29.000        98.77
SET      30.000        99.01
SET      31.000        99.18
SET      32.000        99.35
SET      33.000        99.47
SET      34.000        99.54
SET      35.000        99.59
SET      36.000        99.65
SET      37.000        99.71
SET      38.000        99.75
SET      39.000        99.78
SET      40.000        99.82
SET      41.000        99.84
SET      42.000        99.85
SET      43.000        99.86
SET      44.000        99.90
SET      45.000        99.90
SET      46.000        99.92
SET      47.000        99.93
SET      48.000        99.94
SET      49.000        99.95
SET      50.000        99.95
SET      51.000        99.95
SET      52.000        99.96
SET      53.000        99.96
SET      54.000        99.96
SET      55.000        99.96
SET      56.000        99.97
SET      58.000        99.97
SET      60.000        99.97
SET      61.000        99.97
SET      62.000        99.97
SET     170.000        99.99
SET     180.000        99.99
SET     200.000        99.99
SET     220.000        99.99
SET     230.000        99.99
SET     240.000       100.00
SET     260.000       100.00
---
---
