1         Threads
1         Connections per thread
70        Seconds


ALL STATS
========================================================================
Type        Ops/sec     Hits/sec   Misses/sec      Latency       KB/sec 
------------------------------------------------------------------------
Sets         526.73          ---          ---      1.89200      2125.88 
Gets           0.00         0.00         0.00      0.00000         0.00 
Waits          0.00          ---          ---      0.00000          --- 
Totals       526.73         0.00         0.00      1.89200      2125.88 


Request Latency Distribution
Type     <= msec         Percent
------------------------------------------------------------------------
SET       0.830         0.00
SET       0.850         0.01
SET       0.870         0.01
SET       0.890         0.02
SET       0.900         0.04
SET       0.910         0.05
SET       0.920         0.07
SET       0.930         0.09
SET       0.940         0.11
SET       0.950         0.15
SET       0.960         0.19
SET       0.970         0.25
SET       0.980         0.33
SET       0.990         0.42
SET       1.000         1.16
SET       1.100         4.22
SET       1.200        10.82
SET       1.300        20.55
SET       1.400        31.73
SET       1.500        42.67
SET       1.600        51.98
SET       1.700        60.05
SET       1.800        66.75
SET       1.900        71.88
SET       2.000        76.22
SET       2.100        79.61
SET       2.200        82.44
SET       2.300        85.02
SET       2.400        87.03
SET       2.500        88.69
SET       2.600        90.05
SET       2.700        91.15
SET       2.800        92.15
SET       2.900        92.94
SET       3.000        93.62
SET       3.100        94.29
SET       3.200        94.80
SET       3.300        95.25
SET       3.400        95.64
SET       3.500        96.04
SET       3.600        96.31
SET       3.700        96.56
SET       3.800        96.78
SET       3.900        97.01
SET       4.000        97.16
SET       4.100        97.34
SET       4.200        97.54
SET       4.300        97.64
SET       4.400        97.77
SET       4.500        97.90
SET       4.600        98.00
SET       4.700        98.08
SET       4.800        98.17
SET       4.900        98.29
SET       5.000        98.39
SET       5.100        98.46
SET       5.200        98.54
SET       5.300        98.59
SET       5.400        98.65
SET       5.500        98.70
SET       5.600        98.77
SET       5.700        98.83
SET       5.800        98.88
SET       5.900        98.93
SET       6.000        98.99
SET       6.100        99.03
SET       6.200        99.07
SET       6.300        99.11
SET       6.400        99.16
SET       6.500        99.20
SET       6.600        99.26
SET       6.700        99.30
SET       6.800        99.35
SET       6.900        99.37
SET       7.000        99.41
SET       7.100        99.44
SET       7.200        99.48
SET       7.300        99.51
SET       7.400        99.54
SET       7.500        99.56
SET       7.600        99.59
SET       7.700        99.61
SET       7.800        99.63
SET       7.900        99.64
SET       8.000        99.65
SET       8.100        99.67
SET       8.200        99.68
SET       8.300        99.70
SET       8.400        99.72
SET       8.500        99.72
SET       8.600        99.74
SET       8.700        99.75
SET       8.800        99.77
SET       8.900        99.78
SET       9.000        99.79
SET       9.100        99.80
SET       9.200        99.81
SET       9.300        99.83
SET       9.400        99.83
SET       9.500        99.85
SET       9.600        99.86
SET       9.700        99.86
SET       9.800        99.87
SET       9.900        99.88
SET      10.000        99.92
SET      11.000        99.96
SET      12.000        99.97
SET      14.000        99.98
SET      17.000        99.98
SET      19.000        99.99
SET      37.000        99.99
SET     140.000        99.99
SET     190.000        99.99
SET     230.000       100.00
SET     290.000       100.00
---
---
