1         Threads
14        Connections per thread
70        Seconds


ALL STATS
========================================================================
Type        Ops/sec     Hits/sec   Misses/sec      Latency       KB/sec 
------------------------------------------------------------------------
Sets        1916.62          ---          ---      7.29900      7735.51 
Gets           0.00         0.00         0.00      0.00000         0.00 
Waits          0.00          ---          ---      0.00000          --- 
Totals      1916.62         0.00         0.00      7.29900      7735.51 


Request Latency Distribution
Type     <= msec         Percent
------------------------------------------------------------------------
SET       1.100         0.00
SET       1.200         0.00
SET       1.300         0.01
SET       1.400         0.02
SET       1.500         0.03
SET       1.600         0.04
SET       1.700         0.06
SET       1.800         0.10
SET       1.900         0.15
SET       2.000         0.20
SET       2.100         0.28
SET       2.200         0.43
SET       2.300         0.65
SET       2.400         0.92
SET       2.500         1.31
SET       2.600         1.83
SET       2.700         2.48
SET       2.800         3.23
SET       2.900         4.22
SET       3.000         5.30
SET       3.100         6.52
SET       3.200         7.83
SET       3.300         9.23
SET       3.400        10.78
SET       3.500        12.38
SET       3.600        13.99
SET       3.700        15.62
SET       3.800        17.32
SET       3.900        18.98
SET       4.000        20.72
SET       4.100        22.42
SET       4.200        24.05
SET       4.300        25.63
SET       4.400        27.15
SET       4.500        28.66
SET       4.600        30.02
SET       4.700        31.35
SET       4.800        32.57
SET       4.900        33.81
SET       5.000        34.94
SET       5.100        36.04
SET       5.200        37.07
SET       5.300        38.05
SET       5.400        38.97
SET       5.500        39.85
SET       5.600        40.63
SET       5.700        41.38
SET       5.800        42.05
SET       5.900        42.65
SET       6.000        43.27
SET       6.100        43.88
SET       6.200        44.40
SET       6.300        44.90
SET       6.400        45.40
SET       6.500        45.81
SET       6.600        46.21
SET       6.700        46.61
SET       6.800        46.94
SET       6.900        47.31
SET       7.000        47.67
SET       7.100        48.00
SET       7.200        48.34
SET       7.300        48.67
SET       7.400        49.02
SET       7.500        49.41
SET       7.600        49.82
SET       7.700        50.27
SET       7.800        50.78
SET       7.900        51.34
SET       8.000        52.00
SET       8.100        52.77
SET       8.200        53.59
SET       8.300        54.53
SET       8.400        55.51
SET       8.500        56.59
SET       8.600        57.84
SET       8.700        59.11
SET       8.800        60.49
SET       8.900        61.97
SET       9.000        63.58
SET       9.100        65.24
SET       9.200        66.85
SET       9.300        68.47
SET       9.400        70.21
SET       9.500        71.85
SET       9.600        73.47
SET       9.700        75.04
SET       9.800        76.71
SET       9.900        78.23
SET      10.000        85.29
SET      11.000        93.19
SET      12.000        96.59
SET      13.000        97.98
SET      14.000        98.67
SET      15.000        99.09
SET      16.000        99.34
SET      17.000        99.50
SET      18.000        99.64
SET      19.000        99.74
SET      20.000        99.82
SET      21.000        99.87
SET      22.000        99.90
SET      23.000        99.93
SET      24.000        99.94
SET      25.000        99.94
SET      26.000        99.95
SET      27.000        99.96
SET      28.000        99.97
SET      29.000        99.98
SET      30.000        99.99
SET      31.000        99.99
SET      32.000        99.99
SET      33.000        99.99
SET      35.000       100.00
SET      38.000       100.00
SET      54.000       100.00
SET      55.000       100.00
---
---
