1         Threads
22        Connections per thread
600       Seconds


ALL STATS
========================================================================
Type        Ops/sec     Hits/sec   Misses/sec      Latency       KB/sec 
------------------------------------------------------------------------
Sets         393.53          ---          ---     23.77700      1588.31 
Gets         393.51      1411.16      2130.47     32.20200      5732.85 
Waits          0.00          ---          ---      0.00000          --- 
Totals       787.05      1411.16      2130.47     27.99000      7321.16 
