PING 10.0.0.6 (10.0.0.6) 56(84) bytes of data.
64 bytes from 10.0.0.6: icmp_seq=1 ttl=64 time=46.0 ms
64 bytes from 10.0.0.6: icmp_seq=2 ttl=64 time=0.821 ms
64 bytes from 10.0.0.6: icmp_seq=3 ttl=64 time=0.947 ms
64 bytes from 10.0.0.6: icmp_seq=4 ttl=64 time=1.03 ms
64 bytes from 10.0.0.6: icmp_seq=5 ttl=64 time=1.38 ms
64 bytes from 10.0.0.6: icmp_seq=6 ttl=64 time=1.28 ms
64 bytes from 10.0.0.6: icmp_seq=7 ttl=64 time=1.42 ms
64 bytes from 10.0.0.6: icmp_seq=8 ttl=64 time=1.04 ms
64 bytes from 10.0.0.6: icmp_seq=9 ttl=64 time=0.993 ms
64 bytes from 10.0.0.6: icmp_seq=10 ttl=64 time=1.49 ms

--- 10.0.0.6 ping statistics ---
10 packets transmitted, 10 received, 0% packet loss, time 9013ms
rtt min/avg/max/mdev = 0.821/5.648/46.042/13.466 ms

# unstable because of the first