PING 10.0.0.7 (10.0.0.7) 56(84) bytes of data.
64 bytes from 10.0.0.7: icmp_seq=1 ttl=64 time=0.889 ms
64 bytes from 10.0.0.7: icmp_seq=2 ttl=64 time=1.15 ms
64 bytes from 10.0.0.7: icmp_seq=3 ttl=64 time=0.847 ms
64 bytes from 10.0.0.7: icmp_seq=4 ttl=64 time=1.04 ms
64 bytes from 10.0.0.7: icmp_seq=5 ttl=64 time=0.975 ms
64 bytes from 10.0.0.7: icmp_seq=6 ttl=64 time=0.758 ms
64 bytes from 10.0.0.7: icmp_seq=7 ttl=64 time=1.65 ms
64 bytes from 10.0.0.7: icmp_seq=8 ttl=64 time=1.10 ms
64 bytes from 10.0.0.7: icmp_seq=9 ttl=64 time=2.72 ms
64 bytes from 10.0.0.7: icmp_seq=10 ttl=64 time=0.822 ms

--- 10.0.0.7 ping statistics ---
10 packets transmitted, 10 received, 0% packet loss, time 9041ms
rtt min/avg/max/mdev = 0.758/1.197/2.726/0.564 ms
