1         Threads
2         Connections per thread
70        Seconds


ALL STATS
========================================================================
Type        Ops/sec     Hits/sec   Misses/sec      Latency       KB/sec 
------------------------------------------------------------------------
Sets         369.94          ---          ---      2.66500      1493.09 
Gets         369.91      1109.74         0.00      2.72500      4487.84 
Waits          0.00          ---          ---      0.00000          --- 
Totals       739.85      1109.74         0.00      2.69500      5980.93 


Request Latency Distribution
Type     <= msec         Percent
------------------------------------------------------------------------
SET       1.100         0.03
SET       1.200         0.37
SET       1.300         1.98
SET       1.400         5.93
SET       1.500        12.59
SET       1.600        20.82
SET       1.700        30.14
SET       1.800        38.79
SET       1.900        46.95
SET       2.000        53.85
SET       2.100        59.33
SET       2.200        64.01
SET       2.300        67.79
SET       2.400        70.80
SET       2.500        73.54
SET       2.600        75.93
SET       2.700        77.74
SET       2.800        79.43
SET       2.900        80.97
SET       3.000        82.26
SET       3.100        83.26
SET       3.200        84.34
SET       3.300        85.33
SET       3.400        86.18
SET       3.500        87.07
SET       3.600        87.71
SET       3.700        88.45
SET       3.800        89.02
SET       3.900        89.65
SET       4.000        90.20
SET       4.100        90.72
SET       4.200        91.18
SET       4.300        91.61
SET       4.400        91.98
SET       4.500        92.32
SET       4.600        92.62
SET       4.700        92.96
SET       4.800        93.28
SET       4.900        93.59
SET       5.000        93.84
SET       5.100        94.16
SET       5.200        94.44
SET       5.300        94.67
SET       5.400        94.87
SET       5.500        95.03
SET       5.600        95.22
SET       5.700        95.44
SET       5.800        95.68
SET       5.900        95.84
SET       6.000        95.98
SET       6.100        96.12
SET       6.200        96.29
SET       6.300        96.44
SET       6.400        96.56
SET       6.500        96.68
SET       6.600        96.80
SET       6.700        96.95
SET       6.800        97.05
SET       6.900        97.19
SET       7.000        97.34
SET       7.100        97.43
SET       7.200        97.59
SET       7.300        97.69
SET       7.400        97.80
SET       7.500        97.92
SET       7.600        98.03
SET       7.700        98.13
SET       7.800        98.23
SET       7.900        98.31
SET       8.000        98.39
SET       8.100        98.46
SET       8.200        98.56
SET       8.300        98.60
SET       8.400        98.66
SET       8.500        98.71
SET       8.600        98.76
SET       8.700        98.78
SET       8.800        98.83
SET       8.900        98.88
SET       9.000        98.93
SET       9.100        98.99
SET       9.200        99.04
SET       9.300        99.13
SET       9.400        99.17
SET       9.500        99.20
SET       9.600        99.23
SET       9.700        99.25
SET       9.800        99.28
SET       9.900        99.32
SET      10.000        99.43
SET      11.000        99.63
SET      12.000        99.70
SET      13.000        99.77
SET      14.000        99.78
SET      15.000        99.80
SET      16.000        99.81
SET      17.000        99.81
SET      18.000        99.82
SET      22.000        99.83
SET      34.000        99.83
SET      40.000        99.83
SET      42.000        99.84
SET      54.000        99.85
SET      64.000        99.86
SET      65.000        99.87
SET      68.000        99.88
SET      72.000        99.88
SET      74.000        99.89
SET      79.000        99.90
SET      92.000        99.90
SET      93.000        99.90
SET      96.000        99.91
SET      99.000        99.91
SET     100.000        99.93
SET     110.000        99.97
SET     120.000        99.98
SET     130.000        99.98
SET     210.000        99.99
SET     300.000       100.00
SET     560.000       100.00
---
GET       1.100         0.00
GET       1.200         0.05
GET       1.300         0.67
GET       1.400         2.89
GET       1.500         7.35
GET       1.600        14.29
GET       1.700        22.94
GET       1.800        31.80
GET       1.900        40.11
GET       2.000        48.02
GET       2.100        54.67
GET       2.200        60.40
GET       2.300        64.98
GET       2.400        68.57
GET       2.500        71.61
GET       2.600        74.39
GET       2.700        76.45
GET       2.800        78.40
GET       2.900        80.09
GET       3.000        81.57
GET       3.100        82.83
GET       3.200        84.00
GET       3.300        85.02
GET       3.400        86.06
GET       3.500        87.00
GET       3.600        87.79
GET       3.700        88.45
GET       3.800        89.07
GET       3.900        89.56
GET       4.000        90.13
GET       4.100        90.67
GET       4.200        91.17
GET       4.300        91.62
GET       4.400        92.08
GET       4.500        92.45
GET       4.600        92.78
GET       4.700        93.06
GET       4.800        93.38
GET       4.900        93.65
GET       5.000        93.85
GET       5.100        94.11
GET       5.200        94.39
GET       5.300        94.64
GET       5.400        94.87
GET       5.500        95.06
GET       5.600        95.28
GET       5.700        95.42
GET       5.800        95.61
GET       5.900        95.78
GET       6.000        95.94
GET       6.100        96.11
GET       6.200        96.26
GET       6.300        96.41
GET       6.400        96.59
GET       6.500        96.71
GET       6.600        96.82
GET       6.700        96.96
GET       6.800        97.11
GET       6.900        97.18
GET       7.000        97.27
GET       7.100        97.37
GET       7.200        97.50
GET       7.300        97.61
GET       7.400        97.73
GET       7.500        97.88
GET       7.600        97.96
GET       7.700        98.07
GET       7.800        98.14
GET       7.900        98.25
GET       8.000        98.32
GET       8.100        98.42
GET       8.200        98.49
GET       8.300        98.57
GET       8.400        98.64
GET       8.500        98.68
GET       8.600        98.73
GET       8.700        98.80
GET       8.800        98.83
GET       8.900        98.87
GET       9.000        98.93
GET       9.100        99.04
GET       9.200        99.08
GET       9.300        99.16
GET       9.400        99.22
GET       9.500        99.24
GET       9.600        99.29
GET       9.700        99.32
GET       9.800        99.38
GET       9.900        99.39
GET      10.000        99.49
GET      11.000        99.65
GET      12.000        99.69
GET      13.000        99.73
GET      14.000        99.77
GET      15.000        99.79
GET      16.000        99.80
GET      17.000        99.81
GET      18.000        99.83
GET      19.000        99.83
GET      20.000        99.84
GET      21.000        99.85
GET      22.000        99.85
GET      23.000        99.86
GET      34.000        99.86
GET      45.000        99.87
GET      54.000        99.88
GET      56.000        99.88
GET      62.000        99.88
GET      63.000        99.89
GET      65.000        99.90
GET      69.000        99.90
GET      72.000        99.90
GET      88.000        99.91
GET      92.000        99.91
GET      94.000        99.92
GET      96.000        99.92
GET     100.000        99.93
GET     110.000        99.96
GET     120.000        99.98
GET     210.000        99.98
GET     220.000        99.99
GET     350.000       100.00
GET     560.000       100.00
---
