"Dstat 0.7.2 CSV output"
"Author:","Dag Wieers <dag@wieers.com>",,,,"URL:","http://dag.wieers.com/home-made/dstat/"
"Host:","Server1",,,,"User:","maki"
"Cmdline:","dstat --output server_32_set_1_32.csv 1 70",,,,"Date:","02 Dec 2018 14:28:04 UTC"

"total cpu usage",,,,,,"dsk/total",,"net/total",,"paging",,"system",
"usr","sys","idl","wai","hiq","siq","read","writ","recv","send","in","out","int","csw"
2.045,3.392,93.434,0.567,0.0,0.561,22055.074,63493.813,0.0,0.0,0.0,0.0,18.441,516.832
12.658,21.519,62.025,0.0,0.0,3.797,0.0,0.0,29774968.0,969032.0,0.0,0.0,18.0,2644.0
12.048,33.735,51.807,0.0,0.0,2.410,0.0,0.0,39451335.0,1277534.0,0.0,0.0,18.0,2283.0
15.294,32.941,44.706,0.0,0.0,7.059,0.0,0.0,40249051.0,1307030.0,0.0,0.0,18.0,2224.0
13.158,34.211,47.368,0.0,0.0,5.263,0.0,0.0,43328952.0,1400034.0,0.0,0.0,19.0,1924.0
15.714,35.714,42.857,0.0,0.0,5.714,0.0,0.0,43556218.0,1410460.0,0.0,0.0,18.0,1695.0
16.0,38.667,37.333,0.0,0.0,8.0,0.0,0.0,42712626.0,1387910.0,0.0,0.0,18.0,1670.0
16.216,43.243,35.135,0.0,0.0,5.405,0.0,0.0,44547507.0,1441894.0,0.0,0.0,18.0,1645.0
13.889,41.667,40.278,0.0,0.0,4.167,0.0,0.0,44222657.0,1433888.0,0.0,0.0,18.0,1737.0
15.068,39.726,39.726,0.0,0.0,5.479,0.0,0.0,44008229.0,1426896.0,0.0,0.0,19.0,1592.0
16.883,37.662,32.468,1.299,0.0,11.688,0.0,40960.0,46320100.0,1500134.0,0.0,0.0,18.0,1839.0
16.0,38.667,40.0,0.0,0.0,5.333,0.0,0.0,44816031.0,1450294.0,0.0,0.0,18.0,1659.0
14.865,43.243,36.486,0.0,0.0,5.405,0.0,0.0,44237365.0,1436556.0,0.0,0.0,18.0,1754.0
15.385,39.744,38.462,0.0,0.0,6.410,0.0,0.0,43462085.0,1407380.0,0.0,0.0,18.0,1584.0
12.500,43.056,40.278,0.0,0.0,4.167,0.0,0.0,45260673.0,1465274.0,0.0,0.0,19.0,1637.0
16.216,37.838,39.189,0.0,0.0,6.757,0.0,0.0,44548821.0,1445870.0,0.0,0.0,18.0,1711.0
11.538,43.590,38.462,0.0,0.0,6.410,0.0,0.0,44301305.0,1434614.0,0.0,0.0,18.0,1691.0
15.493,39.437,42.254,0.0,0.0,2.817,0.0,0.0,44879899.0,1455194.0,0.0,0.0,18.0,1605.0
21.622,37.838,32.432,0.0,0.0,8.108,0.0,0.0,43021939.0,1394482.0,0.0,0.0,18.0,1562.0
15.0,38.750,36.250,0.0,0.0,10.0,0.0,0.0,44624959.0,1445468.0,0.0,0.0,19.0,1762.0
18.667,40.0,36.0,0.0,0.0,5.333,0.0,0.0,44564562.0,1446160.0,0.0,0.0,18.0,1675.0
24.324,29.730,40.541,0.0,0.0,5.405,0.0,0.0,44474903.0,1440270.0,0.0,0.0,18.0,1856.0
11.594,42.029,43.478,0.0,0.0,2.899,0.0,0.0,45831356.0,1485574.0,0.0,0.0,18.0,1651.0
16.0,36.0,40.0,0.0,0.0,8.0,0.0,0.0,43701289.0,1414580.0,0.0,0.0,19.0,1726.0
21.250,37.500,33.750,0.0,0.0,7.500,0.0,0.0,43368493.0,1408836.0,0.0,0.0,18.0,1721.0
12.162,44.595,36.486,0.0,0.0,6.757,0.0,0.0,44599281.0,1443080.0,0.0,0.0,18.0,1605.0
12.857,41.429,41.429,0.0,0.0,4.286,0.0,0.0,45178515.0,1463314.0,0.0,0.0,18.0,1686.0
17.073,37.805,36.585,0.0,0.0,8.537,0.0,0.0,44107501.0,1432290.0,0.0,0.0,18.0,1779.0
16.176,36.765,39.706,0.0,0.0,7.353,0.0,0.0,43368965.0,1403722.0,0.0,0.0,19.0,1508.0
18.182,38.961,35.065,0.0,0.0,7.792,0.0,0.0,42887254.0,1388760.0,0.0,0.0,18.0,1530.0
14.667,44.0,36.0,0.0,0.0,5.333,0.0,12288.0,43986593.0,1427250.0,0.0,0.0,18.0,1722.0
14.103,41.026,35.897,0.0,0.0,8.974,0.0,0.0,44028774.0,1426980.0,0.0,0.0,18.0,1666.0
16.667,37.500,41.667,0.0,0.0,4.167,0.0,0.0,43799729.0,1417814.0,0.0,0.0,18.0,1657.0
17.949,35.897,35.897,0.0,0.0,10.256,0.0,0.0,43855568.0,1422228.0,0.0,0.0,19.0,1729.0
13.333,42.667,37.333,0.0,0.0,6.667,0.0,0.0,44651687.0,1446536.0,0.0,0.0,18.0,1683.0
12.0,42.667,40.0,0.0,0.0,5.333,0.0,4096.0,44694488.0,1447634.0,0.0,0.0,18.0,1713.0
15.493,33.803,43.662,0.0,0.0,7.042,0.0,0.0,43172887.0,1401080.0,0.0,0.0,18.0,1694.0
14.474,44.737,35.526,0.0,0.0,5.263,0.0,0.0,44133708.0,1430470.0,0.0,0.0,18.0,1726.0
9.859,46.479,38.028,0.0,0.0,5.634,0.0,0.0,42913546.0,1388974.0,0.0,0.0,19.0,1589.0
16.667,33.333,38.889,0.0,0.0,11.111,0.0,0.0,43319866.0,1404580.0,0.0,0.0,18.0,1597.0
13.158,43.421,35.526,0.0,0.0,7.895,0.0,0.0,43887720.0,1424528.0,0.0,0.0,18.0,1611.0
13.158,40.789,34.211,1.316,0.0,10.526,0.0,73728.0,44292509.0,1433354.0,0.0,0.0,18.0,1617.0
13.889,37.500,43.056,0.0,0.0,5.556,0.0,0.0,44249281.0,1435668.0,0.0,0.0,18.0,1674.0
15.584,41.558,35.065,0.0,0.0,7.792,0.0,0.0,43032327.0,1394360.0,0.0,0.0,19.0,1582.0
15.854,45.122,36.585,0.0,0.0,2.439,0.0,0.0,44357304.0,1438114.0,0.0,0.0,18.0,1611.0
12.987,41.558,38.961,0.0,0.0,6.494,0.0,0.0,43397586.0,1403534.0,0.0,0.0,18.0,1597.0
15.278,40.278,40.278,0.0,0.0,4.167,0.0,0.0,42425958.0,1376916.0,0.0,0.0,18.0,1604.0
15.278,40.278,40.278,0.0,0.0,4.167,0.0,0.0,44262003.0,1434820.0,0.0,0.0,18.0,1581.0
18.421,39.474,35.526,0.0,0.0,6.579,0.0,0.0,44036891.0,1426262.0,0.0,0.0,19.0,1616.0
12.0,44.0,36.0,0.0,0.0,8.0,0.0,0.0,43727113.0,1418356.0,0.0,0.0,18.0,1647.0
13.333,45.333,36.0,0.0,0.0,5.333,0.0,0.0,45511367.0,1476540.0,0.0,0.0,18.0,1831.0
14.103,37.179,39.744,0.0,0.0,8.974,0.0,0.0,45022794.0,1456668.0,0.0,0.0,18.0,1823.0
18.056,40.278,34.722,0.0,0.0,6.944,0.0,0.0,44245600.0,1433542.0,0.0,0.0,18.0,1702.0
16.667,39.744,35.897,0.0,0.0,7.692,0.0,0.0,43620628.0,1413968.0,0.0,0.0,19.0,1640.0
15.190,40.506,36.709,0.0,0.0,7.595,0.0,0.0,44003714.0,1424114.0,0.0,0.0,18.0,1617.0
17.808,39.726,34.247,0.0,0.0,8.219,0.0,0.0,43130232.0,1401136.0,0.0,0.0,18.0,1665.0
16.667,38.462,37.179,0.0,0.0,7.692,0.0,0.0,43894298.0,1422854.0,0.0,0.0,18.0,1606.0
14.667,34.667,41.333,0.0,0.0,9.333,0.0,0.0,43704136.0,1414314.0,0.0,0.0,19.0,1642.0
13.158,43.421,35.526,0.0,0.0,7.895,0.0,0.0,42043818.0,1364480.0,0.0,0.0,18.0,1574.0
15.789,42.105,38.158,0.0,0.0,3.947,0.0,0.0,44076174.0,1427194.0,0.0,0.0,18.0,1733.0
12.658,44.304,37.975,0.0,0.0,5.063,0.0,0.0,44154046.0,1429014.0,0.0,0.0,18.0,1593.0
17.949,35.897,33.333,0.0,0.0,12.821,0.0,0.0,43139230.0,1399876.0,0.0,0.0,18.0,1729.0
12.0,42.667,37.333,0.0,0.0,8.0,0.0,0.0,42842018.0,1395212.0,0.0,0.0,19.0,1691.0
15.493,43.662,38.028,0.0,0.0,2.817,0.0,0.0,43086270.0,1396748.0,0.0,0.0,18.0,1619.0
18.421,38.158,36.842,0.0,0.0,6.579,0.0,0.0,43212704.0,1404496.0,0.0,0.0,18.0,1688.0
13.889,38.889,40.278,0.0,0.0,6.944,0.0,0.0,44218847.0,1428454.0,0.0,0.0,18.0,1635.0
14.286,35.714,41.429,0.0,0.0,8.571,0.0,8192.0,43496919.0,1410394.0,0.0,0.0,18.0,1660.0
18.519,38.272,33.333,0.0,0.0,9.877,0.0,0.0,44267542.0,1434176.0,0.0,0.0,18.0,1591.0
15.493,40.845,38.028,0.0,0.0,5.634,0.0,0.0,44469617.0,1440354.0,0.0,0.0,19.0,1729.0
13.699,36.986,41.096,0.0,0.0,8.219,0.0,0.0,43873092.0,1421100.0,0.0,0.0,18.0,1610.0
17.333,26.667,48.0,0.0,0.0,8.0,0.0,0.0,39361158.0,1281930.0,0.0,0.0,18.0,1770.0
