"Dstat 0.7.2 CSV output"
"Author:","Dag Wieers <dag@wieers.com>",,,,"URL:","http://dag.wieers.com/home-made/dstat/"
"Host:","Server1",,,,"User:","maki"
"Cmdline:","dstat --output server_32_get_1_32.csv 1 70",,,,"Date:","02 Dec 2018 14:16:15 UTC"

"total cpu usage",,,,,,"dsk/total",,"net/total",,"paging",,"system",
"usr","sys","idl","wai","hiq","siq","read","writ","recv","send","in","out","int","csw"
2.046,3.319,93.480,0.589,0.0,0.566,23142.615,66531.607,0.0,0.0,0.0,0.0,18.452,494.064
1.042,5.208,91.667,0.0,0.0,2.083,0.0,0.0,397523.0,11160213.0,0.0,0.0,18.0,1573.0
1.031,6.186,91.753,0.0,0.0,1.031,0.0,0.0,441046.0,12534300.0,0.0,0.0,18.0,965.0
1.042,7.292,91.667,0.0,0.0,0.0,0.0,0.0,444242.0,12466281.0,0.0,0.0,18.0,868.0
1.042,5.208,92.708,0.0,0.0,1.042,0.0,0.0,440093.0,12499326.0,0.0,0.0,19.0,706.0
2.041,7.143,90.816,0.0,0.0,0.0,0.0,0.0,439926.0,12500537.0,0.0,0.0,18.0,683.0
2.041,5.102,91.837,0.0,0.0,1.020,0.0,0.0,445114.0,12498960.0,0.0,0.0,18.0,636.0
1.010,9.091,89.899,0.0,0.0,0.0,0.0,0.0,439656.0,12500193.0,0.0,0.0,18.0,657.0
2.062,4.124,91.753,0.0,0.0,2.062,0.0,0.0,446695.0,12696128.0,0.0,0.0,18.0,652.0
2.062,8.247,89.691,0.0,0.0,0.0,0.0,0.0,445206.0,12498983.0,0.0,0.0,19.0,745.0
2.062,6.186,91.753,0.0,0.0,0.0,0.0,0.0,439903.0,12500508.0,0.0,0.0,18.0,701.0
3.093,4.124,89.691,3.093,0.0,0.0,0.0,40960.0,440251.0,12500399.0,0.0,0.0,18.0,720.0
3.061,6.122,90.816,0.0,0.0,0.0,0.0,0.0,445319.0,12500562.0,0.0,0.0,18.0,768.0
0.0,6.316,92.632,0.0,0.0,1.053,0.0,0.0,439676.0,12498811.0,0.0,0.0,18.0,636.0
1.042,7.292,91.667,0.0,0.0,0.0,0.0,0.0,439786.0,12500393.0,0.0,0.0,19.0,704.0
2.083,7.292,90.625,0.0,0.0,0.0,0.0,0.0,452073.0,12694924.0,0.0,0.0,18.0,738.0
3.093,5.155,90.722,0.0,0.0,1.031,0.0,0.0,439634.0,12500159.0,0.0,0.0,18.0,855.0
1.020,7.143,91.837,0.0,0.0,0.0,0.0,0.0,439811.0,12500337.0,0.0,0.0,18.0,674.0
5.102,4.082,89.796,0.0,0.0,1.020,0.0,0.0,445482.0,12499464.0,0.0,0.0,19.0,699.0
2.062,6.186,90.722,0.0,0.0,1.031,0.0,0.0,439991.0,12500439.0,0.0,0.0,18.0,701.0
2.105,4.211,93.684,0.0,0.0,0.0,0.0,0.0,439947.0,12500176.0,0.0,0.0,18.0,647.0
2.041,8.163,89.796,0.0,0.0,0.0,0.0,0.0,445303.0,12500093.0,0.0,0.0,18.0,685.0
2.062,3.093,92.784,0.0,0.0,2.062,0.0,0.0,439897.0,12498955.0,0.0,0.0,18.0,663.0
0.0,7.216,91.753,0.0,0.0,1.031,0.0,0.0,439872.0,12500168.0,0.0,0.0,19.0,659.0
3.158,6.316,89.474,0.0,0.0,1.053,0.0,0.0,444968.0,12500129.0,0.0,0.0,18.0,711.0
0.0,5.263,94.737,0.0,0.0,0.0,0.0,0.0,439877.0,12500261.0,0.0,0.0,18.0,640.0
1.031,5.155,92.784,0.0,0.0,1.031,0.0,0.0,439783.0,12500385.0,0.0,0.0,18.0,700.0
0.0,8.247,91.753,0.0,0.0,0.0,0.0,0.0,451915.0,12695082.0,0.0,0.0,18.0,752.0
2.041,7.143,90.816,0.0,0.0,0.0,0.0,0.0,447214.0,12694581.0,0.0,0.0,19.0,728.0
2.041,8.163,88.776,0.0,0.0,1.020,0.0,0.0,433495.0,12318451.0,0.0,0.0,18.0,695.0
2.020,7.071,90.909,0.0,0.0,0.0,0.0,0.0,447060.0,12681946.0,0.0,0.0,18.0,701.0
1.064,6.383,92.553,0.0,0.0,0.0,0.0,0.0,445220.0,12500462.0,0.0,0.0,18.0,733.0
0.0,4.255,95.745,0.0,0.0,0.0,0.0,12288.0,446695.0,12694987.0,0.0,0.0,18.0,648.0
2.083,4.167,93.750,0.0,0.0,0.0,0.0,0.0,439884.0,12498938.0,0.0,0.0,18.0,669.0
3.125,6.250,89.583,0.0,0.0,1.042,0.0,0.0,445413.0,12500577.0,0.0,0.0,19.0,760.0
1.053,4.211,94.737,0.0,0.0,0.0,0.0,0.0,439770.0,12500299.0,0.0,0.0,18.0,658.0
0.0,7.216,92.784,0.0,0.0,0.0,0.0,0.0,439599.0,12500198.0,0.0,0.0,18.0,683.0
1.053,5.263,92.632,0.0,0.0,1.053,0.0,0.0,445182.0,12499038.0,0.0,0.0,18.0,715.0
1.020,8.163,89.796,0.0,0.0,1.020,0.0,0.0,440231.0,12499930.0,0.0,0.0,19.0,663.0
2.062,7.216,89.691,0.0,0.0,1.031,0.0,0.0,439472.0,12500077.0,0.0,0.0,18.0,684.0
2.062,6.186,90.722,0.0,0.0,1.031,0.0,0.0,445155.0,12500232.0,0.0,0.0,18.0,727.0
1.031,4.124,92.784,0.0,0.0,2.062,0.0,0.0,439984.0,12500433.0,0.0,0.0,18.0,644.0
1.053,5.263,91.579,2.105,0.0,0.0,0.0,57344.0,439884.0,12498949.0,0.0,0.0,18.0,652.0
1.980,9.901,87.129,0.0,0.0,0.990,0.0,0.0,445433.0,12500446.0,0.0,0.0,19.0,664.0
3.093,6.186,90.722,0.0,0.0,0.0,0.0,0.0,439691.0,12500365.0,0.0,0.0,18.0,726.0
2.041,6.122,90.816,0.0,0.0,1.020,0.0,0.0,446576.0,12694862.0,0.0,0.0,18.0,625.0
1.980,9.901,87.129,0.0,0.0,0.990,0.0,0.0,445241.0,12500558.0,0.0,0.0,18.0,793.0
2.062,6.186,91.753,0.0,0.0,0.0,0.0,0.0,440056.0,12500585.0,0.0,0.0,18.0,702.0
0.0,2.174,97.826,0.0,0.0,0.0,0.0,0.0,439831.0,12498894.0,0.0,0.0,19.0,677.0
6.316,6.316,86.316,0.0,0.0,1.053,0.0,0.0,447446.0,12500002.0,0.0,0.0,18.0,829.0
2.0,7.0,90.0,0.0,0.0,1.0,0.0,0.0,439883.0,12500326.0,0.0,0.0,18.0,669.0
1.042,6.250,92.708,0.0,0.0,0.0,0.0,0.0,449263.0,12805589.0,0.0,0.0,18.0,692.0
0.0,7.216,90.722,0.0,0.0,2.062,0.0,0.0,455688.0,12779729.0,0.0,0.0,18.0,706.0
1.042,5.208,92.708,0.0,0.0,1.042,0.0,0.0,439453.0,12500057.0,0.0,0.0,19.0,662.0
2.062,7.216,89.691,0.0,0.0,1.031,0.0,0.0,439613.0,12500142.0,0.0,0.0,18.0,704.0
3.030,5.051,89.899,0.0,0.0,2.020,0.0,0.0,445220.0,12500159.0,0.0,0.0,18.0,734.0
1.020,7.143,90.816,0.0,0.0,1.020,0.0,0.0,439809.0,12500336.0,0.0,0.0,18.0,707.0
1.020,6.122,91.837,0.0,0.0,1.020,0.0,0.0,439807.0,12500259.0,0.0,0.0,19.0,675.0
2.128,4.255,93.617,0.0,0.0,0.0,0.0,0.0,444873.0,12498727.0,0.0,0.0,18.0,682.0
2.062,6.186,90.722,0.0,0.0,1.031,0.0,0.0,439281.0,12500130.0,0.0,0.0,18.0,727.0
2.041,6.122,91.837,0.0,0.0,0.0,0.0,0.0,446820.0,12696249.0,0.0,0.0,18.0,686.0
2.128,4.255,93.617,0.0,0.0,0.0,0.0,0.0,445051.0,12498899.0,0.0,0.0,18.0,704.0
1.020,6.122,91.837,0.0,0.0,1.020,0.0,0.0,440027.0,12500320.0,0.0,0.0,19.0,645.0
1.031,6.186,91.753,0.0,0.0,1.031,0.0,0.0,439745.0,12500272.0,0.0,0.0,18.0,675.0
3.030,8.081,87.879,0.0,0.0,1.010,0.0,0.0,444951.0,12500271.0,0.0,0.0,18.0,746.0
0.0,6.250,92.708,0.0,0.0,1.042,0.0,0.0,439783.0,12500307.0,0.0,0.0,18.0,678.0
1.020,7.143,90.816,0.0,0.0,1.020,0.0,0.0,439741.0,12498880.0,0.0,0.0,18.0,711.0
1.020,7.143,90.816,0.0,0.0,1.020,0.0,8192.0,445105.0,12498876.0,0.0,0.0,19.0,709.0
0.0,5.263,93.684,0.0,0.0,1.053,0.0,0.0,440810.0,12501354.0,0.0,0.0,18.0,627.0
2.083,6.250,91.667,0.0,0.0,0.0,0.0,0.0,447484.0,12696177.0,0.0,0.0,18.0,735.0
3.061,7.143,88.776,0.0,0.0,1.020,0.0,0.0,440757.0,12437826.0,0.0,0.0,18.0,693.0
