1         Threads
4         Connections per thread
70        Seconds


ALL STATS
========================================================================
Type        Ops/sec     Hits/sec   Misses/sec      Latency       KB/sec 
------------------------------------------------------------------------
Sets           0.00          ---          ---      0.00000         0.00 
Gets         477.42       477.42         0.00      8.36500      1933.83 
Waits          0.00          ---          ---      0.00000          --- 
Totals       477.42       477.42         0.00      8.36500      1933.83 


Request Latency Distribution
Type     <= msec         Percent
------------------------------------------------------------------------
---
GET       1.000         0.00
GET       1.100         0.02
GET       1.200         0.12
GET       1.300         0.44
GET       1.400         1.20
GET       1.500         2.40
GET       1.600         4.21
GET       1.700         6.73
GET       1.800         9.85
GET       1.900        13.33
GET       2.000        16.94
GET       2.100        20.35
GET       2.200        23.57
GET       2.300        26.62
GET       2.400        29.37
GET       2.500        31.75
GET       2.600        33.82
GET       2.700        35.53
GET       2.800        37.01
GET       2.900        38.29
GET       3.000        39.41
GET       3.100        40.38
GET       3.200        41.18
GET       3.300        41.76
GET       3.400        42.27
GET       3.500        42.68
GET       3.600        43.02
GET       3.700        43.41
GET       3.800        43.70
GET       3.900        43.92
GET       4.000        44.20
GET       4.100        44.43
GET       4.200        44.58
GET       4.300        44.75
GET       4.400        44.87
GET       4.500        44.98
GET       4.600        45.06
GET       4.700        45.16
GET       4.800        45.24
GET       4.900        45.33
GET       5.000        45.42
GET       5.100        45.53
GET       5.200        45.63
GET       5.300        45.70
GET       5.400        45.75
GET       5.500        45.83
GET       5.600        45.86
GET       5.700        45.92
GET       5.800        45.98
GET       5.900        46.03
GET       6.000        46.07
GET       6.100        46.10
GET       6.200        46.14
GET       6.300        46.17
GET       6.400        46.22
GET       6.500        46.29
GET       6.600        46.34
GET       6.700        46.39
GET       6.800        46.42
GET       6.900        46.45
GET       7.000        46.49
GET       7.100        46.56
GET       7.200        46.60
GET       7.300        46.64
GET       7.400        46.68
GET       7.500        46.72
GET       7.600        46.77
GET       7.700        46.80
GET       7.800        46.83
GET       7.900        46.86
GET       8.000        46.89
GET       8.100        46.93
GET       8.200        46.97
GET       8.300        47.01
GET       8.400        47.05
GET       8.500        47.09
GET       8.600        47.13
GET       8.700        47.19
GET       8.800        47.24
GET       8.900        47.29
GET       9.000        47.35
GET       9.100        47.40
GET       9.200        47.45
GET       9.300        47.50
GET       9.400        47.56
GET       9.500        47.60
GET       9.600        47.65
GET       9.700        47.74
GET       9.800        47.80
GET       9.900        47.87
GET      10.000        48.28
GET      11.000        49.48
GET      12.000        54.07
GET      13.000        72.66
GET      14.000        92.96
GET      15.000        98.10
GET      16.000        99.05
GET      17.000        99.39
GET      18.000        99.57
GET      19.000        99.65
GET      20.000        99.69
GET      21.000        99.71
GET      22.000        99.72
GET      23.000        99.73
GET      24.000        99.74
GET      25.000        99.76
GET      26.000        99.80
GET      27.000        99.88
GET      28.000        99.94
GET      29.000        99.98
GET      30.000        99.98
GET      31.000        99.99
GET     150.000       100.00
GET     160.000       100.00
---
