2         Threads
64        Connections per thread
70        Seconds


ALL STATS
========================================================================
Type        Ops/sec     Hits/sec   Misses/sec      Latency       KB/sec 
------------------------------------------------------------------------
Sets           0.00          ---          ---     40.61100         0.00 
Gets           0.00         0.00         0.00      0.00000         0.00 
Waits          0.00          ---          ---      0.00000          --- 
Totals         0.00         0.00         0.00     40.61100         0.00 


Request Latency Distribution
Type     <= msec         Percent
------------------------------------------------------------------------
SET       1.300         0.00
SET       1.400         0.00
SET       1.500         0.01
SET       1.600         0.04
SET       1.700         0.07
SET       1.800         0.11
SET       1.900         0.14
SET       2.000         0.19
SET       2.100         0.23
SET       2.200         0.27
SET       2.300         0.31
SET       2.400         0.35
SET       2.500         0.39
SET       2.600         0.43
SET       2.700         0.46
SET       2.800         0.48
SET       2.900         0.50
SET       3.000         0.53
SET       3.100         0.56
SET       3.200         0.57
SET       3.300         0.59
SET       3.400         0.61
SET       3.500         0.62
SET       3.600         0.63
SET       3.700         0.64
SET       3.800         0.65
SET       3.900         0.65
SET       4.000         0.66
SET       4.100         0.67
SET       4.200         0.67
SET       4.300         0.68
SET       4.400         0.68
SET       4.500         0.69
SET       4.600         0.69
SET       4.700         0.70
SET       4.800         0.70
SET       4.900         0.71
SET       5.000         0.71
SET       5.100         0.72
SET       5.200         0.73
SET       5.300         0.74
SET       5.400         0.75
SET       5.500         0.76
SET       5.600         0.77
SET       5.700         0.78
SET       5.800         0.79
SET       5.900         0.80
SET       6.000         0.81
SET       6.100         0.81
SET       6.200         0.82
SET       6.300         0.84
SET       6.400         0.85
SET       6.500         0.86
SET       6.600         0.87
SET       6.700         0.88
SET       6.800         0.89
SET       6.900         0.90
SET       7.000         0.91
SET       7.100         0.92
SET       7.200         0.92
SET       7.300         0.93
SET       7.400         0.94
SET       7.500         0.94
SET       7.600         0.94
SET       7.700         0.95
SET       7.800         0.95
SET       7.900         0.96
SET       8.000         0.97
SET       8.100         0.97
SET       8.200         0.98
SET       8.300         0.98
SET       8.400         0.99
SET       8.500         0.99
SET       8.600         1.00
SET       8.700         1.01
SET       8.800         1.01
SET       8.900         1.02
SET       9.000         1.02
SET       9.100         1.03
SET       9.200         1.03
SET       9.300         1.03
SET       9.400         1.04
SET       9.500         1.04
SET       9.600         1.05
SET       9.700         1.05
SET       9.800         1.06
SET       9.900         1.06
SET      10.000         1.09
SET      11.000         1.23
SET      12.000         1.30
SET      13.000         1.32
SET      14.000         1.34
SET      15.000         1.35
SET      16.000         1.36
SET      17.000         1.37
SET      18.000         1.37
SET      19.000         1.38
SET      20.000         1.39
SET      21.000         1.40
SET      22.000         1.44
SET      23.000         1.47
SET      24.000         1.50
SET      25.000         1.55
SET      26.000         1.68
SET      27.000         1.92
SET      28.000         2.37
SET      29.000         3.08
SET      30.000         3.93
SET      31.000         5.03
SET      32.000         6.56
SET      33.000         8.86
SET      34.000        11.65
SET      35.000        15.05
SET      36.000        19.11
SET      37.000        24.62
SET      38.000        31.14
SET      39.000        38.57
SET      40.000        47.21
SET      41.000        56.82
SET      42.000        66.64
SET      43.000        75.40
SET      44.000        81.77
SET      45.000        85.88
SET      46.000        89.05
SET      47.000        91.50
SET      48.000        93.40
SET      49.000        94.74
SET      50.000        95.69
SET      51.000        96.39
SET      52.000        96.92
SET      53.000        97.34
SET      54.000        97.68
SET      55.000        97.96
SET      56.000        98.24
SET      57.000        98.43
SET      58.000        98.62
SET      59.000        98.81
SET      60.000        99.01
SET      61.000        99.22
SET      62.000        99.38
SET      63.000        99.49
SET      64.000        99.57
SET      65.000        99.64
SET      66.000        99.67
SET      67.000        99.71
SET      68.000        99.74
SET      69.000        99.78
SET      70.000        99.81
SET      71.000        99.81
SET      72.000        99.82
SET      73.000        99.83
SET      74.000        99.86
SET      75.000        99.88
SET      76.000        99.88
SET      77.000        99.89
SET      78.000        99.89
SET      79.000        99.89
SET      80.000        99.89
SET      83.000        99.89
SET      84.000        99.89
SET      92.000        99.89
SET      94.000        99.90
SET     110.000        99.90
SET     120.000        99.90
SET     150.000        99.93
SET     160.000        99.95
SET     170.000        99.96
SET     180.000        99.96
SET     190.000        99.96
SET     210.000        99.96
SET     220.000        99.96
SET     230.000        99.96
SET     240.000        99.96
SET     250.000        99.97
SET     260.000        99.97
SET     270.000        99.97
SET     280.000        99.98
SET     290.000        99.98
SET     300.000        99.98
SET     310.000        99.98
SET     320.000        99.98
SET     330.000        99.98
SET     340.000        99.98
SET     350.000        99.98
SET     390.000        99.98
SET     400.000        99.99
SET     410.000        99.99
SET     420.000       100.00
SET     430.000       100.00
SET     440.000       100.00
SET     450.000       100.00
---
---
