2         Threads
42        Connections per thread
70        Seconds


ALL STATS
========================================================================
Type        Ops/sec     Hits/sec   Misses/sec      Latency       KB/sec 
------------------------------------------------------------------------
Sets        4001.15          ---          ---     20.69300     16148.75 
Gets           0.00         0.00         0.00      0.00000         0.00 
Waits          0.00          ---          ---      0.00000          --- 
Totals      4001.15         0.00         0.00     20.69300     16148.75 


Request Latency Distribution
Type     <= msec         Percent
------------------------------------------------------------------------
SET       1.400         0.00
SET       1.500         0.01
SET       1.600         0.03
SET       1.700         0.06
SET       1.800         0.12
SET       1.900         0.18
SET       2.000         0.23
SET       2.100         0.28
SET       2.200         0.33
SET       2.300         0.39
SET       2.400         0.45
SET       2.500         0.51
SET       2.600         0.57
SET       2.700         0.62
SET       2.800         0.66
SET       2.900         0.69
SET       3.000         0.71
SET       3.100         0.73
SET       3.200         0.75
SET       3.300         0.77
SET       3.400         0.78
SET       3.500         0.78
SET       3.600         0.79
SET       3.700         0.80
SET       3.800         0.80
SET       3.900         0.81
SET       4.000         0.82
SET       4.100         0.82
SET       4.200         0.83
SET       4.300         0.83
SET       4.400         0.84
SET       4.500         0.84
SET       4.600         0.84
SET       4.700         0.84
SET       4.800         0.85
SET       4.900         0.85
SET       5.000         0.85
SET       5.100         0.85
SET       5.200         0.86
SET       5.300         0.86
SET       5.400         0.86
SET       5.500         0.86
SET       5.600         0.87
SET       5.700         0.87
SET       5.800         0.87
SET       5.900         0.88
SET       6.000         0.88
SET       6.100         0.88
SET       6.200         0.89
SET       6.300         0.89
SET       6.400         0.89
SET       6.500         0.90
SET       6.600         0.90
SET       6.700         0.91
SET       6.800         0.92
SET       6.900         0.94
SET       7.000         0.95
SET       7.100         0.97
SET       7.200         0.99
SET       7.300         1.01
SET       7.400         1.03
SET       7.500         1.04
SET       7.600         1.06
SET       7.700         1.08
SET       7.800         1.10
SET       7.900         1.11
SET       8.000         1.12
SET       8.100         1.13
SET       8.200         1.14
SET       8.300         1.15
SET       8.400         1.16
SET       8.500         1.18
SET       8.600         1.18
SET       8.700         1.19
SET       8.800         1.20
SET       8.900         1.20
SET       9.000         1.21
SET       9.100         1.22
SET       9.200         1.22
SET       9.300         1.23
SET       9.400         1.24
SET       9.500         1.25
SET       9.600         1.26
SET       9.700         1.27
SET       9.800         1.28
SET       9.900         1.29
SET      10.000         1.33
SET      11.000         1.45
SET      12.000         1.68
SET      13.000         3.38
SET      14.000         7.74
SET      15.000        12.60
SET      16.000        17.35
SET      17.000        21.51
SET      18.000        26.15
SET      19.000        34.21
SET      20.000        45.88
SET      21.000        58.88
SET      22.000        70.83
SET      23.000        80.69
SET      24.000        87.51
SET      25.000        91.82
SET      26.000        94.33
SET      27.000        95.82
SET      28.000        96.78
SET      29.000        97.51
SET      30.000        98.11
SET      31.000        98.55
SET      32.000        98.85
SET      33.000        99.10
SET      34.000        99.24
SET      35.000        99.34
SET      36.000        99.44
SET      37.000        99.53
SET      38.000        99.63
SET      39.000        99.72
SET      40.000        99.77
SET      41.000        99.80
SET      42.000        99.83
SET      43.000        99.84
SET      44.000        99.85
SET      45.000        99.87
SET      46.000        99.88
SET      47.000        99.89
SET      48.000        99.90
SET      49.000        99.91
SET      50.000        99.92
SET      51.000        99.93
SET      52.000        99.93
SET      53.000        99.94
SET      54.000        99.94
SET      55.000        99.95
SET      56.000        99.95
SET      57.000        99.96
SET      58.000        99.96
SET      59.000        99.96
SET      61.000        99.96
SET      62.000        99.96
SET      63.000        99.97
SET      64.000        99.97
SET      66.000        99.97
SET      72.000        99.97
SET      85.000        99.97
SET      86.000        99.97
SET     100.000        99.97
SET     160.000        99.97
SET     190.000        99.97
SET     200.000        99.97
SET     220.000        99.97
SET     230.000        99.98
SET     240.000        99.98
SET     310.000        99.98
SET     390.000        99.98
SET     400.000        99.98
SET     410.000        99.98
SET     430.000        99.98
SET     440.000        99.98
SET     450.000        99.98
SET     460.000        99.98
SET     470.000        99.98
SET     480.000        99.98
SET     520.000        99.98
SET     540.000        99.98
SET     550.000        99.98
SET     580.000        99.98
SET     600.000        99.99
SET     630.000        99.99
SET     640.000        99.99
SET     650.000        99.99
SET     670.000        99.99
SET     680.000        99.99
SET     690.000       100.00
SET     700.000       100.00
SET     710.000       100.00
SET     730.000       100.00
SET     750.000       100.00
SET     760.000       100.00
SET     770.000       100.00
---
---
