1         Threads
14        Connections per thread
70        Seconds


ALL STATS
========================================================================
Type        Ops/sec     Hits/sec   Misses/sec      Latency       KB/sec 
------------------------------------------------------------------------
Sets           0.00          ---          ---      0.00000         0.00 
Gets         495.93       495.93         0.00     28.22000      2008.82 
Waits          0.00          ---          ---      0.00000          --- 
Totals       495.93       495.93         0.00     28.22000      2008.82 


Request Latency Distribution
Type     <= msec         Percent
------------------------------------------------------------------------
---
GET       2.000         0.00
GET       2.100         0.01
GET       2.300         0.01
GET       2.400         0.02
GET       2.500         0.03
GET       2.600         0.03
GET       2.700         0.05
GET       2.800         0.06
GET       2.900         0.07
GET       3.000         0.10
GET       3.100         0.10
GET       3.200         0.10
GET       3.300         0.11
GET       3.400         0.12
GET       3.500         0.13
GET       3.600         0.14
GET       3.900         0.14
GET       4.200         0.14
GET       4.600         0.14
GET       5.000         0.15
GET       5.200         0.15
GET       5.400         0.15
GET       5.700         0.16
GET       6.600         0.16
GET       7.100         0.16
GET       7.200         0.16
GET       7.300         0.17
GET       7.400         0.18
GET       8.300         0.18
GET       9.200         0.18
GET      10.000         0.19
GET      11.000         0.21
GET      12.000         0.23
GET      13.000         0.34
GET      14.000         0.68
GET      15.000        10.91
GET      16.000        34.32
GET      17.000        37.21
GET      18.000        37.78
GET      19.000        38.01
GET      20.000        38.20
GET      21.000        38.30
GET      22.000        38.39
GET      23.000        38.42
GET      24.000        38.46
GET      25.000        38.59
GET      26.000        38.74
GET      27.000        39.05
GET      28.000        39.57
GET      29.000        40.62
GET      30.000        45.31
GET      31.000        75.53
GET      32.000        85.19
GET      33.000        86.12
GET      34.000        86.49
GET      35.000        86.66
GET      36.000        86.83
GET      37.000        86.89
GET      38.000        86.93
GET      39.000        86.93
GET      40.000        86.96
GET      41.000        87.00
GET      42.000        87.06
GET      43.000        87.11
GET      44.000        87.27
GET      45.000        87.55
GET      46.000        89.96
GET      47.000        95.13
GET      48.000        95.92
GET      49.000        96.04
GET      50.000        96.06
GET      51.000        96.10
GET      52.000        96.11
GET      53.000        96.13
GET      54.000        96.13
GET      55.000        96.14
GET      56.000        96.14
GET      57.000        96.15
GET      58.000        96.16
GET      59.000        96.17
GET      60.000        96.21
GET      61.000        96.34
GET      62.000        97.67
GET      63.000        98.52
GET      64.000        98.61
GET      65.000        98.63
GET      66.000        98.63
GET      67.000        98.65
GET      68.000        98.65
GET      69.000        98.66
GET      72.000        98.67
GET      74.000        98.68
GET      75.000        98.71
GET      76.000        98.73
GET      77.000        98.86
GET      78.000        99.33
GET      79.000        99.46
GET      80.000        99.48
GET      81.000        99.48
GET      83.000        99.48
GET      85.000        99.49
GET      91.000        99.50
GET      92.000        99.51
GET      93.000        99.63
GET      94.000        99.78
GET      95.000        99.80
GET      96.000        99.80
GET     110.000        99.90
GET     120.000        99.92
GET     130.000        99.95
GET     140.000        99.95
GET     160.000        99.96
GET     170.000        99.96
GET     180.000        99.97
GET     190.000       100.00
---
