1         Threads
2         Connections per thread
70        Seconds


ALL STATS
========================================================================
Type        Ops/sec     Hits/sec   Misses/sec      Latency       KB/sec 
------------------------------------------------------------------------
Sets           0.00          ---          ---      0.00000         0.00 
Gets         500.56       500.56         0.00      3.98500      2027.57 
Waits          0.00          ---          ---      0.00000          --- 
Totals       500.56       500.56         0.00      3.98500      2027.57 


Request Latency Distribution
Type     <= msec         Percent
------------------------------------------------------------------------
---
GET       0.840         0.00
GET       0.890         0.01
GET       0.970         0.01
GET       0.980         0.02
GET       0.990         0.02
GET       1.000         0.09
GET       1.100         0.44
GET       1.200         1.36
GET       1.300         3.45
GET       1.400         7.12
GET       1.500        12.51
GET       1.600        18.91
GET       1.700        26.06
GET       1.800        33.44
GET       1.900        40.47
GET       2.000        46.39
GET       2.100        51.01
GET       2.200        54.67
GET       2.300        57.64
GET       2.400        60.28
GET       2.500        62.33
GET       2.600        64.08
GET       2.700        65.31
GET       2.800        66.46
GET       2.900        67.39
GET       3.000        68.21
GET       3.100        68.86
GET       3.200        69.43
GET       3.300        69.92
GET       3.400        70.35
GET       3.500        70.78
GET       3.600        71.16
GET       3.700        71.49
GET       3.800        71.76
GET       3.900        72.02
GET       4.000        72.23
GET       4.100        72.45
GET       4.200        72.70
GET       4.300        72.94
GET       4.400        73.07
GET       4.500        73.22
GET       4.600        73.39
GET       4.700        73.53
GET       4.800        73.66
GET       4.900        73.84
GET       5.000        73.99
GET       5.100        74.11
GET       5.200        74.22
GET       5.300        74.35
GET       5.400        74.46
GET       5.500        74.57
GET       5.600        74.67
GET       5.700        74.77
GET       5.800        74.90
GET       5.900        75.03
GET       6.000        75.12
GET       6.100        75.25
GET       6.200        75.35
GET       6.300        75.53
GET       6.400        75.66
GET       6.500        75.78
GET       6.600        75.91
GET       6.700        76.07
GET       6.800        76.24
GET       6.900        76.38
GET       7.000        76.57
GET       7.100        76.72
GET       7.200        76.91
GET       7.300        77.11
GET       7.400        77.30
GET       7.500        77.49
GET       7.600        77.67
GET       7.700        77.87
GET       7.800        78.12
GET       7.900        78.36
GET       8.000        78.62
GET       8.100        78.95
GET       8.200        79.25
GET       8.300        79.64
GET       8.400        80.01
GET       8.500        80.42
GET       8.600        80.83
GET       8.700        81.27
GET       8.800        81.82
GET       8.900        82.40
GET       9.000        82.89
GET       9.100        83.55
GET       9.200        84.25
GET       9.300        84.94
GET       9.400        85.70
GET       9.500        86.46
GET       9.600        87.31
GET       9.700        88.16
GET       9.800        89.03
GET       9.900        89.97
GET      10.000        94.73
GET      11.000        98.75
GET      12.000        99.59
GET      13.000        99.72
GET      14.000        99.79
GET      15.000        99.83
GET      16.000        99.86
GET      17.000        99.87
GET      18.000        99.88
GET      21.000        99.89
GET      22.000        99.91
GET      23.000        99.92
GET      24.000        99.96
GET      25.000        99.98
GET      26.000        99.99
GET      27.000        99.99
GET      59.000        99.99
GET     200.000       100.00
---
