"Dstat 0.7.2 CSV output"
"Author:","Dag Wieers <dag@wieers.com>",,,,"URL:","http://dag.wieers.com/home-made/dstat/"
"Host:","Server1",,,,"User:","maki"
"Cmdline:","dstat --output server1_get_3_14.csv 1 60",,,,"Date:","15 Nov 2018 09:53:12 UTC"

"total cpu usage",,,,,,"dsk/total",,"net/total",,"paging",,"system",
"usr","sys","idl","wai","hiq","siq","read","writ","recv","send","in","out","int","csw"
5.610,5.126,85.539,3.184,0.0,0.541,76542.750,337970.667,0.0,0.0,0.0,0.0,19.057,1734.567
1.042,6.250,91.667,0.0,0.0,1.042,0.0,0.0,449428.0,12777640.0,0.0,0.0,18.0,1049.0
1.031,3.093,94.845,0.0,0.0,1.031,0.0,0.0,441105.0,12499772.0,0.0,0.0,18.0,1049.0
3.061,3.061,93.878,0.0,0.0,0.0,0.0,0.0,452144.0,12695058.0,0.0,0.0,18.0,1103.0
1.031,3.093,91.753,3.093,0.0,1.031,0.0,49152.0,440556.0,12500000.0,0.0,0.0,19.0,1034.0
0.0,3.125,95.833,0.0,0.0,1.042,0.0,0.0,439715.0,12500242.0,0.0,0.0,18.0,1030.0
2.020,8.081,89.899,0.0,0.0,0.0,0.0,0.0,445366.0,12500393.0,0.0,0.0,18.0,1092.0
1.010,5.051,93.939,0.0,0.0,0.0,0.0,0.0,439511.0,12497469.0,0.0,0.0,18.0,1037.0
1.031,3.093,94.845,0.0,0.0,1.031,0.0,0.0,440027.0,12501711.0,0.0,0.0,19.0,1026.0
1.042,4.167,94.792,0.0,0.0,0.0,0.0,0.0,445469.0,12500419.0,0.0,0.0,18.0,1109.0
2.083,2.083,95.833,0.0,0.0,0.0,0.0,0.0,447186.0,12694729.0,0.0,0.0,18.0,1064.0
1.042,5.208,93.750,0.0,0.0,0.0,0.0,0.0,439805.0,12500333.0,0.0,0.0,18.0,1158.0
2.083,2.083,95.833,0.0,0.0,0.0,0.0,0.0,445605.0,12500400.0,0.0,0.0,19.0,1084.0
1.031,5.155,93.814,0.0,0.0,0.0,0.0,0.0,439758.0,12500142.0,0.0,0.0,18.0,977.0
1.031,3.093,95.876,0.0,0.0,0.0,0.0,0.0,439633.0,12500157.0,0.0,0.0,18.0,1055.0
3.093,2.062,94.845,0.0,0.0,0.0,0.0,0.0,445424.0,12500377.0,0.0,0.0,18.0,1071.0
4.040,5.051,89.899,0.0,0.0,1.010,0.0,0.0,439917.0,12498886.0,0.0,0.0,18.0,989.0
2.083,3.125,94.792,0.0,0.0,0.0,0.0,0.0,439822.0,12500272.0,0.0,0.0,19.0,977.0
2.062,4.124,93.814,0.0,0.0,0.0,0.0,0.0,445987.0,12500341.0,0.0,0.0,18.0,1161.0
1.053,1.053,96.842,0.0,0.0,1.053,0.0,0.0,440162.0,12500151.0,0.0,0.0,18.0,1048.0
1.0,5.0,93.0,0.0,0.0,1.0,0.0,0.0,439852.0,12499040.0,0.0,0.0,18.0,1025.0
5.155,4.124,90.722,0.0,0.0,0.0,0.0,0.0,444752.0,12499619.0,0.0,0.0,18.0,1020.0
1.020,3.061,94.898,0.0,0.0,1.020,0.0,0.0,448718.0,12696469.0,0.0,0.0,19.0,1079.0
1.031,3.093,94.845,0.0,0.0,1.031,0.0,16384.0,440452.0,12498512.0,0.0,0.0,17.0,1061.0
2.0,4.0,94.0,0.0,0.0,0.0,0.0,0.0,439646.0,12501715.0,0.0,0.0,19.0,1047.0
2.083,4.167,93.750,0.0,0.0,0.0,0.0,0.0,446573.0,12498421.0,0.0,0.0,18.0,1041.0
1.053,5.263,93.684,0.0,0.0,0.0,0.0,0.0,440730.0,12501377.0,0.0,0.0,18.0,1038.0
1.031,4.124,94.845,0.0,0.0,0.0,0.0,0.0,439575.0,12497535.0,0.0,0.0,19.0,1049.0
2.0,5.0,92.0,0.0,0.0,1.0,0.0,0.0,452499.0,12696446.0,0.0,0.0,18.0,1062.0
1.042,2.083,95.833,0.0,0.0,1.042,0.0,0.0,440114.0,12500175.0,0.0,0.0,18.0,993.0
1.010,6.061,92.929,0.0,0.0,0.0,0.0,0.0,439695.0,12500220.0,0.0,0.0,18.0,1045.0
3.125,4.167,92.708,0.0,0.0,0.0,0.0,0.0,445721.0,12500372.0,0.0,0.0,18.0,1074.0
1.031,3.093,95.876,0.0,0.0,0.0,0.0,0.0,439722.0,12500326.0,0.0,0.0,19.0,1040.0
1.031,4.124,94.845,0.0,0.0,0.0,0.0,0.0,439847.0,12499038.0,0.0,0.0,18.0,1004.0
1.053,3.158,76.842,18.947,0.0,0.0,0.0,65536.0,452417.0,12696521.0,0.0,0.0,18.0,1081.0
2.105,4.211,93.684,0.0,0.0,0.0,0.0,0.0,442204.0,12497325.0,0.0,0.0,18.0,1195.0
1.031,4.124,94.845,0.0,0.0,0.0,0.0,0.0,439922.0,12501553.0,0.0,0.0,18.0,1109.0
2.041,4.082,91.837,0.0,0.0,2.041,0.0,0.0,445428.0,12500375.0,0.0,0.0,19.0,1027.0
1.020,5.102,93.878,0.0,0.0,0.0,0.0,0.0,441366.0,12499723.0,0.0,0.0,18.0,997.0
1.020,3.061,94.898,0.0,0.0,1.020,0.0,0.0,439669.0,12500273.0,0.0,0.0,18.0,1085.0
3.030,4.040,92.929,0.0,0.0,0.0,0.0,0.0,445395.0,12500424.0,0.0,0.0,18.0,1076.0
1.020,7.143,91.837,0.0,0.0,0.0,0.0,0.0,446594.0,12694868.0,0.0,0.0,18.0,1019.0
1.031,3.093,94.845,0.0,0.0,1.031,0.0,0.0,439737.0,12501656.0,0.0,0.0,19.0,1082.0
2.062,3.093,94.845,0.0,0.0,0.0,0.0,0.0,445405.0,12498965.0,0.0,0.0,18.0,1073.0
2.0,3.0,93.0,0.0,0.0,2.0,0.0,0.0,446530.0,12693563.0,0.0,0.0,18.0,1053.0
2.083,2.083,95.833,0.0,0.0,0.0,0.0,0.0,440349.0,12500124.0,0.0,0.0,18.0,977.0
3.093,5.155,90.722,0.0,0.0,1.031,0.0,0.0,445406.0,12498946.0,0.0,0.0,19.0,1101.0
1.010,4.040,93.939,0.0,0.0,1.010,0.0,0.0,439720.0,12500325.0,0.0,0.0,18.0,1003.0
0.0,3.125,96.875,0.0,0.0,0.0,0.0,0.0,440160.0,12500232.0,0.0,0.0,18.0,1066.0
2.0,6.0,92.0,0.0,0.0,0.0,0.0,0.0,445499.0,12500449.0,0.0,0.0,18.0,1069.0
0.0,4.124,94.845,0.0,0.0,1.031,0.0,0.0,439724.0,12498934.0,0.0,0.0,18.0,1052.0
2.062,4.124,92.784,0.0,0.0,1.031,0.0,0.0,439691.0,12501755.0,0.0,0.0,19.0,1032.0
2.020,4.040,93.939,0.0,0.0,0.0,0.0,0.0,445023.0,12484706.0,0.0,0.0,18.0,1101.0
1.042,4.167,94.792,0.0,0.0,0.0,0.0,0.0,440218.0,12514548.0,0.0,0.0,18.0,1000.0
1.010,6.061,92.929,0.0,0.0,0.0,0.0,0.0,440303.0,12500157.0,0.0,0.0,18.0,1024.0
2.062,2.062,95.876,0.0,0.0,0.0,0.0,0.0,445567.0,12498975.0,0.0,0.0,18.0,1061.0
1.980,7.921,89.109,0.0,0.0,0.990,0.0,0.0,439741.0,12500324.0,0.0,0.0,19.0,1067.0
0.0,4.211,95.789,0.0,0.0,0.0,0.0,0.0,439914.0,12500360.0,0.0,0.0,17.0,997.0
1.042,3.125,94.792,0.0,0.0,1.042,0.0,0.0,445816.0,12499671.0,0.0,0.0,19.0,1044.0
1.031,3.093,95.876,0.0,0.0,0.0,0.0,0.0,439709.0,12500314.0,0.0,0.0,18.0,1087.0
1.020,3.061,94.898,0.0,0.0,1.020,0.0,0.0,439641.0,12500245.0,0.0,0.0,18.0,1032.0
