"Dstat 0.7.2 CSV output"
"Author:","Dag Wieers <dag@wieers.com>",,,,"URL:","http://dag.wieers.com/home-made/dstat/"
"Host:","Server1",,,,"User:","maki"
"Cmdline:","dstat --output server1_get_1_6.csv 1 60",,,,"Date:","15 Nov 2018 09:28:11 UTC"

"total cpu usage",,,,,,"dsk/total",,"net/total",,"paging",,"system",
"usr","sys","idl","wai","hiq","siq","read","writ","recv","send","in","out","int","csw"
7.431,5.155,82.077,4.813,0.0,0.525,116481.312,513158.869,0.0,0.0,0.0,0.0,19.499,1709.948
1.020,6.122,90.816,0.0,0.0,2.041,0.0,0.0,450253.0,12624135.0,0.0,0.0,18.0,1681.0
2.105,6.316,91.579,0.0,0.0,0.0,0.0,0.0,441587.0,12549914.0,0.0,0.0,18.0,1598.0
1.075,1.075,96.774,0.0,0.0,1.075,0.0,0.0,439323.0,12481569.0,0.0,0.0,19.0,1651.0
3.093,6.186,90.722,0.0,0.0,0.0,0.0,0.0,446144.0,12521733.0,0.0,0.0,18.0,1627.0
1.042,4.167,93.750,0.0,0.0,1.042,0.0,0.0,440359.0,12511601.0,0.0,0.0,18.0,1572.0
1.064,3.191,95.745,0.0,0.0,0.0,0.0,0.0,436882.0,12407650.0,0.0,0.0,18.0,1599.0
4.082,7.143,87.755,0.0,0.0,1.020,0.0,0.0,446957.0,12555593.0,0.0,0.0,18.0,1643.0
0.0,3.158,95.789,0.0,0.0,1.053,0.0,0.0,440493.0,12496086.0,0.0,0.0,19.0,1577.0
0.0,4.255,95.745,0.0,0.0,0.0,0.0,0.0,434862.0,12358149.0,0.0,0.0,18.0,1569.0
2.083,4.167,92.708,0.0,0.0,1.042,0.0,0.0,450999.0,12645086.0,0.0,0.0,18.0,1625.0
1.064,3.191,95.745,0.0,0.0,0.0,0.0,0.0,440481.0,12521468.0,0.0,0.0,18.0,1698.0
2.128,4.255,93.617,0.0,0.0,0.0,0.0,0.0,439989.0,12502993.0,0.0,0.0,18.0,1591.0
2.151,2.151,95.699,0.0,0.0,0.0,0.0,0.0,446058.0,12462646.0,0.0,0.0,19.0,1663.0
0.0,3.191,96.809,0.0,0.0,0.0,0.0,0.0,441778.0,12538231.0,0.0,0.0,18.0,1623.0
1.031,4.124,93.814,0.0,0.0,1.031,0.0,0.0,440585.0,12500067.0,0.0,0.0,18.0,1608.0
3.226,1.075,95.699,0.0,0.0,0.0,0.0,0.0,444622.0,12473281.0,0.0,0.0,18.0,1633.0
2.128,4.255,92.553,0.0,0.0,1.064,0.0,0.0,448445.0,12733038.0,0.0,0.0,18.0,1820.0
0.0,5.263,94.737,0.0,0.0,0.0,0.0,0.0,439368.0,12474553.0,0.0,0.0,19.0,1570.0
3.158,3.158,92.632,0.0,0.0,1.053,0.0,0.0,445769.0,12497402.0,0.0,0.0,18.0,1538.0
1.042,5.208,93.750,0.0,0.0,0.0,0.0,0.0,439568.0,12494594.0,0.0,0.0,18.0,1627.0
1.042,3.125,95.833,0.0,0.0,0.0,0.0,0.0,448445.0,12738715.0,0.0,0.0,18.0,1635.0
1.053,6.316,91.579,1.053,0.0,0.0,0.0,20480.0,444859.0,12464426.0,0.0,0.0,18.0,1671.0
1.053,5.263,93.684,0.0,0.0,0.0,0.0,0.0,439127.0,12500443.0,0.0,0.0,19.0,1450.0
0.0,4.167,94.792,0.0,0.0,1.042,0.0,0.0,441545.0,12523055.0,0.0,0.0,18.0,1603.0
0.0,4.211,95.789,0.0,0.0,0.0,0.0,0.0,445944.0,12646238.0,0.0,0.0,18.0,1696.0
0.0,5.263,94.737,0.0,0.0,0.0,0.0,0.0,446957.0,12525176.0,0.0,0.0,18.0,1642.0
2.083,4.167,91.667,0.0,0.0,2.083,0.0,0.0,441149.0,12525677.0,0.0,0.0,18.0,1654.0
0.0,4.255,95.745,0.0,0.0,0.0,0.0,0.0,437902.0,12453423.0,0.0,0.0,19.0,1620.0
2.083,4.167,93.750,0.0,0.0,0.0,0.0,0.0,447799.0,12549934.0,0.0,0.0,18.0,1704.0
1.031,4.124,93.814,0.0,0.0,1.031,0.0,0.0,439855.0,12507431.0,0.0,0.0,18.0,1667.0
1.031,6.186,91.753,1.031,0.0,0.0,0.0,36864.0,439448.0,12455857.0,0.0,0.0,18.0,1622.0
4.167,6.250,88.542,0.0,0.0,1.042,0.0,0.0,445518.0,12494461.0,0.0,0.0,18.0,1590.0
2.128,5.319,91.489,0.0,0.0,1.064,0.0,4096.0,444619.0,12538200.0,0.0,0.0,19.0,1654.0
1.053,4.211,94.737,0.0,0.0,0.0,0.0,0.0,438664.0,12473241.0,0.0,0.0,18.0,1677.0
1.053,5.263,92.632,0.0,0.0,1.053,0.0,0.0,444833.0,12474528.0,0.0,0.0,18.0,1632.0
2.0,6.0,91.0,0.0,0.0,1.0,0.0,0.0,441720.0,12552836.0,0.0,0.0,18.0,1619.0
0.0,5.376,94.624,0.0,0.0,0.0,0.0,0.0,439338.0,12500094.0,0.0,0.0,19.0,1713.0
3.125,3.125,92.708,0.0,0.0,1.042,0.0,0.0,446242.0,12498623.0,0.0,0.0,18.0,1591.0
1.020,5.102,92.857,0.0,0.0,1.020,0.0,0.0,439740.0,12475942.0,0.0,0.0,18.0,1508.0
0.0,5.263,94.737,0.0,0.0,0.0,0.0,0.0,439394.0,12474578.0,0.0,0.0,18.0,1634.0
2.083,3.125,94.792,0.0,0.0,0.0,0.0,0.0,445726.0,12498673.0,0.0,0.0,18.0,1583.0
3.061,5.102,90.816,0.0,0.0,1.020,0.0,0.0,440166.0,12500152.0,0.0,0.0,18.0,1663.0
1.053,3.158,94.737,0.0,0.0,1.053,0.0,0.0,442214.0,12552659.0,0.0,0.0,19.0,1601.0
1.053,4.211,94.737,0.0,0.0,0.0,0.0,0.0,445058.0,12483265.0,0.0,0.0,18.0,1661.0
1.075,2.151,96.774,0.0,0.0,0.0,0.0,0.0,439485.0,12493156.0,0.0,0.0,18.0,1663.0
1.031,3.093,94.845,0.0,0.0,1.031,0.0,0.0,441086.0,12522827.0,0.0,0.0,18.0,1618.0
3.093,10.309,86.598,0.0,0.0,0.0,0.0,0.0,443561.0,12449242.0,0.0,0.0,19.0,1634.0
2.083,3.125,94.792,0.0,0.0,0.0,0.0,0.0,441921.0,12551252.0,0.0,0.0,18.0,1644.0
1.053,3.158,95.789,0.0,0.0,0.0,0.0,0.0,439675.0,12500279.0,0.0,0.0,18.0,1632.0
1.042,5.208,93.750,0.0,0.0,0.0,0.0,0.0,446362.0,12504380.0,0.0,0.0,18.0,1706.0
2.041,5.102,91.837,0.0,0.0,1.020,0.0,0.0,438925.0,12481808.0,0.0,0.0,18.0,1546.0
2.105,5.263,92.632,0.0,0.0,0.0,0.0,0.0,446387.0,12694826.0,0.0,0.0,19.0,1621.0
1.064,2.128,95.745,0.0,0.0,1.064,0.0,0.0,446221.0,12518776.0,0.0,0.0,18.0,1522.0
1.042,4.167,93.750,0.0,0.0,1.042,0.0,0.0,441035.0,12493974.0,0.0,0.0,18.0,1625.0
2.105,2.105,95.789,0.0,0.0,0.0,0.0,0.0,439697.0,12481574.0,0.0,0.0,18.0,1576.0
2.105,4.211,93.684,0.0,0.0,0.0,0.0,0.0,446694.0,12520138.0,0.0,0.0,18.0,1665.0
0.0,5.376,94.624,0.0,0.0,0.0,0.0,0.0,439922.0,12497241.0,0.0,0.0,19.0,1597.0
0.0,6.186,93.814,0.0,0.0,0.0,0.0,0.0,440007.0,12488674.0,0.0,0.0,18.0,1615.0
4.082,5.102,89.796,0.0,0.0,1.020,0.0,0.0,445755.0,12512975.0,0.0,0.0,18.0,1541.0
1.031,5.155,92.784,0.0,0.0,1.031,0.0,0.0,439341.0,12475903.0,0.0,0.0,18.0,1628.0
