"Dstat 0.7.2 CSV output"
"Author:","Dag Wieers <dag@wieers.com>",,,,"URL:","http://dag.wieers.com/home-made/dstat/"
"Host:","Server1",,,,"User:","maki"
"Cmdline:","dstat --output server1_set_1_8.csv 1 60",,,,"Date:","15 Nov 2018 08:57:04 UTC"

"total cpu usage",,,,,,"dsk/total",,"net/total",,"paging",,"system",
"usr","sys","idl","wai","hiq","siq","read","writ","recv","send","in","out","int","csw"
16.390,6.422,62.605,14.006,0.0,0.577,331653.920,1457053.475,0.0,0.0,0.0,0.0,21.882,1431.153
0.0,3.191,96.809,0.0,0.0,0.0,0.0,0.0,13150954.0,427308.0,0.0,0.0,18.0,1310.0
1.031,7.216,91.753,0.0,0.0,0.0,0.0,0.0,13949322.0,450682.0,0.0,0.0,18.0,1543.0
3.061,3.061,92.857,0.0,0.0,1.020,0.0,0.0,14273567.0,467105.0,0.0,0.0,18.0,1649.0
1.042,2.083,95.833,0.0,0.0,1.042,0.0,0.0,14015118.0,455544.0,0.0,0.0,19.0,1287.0
2.020,6.061,91.919,0.0,0.0,0.0,0.0,0.0,12075182.0,391574.0,0.0,0.0,18.0,1249.0
1.020,4.082,94.898,0.0,0.0,0.0,0.0,0.0,9399521.0,308169.0,0.0,0.0,18.0,1022.0
3.061,4.082,91.837,0.0,0.0,1.020,0.0,0.0,14092100.0,456460.0,0.0,0.0,18.0,1628.0
1.010,7.071,91.919,0.0,0.0,0.0,0.0,0.0,13716830.0,444616.0,0.0,0.0,18.0,1528.0
1.042,4.167,93.750,0.0,0.0,1.042,0.0,0.0,14176746.0,463575.0,0.0,0.0,19.0,1495.0
3.093,2.062,93.814,0.0,0.0,1.031,0.0,0.0,14371034.0,465924.0,0.0,0.0,17.0,1601.0
2.062,3.093,94.845,0.0,0.0,0.0,0.0,0.0,13927712.0,450962.0,0.0,0.0,19.0,1425.0
2.083,4.167,92.708,0.0,0.0,1.042,0.0,0.0,13095800.0,428561.0,0.0,0.0,18.0,1415.0
2.062,3.093,93.814,0.0,0.0,1.031,0.0,0.0,13390408.0,435020.0,0.0,0.0,19.0,1380.0
1.031,5.155,93.814,0.0,0.0,0.0,0.0,0.0,13390021.0,433586.0,0.0,0.0,18.0,1383.0
4.082,2.041,92.857,0.0,0.0,1.020,0.0,0.0,13425522.0,439511.0,0.0,0.0,18.0,1346.0
2.041,4.082,93.878,0.0,0.0,0.0,0.0,24576.0,13489085.0,436738.0,0.0,0.0,18.0,1398.0
1.053,2.105,95.789,0.0,0.0,1.053,0.0,0.0,12358152.0,399886.0,0.0,0.0,18.0,1236.0
2.083,4.167,92.708,0.0,0.0,1.042,0.0,0.0,13351318.0,437811.0,0.0,0.0,19.0,1538.0
2.083,2.083,94.792,0.0,0.0,1.042,0.0,0.0,14208719.0,460334.0,0.0,0.0,18.0,1554.0
1.042,3.125,94.792,0.0,0.0,1.042,0.0,0.0,13829406.0,447774.0,0.0,0.0,18.0,1484.0
4.040,5.051,90.909,0.0,0.0,0.0,0.0,0.0,13381883.0,437137.0,0.0,0.0,18.0,1376.0
0.0,4.167,95.833,0.0,0.0,0.0,0.0,0.0,13652583.0,443288.0,0.0,0.0,18.0,1288.0
2.041,5.102,92.857,0.0,0.0,0.0,0.0,0.0,13446270.0,436106.0,0.0,0.0,19.0,1331.0
2.083,4.167,93.750,0.0,0.0,0.0,0.0,0.0,14014174.0,457031.0,0.0,0.0,18.0,1550.0
2.062,2.062,94.845,0.0,0.0,1.031,0.0,0.0,11645796.0,378088.0,0.0,0.0,18.0,1159.0
2.105,2.105,93.684,2.105,0.0,0.0,0.0,36864.0,13411902.0,435748.0,0.0,0.0,18.0,1394.0
1.042,2.083,95.833,0.0,0.0,1.042,0.0,0.0,13453199.0,434518.0,0.0,0.0,18.0,1494.0
2.128,4.255,93.617,0.0,0.0,0.0,0.0,0.0,13479046.0,441811.0,0.0,0.0,19.0,1495.0
2.062,3.093,93.814,0.0,0.0,1.031,0.0,0.0,13946526.0,451268.0,0.0,0.0,18.0,1532.0
2.083,3.125,94.792,0.0,0.0,0.0,0.0,0.0,12964909.0,419724.0,0.0,0.0,18.0,1338.0
3.061,4.082,91.837,0.0,0.0,1.020,0.0,8192.0,14529527.0,475469.0,0.0,0.0,18.0,1532.0
1.053,3.158,95.789,0.0,0.0,0.0,0.0,0.0,14490231.0,469268.0,0.0,0.0,18.0,1624.0
1.053,4.211,93.684,0.0,0.0,1.053,0.0,0.0,13302653.0,431370.0,0.0,0.0,18.0,1394.0
2.062,6.186,91.753,0.0,0.0,0.0,0.0,0.0,14037216.0,459227.0,0.0,0.0,19.0,1459.0
2.020,6.061,91.919,0.0,0.0,0.0,0.0,0.0,14662776.0,474388.0,0.0,0.0,18.0,1590.0
2.128,4.255,92.553,0.0,0.0,1.064,0.0,0.0,13575955.0,446516.0,0.0,0.0,18.0,1586.0
3.226,2.151,94.624,0.0,0.0,0.0,0.0,0.0,13666863.0,446681.0,0.0,0.0,18.0,1453.0
3.093,6.186,90.722,0.0,0.0,0.0,0.0,0.0,12916964.0,419090.0,0.0,0.0,18.0,1360.0
2.062,3.093,93.814,0.0,0.0,1.031,0.0,0.0,13056546.0,423058.0,0.0,0.0,19.0,1321.0
2.062,5.155,91.753,0.0,0.0,1.031,0.0,0.0,14325383.0,468601.0,0.0,0.0,18.0,1653.0
3.030,5.051,90.909,0.0,0.0,1.010,0.0,0.0,13456911.0,436414.0,0.0,0.0,18.0,1403.0
0.0,4.211,95.789,0.0,0.0,0.0,0.0,0.0,13161764.0,426138.0,0.0,0.0,18.0,1454.0
5.102,6.122,87.755,0.0,0.0,1.020,0.0,0.0,13445624.0,439891.0,0.0,0.0,19.0,1507.0
2.128,2.128,95.745,0.0,0.0,0.0,0.0,0.0,14529920.0,470714.0,0.0,0.0,18.0,1666.0
0.0,4.167,95.833,0.0,0.0,0.0,0.0,0.0,13289713.0,431988.0,0.0,0.0,18.0,1337.0
2.083,4.167,93.750,0.0,0.0,0.0,0.0,0.0,13139084.0,430159.0,0.0,0.0,18.0,1510.0
0.0,6.250,93.750,0.0,0.0,0.0,0.0,0.0,15365064.0,498342.0,0.0,0.0,19.0,1777.0
1.042,5.208,92.708,0.0,0.0,1.042,0.0,0.0,14120020.0,456866.0,0.0,0.0,18.0,1566.0
4.124,3.093,91.753,0.0,0.0,1.031,0.0,0.0,13681744.0,447877.0,0.0,0.0,18.0,1482.0
1.064,4.255,94.681,0.0,0.0,0.0,0.0,0.0,13821652.0,448172.0,0.0,0.0,18.0,1402.0
2.020,5.051,91.919,0.0,0.0,1.010,0.0,0.0,13805564.0,446568.0,0.0,0.0,18.0,1501.0
4.167,2.083,93.750,0.0,0.0,0.0,0.0,0.0,14238908.0,465799.0,0.0,0.0,19.0,1546.0
2.062,5.155,92.784,0.0,0.0,0.0,0.0,0.0,13750305.0,445390.0,0.0,0.0,18.0,1424.0
4.082,3.061,91.837,0.0,0.0,1.020,0.0,0.0,13871279.0,449310.0,0.0,0.0,18.0,1384.0
2.105,4.211,93.684,0.0,0.0,0.0,0.0,0.0,14478188.0,473029.0,0.0,0.0,18.0,1607.0
0.0,2.128,96.809,0.0,0.0,1.064,0.0,0.0,14027909.0,454922.0,0.0,0.0,18.0,1614.0
2.041,3.061,86.735,7.143,0.0,1.020,0.0,94208.0,14742525.0,477652.0,0.0,0.0,19.0,1619.0
4.348,3.261,92.391,0.0,0.0,0.0,0.0,0.0,13306165.0,435943.0,0.0,0.0,18.0,1420.0
4.040,4.040,91.919,0.0,0.0,0.0,0.0,0.0,13972646.0,453644.0,0.0,0.0,18.0,1485.0
2.083,4.167,93.750,0.0,0.0,0.0,0.0,0.0,14716623.0,475900.0,0.0,0.0,18.0,1659.0
