2         Threads
6         Connections per thread
70        Seconds


ALL STATS
========================================================================
Type        Ops/sec     Hits/sec   Misses/sec      Latency       KB/sec 
------------------------------------------------------------------------
Sets        5634.53          ---          ---      2.12600     22741.09 
Gets           0.00         0.00         0.00      0.00000         0.00 
Waits          0.00          ---          ---      0.00000          --- 
Totals      5634.53         0.00         0.00      2.12600     22741.09 


Request Latency Distribution
Type     <= msec         Percent
------------------------------------------------------------------------
SET       0.220         0.00
SET       0.230         0.00
SET       0.240         0.00
SET       0.250         0.00
SET       0.260         0.00
SET       0.270         0.01
SET       0.280         0.02
SET       0.290         0.03
SET       0.300         0.04
SET       0.310         0.05
SET       0.320         0.07
SET       0.330         0.10
SET       0.340         0.13
SET       0.350         0.17
SET       0.360         0.23
SET       0.370         0.30
SET       0.380         0.37
SET       0.390         0.47
SET       0.400         0.59
SET       0.410         0.71
SET       0.420         0.87
SET       0.430         1.03
SET       0.440         1.21
SET       0.450         1.41
SET       0.460         1.64
SET       0.470         1.88
SET       0.480         2.13
SET       0.490         2.41
SET       0.500         2.71
SET       0.510         3.01
SET       0.520         3.34
SET       0.530         3.69
SET       0.540         4.04
SET       0.550         4.39
SET       0.560         4.76
SET       0.570         5.16
SET       0.580         5.58
SET       0.590         6.00
SET       0.600         6.44
SET       0.610         6.92
SET       0.620         7.40
SET       0.630         7.90
SET       0.640         8.42
SET       0.650         8.97
SET       0.660         9.56
SET       0.670        10.17
SET       0.680        10.81
SET       0.690        11.49
SET       0.700        12.16
SET       0.710        12.86
SET       0.720        13.59
SET       0.730        14.34
SET       0.740        15.16
SET       0.750        15.96
SET       0.760        16.78
SET       0.770        17.60
SET       0.780        18.45
SET       0.790        19.30
SET       0.800        20.15
SET       0.810        21.01
SET       0.820        21.86
SET       0.830        22.73
SET       0.840        23.56
SET       0.850        24.40
SET       0.860        25.27
SET       0.870        26.13
SET       0.880        26.98
SET       0.890        27.83
SET       0.900        28.70
SET       0.910        29.55
SET       0.920        30.41
SET       0.930        31.26
SET       0.940        32.12
SET       0.950        32.97
SET       0.960        33.88
SET       0.970        34.75
SET       0.980        35.64
SET       0.990        36.57
SET       1.000        41.36
SET       1.100        49.17
SET       1.200        56.19
SET       1.300        62.43
SET       1.400        67.03
SET       1.500        69.86
SET       1.600        71.45
SET       1.700        72.39
SET       1.800        73.03
SET       1.900        73.50
SET       2.000        73.87
SET       2.100        74.20
SET       2.200        74.47
SET       2.300        74.71
SET       2.400        74.89
SET       2.500        75.08
SET       2.600        75.24
SET       2.700        75.41
SET       2.800        75.61
SET       2.900        75.77
SET       3.000        75.91
SET       3.100        76.06
SET       3.200        76.23
SET       3.300        76.39
SET       3.400        76.54
SET       3.500        76.72
SET       3.600        76.90
SET       3.700        77.07
SET       3.800        77.27
SET       3.900        77.49
SET       4.000        77.72
SET       4.100        78.01
SET       4.200        78.31
SET       4.300        78.65
SET       4.400        79.06
SET       4.500        79.56
SET       4.600        80.09
SET       4.700        80.69
SET       4.800        81.37
SET       4.900        82.21
SET       5.000        83.12
SET       5.100        84.09
SET       5.200        85.17
SET       5.300        86.31
SET       5.400        87.55
SET       5.500        88.82
SET       5.600        90.09
SET       5.700        91.33
SET       5.800        92.51
SET       5.900        93.66
SET       6.000        94.63
SET       6.100        95.57
SET       6.200        96.39
SET       6.300        97.04
SET       6.400        97.59
SET       6.500        98.08
SET       6.600        98.42
SET       6.700        98.66
SET       6.800        98.85
SET       6.900        99.01
SET       7.000        99.16
SET       7.100        99.25
SET       7.200        99.32
SET       7.300        99.37
SET       7.400        99.43
SET       7.500        99.47
SET       7.600        99.51
SET       7.700        99.54
SET       7.800        99.57
SET       7.900        99.61
SET       8.000        99.64
SET       8.100        99.66
SET       8.200        99.68
SET       8.300        99.70
SET       8.400        99.71
SET       8.500        99.73
SET       8.600        99.75
SET       8.700        99.76
SET       8.800        99.76
SET       8.900        99.77
SET       9.000        99.78
SET       9.100        99.79
SET       9.200        99.80
SET       9.300        99.81
SET       9.400        99.82
SET       9.500        99.83
SET       9.600        99.83
SET       9.700        99.84
SET       9.800        99.85
SET       9.900        99.85
SET      10.000        99.87
SET      11.000        99.88
SET      12.000        99.88
SET      13.000        99.89
SET      14.000        99.91
SET      15.000        99.92
SET      16.000        99.94
SET      17.000        99.97
SET      18.000        99.99
SET      19.000        99.99
SET      20.000        99.99
SET      26.000       100.00
SET      32.000       100.00
---
---
