1         Threads
4         Connections per thread
70        Seconds


ALL STATS
========================================================================
Type        Ops/sec     Hits/sec   Misses/sec      Latency       KB/sec 
------------------------------------------------------------------------
Sets           0.00          ---          ---      0.00000         0.00 
Gets         510.00       510.00         0.00      7.83400      2065.80 
Waits          0.00          ---          ---      0.00000          --- 
Totals       510.00       510.00         0.00      7.83400      2065.80 


Request Latency Distribution
Type     <= msec         Percent
------------------------------------------------------------------------
---
GET       1.100         0.03
GET       1.200         0.15
GET       1.300         0.41
GET       1.400         1.07
GET       1.500         2.25
GET       1.600         4.24
GET       1.700         7.00
GET       1.800        10.40
GET       1.900        14.15
GET       2.000        17.97
GET       2.100        22.17
GET       2.200        25.84
GET       2.300        29.62
GET       2.400        32.76
GET       2.500        35.51
GET       2.600        37.81
GET       2.700        39.65
GET       2.800        41.07
GET       2.900        42.31
GET       3.000        43.35
GET       3.100        44.10
GET       3.200        44.80
GET       3.300        45.32
GET       3.400        45.72
GET       3.500        46.14
GET       3.600        46.53
GET       3.700        46.79
GET       3.800        47.01
GET       3.900        47.21
GET       4.000        47.39
GET       4.100        47.56
GET       4.200        47.73
GET       4.300        47.90
GET       4.400        48.03
GET       4.500        48.12
GET       4.600        48.23
GET       4.700        48.31
GET       4.800        48.47
GET       4.900        48.56
GET       5.000        48.66
GET       5.100        48.75
GET       5.200        48.82
GET       5.300        48.89
GET       5.400        48.94
GET       5.500        49.01
GET       5.600        49.08
GET       5.700        49.13
GET       5.800        49.18
GET       5.900        49.24
GET       6.000        49.29
GET       6.100        49.37
GET       6.200        49.44
GET       6.300        49.49
GET       6.400        49.55
GET       6.500        49.63
GET       6.600        49.68
GET       6.700        49.73
GET       6.800        49.80
GET       6.900        49.84
GET       7.000        49.88
GET       7.100        49.94
GET       7.200        50.01
GET       7.300        50.06
GET       7.400        50.10
GET       7.500        50.14
GET       7.600        50.18
GET       7.700        50.20
GET       7.800        50.24
GET       7.900        50.29
GET       8.000        50.32
GET       8.100        50.36
GET       8.200        50.39
GET       8.300        50.43
GET       8.400        50.48
GET       8.500        50.54
GET       8.600        50.61
GET       8.700        50.67
GET       8.800        50.72
GET       8.900        50.80
GET       9.000        50.84
GET       9.100        50.90
GET       9.200        51.00
GET       9.300        51.06
GET       9.400        51.11
GET       9.500        51.18
GET       9.600        51.28
GET       9.700        51.35
GET       9.800        51.41
GET       9.900        51.48
GET      10.000        52.04
GET      11.000        53.91
GET      12.000        59.10
GET      13.000        80.15
GET      14.000        96.82
GET      15.000        98.54
GET      16.000        99.52
GET      17.000        99.66
GET      18.000        99.76
GET      19.000        99.80
GET      20.000        99.82
GET      21.000        99.82
GET      22.000        99.85
GET      24.000        99.87
GET      25.000        99.89
GET      26.000        99.91
GET      27.000        99.94
GET      28.000        99.97
GET      29.000        99.99
GET     230.000        99.99
GET     240.000       100.00
---
