2         Threads
64        Connections per thread
70        Seconds


ALL STATS
========================================================================
Type        Ops/sec     Hits/sec   Misses/sec      Latency       KB/sec 
------------------------------------------------------------------------
Sets           0.00          ---          ---     29.54100         0.00 
Gets           0.00         0.00         0.00      0.00000         0.00 
Waits          0.00          ---          ---      0.00000          --- 
Totals         0.00         0.00         0.00     29.54100         0.00 


Request Latency Distribution
Type     <= msec         Percent
------------------------------------------------------------------------
SET       1.400         0.00
SET       1.500         0.01
SET       1.600         0.04
SET       1.700         0.07
SET       1.800         0.12
SET       1.900         0.17
SET       2.000         0.24
SET       2.100         0.30
SET       2.200         0.36
SET       2.300         0.43
SET       2.400         0.48
SET       2.500         0.53
SET       2.600         0.58
SET       2.700         0.63
SET       2.800         0.67
SET       2.900         0.70
SET       3.000         0.73
SET       3.100         0.75
SET       3.200         0.78
SET       3.300         0.80
SET       3.400         0.82
SET       3.500         0.84
SET       3.600         0.86
SET       3.700         0.87
SET       3.800         0.88
SET       3.900         0.89
SET       4.000         0.89
SET       4.100         0.90
SET       4.200         0.90
SET       4.300         0.91
SET       4.400         0.92
SET       4.500         0.92
SET       4.600         0.93
SET       4.700         0.93
SET       4.800         0.94
SET       4.900         0.94
SET       5.000         0.94
SET       5.100         0.95
SET       5.200         0.96
SET       5.300         0.96
SET       5.400         0.97
SET       5.500         0.98
SET       5.600         0.98
SET       5.700         0.99
SET       5.800         0.99
SET       5.900         1.00
SET       6.000         1.00
SET       6.100         1.01
SET       6.200         1.01
SET       6.300         1.02
SET       6.400         1.03
SET       6.500         1.04
SET       6.600         1.05
SET       6.700         1.07
SET       6.800         1.08
SET       6.900         1.09
SET       7.000         1.10
SET       7.100         1.12
SET       7.200         1.13
SET       7.300         1.14
SET       7.400         1.16
SET       7.500         1.18
SET       7.600         1.19
SET       7.700         1.20
SET       7.800         1.22
SET       7.900         1.24
SET       8.000         1.25
SET       8.100         1.26
SET       8.200         1.27
SET       8.300         1.28
SET       8.400         1.30
SET       8.500         1.30
SET       8.600         1.32
SET       8.700         1.32
SET       8.800         1.33
SET       8.900         1.33
SET       9.000         1.34
SET       9.100         1.34
SET       9.200         1.35
SET       9.300         1.35
SET       9.400         1.36
SET       9.500         1.36
SET       9.600         1.37
SET       9.700         1.37
SET       9.800         1.38
SET       9.900         1.38
SET      10.000         1.42
SET      11.000         1.46
SET      12.000         1.51
SET      13.000         1.58
SET      14.000         1.66
SET      15.000         1.81
SET      16.000         2.06
SET      17.000         2.38
SET      18.000         2.69
SET      19.000         3.01
SET      20.000         3.54
SET      21.000         4.29
SET      22.000         5.42
SET      23.000         7.16
SET      24.000         9.96
SET      25.000        15.27
SET      26.000        23.53
SET      27.000        33.45
SET      28.000        43.45
SET      29.000        51.95
SET      30.000        59.24
SET      31.000        66.47
SET      32.000        73.90
SET      33.000        81.16
SET      34.000        87.25
SET      35.000        91.55
SET      36.000        94.30
SET      37.000        96.02
SET      38.000        96.99
SET      39.000        97.63
SET      40.000        98.00
SET      41.000        98.35
SET      42.000        98.68
SET      43.000        98.96
SET      44.000        99.16
SET      45.000        99.35
SET      46.000        99.47
SET      47.000        99.54
SET      48.000        99.61
SET      49.000        99.65
SET      50.000        99.70
SET      51.000        99.75
SET      52.000        99.81
SET      53.000        99.86
SET      54.000        99.88
SET      55.000        99.89
SET      56.000        99.90
SET      57.000        99.90
SET      58.000        99.91
SET      59.000        99.92
SET      60.000        99.92
SET      69.000        99.92
SET      70.000        99.92
SET      71.000        99.92
SET      72.000        99.93
SET      73.000        99.94
SET      75.000        99.94
SET      76.000        99.94
SET      77.000        99.95
SET      78.000        99.96
SET      81.000        99.96
SET      82.000        99.96
SET      83.000        99.96
SET      86.000        99.96
SET      87.000        99.96
SET      88.000        99.97
SET      89.000        99.97
SET      90.000        99.97
SET      92.000        99.97
SET      93.000        99.97
SET      94.000        99.97
SET     100.000        99.97
SET     110.000        99.98
SET     150.000        99.98
SET     160.000        99.98
SET     180.000        99.98
SET     200.000        99.98
SET     230.000        99.98
SET     240.000        99.98
SET     250.000        99.98
SET     290.000        99.98
SET     310.000        99.98
SET     360.000        99.98
SET     470.000        99.98
SET     480.000        99.98
SET     490.000        99.98
SET     510.000        99.99
SET     520.000        99.99
SET     530.000        99.99
SET     540.000        99.99
SET     550.000        99.99
SET     720.000        99.99
SET     740.000        99.99
SET     750.000        99.99
SET     760.000        99.99
SET     770.000        99.99
SET     780.000        99.99
SET     790.000        99.99
SET     800.000        99.99
SET     810.000        99.99
SET     820.000        99.99
SET     830.000       100.00
SET     850.000       100.00
SET     860.000       100.00
SET     870.000       100.00
---
---
