second,availableProcessors,totalMemory,freeMemory,usedMemory,queueCapacity,queueSize,expectedArrivalRate,systemRequests
1,8,221249536,172273400,48976136,2147483645,2,1.222000,5
2,8,221249536,169966456,51283080,2147483647,0,1.533000,1
3,8,221249536,195331128,25918408,2147483647,0,1.471000,6
4,8,221249536,178367744,42881792,2147483647,0,1.476000,5
5,8,221249536,172973720,48275816,2147483646,1,1.454000,5
6,8,221249536,201258520,19991016,2147483647,0,1.504000,6
7,8,221249536,187417544,33831992,2147483647,0,1.489000,6
8,8,221249536,173792336,47457200,2147483647,0,1.456000,6
9,8,221249536,159688752,61560784,2147483647,0,1.486000,6
10,8,221249536,196789432,24460104,2147483647,0,1.465000,6
11,8,221249536,182002104,39247432,2147483647,0,1.511000,6
12,8,221249536,168541064,52708472,2147483647,0,1.496000,6
13,8,221249536,208585144,12664392,2147483647,0,1.486000,6
14,8,221249536,195149368,26100168,2147483647,0,1.481000,6
15,8,221249536,178572032,42677504,2147483647,0,1.503000,6
16,8,221249536,163684728,57564808,2147483647,0,1.495000,6
17,8,217579520,202083816,15495704,2147483647,0,1.478000,6
18,8,217579520,187247232,30332288,2147483647,0,1.462000,6
19,8,217579520,173020224,44559296,2147483647,0,1.421000,6
20,8,217579520,158503736,59075784,2147483647,0,1.480000,6
21,8,215482368,196031248,19451120,2147483647,0,1.462000,5
22,8,215482368,181924336,33558032,2147483647,0,1.502000,6
23,8,215482368,167772056,47710312,2147483647,0,1.429000,6
24,8,215482368,153442768,62039600,2147483647,0,1.434000,6
25,8,209190912,187194576,21996336,2147483647,0,1.430000,6
26,8,209190912,172492296,36698616,2147483647,0,1.480000,6
27,8,209190912,157444048,51746864,2147483647,0,1.505000,6
28,8,216006656,204039048,11967608,2147483647,0,1.422000,6
29,8,216006656,189651232,26355424,2147483647,0,1.456000,6
30,8,216006656,175389784,40616872,2147483647,0,1.445000,6
31,8,216006656,160660888,55345768,2147483647,0,1.491000,5
32,8,207093760,189769344,17324416,2147483647,0,1.467000,6
33,8,207093760,175469624,31624136,2147483647,0,1.449000,6
34,8,207093760,160886616,46207144,2147483647,0,1.468000,6
35,8,214958080,205736624,9221456,2147483647,0,1.459000,6
36,8,214958080,191364832,23593248,2147483647,0,1.471000,6
37,8,214958080,176537640,38420440,2147483647,0,1.496000,6
38,8,214958080,161981240,52976840,2147483647,0,1.470000,6
39,8,204996608,188337544,16659064,2147483647,0,1.468000,6
40,8,204996608,173814352,31182256,2147483647,0,1.451000,6
41,8,204996608,159215360,45781248,2147483647,0,1.480000,6
42,8,212336640,201493992,10842648,2147483647,0,1.497000,6
43,8,212336640,186829840,25506800,2147483647,0,1.481000,6
44,8,212336640,171827088,40509552,2147483647,0,1.509000,6
45,8,212336640,157039584,55297056,2147483647,0,1.496000,6
46,8,202899456,181884000,21015456,2147483647,0,1.468000,6
47,8,202899456,167198552,35700904,2147483647,0,1.482000,6
48,8,202899456,152511192,50388264,2147483647,0,1.477000,6
49,8,209190912,191687064,17503848,2147483647,0,1.508000,6
50,8,209190912,176621336,32569576,2147483647,0,1.487000,6
51,8,209190912,161933768,47257144,2147483647,0,1.477000,6
52,8,200802304,185558688,15243616,2147483647,0,1.502000,0
53,8,200802304,170832328,29969976,2147483646,1,1.485000,5
54,8,200802304,156460968,44341336,2147483644,3,1.458000,6
55,8,207618048,194601112,13016936,2147483643,4,1.447000,6
56,8,207618048,179770336,27847712,2147483647,0,1.488000,0
57,8,207618048,165184272,42433776,2147483647,0,1.468000,0
58,8,199753728,187508664,12245064,2147483647,0,1.514000,0
59,8,199753728,172754160,26999568,2147483647,0,1.495000,1
60,8,199753728,157986360,41767368,2147483647,0,1.494000,0
61,8,206045184,194325040,11720144,2147483647,0,1.480000,4
62,8,206045184,179663704,26381480,2147483647,0,1.484000,0
63,8,206045184,165398184,40647000,2147483647,0,1.451000,0
64,8,198705152,187503240,11201912,2147483647,0,1.482000,0
65,8,198705152,172994056,25711096,2147483647,0,1.465000,0
66,8,198705152,158234272,40470880,2147483647,0,1.490000,0
67,8,204472320,192868536,11603784,2147483647,0,1.498000,0
68,8,204472320,178252816,26219504,2147483647,0,1.478000,1
69,8,204472320,163550272,40922048,2147483647,0,1.479000,6
70,8,197656576,184756728,12899848,2147483647,0,1.542000,4
71,8,197656576,184009064,13647512,2147483647,0,0.037000,0
72,8,197656576,183975968,13680608,2147483647,0,0.000000,0
73,8,197656576,183975968,13680608,2147483647,0,0.000000,0
74,8,197656576,183959424,13697152,2147483647,0,0.000000,0
75,8,197656576,183942880,13713696,2147483647,0,0.000000,0
76,8,197656576,183926376,13730200,2147483647,0,0.000000,0
77,8,197656576,183926376,13730200,2147483647,0,0.000000,0
78,8,197656576,183909832,13746744,2147483647,0,0.000000,0
79,8,197656576,183893288,13763288,2147483647,0,0.000000,0
80,8,197656576,183876696,13779880,2147483647,0,0.000000,0
81,8,197656576,183876696,13779880,2147483647,0,0.000000,0
82,8,197656576,183860144,13796432,2147483647,0,0.000000,0
83,8,197656576,183843616,13812960,2147483647,0,0.000000,0
84,8,197656576,183827080,13829496,2147483647,0,0.000000,0
85,8,197656576,183827080,13829496,2147483647,0,0.000000,0
86,8,197656576,183810528,13846048,2147483647,0,0.000000,0
