2         Threads
14        Connections per thread
70        Seconds


ALL STATS
========================================================================
Type        Ops/sec     Hits/sec   Misses/sec      Latency       KB/sec 
------------------------------------------------------------------------
Sets        3394.61          ---          ---      8.12700     13700.72 
Gets           0.00         0.00         0.00      0.00000         0.00 
Waits          0.00          ---          ---      0.00000          --- 
Totals      3394.61         0.00         0.00      8.12700     13700.72 


Request Latency Distribution
Type     <= msec         Percent
------------------------------------------------------------------------
SET       1.600         0.00
SET       1.700         0.01
SET       1.800         0.01
SET       1.900         0.03
SET       2.000         0.05
SET       2.100         0.06
SET       2.200         0.10
SET       2.300         0.14
SET       2.400         0.21
SET       2.500         0.33
SET       2.600         0.50
SET       2.700         0.78
SET       2.800         1.19
SET       2.900         1.76
SET       3.000         2.46
SET       3.100         3.35
SET       3.200         4.34
SET       3.300         5.43
SET       3.400         6.65
SET       3.500         7.86
SET       3.600         9.18
SET       3.700        10.53
SET       3.800        11.89
SET       3.900        13.27
SET       4.000        14.71
SET       4.100        16.09
SET       4.200        17.49
SET       4.300        18.81
SET       4.400        20.09
SET       4.500        21.25
SET       4.600        22.45
SET       4.700        23.60
SET       4.800        24.65
SET       4.900        25.68
SET       5.000        26.63
SET       5.100        27.50
SET       5.200        28.30
SET       5.300        29.05
SET       5.400        29.72
SET       5.500        30.35
SET       5.600        30.95
SET       5.700        31.49
SET       5.800        32.03
SET       5.900        32.55
SET       6.000        33.02
SET       6.100        33.44
SET       6.200        33.85
SET       6.300        34.24
SET       6.400        34.61
SET       6.500        34.94
SET       6.600        35.25
SET       6.700        35.53
SET       6.800        35.82
SET       6.900        36.10
SET       7.000        36.37
SET       7.100        36.63
SET       7.200        36.88
SET       7.300        37.11
SET       7.400        37.34
SET       7.500        37.62
SET       7.600        37.86
SET       7.700        38.15
SET       7.800        38.46
SET       7.900        38.81
SET       8.000        39.23
SET       8.100        39.67
SET       8.200        40.21
SET       8.300        40.86
SET       8.400        41.65
SET       8.500        42.56
SET       8.600        43.61
SET       8.700        44.84
SET       8.800        46.26
SET       8.900        47.86
SET       9.000        49.64
SET       9.100        51.52
SET       9.200        53.51
SET       9.300        55.67
SET       9.400        57.94
SET       9.500        60.22
SET       9.600        62.55
SET       9.700        64.77
SET       9.800        67.07
SET       9.900        69.25
SET      10.000        79.93
SET      11.000        90.80
SET      12.000        95.30
SET      13.000        97.35
SET      14.000        98.26
SET      15.000        98.77
SET      16.000        99.04
SET      17.000        99.23
SET      18.000        99.42
SET      19.000        99.58
SET      20.000        99.72
SET      21.000        99.79
SET      22.000        99.82
SET      23.000        99.86
SET      24.000        99.89
SET      25.000        99.90
SET      26.000        99.91
SET      27.000        99.93
SET      28.000        99.94
SET      29.000        99.96
SET      30.000        99.97
SET      31.000        99.97
SET      32.000        99.97
SET      33.000        99.98
SET      34.000        99.98
SET      35.000        99.98
SET      36.000        99.98
SET      39.000        99.98
SET      40.000        99.98
SET      43.000        99.98
SET      44.000        99.99
SET      49.000        99.99
SET      50.000        99.99
SET      52.000        99.99
SET      53.000        99.99
SET      54.000        99.99
SET      60.000        99.99
SET      61.000        99.99
SET      62.000        99.99
SET      63.000       100.00
SET      66.000       100.00
SET      67.000       100.00
SET      68.000       100.00
SET      71.000       100.00
SET      86.000       100.00
SET      87.000       100.00
---
---
