1         Threads
1         Connections per thread
70        Seconds


ALL STATS
========================================================================
Type        Ops/sec     Hits/sec   Misses/sec      Latency       KB/sec 
------------------------------------------------------------------------
Sets         524.19          ---          ---      1.90000      2115.63 
Gets           0.00         0.00         0.00      0.00000         0.00 
Waits          0.00          ---          ---      0.00000          --- 
Totals       524.19         0.00         0.00      1.90000      2115.63 


Request Latency Distribution
Type     <= msec         Percent
------------------------------------------------------------------------
SET       0.850         0.01
SET       0.870         0.01
SET       0.880         0.02
SET       0.890         0.02
SET       0.900         0.04
SET       0.910         0.06
SET       0.920         0.08
SET       0.930         0.11
SET       0.940         0.16
SET       0.950         0.20
SET       0.960         0.26
SET       0.970         0.33
SET       0.980         0.43
SET       0.990         0.54
SET       1.000         1.46
SET       1.100         5.50
SET       1.200        13.11
SET       1.300        22.76
SET       1.400        33.49
SET       1.500        43.57
SET       1.600        52.37
SET       1.700        59.79
SET       1.800        65.76
SET       1.900        70.86
SET       2.000        75.18
SET       2.100        78.50
SET       2.200        81.44
SET       2.300        83.82
SET       2.400        85.82
SET       2.500        87.43
SET       2.600        88.80
SET       2.700        89.97
SET       2.800        90.96
SET       2.900        91.76
SET       3.000        92.46
SET       3.100        93.13
SET       3.200        93.67
SET       3.300        94.15
SET       3.400        94.65
SET       3.500        95.08
SET       3.600        95.36
SET       3.700        95.72
SET       3.800        96.01
SET       3.900        96.22
SET       4.000        96.43
SET       4.100        96.62
SET       4.200        96.81
SET       4.300        96.97
SET       4.400        97.08
SET       4.500        97.22
SET       4.600        97.36
SET       4.700        97.48
SET       4.800        97.62
SET       4.900        97.71
SET       5.000        97.83
SET       5.100        97.94
SET       5.200        98.06
SET       5.300        98.13
SET       5.400        98.24
SET       5.500        98.32
SET       5.600        98.40
SET       5.700        98.48
SET       5.800        98.54
SET       5.900        98.63
SET       6.000        98.70
SET       6.100        98.77
SET       6.200        98.83
SET       6.300        98.90
SET       6.400        98.98
SET       6.500        99.05
SET       6.600        99.11
SET       6.700        99.16
SET       6.800        99.20
SET       6.900        99.23
SET       7.000        99.29
SET       7.100        99.33
SET       7.200        99.37
SET       7.300        99.39
SET       7.400        99.42
SET       7.500        99.45
SET       7.600        99.47
SET       7.700        99.48
SET       7.800        99.51
SET       7.900        99.55
SET       8.000        99.57
SET       8.100        99.60
SET       8.200        99.62
SET       8.300        99.64
SET       8.400        99.66
SET       8.500        99.67
SET       8.600        99.69
SET       8.700        99.72
SET       8.800        99.75
SET       8.900        99.75
SET       9.000        99.77
SET       9.100        99.79
SET       9.200        99.80
SET       9.300        99.82
SET       9.400        99.83
SET       9.500        99.83
SET       9.600        99.84
SET       9.700        99.85
SET       9.800        99.86
SET       9.900        99.86
SET      10.000        99.90
SET      11.000        99.95
SET      12.000        99.97
SET      13.000        99.98
SET      14.000        99.98
SET      15.000        99.99
SET      16.000        99.99
SET      18.000        99.99
SET      19.000       100.00
SET      24.000       100.00
---
---
