1         Threads
42        Connections per thread
70        Seconds


ALL STATS
========================================================================
Type        Ops/sec     Hits/sec   Misses/sec      Latency       KB/sec 
------------------------------------------------------------------------
Sets        2265.50          ---          ---     18.52900      9143.61 
Gets           0.00         0.00         0.00      0.00000         0.00 
Waits          0.00          ---          ---      0.00000          --- 
Totals      2265.50         0.00         0.00     18.52900      9143.61 


Request Latency Distribution
Type     <= msec         Percent
------------------------------------------------------------------------
SET       1.600         0.00
SET       1.700         0.00
SET       1.800         0.01
SET       1.900         0.01
SET       2.000         0.01
SET       2.100         0.02
SET       2.200         0.02
SET       2.300         0.03
SET       2.400         0.04
SET       2.500         0.04
SET       2.600         0.05
SET       2.700         0.06
SET       2.800         0.06
SET       2.900         0.07
SET       3.000         0.07
SET       3.100         0.08
SET       3.200         0.08
SET       3.300         0.09
SET       3.400         0.10
SET       3.500         0.11
SET       3.600         0.11
SET       3.700         0.12
SET       3.800         0.12
SET       3.900         0.13
SET       4.000         0.14
SET       4.100         0.14
SET       4.200         0.15
SET       4.300         0.15
SET       4.400         0.16
SET       4.500         0.16
SET       4.600         0.17
SET       4.700         0.18
SET       4.800         0.18
SET       4.900         0.19
SET       5.000         0.19
SET       5.100         0.20
SET       5.200         0.20
SET       5.300         0.21
SET       5.400         0.21
SET       5.500         0.22
SET       5.600         0.23
SET       5.700         0.24
SET       5.800         0.24
SET       5.900         0.25
SET       6.000         0.25
SET       6.100         0.26
SET       6.200         0.27
SET       6.300         0.29
SET       6.400         0.30
SET       6.500         0.31
SET       6.600         0.33
SET       6.700         0.35
SET       6.800         0.38
SET       6.900         0.40
SET       7.000         0.42
SET       7.100         0.44
SET       7.200         0.46
SET       7.300         0.49
SET       7.400         0.51
SET       7.500         0.54
SET       7.600         0.57
SET       7.700         0.59
SET       7.800         0.61
SET       7.900         0.64
SET       8.000         0.67
SET       8.100         0.70
SET       8.200         0.73
SET       8.300         0.77
SET       8.400         0.81
SET       8.500         0.85
SET       8.600         0.89
SET       8.700         0.93
SET       8.800         0.99
SET       8.900         1.04
SET       9.000         1.10
SET       9.100         1.15
SET       9.200         1.23
SET       9.300         1.31
SET       9.400         1.41
SET       9.500         1.51
SET       9.600         1.63
SET       9.700         1.75
SET       9.800         1.90
SET       9.900         2.05
SET      10.000         3.04
SET      11.000         5.76
SET      12.000        10.48
SET      13.000        15.96
SET      14.000        20.45
SET      15.000        24.38
SET      16.000        28.78
SET      17.000        35.15
SET      18.000        46.23
SET      19.000        60.33
SET      20.000        72.18
SET      21.000        80.81
SET      22.000        86.91
SET      23.000        90.81
SET      24.000        93.27
SET      25.000        94.98
SET      26.000        96.16
SET      27.000        97.00
SET      28.000        97.69
SET      29.000        98.18
SET      30.000        98.52
SET      31.000        98.83
SET      32.000        99.02
SET      33.000        99.18
SET      34.000        99.31
SET      35.000        99.40
SET      36.000        99.49
SET      37.000        99.55
SET      38.000        99.63
SET      39.000        99.69
SET      40.000        99.74
SET      41.000        99.78
SET      42.000        99.80
SET      43.000        99.82
SET      44.000        99.83
SET      45.000        99.86
SET      46.000        99.87
SET      47.000        99.89
SET      48.000        99.91
SET      49.000        99.92
SET      50.000        99.93
SET      51.000        99.94
SET      52.000        99.95
SET      53.000        99.95
SET      54.000        99.95
SET      55.000        99.96
SET      56.000        99.96
SET      57.000        99.96
SET      58.000        99.96
SET      63.000        99.97
SET      65.000        99.97
SET      75.000        99.97
SET     100.000        99.97
SET     110.000        99.97
SET     120.000        99.97
SET     230.000        99.98
SET     240.000        99.98
SET     250.000        99.98
SET     260.000        99.98
SET     280.000        99.99
SET     290.000       100.00
SET     300.000       100.00
---
---
