"Dstat 0.7.2 CSV output"
"Author:","Dag Wieers <dag@wieers.com>",,,,"URL:","http://dag.wieers.com/home-made/dstat/"
"Host:","Server2",,,,"User:","maki"
"Cmdline:","dstat --output server_64_set_2_4.csv 1 70",,,,"Date:","25 Nov 2018 03:39:39 UTC"

"total cpu usage",,,,,,"dsk/total",,"net/total",,"paging",,"system",
"usr","sys","idl","wai","hiq","siq","read","writ","recv","send","in","out","int","csw"
4.955,10.245,81.924,0.717,0.0,2.158,16153.536,70236.441,0.0,0.0,0.0,0.0,18.514,1610.189
5.263,10.526,76.842,0.0,0.0,7.368,0.0,0.0,22172450.0,718566.0,0.0,0.0,19.0,4264.0
3.030,12.121,74.747,0.0,0.0,10.101,0.0,0.0,24063678.0,778294.0,0.0,0.0,18.0,4556.0
6.061,16.162,69.697,0.0,0.0,8.081,0.0,0.0,30246755.0,979260.0,0.0,0.0,18.0,4934.0
6.186,17.526,69.072,0.0,0.0,7.216,0.0,0.0,27948293.0,904112.0,0.0,0.0,18.0,3464.0
7.692,19.780,65.934,0.0,0.0,6.593,0.0,0.0,30181741.0,978214.0,0.0,0.0,18.0,3826.0
6.452,17.204,68.817,0.0,0.0,7.527,0.0,0.0,30467969.0,986894.0,0.0,0.0,19.0,3654.0
9.375,14.583,65.625,4.167,0.0,6.250,0.0,49152.0,30097339.0,973026.0,0.0,0.0,18.0,3709.0
6.316,16.842,70.526,0.0,0.0,6.316,0.0,0.0,30650596.0,995014.0,0.0,0.0,18.0,4069.0
7.609,15.217,67.391,0.0,0.0,9.783,0.0,4096.0,30651087.0,988854.0,0.0,0.0,18.0,3950.0
10.989,17.582,65.934,0.0,0.0,5.495,0.0,0.0,30679006.0,995624.0,0.0,0.0,18.0,3718.0
5.319,17.021,71.277,0.0,0.0,6.383,0.0,0.0,29628974.0,961908.0,0.0,0.0,19.0,3802.0
4.301,16.129,70.968,0.0,0.0,8.602,0.0,0.0,30328546.0,978420.0,0.0,0.0,18.0,4121.0
8.511,14.894,68.085,0.0,0.0,8.511,0.0,0.0,29504452.0,960296.0,0.0,0.0,18.0,3695.0
3.191,12.766,73.404,0.0,0.0,10.638,0.0,0.0,29443176.0,951194.0,0.0,0.0,18.0,3780.0
5.376,11.828,75.269,0.0,0.0,7.527,0.0,0.0,29226010.0,947154.0,0.0,0.0,19.0,3938.0
7.216,17.526,68.041,0.0,0.0,7.216,0.0,0.0,27120503.0,880272.0,0.0,0.0,18.0,3443.0
7.527,12.903,70.968,0.0,0.0,8.602,0.0,0.0,29130300.0,941180.0,0.0,0.0,18.0,3626.0
5.155,17.526,68.041,0.0,0.0,9.278,0.0,0.0,29689600.0,961414.0,0.0,0.0,18.0,4017.0
4.348,17.391,72.826,0.0,0.0,5.435,0.0,0.0,30419459.0,983394.0,0.0,0.0,18.0,3925.0
9.278,13.402,68.041,0.0,0.0,9.278,0.0,0.0,29368089.0,954958.0,0.0,0.0,18.0,3838.0
9.890,14.286,68.132,0.0,0.0,7.692,0.0,0.0,29030409.0,938594.0,0.0,0.0,19.0,3529.0
3.333,15.556,75.556,0.0,0.0,5.556,0.0,0.0,28965240.0,937482.0,0.0,0.0,18.0,3636.0
7.368,21.053,64.211,0.0,0.0,7.368,0.0,0.0,29657086.0,960558.0,0.0,0.0,18.0,3568.0
5.376,15.054,73.118,0.0,0.0,6.452,0.0,0.0,29957141.0,971354.0,0.0,0.0,18.0,3660.0
8.791,13.187,72.527,0.0,0.0,5.495,0.0,0.0,30708438.0,991868.0,0.0,0.0,18.0,3668.0
9.375,17.708,63.542,0.0,0.0,9.375,0.0,0.0,29458137.0,957272.0,0.0,0.0,19.0,3793.0
6.383,15.957,69.149,0.0,0.0,8.511,0.0,0.0,30254226.0,979194.0,0.0,0.0,18.0,3971.0
6.316,15.789,71.579,0.0,0.0,6.316,0.0,0.0,29223021.0,944762.0,0.0,0.0,18.0,3635.0
8.602,16.129,67.742,0.0,0.0,7.527,0.0,0.0,30221210.0,980450.0,0.0,0.0,18.0,3878.0
7.447,13.830,72.340,0.0,0.0,6.383,0.0,0.0,29426160.0,951894.0,0.0,0.0,19.0,3689.0
8.247,17.526,65.979,0.0,0.0,8.247,0.0,0.0,29169695.0,944734.0,0.0,0.0,18.0,3702.0
7.447,18.085,64.894,0.0,0.0,9.574,0.0,0.0,29536968.0,958738.0,0.0,0.0,18.0,3468.0
7.447,13.830,70.213,0.0,0.0,8.511,0.0,0.0,29126790.0,941534.0,0.0,0.0,18.0,3622.0
6.452,12.903,72.043,0.0,0.0,8.602,0.0,16384.0,29846168.0,966182.0,0.0,0.0,18.0,3675.0
5.882,11.765,71.765,0.0,0.0,10.588,0.0,0.0,30996673.0,1004584.0,0.0,0.0,19.0,3794.0
11.494,16.092,58.621,0.0,0.0,13.793,0.0,0.0,27879956.0,907094.0,0.0,0.0,23.0,3324.0
5.435,18.478,67.391,0.0,0.0,8.696,0.0,0.0,29331640.0,947916.0,0.0,0.0,18.0,3808.0
5.747,14.943,72.414,1.149,0.0,5.747,0.0,49152.0,27956840.0,907432.0,0.0,0.0,18.0,3386.0
6.061,18.182,68.687,0.0,0.0,7.071,0.0,45056.0,29637773.0,960014.0,0.0,0.0,18.0,3815.0
5.208,19.792,66.667,0.0,0.0,8.333,0.0,0.0,30090516.0,973734.0,0.0,0.0,19.0,3861.0
8.421,16.842,65.263,0.0,0.0,9.474,0.0,0.0,29351914.0,950124.0,0.0,0.0,18.0,3788.0
4.396,16.484,70.330,0.0,0.0,8.791,0.0,0.0,28962427.0,938388.0,0.0,0.0,18.0,3803.0
5.208,17.708,69.792,0.0,0.0,7.292,0.0,0.0,29636239.0,957922.0,0.0,0.0,18.0,3900.0
7.368,18.947,65.263,0.0,0.0,8.421,0.0,0.0,29234714.0,949284.0,0.0,0.0,18.0,3961.0
4.211,15.789,72.632,0.0,0.0,7.368,0.0,0.0,29225541.0,944968.0,0.0,0.0,19.0,4004.0
8.0,17.0,66.0,0.0,0.0,9.0,0.0,0.0,28307948.0,915342.0,0.0,0.0,18.0,3623.0
8.333,16.667,65.625,0.0,0.0,9.375,0.0,0.0,30846879.0,998078.0,0.0,0.0,18.0,3957.0
5.495,13.187,73.626,0.0,0.0,7.692,0.0,0.0,29033026.0,941534.0,0.0,0.0,18.0,3933.0
7.0,20.0,66.0,0.0,0.0,7.0,0.0,0.0,29748152.0,963018.0,0.0,0.0,19.0,3831.0
8.421,13.684,69.474,0.0,0.0,8.421,0.0,0.0,29257220.0,949426.0,0.0,0.0,18.0,4112.0
8.602,12.903,70.968,0.0,0.0,7.527,0.0,0.0,27625633.0,893772.0,0.0,0.0,18.0,3905.0
7.609,16.304,64.130,0.0,0.0,11.957,0.0,0.0,30168816.0,977374.0,0.0,0.0,18.0,3824.0
10.227,17.045,65.909,0.0,0.0,6.818,0.0,0.0,29534436.0,956638.0,0.0,0.0,18.0,3806.0
6.522,11.957,72.826,0.0,0.0,8.696,0.0,0.0,29649860.0,960854.0,0.0,0.0,19.0,3923.0
7.865,14.607,68.539,0.0,0.0,8.989,0.0,0.0,29576775.0,956930.0,0.0,0.0,18.0,3774.0
11.364,20.455,55.682,0.0,0.0,12.500,0.0,0.0,29186204.0,945858.0,0.0,0.0,18.0,3646.0
8.511,17.021,63.830,0.0,0.0,10.638,0.0,0.0,29416574.0,953014.0,0.0,0.0,18.0,3924.0
6.667,18.889,65.556,0.0,0.0,8.889,0.0,0.0,29949556.0,967014.0,0.0,0.0,18.0,3640.0
4.651,18.605,68.605,0.0,0.0,8.140,0.0,0.0,30275508.0,984638.0,0.0,0.0,19.0,4062.0
7.368,15.789,66.316,0.0,0.0,10.526,0.0,0.0,28893600.0,934674.0,0.0,0.0,18.0,4026.0
8.333,16.667,66.667,0.0,0.0,8.333,0.0,0.0,29655785.0,957782.0,0.0,0.0,18.0,3868.0
9.091,20.455,61.364,0.0,0.0,9.091,0.0,0.0,30762487.0,998778.0,0.0,0.0,18.0,3995.0
7.143,17.347,65.306,0.0,0.0,10.204,0.0,0.0,28768949.0,930614.0,0.0,0.0,18.0,3818.0
8.696,16.304,68.478,0.0,0.0,6.522,0.0,0.0,28867091.0,934262.0,0.0,0.0,19.0,3598.0
6.897,13.793,72.414,0.0,0.0,6.897,0.0,8192.0,29600447.0,960418.0,0.0,0.0,18.0,4193.0
6.383,15.957,69.149,0.0,0.0,8.511,0.0,0.0,28343233.0,914268.0,0.0,0.0,18.0,3702.0
7.527,16.129,65.591,0.0,0.0,10.753,0.0,0.0,29760426.0,964560.0,0.0,0.0,18.0,3505.0
7.778,18.889,64.444,1.111,0.0,7.778,0.0,20480.0,30425311.0,988632.0,0.0,0.0,18.0,3606.0
7.368,15.789,65.263,0.0,0.0,11.579,0.0,0.0,29698494.0,957634.0,0.0,0.0,19.0,3723.0
5.208,12.500,76.042,0.0,0.0,6.250,0.0,8192.0,20868952.0,678474.0,0.0,0.0,18.0,2717.0
