"Dstat 0.7.2 CSV output"
"Author:","Dag Wieers <dag@wieers.com>",,,,"URL:","http://dag.wieers.com/home-made/dstat/"
"Host:","Server2",,,,"User:","maki"
"Cmdline:","dstat --output server_8_set_3_64.csv 1 70",,,,"Date:","25 Nov 2018 00:53:52 UTC"

"total cpu usage",,,,,,"dsk/total",,"net/total",,"paging",,"system",
"usr","sys","idl","wai","hiq","siq","read","writ","recv","send","in","out","int","csw"
3.239,5.712,88.397,1.954,0.0,0.698,48261.625,206126.559,0.0,0.0,0.0,0.0,18.985,1271.994
2.198,14.286,81.319,0.0,0.0,2.198,0.0,0.0,24900623.0,806976.0,0.0,0.0,19.0,4462.0
4.545,14.773,79.545,0.0,0.0,1.136,0.0,0.0,28423415.0,919974.0,0.0,0.0,18.0,4760.0
7.955,19.318,70.455,0.0,0.0,2.273,0.0,0.0,30124444.0,976814.0,0.0,0.0,18.0,3813.0
5.376,18.280,73.118,0.0,0.0,3.226,0.0,0.0,31274023.0,1013918.0,0.0,0.0,18.0,3475.0
3.529,20.0,75.294,0.0,0.0,1.176,0.0,0.0,32620672.0,1055988.0,0.0,0.0,18.0,3674.0
10.345,17.241,70.115,0.0,0.0,2.299,0.0,0.0,31212019.0,1013618.0,0.0,0.0,19.0,3684.0
5.263,16.842,74.737,0.0,0.0,3.158,0.0,0.0,30588886.0,990534.0,0.0,0.0,18.0,3381.0
8.602,18.280,68.817,0.0,0.0,4.301,0.0,0.0,30619487.0,992494.0,0.0,0.0,18.0,3298.0
6.667,23.333,64.444,0.0,0.0,5.556,0.0,0.0,33832585.0,1098738.0,0.0,0.0,18.0,3510.0
5.556,14.444,80.0,0.0,0.0,0.0,0.0,0.0,29859284.0,966506.0,0.0,0.0,18.0,3312.0
8.046,16.092,72.414,0.0,0.0,3.448,0.0,0.0,32209849.0,1043454.0,0.0,0.0,19.0,3314.0
6.818,18.182,73.864,0.0,0.0,1.136,0.0,0.0,31078398.0,1008298.0,0.0,0.0,18.0,3430.0
4.396,20.879,71.429,0.0,0.0,3.297,0.0,0.0,30317171.0,982430.0,0.0,0.0,18.0,3143.0
7.778,15.556,74.444,0.0,0.0,2.222,0.0,0.0,32197050.0,1042754.0,0.0,0.0,18.0,3535.0
8.791,23.077,64.835,0.0,0.0,3.297,0.0,0.0,32725151.0,1062198.0,0.0,0.0,18.0,3761.0
7.865,15.730,74.157,0.0,0.0,2.247,0.0,0.0,30770977.0,996746.0,0.0,0.0,19.0,3172.0
10.870,22.826,64.130,0.0,0.0,2.174,0.0,0.0,32815069.0,1062354.0,0.0,0.0,18.0,3715.0
7.955,17.045,70.455,0.0,0.0,4.545,0.0,4096.0,30823592.0,1002978.0,0.0,0.0,18.0,3404.0
5.435,22.826,69.565,0.0,0.0,2.174,0.0,0.0,29651127.0,959926.0,0.0,0.0,18.0,3159.0
8.235,21.176,67.059,0.0,0.0,3.529,0.0,0.0,33355133.0,1080414.0,0.0,0.0,18.0,3699.0
13.187,16.484,67.033,0.0,0.0,3.297,0.0,0.0,31428708.0,1020618.0,0.0,0.0,19.0,3539.0
4.444,16.667,76.667,0.0,0.0,2.222,0.0,0.0,30022803.0,971966.0,0.0,0.0,18.0,3197.0
5.435,19.565,72.826,0.0,0.0,2.174,0.0,0.0,31846663.0,1030854.0,0.0,0.0,18.0,3450.0
8.989,17.978,68.539,0.0,0.0,4.494,0.0,0.0,31662166.0,1028738.0,0.0,0.0,18.0,3775.0
5.682,13.636,76.136,0.0,0.0,4.545,0.0,0.0,31060774.0,1004654.0,0.0,0.0,19.0,3185.0
9.783,16.304,70.652,0.0,0.0,3.261,0.0,0.0,32529835.0,1055848.0,0.0,0.0,18.0,3579.0
8.434,15.663,73.494,0.0,0.0,2.410,0.0,0.0,32418925.0,1052258.0,0.0,0.0,18.0,3604.0
7.609,21.739,67.391,1.087,0.0,2.174,0.0,53248.0,29681667.0,959968.0,0.0,0.0,18.0,3456.0
4.348,16.304,77.174,0.0,0.0,2.174,0.0,0.0,31925200.0,1033934.0,0.0,0.0,18.0,3667.0
9.677,18.280,69.892,0.0,0.0,2.151,0.0,0.0,32872570.0,1068218.0,0.0,0.0,19.0,3671.0
7.292,19.792,70.833,0.0,0.0,2.083,0.0,0.0,29750727.0,962438.0,0.0,0.0,18.0,3229.0
6.818,15.909,75.0,0.0,0.0,2.273,0.0,0.0,31505536.0,1021614.0,0.0,0.0,18.0,3512.0
7.692,24.176,65.934,0.0,0.0,2.198,0.0,8192.0,30148659.0,977844.0,0.0,0.0,18.0,3359.0
5.618,15.730,77.528,0.0,0.0,1.124,0.0,0.0,31768504.0,1031208.0,0.0,0.0,18.0,3487.0
7.865,22.472,68.539,0.0,0.0,1.124,0.0,0.0,34102270.0,1102830.0,0.0,0.0,19.0,3655.0
12.088,12.088,72.527,0.0,0.0,3.297,0.0,0.0,32448727.0,1055478.0,0.0,0.0,18.0,3532.0
4.545,12.500,80.682,0.0,0.0,2.273,0.0,0.0,28855497.0,935082.0,0.0,0.0,18.0,3257.0
9.302,20.930,66.279,0.0,0.0,3.488,0.0,0.0,31915292.0,1033514.0,0.0,0.0,18.0,3536.0
9.302,18.605,68.605,0.0,0.0,3.488,0.0,0.0,32112162.0,1041058.0,0.0,0.0,18.0,3431.0
5.376,20.430,72.043,0.0,0.0,2.151,0.0,0.0,31466923.0,1021334.0,0.0,0.0,19.0,3463.0
6.818,14.773,77.273,0.0,0.0,1.136,0.0,0.0,32201086.0,1040234.0,0.0,0.0,18.0,3413.0
8.989,16.854,70.787,0.0,0.0,3.371,0.0,0.0,31721959.0,1032522.0,0.0,0.0,18.0,3558.0
8.333,22.917,65.625,0.0,0.0,3.125,0.0,0.0,28712958.0,929612.0,0.0,0.0,18.0,3086.0
7.609,14.130,73.913,0.0,0.0,4.348,0.0,0.0,31847014.0,1030854.0,0.0,0.0,18.0,3519.0
6.897,19.540,72.414,0.0,0.0,1.149,0.0,0.0,31640037.0,1027404.0,0.0,0.0,19.0,3345.0
4.651,18.605,74.419,0.0,0.0,2.326,0.0,0.0,30278028.0,981000.0,0.0,0.0,18.0,3232.0
5.495,21.978,71.429,0.0,0.0,1.099,0.0,0.0,32291579.0,1043734.0,0.0,0.0,18.0,3297.0
10.345,20.690,66.667,0.0,0.0,2.299,0.0,0.0,30270548.0,984576.0,0.0,0.0,18.0,3112.0
5.747,14.943,78.161,0.0,0.0,1.149,0.0,0.0,31108113.0,1009636.0,0.0,0.0,18.0,3271.0
7.143,15.476,76.190,0.0,0.0,1.190,0.0,0.0,31682207.0,1025740.0,0.0,0.0,19.0,3543.0
10.989,19.780,65.934,0.0,0.0,3.297,0.0,0.0,30991073.0,1004732.0,0.0,0.0,18.0,3334.0
6.742,14.607,75.281,0.0,0.0,3.371,0.0,0.0,30904388.0,1002626.0,0.0,0.0,18.0,3379.0
9.091,21.591,67.045,0.0,0.0,2.273,0.0,0.0,31563749.0,1020766.0,0.0,0.0,18.0,3303.0
8.696,25.0,65.217,0.0,0.0,1.087,0.0,0.0,32565186.0,1056598.0,0.0,0.0,18.0,3343.0
7.447,22.340,68.085,0.0,0.0,2.128,0.0,0.0,33455027.0,1084474.0,0.0,0.0,19.0,3507.0
8.046,16.092,74.713,0.0,0.0,1.149,0.0,0.0,31782385.0,1031006.0,0.0,0.0,18.0,3395.0
6.977,20.930,68.605,0.0,0.0,3.488,0.0,0.0,30173663.0,982020.0,0.0,0.0,23.0,3339.0
8.140,22.093,67.442,1.163,0.0,1.163,0.0,45056.0,31823609.0,1031968.0,0.0,0.0,18.0,3557.0
6.522,20.652,69.565,1.087,0.0,2.174,0.0,36864.0,31362698.0,1014894.0,0.0,0.0,18.0,3375.0
5.814,22.093,68.605,0.0,0.0,3.488,0.0,0.0,30960861.0,1006198.0,0.0,0.0,19.0,3432.0
11.957,20.652,66.304,0.0,0.0,1.087,0.0,0.0,32928812.0,1065154.0,0.0,0.0,18.0,3321.0
12.644,14.943,71.264,0.0,0.0,1.149,0.0,0.0,30002760.0,973940.0,0.0,0.0,18.0,3205.0
12.088,20.879,63.736,0.0,0.0,3.297,0.0,0.0,31191419.0,1010620.0,0.0,0.0,18.0,3256.0
7.778,16.667,72.222,0.0,0.0,3.333,0.0,8192.0,32775926.0,1063828.0,0.0,0.0,18.0,3444.0
5.618,16.854,76.404,0.0,0.0,1.124,0.0,0.0,30260383.0,979054.0,0.0,0.0,19.0,3036.0
11.236,21.348,62.921,0.0,0.0,4.494,0.0,0.0,32522015.0,1055058.0,0.0,0.0,18.0,3318.0
8.696,20.652,69.565,0.0,0.0,1.087,0.0,0.0,33217077.0,1078034.0,0.0,0.0,18.0,3495.0
4.494,21.348,71.910,0.0,0.0,2.247,0.0,0.0,30366504.0,983728.0,0.0,0.0,18.0,3177.0
8.696,19.565,69.565,0.0,0.0,2.174,0.0,0.0,31791896.0,1028450.0,0.0,0.0,19.0,3330.0
7.059,18.824,72.941,0.0,0.0,1.176,0.0,0.0,29922166.0,973602.0,0.0,0.0,18.0,3205.0
