"Dstat 0.7.2 CSV output"
"Author:","Dag Wieers <dag@wieers.com>",,,,"URL:","http://dag.wieers.com/home-made/dstat/"
"Host:","Server2",,,,"User:","maki"
"Cmdline:","dstat --output server_32_set_3_4.csv 1 70",,,,"Date:","25 Nov 2018 02:51:06 UTC"

"total cpu usage",,,,,,"dsk/total",,"net/total",,"paging",,"system",
"usr","sys","idl","wai","hiq","siq","read","writ","recv","send","in","out","int","csw"
4.597,9.257,83.674,0.871,0.0,1.600,20063.439,86771.672,0.0,0.0,0.0,0.0,18.572,1635.213
9.890,17.582,70.330,0.0,0.0,2.198,0.0,0.0,22501403.0,736532.0,0.0,0.0,23.0,4598.0
5.208,16.667,72.917,0.0,0.0,5.208,0.0,0.0,25990477.0,842554.0,0.0,0.0,18.0,4784.0
5.376,13.978,78.495,0.0,0.0,2.151,0.0,0.0,26612634.0,862014.0,0.0,0.0,18.0,4032.0
8.140,24.419,65.116,0.0,0.0,2.326,0.0,0.0,30032139.0,975538.0,0.0,0.0,18.0,3842.0
7.865,23.596,66.292,0.0,0.0,2.247,0.0,0.0,29292089.0,945874.0,0.0,0.0,19.0,3905.0
7.778,20.0,67.778,0.0,0.0,4.444,0.0,0.0,30766173.0,998934.0,0.0,0.0,18.0,4121.0
7.778,20.0,67.778,0.0,0.0,4.444,0.0,0.0,28713569.0,930886.0,0.0,0.0,18.0,3776.0
7.143,16.667,72.619,0.0,0.0,3.571,0.0,0.0,30096389.0,974574.0,0.0,0.0,18.0,4042.0
6.098,17.073,74.390,0.0,0.0,2.439,0.0,0.0,29907317.0,969052.0,0.0,0.0,18.0,3923.0
8.989,22.472,64.045,1.124,0.0,3.371,0.0,45056.0,26029165.0,847976.0,0.0,0.0,19.0,3442.0
9.091,14.773,75.0,0.0,0.0,1.136,0.0,0.0,30338196.0,982694.0,0.0,0.0,18.0,4044.0
9.091,19.318,68.182,0.0,0.0,3.409,0.0,0.0,31345409.0,1014474.0,0.0,0.0,18.0,4189.0
8.602,20.430,67.742,0.0,0.0,3.226,0.0,0.0,26759495.0,870870.0,0.0,0.0,18.0,3404.0
7.865,17.978,73.034,0.0,0.0,1.124,0.0,0.0,30251872.0,976814.0,0.0,0.0,18.0,4053.0
10.753,19.355,68.817,0.0,0.0,1.075,0.0,0.0,29509750.0,958588.0,0.0,0.0,19.0,3901.0
8.696,16.304,71.739,0.0,0.0,3.261,0.0,0.0,27775263.0,903148.0,0.0,0.0,18.0,3425.0
10.870,22.826,64.130,0.0,0.0,2.174,0.0,0.0,30546100.0,989628.0,0.0,0.0,18.0,4090.0
8.235,16.471,71.765,0.0,0.0,3.529,0.0,0.0,30355882.0,983254.0,0.0,0.0,18.0,4174.0
6.452,20.430,68.817,0.0,0.0,4.301,0.0,0.0,27736422.0,902090.0,0.0,0.0,18.0,3832.0
9.195,22.989,66.667,0.0,0.0,1.149,0.0,0.0,29776166.0,964354.0,0.0,0.0,19.0,3843.0
7.778,20.0,68.889,0.0,0.0,3.333,0.0,0.0,30437898.0,984720.0,0.0,0.0,18.0,4017.0
9.890,21.978,67.033,0.0,0.0,1.099,0.0,0.0,28177907.0,913592.0,0.0,0.0,18.0,3447.0
6.897,19.540,72.414,0.0,0.0,1.149,0.0,0.0,28877981.0,937408.0,0.0,0.0,18.0,3698.0
10.227,19.318,67.045,0.0,0.0,3.409,0.0,0.0,30518549.0,986968.0,0.0,0.0,18.0,4166.0
11.364,15.909,69.318,0.0,0.0,3.409,0.0,0.0,27253355.0,884550.0,0.0,0.0,19.0,3597.0
3.488,18.605,74.419,0.0,0.0,3.488,0.0,0.0,29308754.0,949006.0,0.0,0.0,18.0,3570.0
8.889,14.444,74.444,0.0,0.0,2.222,0.0,0.0,26579170.0,863474.0,0.0,0.0,18.0,3445.0
7.778,20.0,67.778,0.0,0.0,4.444,0.0,0.0,28616744.0,926464.0,0.0,0.0,18.0,3958.0
6.024,22.892,67.470,0.0,0.0,3.614,0.0,0.0,28968030.0,941608.0,0.0,0.0,19.0,3843.0
11.364,17.045,68.182,0.0,0.0,3.409,0.0,12288.0,29098414.0,942514.0,0.0,0.0,18.0,4172.0
9.091,19.318,65.909,0.0,0.0,5.682,0.0,0.0,29578664.0,958458.0,0.0,0.0,18.0,4060.0
7.955,18.182,70.455,0.0,0.0,3.409,0.0,0.0,28777410.0,934446.0,0.0,0.0,18.0,4045.0
9.195,20.690,66.667,0.0,0.0,3.448,0.0,0.0,29573063.0,956654.0,0.0,0.0,18.0,4007.0
9.412,23.529,63.529,0.0,0.0,3.529,0.0,0.0,29868172.0,970704.0,0.0,0.0,19.0,3866.0
9.412,18.824,69.412,0.0,0.0,2.353,0.0,8192.0,28536913.0,926142.0,0.0,0.0,18.0,3900.0
9.890,21.978,62.637,0.0,0.0,5.495,0.0,0.0,29988317.0,969534.0,0.0,0.0,18.0,3964.0
5.882,24.706,65.882,0.0,0.0,3.529,0.0,0.0,29448879.0,956358.0,0.0,0.0,18.0,3951.0
10.638,24.468,60.638,0.0,0.0,4.255,0.0,0.0,28079786.0,909676.0,0.0,0.0,18.0,3643.0
5.747,22.989,66.667,0.0,0.0,4.598,0.0,0.0,29971645.0,970794.0,0.0,0.0,19.0,4036.0
10.843,28.916,51.807,4.819,0.0,3.614,0.0,28672.0,28815407.0,934200.0,0.0,0.0,18.0,3499.0
10.112,21.348,65.169,0.0,0.0,3.371,0.0,40960.0,30282137.0,983114.0,0.0,0.0,18.0,4251.0
10.638,18.085,68.085,0.0,0.0,3.191,0.0,0.0,29336032.0,948814.0,0.0,0.0,18.0,4919.0
10.112,20.225,67.416,0.0,0.0,2.247,0.0,0.0,28601646.0,927798.0,0.0,0.0,18.0,4315.0
7.229,19.277,71.084,0.0,0.0,2.410,0.0,0.0,30528407.0,991094.0,0.0,0.0,19.0,4275.0
12.360,23.596,60.674,0.0,0.0,3.371,0.0,0.0,28957093.0,936734.0,0.0,0.0,18.0,4139.0
8.046,24.138,65.517,0.0,0.0,2.299,0.0,0.0,30874501.0,1000054.0,0.0,0.0,18.0,4198.0
12.941,17.647,64.706,0.0,0.0,4.706,0.0,0.0,28766229.0,934584.0,0.0,0.0,18.0,3767.0
6.742,19.101,71.910,0.0,0.0,2.247,0.0,0.0,29617009.0,959668.0,0.0,0.0,18.0,4258.0
9.890,21.978,63.736,0.0,0.0,4.396,0.0,0.0,29647012.0,960154.0,0.0,0.0,19.0,4084.0
11.494,21.839,62.069,0.0,0.0,4.598,0.0,0.0,29057961.0,942068.0,0.0,0.0,18.0,4009.0
7.865,25.843,61.798,0.0,0.0,4.494,0.0,0.0,30109601.0,975694.0,0.0,0.0,18.0,4175.0
5.747,20.690,72.414,0.0,0.0,1.149,0.0,0.0,29668559.0,959174.0,0.0,0.0,18.0,3961.0
8.333,18.750,69.792,0.0,0.0,3.125,0.0,0.0,28848234.0,936972.0,0.0,0.0,18.0,3944.0
10.753,20.430,64.516,0.0,0.0,4.301,0.0,0.0,30039817.0,973174.0,0.0,0.0,19.0,3589.0
11.702,21.277,63.830,0.0,0.0,3.191,0.0,0.0,28200686.0,916450.0,0.0,0.0,18.0,3652.0
5.495,20.879,71.429,0.0,0.0,2.198,0.0,0.0,27680389.0,894972.0,0.0,0.0,18.0,3299.0
6.742,14.607,75.281,0.0,0.0,3.371,0.0,0.0,29992682.0,972688.0,0.0,0.0,18.0,4092.0
9.574,13.830,75.532,0.0,0.0,1.064,0.0,0.0,26498646.0,859826.0,0.0,0.0,18.0,3297.0
7.865,17.978,71.910,0.0,0.0,2.247,0.0,0.0,28675025.0,931998.0,0.0,0.0,19.0,3559.0
8.889,16.667,72.222,0.0,0.0,2.222,0.0,0.0,29542939.0,956934.0,0.0,0.0,18.0,4207.0
10.870,20.652,65.217,0.0,0.0,3.261,0.0,0.0,27986253.0,909100.0,0.0,0.0,23.0,3795.0
10.345,14.943,73.563,0.0,0.0,1.149,0.0,0.0,27624017.0,896866.0,0.0,0.0,18.0,3464.0
9.195,12.644,74.713,0.0,0.0,3.448,0.0,0.0,29262606.0,948114.0,0.0,0.0,18.0,3900.0
6.818,13.636,77.273,0.0,0.0,2.273,0.0,0.0,30455028.0,985214.0,0.0,0.0,19.0,4218.0
13.978,16.129,65.591,0.0,0.0,4.301,0.0,0.0,28207863.0,916326.0,0.0,0.0,18.0,3568.0
5.376,19.355,70.968,0.0,0.0,4.301,0.0,8192.0,30303798.0,980874.0,0.0,0.0,18.0,4310.0
7.865,21.348,70.787,0.0,0.0,0.0,0.0,0.0,30057179.0,973844.0,0.0,0.0,18.0,4391.0
7.143,16.667,72.619,0.0,0.0,3.571,0.0,0.0,27823055.0,904750.0,0.0,0.0,19.0,3534.0
6.667,22.222,68.889,0.0,0.0,2.222,0.0,0.0,30554417.0,988714.0,0.0,0.0,18.0,4085.0
1.163,13.953,81.395,0.0,0.0,3.488,0.0,0.0,22535262.0,731674.0,0.0,0.0,18.0,3074.0
