"Dstat 0.7.2 CSV output"
"Author:","Dag Wieers <dag@wieers.com>",,,,"URL:","http://dag.wieers.com/home-made/dstat/"
"Host:","Server2",,,,"User:","maki"
"Cmdline:","dstat --output server_32_set_4_1.csv 1 70",,,,"Date:","25 Nov 2018 03:03:28 UTC"

"total cpu usage",,,,,,"dsk/total",,"net/total",,"paging",,"system",
"usr","sys","idl","wai","hiq","siq","read","writ","recv","send","in","out","int","csw"
4.751,9.676,83.009,0.827,0.0,1.737,18899.437,81853.894,0.0,0.0,0.0,0.0,18.555,1614.703
4.0,8.0,86.0,0.0,0.0,2.0,0.0,0.0,8518449.0,277566.0,0.0,0.0,19.0,2920.0
1.020,5.102,90.816,0.0,0.0,3.061,0.0,0.0,6378679.0,205004.0,0.0,0.0,18.0,2127.0
3.061,6.122,89.796,0.0,0.0,1.020,0.0,0.0,8412079.0,271286.0,0.0,0.0,18.0,2739.0
4.255,6.383,87.234,0.0,0.0,2.128,0.0,0.0,10198916.0,332518.0,0.0,0.0,18.0,3197.0
3.093,5.155,88.660,0.0,0.0,3.093,0.0,0.0,10641890.0,343526.0,0.0,0.0,18.0,3270.0
2.041,6.122,87.755,0.0,0.0,4.082,0.0,0.0,10724029.0,347234.0,0.0,0.0,19.0,3487.0
5.155,9.278,82.474,1.031,0.0,2.062,0.0,57344.0,11308807.0,369070.0,0.0,0.0,18.0,3564.0
3.158,6.316,88.421,0.0,0.0,2.105,0.0,0.0,10863021.0,351014.0,0.0,0.0,18.0,3374.0
5.051,8.081,83.838,0.0,0.0,3.030,0.0,0.0,10985552.0,355146.0,0.0,0.0,18.0,3368.0
4.211,6.316,86.316,0.0,0.0,3.158,0.0,0.0,11092671.0,362058.0,0.0,0.0,18.0,3352.0
1.075,7.527,91.398,0.0,0.0,0.0,0.0,0.0,10985766.0,354794.0,0.0,0.0,19.0,3433.0
4.082,6.122,87.755,0.0,0.0,2.041,0.0,0.0,10687545.0,346254.0,0.0,0.0,18.0,3115.0
7.071,5.051,85.859,0.0,0.0,2.020,0.0,0.0,10034860.0,327058.0,0.0,0.0,18.0,3073.0
2.083,7.292,88.542,0.0,0.0,2.083,0.0,0.0,9700917.0,313634.0,0.0,0.0,18.0,3131.0
2.970,5.941,86.139,0.0,0.0,4.950,0.0,0.0,9877587.0,319094.0,0.0,0.0,18.0,3115.0
5.263,5.263,88.421,0.0,0.0,1.053,0.0,0.0,11047309.0,360098.0,0.0,0.0,19.0,3548.0
3.158,6.316,88.421,0.0,0.0,2.105,0.0,0.0,10710722.0,346460.0,0.0,0.0,18.0,3484.0
3.158,4.211,89.474,0.0,0.0,3.158,0.0,0.0,10763880.0,347240.0,0.0,0.0,18.0,3258.0
5.208,7.292,85.417,0.0,0.0,2.083,0.0,0.0,10728131.0,350438.0,0.0,0.0,18.0,3202.0
2.083,7.292,89.583,0.0,0.0,1.042,0.0,0.0,11113093.0,359554.0,0.0,0.0,18.0,3200.0
3.191,4.255,91.489,0.0,0.0,1.064,0.0,0.0,10789823.0,348292.0,0.0,0.0,19.0,3297.0
4.124,5.155,87.629,0.0,0.0,3.093,0.0,0.0,9626958.0,314178.0,0.0,0.0,18.0,2998.0
6.122,6.122,87.755,0.0,0.0,0.0,0.0,0.0,9886748.0,319934.0,0.0,0.0,18.0,2950.0
3.030,7.071,86.869,0.0,0.0,3.030,0.0,0.0,9237194.0,298624.0,0.0,0.0,18.0,2798.0
2.105,7.368,88.421,0.0,0.0,2.105,0.0,0.0,10136673.0,329858.0,0.0,0.0,19.0,3231.0
2.062,6.186,88.660,0.0,0.0,3.093,0.0,0.0,10274177.0,332814.0,0.0,0.0,18.0,3122.0
3.030,8.081,85.859,0.0,0.0,3.030,0.0,0.0,10500951.0,339360.0,0.0,0.0,18.0,3193.0
7.071,6.061,85.859,0.0,0.0,1.010,0.0,0.0,10020456.0,326638.0,0.0,0.0,18.0,3315.0
1.053,7.368,88.421,0.0,0.0,3.158,0.0,0.0,9890843.0,319234.0,0.0,0.0,18.0,3178.0
2.128,5.319,91.489,0.0,0.0,1.064,0.0,0.0,9661687.0,312204.0,0.0,0.0,19.0,3024.0
5.0,7.0,86.0,0.0,0.0,2.0,0.0,0.0,10177155.0,331818.0,0.0,0.0,18.0,3209.0
4.124,7.216,87.629,0.0,0.0,1.031,0.0,16384.0,9719429.0,313774.0,0.0,0.0,18.0,3090.0
0.0,5.263,91.579,0.0,0.0,3.158,0.0,0.0,8434067.0,272344.0,0.0,0.0,18.0,2688.0
5.155,9.278,84.536,0.0,0.0,1.031,0.0,0.0,10443732.0,340078.0,0.0,0.0,18.0,3279.0
4.167,6.250,88.542,0.0,0.0,1.042,0.0,0.0,11132706.0,360254.0,0.0,0.0,19.0,3396.0
2.105,6.316,89.474,0.0,0.0,2.105,0.0,0.0,11069208.0,358154.0,0.0,0.0,18.0,3276.0
4.211,6.316,87.368,0.0,0.0,2.105,0.0,0.0,11590608.0,377738.0,0.0,0.0,18.0,3451.0
4.124,5.155,86.598,2.062,0.0,2.062,0.0,32768.0,11047154.0,356894.0,0.0,0.0,18.0,3420.0
4.211,6.316,86.316,0.0,0.0,3.158,0.0,0.0,11363307.0,367954.0,0.0,0.0,18.0,3649.0
1.099,2.198,93.407,0.0,0.0,3.297,0.0,0.0,10068403.0,328334.0,0.0,0.0,19.0,3264.0
3.093,5.155,91.753,0.0,0.0,0.0,0.0,0.0,6706765.0,217058.0,0.0,0.0,18.0,2301.0
4.0,7.0,88.0,0.0,0.0,1.0,0.0,0.0,5530959.0,181426.0,0.0,0.0,18.0,2070.0
2.128,3.191,94.681,0.0,0.0,0.0,0.0,0.0,6226060.0,202174.0,0.0,0.0,18.0,2159.0
3.030,10.101,85.859,0.0,0.0,1.010,0.0,0.0,8778805.0,285262.0,0.0,0.0,18.0,2711.0
1.064,5.319,91.489,0.0,0.0,2.128,0.0,0.0,10677760.0,345414.0,0.0,0.0,19.0,3258.0
2.062,9.278,87.629,0.0,0.0,1.031,0.0,0.0,11369627.0,368094.0,0.0,0.0,18.0,3493.0
3.922,10.784,82.353,0.0,0.0,2.941,0.0,0.0,10987821.0,357438.0,0.0,0.0,18.0,3492.0
1.075,6.452,91.398,0.0,0.0,1.075,0.0,0.0,10460137.0,338554.0,0.0,0.0,18.0,3095.0
2.105,7.368,88.421,0.0,0.0,2.105,0.0,0.0,11105902.0,359274.0,0.0,0.0,18.0,3443.0
4.040,8.081,84.848,0.0,0.0,3.030,0.0,0.0,10018203.0,326778.0,0.0,0.0,19.0,3085.0
3.030,7.071,85.859,0.0,0.0,4.040,0.0,0.0,11241148.0,363334.0,0.0,0.0,18.0,3420.0
5.0,8.0,83.0,0.0,0.0,4.0,0.0,0.0,11329588.0,366554.0,0.0,0.0,18.0,3403.0
3.191,5.319,89.362,0.0,0.0,2.128,0.0,0.0,11031326.0,359538.0,0.0,0.0,18.0,3271.0
2.062,8.247,86.598,0.0,0.0,3.093,0.0,0.0,10472313.0,338414.0,0.0,0.0,19.0,3267.0
3.226,4.301,91.398,0.0,0.0,1.075,0.0,0.0,10605817.0,343454.0,0.0,0.0,18.0,3339.0
6.796,6.796,81.553,0.0,0.0,4.854,0.0,0.0,11031526.0,359398.0,0.0,0.0,18.0,3430.0
2.041,7.143,87.755,0.0,0.0,3.061,0.0,0.0,10132676.0,327426.0,0.0,0.0,18.0,3335.0
1.064,7.447,89.362,0.0,0.0,2.128,0.0,0.0,11379299.0,367254.0,0.0,0.0,18.0,3571.0
4.211,7.368,87.368,0.0,0.0,1.053,0.0,0.0,10216348.0,333716.0,0.0,0.0,19.0,3188.0
4.040,7.071,86.869,0.0,0.0,2.020,0.0,0.0,10019092.0,323926.0,0.0,0.0,18.0,3039.0
1.042,8.333,88.542,0.0,0.0,2.083,0.0,0.0,10695969.0,345414.0,0.0,0.0,18.0,3328.0
4.124,7.216,85.567,0.0,0.0,3.093,0.0,0.0,10839886.0,353098.0,0.0,0.0,18.0,3372.0
3.125,5.208,89.583,0.0,0.0,2.083,0.0,8192.0,10554057.0,341962.0,0.0,0.0,18.0,3296.0
4.211,6.316,86.316,0.0,0.0,3.158,0.0,0.0,10798630.0,348634.0,0.0,0.0,19.0,3226.0
5.155,9.278,84.536,0.0,0.0,1.031,0.0,0.0,10471863.0,342042.0,0.0,0.0,18.0,3257.0
3.061,9.184,85.714,0.0,0.0,2.041,0.0,0.0,11146119.0,360674.0,0.0,0.0,18.0,3472.0
2.128,6.383,90.426,0.0,0.0,1.064,0.0,0.0,10767976.0,348214.0,0.0,0.0,18.0,3350.0
3.061,8.163,82.653,2.041,0.0,4.082,0.0,45056.0,11091957.0,362070.0,0.0,0.0,18.0,3425.0
3.191,5.319,89.362,0.0,0.0,2.128,0.0,0.0,10598899.0,342464.0,0.0,0.0,19.0,3316.0
3.960,5.941,87.129,0.0,0.0,2.970,0.0,0.0,8826561.0,285634.0,0.0,0.0,18.0,2666.0
