"Dstat 0.7.2 CSV output"
"Author:","Dag Wieers <dag@wieers.com>",,,,"URL:","http://dag.wieers.com/home-made/dstat/"
"Host:","Server2",,,,"User:","maki"
"Cmdline:","dstat --output server_8_set_4_22.csv 1 70",,,,"Date:","25 Nov 2018 01:05:41 UTC"

"total cpu usage",,,,,,"dsk/total",,"net/total",,"paging",,"system",
"usr","sys","idl","wai","hiq","siq","read","writ","recv","send","in","out","int","csw"
3.406,6.137,87.968,1.730,0.0,0.760,42288.600,180744.787,0.0,0.0,0.0,0.0,18.895,1395.271
5.0,18.0,74.0,0.0,0.0,3.0,0.0,0.0,24020682.0,780262.0,0.0,0.0,18.0,4253.0
7.609,13.043,78.261,0.0,0.0,1.087,0.0,0.0,27534106.0,893686.0,0.0,0.0,18.0,4309.0
6.742,21.348,70.787,0.0,0.0,1.124,0.0,0.0,33329657.0,1077614.0,0.0,0.0,19.0,4052.0
5.618,19.101,71.910,0.0,0.0,3.371,0.0,0.0,34208531.0,1111058.0,0.0,0.0,18.0,4002.0
3.371,17.978,76.404,0.0,0.0,2.247,0.0,0.0,31103628.0,1007946.0,0.0,0.0,18.0,3432.0
6.742,20.225,71.910,0.0,0.0,1.124,0.0,0.0,33982323.0,1101554.0,0.0,0.0,18.0,3855.0
9.890,25.275,62.637,0.0,0.0,2.198,0.0,0.0,32319411.0,1050030.0,0.0,0.0,19.0,3894.0
8.434,20.482,71.084,0.0,0.0,0.0,0.0,0.0,32033081.0,1035106.0,0.0,0.0,18.0,3592.0
11.494,20.690,65.517,0.0,0.0,2.299,0.0,0.0,33590574.0,1089734.0,0.0,0.0,17.0,3727.0
7.955,19.318,69.318,0.0,0.0,3.409,0.0,0.0,33352309.0,1083692.0,0.0,0.0,19.0,4004.0
5.682,18.182,73.864,0.0,0.0,2.273,0.0,0.0,31505793.0,1020202.0,0.0,0.0,18.0,3635.0
9.302,12.791,76.744,0.0,0.0,1.163,0.0,0.0,31274030.0,1013942.0,0.0,0.0,19.0,3639.0
4.762,19.048,73.810,0.0,0.0,2.381,0.0,0.0,33741245.0,1095024.0,0.0,0.0,18.0,3718.0
5.495,18.681,73.626,0.0,0.0,2.198,0.0,0.0,33096186.0,1073348.0,0.0,0.0,18.0,3699.0
5.747,16.092,71.264,4.598,0.0,2.299,0.0,32768.0,31708163.0,1024974.0,0.0,0.0,18.0,3677.0
7.447,21.277,69.149,0.0,0.0,2.128,0.0,0.0,32721242.0,1062898.0,0.0,0.0,18.0,3686.0
5.556,21.111,70.0,0.0,0.0,3.333,0.0,0.0,31773057.0,1029034.0,0.0,0.0,19.0,3547.0
6.742,20.225,69.663,0.0,0.0,3.371,0.0,0.0,30895393.0,1000400.0,0.0,0.0,18.0,3637.0
7.778,22.222,67.778,0.0,0.0,2.222,0.0,0.0,32669222.0,1061992.0,0.0,0.0,18.0,3762.0
6.667,15.556,74.444,0.0,0.0,3.333,0.0,0.0,32205577.0,1042474.0,0.0,0.0,18.0,3740.0
7.527,19.355,69.892,0.0,0.0,3.226,0.0,0.0,30658461.0,994226.0,0.0,0.0,18.0,3174.0
7.527,22.581,67.742,0.0,0.0,2.151,0.0,0.0,31212328.0,1012078.0,0.0,0.0,19.0,3523.0
9.474,17.895,69.474,0.0,0.0,3.158,0.0,0.0,31894416.0,1032460.0,0.0,0.0,18.0,3638.0
8.511,14.894,74.468,0.0,0.0,2.128,0.0,0.0,29603678.0,960560.0,0.0,0.0,18.0,3261.0
8.989,15.730,71.910,0.0,0.0,3.371,0.0,0.0,33084017.0,1074238.0,0.0,0.0,18.0,3786.0
9.783,19.565,68.478,0.0,0.0,2.174,0.0,0.0,33598912.0,1086932.0,0.0,0.0,19.0,3840.0
7.778,17.778,72.222,0.0,0.0,2.222,0.0,0.0,29430860.0,954046.0,0.0,0.0,18.0,3439.0
5.747,22.989,67.816,0.0,0.0,3.448,0.0,0.0,33603029.0,1089498.0,0.0,0.0,18.0,3685.0
10.345,20.690,67.816,0.0,0.0,1.149,0.0,0.0,30533898.0,989706.0,0.0,0.0,18.0,3635.0
9.195,16.092,71.264,0.0,0.0,3.448,0.0,8192.0,32283363.0,1044434.0,0.0,0.0,18.0,3830.0
10.345,20.690,66.667,0.0,0.0,2.299,0.0,0.0,31510761.0,1023904.0,0.0,0.0,19.0,3700.0
7.609,18.478,69.565,0.0,0.0,4.348,0.0,0.0,30429099.0,985494.0,0.0,0.0,18.0,3403.0
7.143,23.810,67.857,0.0,0.0,1.190,0.0,0.0,33290569.0,1078388.0,0.0,0.0,18.0,3722.0
13.793,20.690,60.920,0.0,0.0,4.598,0.0,0.0,34307811.0,1114204.0,0.0,0.0,18.0,4078.0
8.889,24.444,64.444,0.0,0.0,2.222,0.0,4096.0,32123538.0,1041568.0,0.0,0.0,18.0,3557.0
7.778,21.111,68.889,0.0,0.0,2.222,0.0,0.0,31886148.0,1031326.0,0.0,0.0,19.0,3590.0
8.333,19.048,70.238,0.0,0.0,2.381,0.0,0.0,31899879.0,1035738.0,0.0,0.0,18.0,3723.0
10.112,16.854,70.787,0.0,0.0,2.247,0.0,0.0,31751799.0,1029874.0,0.0,0.0,18.0,3672.0
3.529,14.118,80.0,0.0,0.0,2.353,0.0,0.0,30469890.0,985052.0,0.0,0.0,18.0,3515.0
7.059,20.0,69.412,0.0,0.0,3.529,0.0,0.0,33372334.0,1084952.0,0.0,0.0,18.0,4013.0
7.865,17.978,69.663,0.0,0.0,4.494,0.0,0.0,33156537.0,1072294.0,0.0,0.0,19.0,3819.0
7.955,20.455,69.318,0.0,0.0,2.273,0.0,0.0,30631669.0,992654.0,0.0,0.0,18.0,3573.0
8.889,22.222,66.667,0.0,0.0,2.222,0.0,0.0,33101299.0,1073892.0,0.0,0.0,18.0,3836.0
5.747,19.540,72.414,0.0,0.0,2.299,0.0,0.0,33143857.0,1075860.0,0.0,0.0,18.0,3865.0
8.989,21.348,67.416,0.0,0.0,2.247,0.0,0.0,31249118.0,1010902.0,0.0,0.0,18.0,3439.0
7.692,21.978,67.033,2.198,0.0,1.099,0.0,45056.0,33225747.0,1075934.0,0.0,0.0,19.0,3865.0
10.753,19.355,62.366,0.0,0.0,7.527,0.0,0.0,32508984.0,1056318.0,0.0,0.0,18.0,3725.0
6.818,20.455,70.455,0.0,0.0,2.273,0.0,0.0,32101896.0,1039726.0,0.0,0.0,18.0,3740.0
6.818,20.455,70.455,0.0,0.0,2.273,0.0,0.0,33908585.0,1097074.0,0.0,0.0,18.0,4197.0
8.696,17.391,69.565,0.0,0.0,4.348,0.0,0.0,32435867.0,1054498.0,0.0,0.0,18.0,3467.0
8.791,17.582,72.527,0.0,0.0,1.099,0.0,0.0,33744529.0,1091334.0,0.0,0.0,19.0,3993.0
7.527,16.129,72.043,0.0,0.0,4.301,0.0,0.0,31729864.0,1029454.0,0.0,0.0,18.0,3514.0
7.865,17.978,71.910,0.0,0.0,2.247,0.0,0.0,32375209.0,1051278.0,0.0,0.0,18.0,3669.0
6.818,19.318,72.727,0.0,0.0,1.136,0.0,0.0,33247335.0,1074880.0,0.0,0.0,18.0,3713.0
5.814,18.605,73.256,0.0,0.0,2.326,0.0,0.0,33670803.0,1092594.0,0.0,0.0,19.0,4034.0
8.140,19.767,69.767,0.0,0.0,2.326,0.0,0.0,34017849.0,1103432.0,0.0,0.0,18.0,3603.0
11.236,23.596,62.921,0.0,0.0,2.247,0.0,0.0,31297908.0,1014882.0,0.0,0.0,18.0,3586.0
9.302,17.442,70.930,0.0,0.0,2.326,0.0,0.0,33372717.0,1080414.0,0.0,0.0,18.0,3659.0
8.333,15.476,72.619,0.0,0.0,3.571,0.0,0.0,32595703.0,1058418.0,0.0,0.0,18.0,3711.0
7.955,18.182,71.591,0.0,0.0,2.273,0.0,0.0,32983694.0,1067814.0,0.0,0.0,19.0,3735.0
8.989,21.348,67.416,0.0,0.0,2.247,0.0,0.0,33005447.0,1068654.0,0.0,0.0,18.0,3829.0
9.091,22.727,65.909,0.0,0.0,2.273,0.0,0.0,32521353.0,1057618.0,0.0,0.0,18.0,3639.0
5.814,16.279,74.419,0.0,0.0,3.488,0.0,0.0,32633574.0,1056334.0,0.0,0.0,18.0,3693.0
9.195,17.241,72.414,0.0,0.0,1.149,0.0,0.0,34224666.0,1109254.0,0.0,0.0,18.0,3840.0
7.368,21.053,68.421,0.0,0.0,3.158,0.0,0.0,32435912.0,1052538.0,0.0,0.0,19.0,3726.0
10.227,19.318,69.318,0.0,0.0,1.136,0.0,8192.0,33389856.0,1082234.0,0.0,0.0,18.0,3848.0
6.452,23.656,67.742,0.0,0.0,2.151,0.0,0.0,32815139.0,1060896.0,0.0,0.0,18.0,3635.0
12.088,17.582,67.033,0.0,0.0,3.297,0.0,0.0,32587653.0,1060324.0,0.0,0.0,18.0,3599.0
11.765,17.647,68.235,0.0,0.0,2.353,0.0,0.0,30293663.0,983530.0,0.0,0.0,23.0,3308.0
5.682,20.455,71.591,0.0,0.0,2.273,0.0,0.0,31836806.0,1032220.0,0.0,0.0,19.0,3667.0
