"Dstat 0.7.2 CSV output"
"Author:","Dag Wieers <dag@wieers.com>",,,,"URL:","http://dag.wieers.com/home-made/dstat/"
"Host:","Server2",,,,"User:","maki"
"Cmdline:","dstat --output server_8_set_1_4.csv 1 70",,,,"Date:","25 Nov 2018 00:12:35 UTC"

"total cpu usage",,,,,,"dsk/total",,"net/total",,"paging",,"system",
"usr","sys","idl","wai","hiq","siq","read","writ","recv","send","in","out","int","csw"
1.768,1.824,92.708,3.532,0.0,0.168,95626.340,406459.369,0.0,0.0,0.0,0.0,19.674,357.467
4.211,13.684,81.053,0.0,0.0,1.053,0.0,0.0,18918767.0,615298.0,0.0,0.0,18.0,4174.0
6.522,14.130,77.174,0.0,0.0,2.174,0.0,0.0,26041141.0,843814.0,0.0,0.0,18.0,5145.0
5.882,21.176,71.765,0.0,0.0,1.176,0.0,0.0,29681113.0,960294.0,0.0,0.0,18.0,5105.0
7.955,15.909,71.591,0.0,0.0,4.545,0.0,0.0,29686331.0,963358.0,0.0,0.0,18.0,4675.0
5.682,19.318,73.864,0.0,0.0,1.136,0.0,0.0,28755907.0,932294.0,0.0,0.0,19.0,4488.0
9.195,14.943,74.713,0.0,0.0,1.149,0.0,0.0,28820720.0,933554.0,0.0,0.0,18.0,4423.0
7.865,20.225,69.663,0.0,0.0,2.247,0.0,0.0,27270442.0,884118.0,0.0,0.0,18.0,4101.0
8.791,21.978,65.934,0.0,0.0,3.297,0.0,0.0,26114538.0,851488.0,0.0,0.0,24.0,3988.0
7.059,17.647,74.118,0.0,0.0,1.176,0.0,0.0,29175296.0,946434.0,0.0,0.0,19.0,4124.0
6.742,13.483,76.404,2.247,0.0,1.124,0.0,53248.0,26254005.0,852198.0,0.0,0.0,18.0,3844.0
5.495,17.582,73.626,0.0,0.0,3.297,0.0,0.0,28729771.0,929214.0,0.0,0.0,18.0,4038.0
9.783,17.391,70.652,0.0,0.0,2.174,0.0,0.0,28012331.0,909614.0,0.0,0.0,18.0,3876.0
9.091,23.864,62.500,0.0,0.0,4.545,0.0,0.0,27429833.0,889438.0,0.0,0.0,18.0,3916.0
6.818,15.909,76.136,0.0,0.0,1.136,0.0,0.0,27667051.0,896506.0,0.0,0.0,18.0,3886.0
8.696,18.478,71.739,0.0,0.0,1.087,0.0,0.0,29460661.0,953854.0,0.0,0.0,19.0,4549.0
6.593,20.879,71.429,0.0,0.0,1.099,0.0,0.0,28532249.0,928078.0,0.0,0.0,18.0,4179.0
9.474,17.895,71.579,0.0,0.0,1.053,0.0,0.0,26785060.0,866266.0,0.0,0.0,18.0,4384.0
7.229,16.867,74.699,0.0,0.0,1.205,0.0,0.0,28587315.0,926834.0,0.0,0.0,18.0,4750.0
12.644,14.943,67.816,0.0,0.0,4.598,0.0,0.0,28088468.0,911348.0,0.0,0.0,19.0,4467.0
6.742,14.607,76.404,0.0,0.0,2.247,0.0,0.0,27056737.0,876520.0,0.0,0.0,18.0,4765.0
5.747,21.839,68.966,0.0,0.0,3.448,0.0,0.0,28791927.0,933352.0,0.0,0.0,18.0,4713.0
7.447,12.766,75.532,0.0,0.0,4.255,0.0,0.0,23350892.0,760420.0,0.0,0.0,18.0,5076.0
7.368,12.632,77.895,0.0,0.0,2.105,0.0,0.0,22455090.0,727132.0,0.0,0.0,18.0,4230.0
3.409,14.773,80.682,0.0,0.0,1.136,0.0,0.0,25987605.0,842388.0,0.0,0.0,19.0,4787.0
11.494,21.839,62.069,0.0,0.0,4.598,0.0,0.0,27667659.0,899238.0,0.0,0.0,18.0,4761.0
8.989,13.483,74.157,0.0,0.0,3.371,0.0,0.0,25649707.0,830504.0,0.0,0.0,18.0,4070.0
8.889,24.444,65.556,0.0,0.0,1.111,0.0,0.0,29024008.0,939714.0,0.0,0.0,18.0,4423.0
7.692,20.879,67.033,0.0,0.0,4.396,0.0,0.0,27940442.0,907246.0,0.0,0.0,18.0,4003.0
7.865,14.607,76.404,0.0,0.0,1.124,0.0,0.0,28393286.0,920522.0,0.0,0.0,18.0,4356.0
6.667,15.556,76.667,0.0,0.0,1.111,0.0,8192.0,28920174.0,935374.0,0.0,0.0,19.0,4394.0
8.140,11.628,76.744,0.0,0.0,3.488,0.0,0.0,27521003.0,896524.0,0.0,0.0,18.0,4048.0
6.522,20.652,70.652,0.0,0.0,2.174,0.0,0.0,28720672.0,930776.0,0.0,0.0,18.0,4118.0
9.412,14.118,72.941,0.0,0.0,3.529,0.0,0.0,28544168.0,923820.0,0.0,0.0,18.0,4310.0
8.989,14.607,74.157,0.0,0.0,2.247,0.0,0.0,28017221.0,906520.0,0.0,0.0,19.0,4379.0
10.588,15.294,70.588,0.0,0.0,3.529,0.0,0.0,27261750.0,885290.0,0.0,0.0,18.0,4154.0
9.890,17.582,71.429,0.0,0.0,1.099,0.0,4096.0,28175098.0,912850.0,0.0,0.0,18.0,4149.0
5.435,14.130,79.348,0.0,0.0,1.087,0.0,0.0,26433144.0,856496.0,0.0,0.0,18.0,3989.0
6.818,15.909,72.727,0.0,0.0,4.545,0.0,0.0,27259291.0,885554.0,0.0,0.0,18.0,4064.0
6.977,13.953,77.907,0.0,0.0,1.163,0.0,0.0,27536890.0,892114.0,0.0,0.0,19.0,4331.0
7.216,21.649,71.134,0.0,0.0,0.0,0.0,0.0,28634989.0,927534.0,0.0,0.0,18.0,4353.0
9.091,14.773,72.727,1.136,0.0,2.273,0.0,65536.0,25779064.0,838952.0,0.0,0.0,18.0,4075.0
6.593,16.484,75.824,0.0,0.0,1.099,0.0,0.0,27147856.0,878534.0,0.0,0.0,18.0,3969.0
6.098,19.512,73.171,0.0,0.0,1.220,0.0,0.0,28103192.0,910520.0,0.0,0.0,18.0,4395.0
10.112,15.730,70.787,0.0,0.0,3.371,0.0,0.0,27269110.0,885224.0,0.0,0.0,19.0,4284.0
7.955,15.909,75.0,0.0,0.0,1.136,0.0,0.0,28221257.0,915214.0,0.0,0.0,18.0,4232.0
5.747,18.391,74.713,0.0,0.0,1.149,0.0,0.0,28038308.0,907094.0,0.0,0.0,18.0,4152.0
8.046,19.540,70.115,0.0,0.0,2.299,0.0,0.0,29284513.0,950618.0,0.0,0.0,18.0,4468.0
9.302,16.279,72.093,0.0,0.0,2.326,0.0,0.0,28215610.0,915634.0,0.0,0.0,19.0,4218.0
8.989,14.607,74.157,0.0,0.0,2.247,0.0,0.0,28838048.0,931940.0,0.0,0.0,18.0,4173.0
10.638,18.085,70.213,0.0,0.0,1.064,0.0,0.0,26846717.0,873680.0,0.0,0.0,18.0,4370.0
3.571,14.286,80.952,0.0,0.0,1.190,0.0,0.0,28751644.0,930400.0,0.0,0.0,18.0,4609.0
8.602,19.355,70.968,0.0,0.0,1.075,0.0,0.0,29097495.0,944268.0,0.0,0.0,18.0,4203.0
8.696,16.304,73.913,0.0,0.0,1.087,0.0,0.0,26890040.0,874586.0,0.0,0.0,19.0,4067.0
11.236,14.607,71.910,0.0,0.0,2.247,0.0,0.0,28998035.0,938314.0,0.0,0.0,18.0,4212.0
4.598,13.793,79.310,0.0,0.0,2.299,0.0,0.0,28768924.0,932854.0,0.0,0.0,18.0,4202.0
6.897,20.690,71.264,0.0,0.0,1.149,0.0,0.0,28860798.0,937458.0,0.0,0.0,18.0,4256.0
7.955,19.318,71.591,0.0,0.0,1.136,0.0,0.0,28972051.0,937820.0,0.0,0.0,18.0,4295.0
9.091,17.045,72.727,0.0,0.0,1.136,0.0,0.0,28238559.0,914740.0,0.0,0.0,19.0,4479.0
4.819,13.253,79.518,0.0,0.0,2.410,0.0,0.0,28545153.0,925558.0,0.0,0.0,18.0,4296.0
7.865,12.360,77.528,0.0,0.0,2.247,0.0,0.0,27408676.0,889174.0,0.0,0.0,18.0,4067.0
6.593,16.484,75.824,0.0,0.0,1.099,0.0,0.0,28451857.0,921654.0,0.0,0.0,18.0,4249.0
10.112,19.101,68.539,0.0,0.0,2.247,0.0,0.0,26738236.0,869558.0,0.0,0.0,18.0,3914.0
4.762,14.286,78.571,0.0,0.0,2.381,0.0,0.0,27653988.0,894826.0,0.0,0.0,19.0,3955.0
9.474,15.789,72.632,0.0,0.0,2.105,0.0,0.0,28656521.0,928514.0,0.0,0.0,18.0,4324.0
10.989,21.978,67.033,0.0,0.0,0.0,0.0,0.0,27667675.0,898258.0,0.0,0.0,18.0,4142.0
6.897,13.793,77.011,0.0,0.0,2.299,0.0,0.0,27662691.0,895436.0,0.0,0.0,18.0,4312.0
5.682,14.773,78.409,0.0,0.0,1.136,0.0,0.0,27610343.0,895474.0,0.0,0.0,18.0,3961.0
9.302,19.767,66.279,0.0,0.0,4.651,0.0,0.0,26957112.0,880048.0,0.0,0.0,23.0,3749.0
5.435,15.217,77.174,0.0,0.0,2.174,0.0,0.0,27528221.0,891694.0,0.0,0.0,19.0,4393.0
5.556,12.222,80.0,0.0,0.0,2.222,0.0,0.0,24520631.0,794254.0,0.0,0.0,18.0,3647.0
