"Dstat 0.7.2 CSV output"
"Author:","Dag Wieers <dag@wieers.com>",,,,"URL:","http://dag.wieers.com/home-made/dstat/"
"Host:","Server2",,,,"User:","maki"
"Cmdline:","dstat --output server_32_set_4_8.csv 1 70",,,,"Date:","25 Nov 2018 03:09:21 UTC"

"total cpu usage",,,,,,"dsk/total",,"net/total",,"paging",,"system",
"usr","sys","idl","wai","hiq","siq","read","writ","recv","send","in","out","int","csw"
4.729,9.617,83.122,0.806,0.0,1.726,18391.263,79696.344,0.0,0.0,0.0,0.0,18.547,1634.098
2.151,12.903,82.796,0.0,0.0,2.151,0.0,0.0,21145826.0,685816.0,0.0,0.0,19.0,3777.0
6.522,19.565,69.565,0.0,0.0,4.348,0.0,0.0,26998556.0,875870.0,0.0,0.0,18.0,3995.0
15.854,24.390,53.659,0.0,0.0,6.098,0.0,0.0,35216626.0,1143570.0,0.0,0.0,18.0,2845.0
13.187,15.385,68.132,0.0,0.0,3.297,0.0,0.0,38486731.0,1247312.0,0.0,0.0,18.0,3245.0
9.524,26.190,60.714,0.0,0.0,3.571,0.0,0.0,39688503.0,1285514.0,0.0,0.0,19.0,2994.0
15.584,25.974,49.351,0.0,0.0,9.091,0.0,0.0,40338167.0,1305304.0,0.0,0.0,18.0,2581.0
13.953,32.558,47.674,0.0,0.0,5.814,0.0,0.0,39209930.0,1273766.0,0.0,0.0,18.0,2658.0
15.663,33.735,45.783,0.0,0.0,4.819,0.0,0.0,40531526.0,1312954.0,0.0,0.0,18.0,2695.0
14.773,23.864,53.409,0.0,0.0,7.955,0.0,0.0,39114976.0,1261092.0,0.0,0.0,18.0,2669.0
12.791,25.581,54.651,0.0,0.0,6.977,0.0,0.0,38163791.0,1243638.0,0.0,0.0,19.0,2593.0
11.250,26.250,53.750,0.0,0.0,8.750,0.0,0.0,40025771.0,1294260.0,0.0,0.0,18.0,2740.0
10.345,25.287,56.322,0.0,0.0,8.046,0.0,0.0,41132512.0,1333612.0,0.0,0.0,18.0,2951.0
14.943,25.287,50.575,0.0,0.0,9.195,0.0,0.0,38126071.0,1237648.0,0.0,0.0,18.0,2543.0
15.854,31.707,46.341,0.0,0.0,6.098,0.0,0.0,39437722.0,1279148.0,0.0,0.0,18.0,2580.0
5.952,26.190,61.905,0.0,0.0,5.952,0.0,0.0,32479361.0,1053112.0,0.0,0.0,19.0,3607.0
12.048,28.916,53.012,0.0,0.0,6.024,0.0,0.0,35979683.0,1162944.0,0.0,0.0,18.0,2703.0
10.465,33.721,45.349,0.0,0.0,10.465,0.0,0.0,39616292.0,1289776.0,0.0,0.0,18.0,2541.0
12.941,29.412,51.765,0.0,0.0,5.882,0.0,0.0,38400180.0,1241974.0,0.0,0.0,18.0,2740.0
13.253,24.096,55.422,0.0,0.0,7.229,0.0,0.0,38505563.0,1249128.0,0.0,0.0,18.0,2919.0
15.909,28.409,50.0,0.0,0.0,5.682,0.0,45056.0,39710164.0,1287540.0,0.0,0.0,19.0,2767.0
13.483,26.966,56.180,0.0,0.0,3.371,0.0,0.0,39969446.0,1295948.0,0.0,0.0,18.0,2769.0
14.634,28.049,51.220,0.0,0.0,6.098,0.0,0.0,38818127.0,1254202.0,0.0,0.0,18.0,2828.0
10.976,29.268,54.878,0.0,0.0,4.878,0.0,8192.0,37837261.0,1227126.0,0.0,0.0,18.0,2605.0
13.483,26.966,51.685,0.0,0.0,7.865,0.0,0.0,39602081.0,1285934.0,0.0,0.0,18.0,2839.0
10.256,29.487,52.564,0.0,0.0,7.692,0.0,0.0,38863906.0,1261978.0,0.0,0.0,19.0,2619.0
8.537,25.610,59.756,0.0,0.0,6.098,0.0,0.0,38848182.0,1255266.0,0.0,0.0,18.0,2825.0
14.458,32.530,45.783,0.0,0.0,7.229,0.0,0.0,40259077.0,1301894.0,0.0,0.0,18.0,2649.0
13.415,31.707,46.341,0.0,0.0,8.537,0.0,0.0,38856329.0,1260646.0,0.0,0.0,18.0,2607.0
15.556,25.556,51.111,0.0,0.0,7.778,0.0,0.0,39992928.0,1295280.0,0.0,0.0,19.0,2838.0
12.500,28.750,52.500,0.0,0.0,6.250,0.0,0.0,39144374.0,1271654.0,0.0,0.0,18.0,2727.0
14.634,29.268,48.780,0.0,0.0,7.317,0.0,0.0,39089128.0,1269538.0,0.0,0.0,18.0,2759.0
7.778,28.889,60.0,0.0,0.0,3.333,0.0,0.0,39063472.0,1263690.0,0.0,0.0,18.0,2819.0
12.346,28.395,53.086,0.0,0.0,6.173,0.0,0.0,39747697.0,1284114.0,0.0,0.0,18.0,2721.0
14.634,26.829,52.439,0.0,0.0,6.098,0.0,8192.0,38545530.0,1254138.0,0.0,0.0,18.0,2699.0
12.791,26.744,53.488,0.0,0.0,6.977,0.0,0.0,38559217.0,1244824.0,0.0,0.0,19.0,2800.0
13.158,39.474,39.474,0.0,0.0,7.895,0.0,0.0,40466628.0,1313028.0,0.0,0.0,18.0,2252.0
15.909,30.682,45.455,0.0,0.0,7.955,0.0,0.0,39832173.0,1292638.0,0.0,0.0,18.0,2589.0
10.112,34.831,48.315,0.0,0.0,6.742,0.0,0.0,39883080.0,1292934.0,0.0,0.0,18.0,2745.0
16.667,26.190,53.571,0.0,0.0,3.571,0.0,0.0,38966536.0,1260874.0,0.0,0.0,19.0,2676.0
14.458,26.506,54.217,0.0,0.0,4.819,0.0,0.0,39516727.0,1282484.0,0.0,0.0,18.0,2754.0
10.843,32.530,51.807,0.0,0.0,4.819,0.0,0.0,38644178.0,1247574.0,0.0,0.0,18.0,2393.0
11.765,22.353,58.824,0.0,0.0,7.059,0.0,0.0,40920624.0,1327374.0,0.0,0.0,18.0,2712.0
14.634,32.927,42.683,0.0,0.0,9.756,0.0,0.0,38760338.0,1258824.0,0.0,0.0,18.0,2357.0
12.195,24.390,56.098,0.0,0.0,7.317,0.0,0.0,37407899.0,1208654.0,0.0,0.0,19.0,2623.0
14.118,31.765,49.412,0.0,0.0,4.706,0.0,0.0,39848447.0,1289434.0,0.0,0.0,18.0,2363.0
15.385,30.769,41.026,0.0,0.0,12.821,0.0,0.0,39058587.0,1270098.0,0.0,0.0,18.0,2409.0
11.628,31.395,54.651,0.0,0.0,2.326,0.0,0.0,39300960.0,1271598.0,0.0,0.0,18.0,2682.0
14.103,30.769,42.308,0.0,0.0,12.821,0.0,0.0,39234693.0,1270114.0,0.0,0.0,18.0,2703.0
14.103,29.487,48.718,0.0,0.0,7.692,0.0,0.0,38816465.0,1262818.0,0.0,0.0,18.0,2882.0
15.476,28.571,47.619,0.0,0.0,8.333,0.0,0.0,38149321.0,1237734.0,0.0,0.0,24.0,2817.0
11.765,31.765,45.882,1.176,0.0,9.412,0.0,45056.0,40640948.0,1319534.0,0.0,0.0,18.0,2890.0
11.494,22.989,58.621,0.0,0.0,6.897,0.0,0.0,38698122.0,1252614.0,0.0,0.0,18.0,2914.0
16.250,27.500,48.750,0.0,0.0,7.500,0.0,0.0,38514706.0,1247108.0,0.0,0.0,18.0,2856.0
12.791,24.419,52.326,0.0,0.0,10.465,0.0,36864.0,40034357.0,1299794.0,0.0,0.0,19.0,2596.0
12.048,33.735,44.578,0.0,0.0,9.639,0.0,0.0,38060000.0,1232578.0,0.0,0.0,18.0,2520.0
10.345,28.736,54.023,0.0,0.0,6.897,0.0,0.0,37277047.0,1205962.0,0.0,0.0,18.0,3028.0
16.176,33.824,39.706,0.0,0.0,10.294,0.0,0.0,39969607.0,1296294.0,0.0,0.0,18.0,2821.0
11.111,25.926,54.321,0.0,0.0,8.642,0.0,0.0,38623035.0,1249912.0,0.0,0.0,19.0,2885.0
9.877,27.160,56.790,0.0,0.0,6.173,0.0,0.0,38264513.0,1243830.0,0.0,0.0,18.0,2712.0
8.235,21.176,67.059,0.0,0.0,3.529,0.0,0.0,39303977.0,1271514.0,0.0,0.0,18.0,2920.0
10.256,39.744,39.744,0.0,0.0,10.256,0.0,0.0,40570441.0,1314634.0,0.0,0.0,18.0,2555.0
14.773,28.409,47.727,0.0,0.0,9.091,0.0,0.0,39015377.0,1265478.0,0.0,0.0,18.0,2484.0
17.500,32.500,45.0,0.0,0.0,5.0,0.0,0.0,39247682.0,1269974.0,0.0,0.0,18.0,2743.0
7.143,23.810,63.095,0.0,0.0,5.952,0.0,0.0,37522861.0,1217474.0,0.0,0.0,19.0,3076.0
10.345,32.184,52.874,0.0,0.0,4.598,0.0,0.0,36105941.0,1169298.0,0.0,0.0,18.0,2727.0
13.253,25.301,56.627,0.0,0.0,4.819,0.0,0.0,40086100.0,1302128.0,0.0,0.0,18.0,2850.0
10.588,34.118,50.588,0.0,0.0,4.706,0.0,0.0,39632437.0,1281174.0,0.0,0.0,18.0,2810.0
10.714,25.0,58.333,0.0,0.0,5.952,0.0,0.0,36572836.0,1190134.0,0.0,0.0,18.0,2761.0
10.588,31.765,52.941,0.0,0.0,4.706,0.0,0.0,38910517.0,1258000.0,0.0,0.0,19.0,2894.0
8.434,28.916,56.627,0.0,0.0,6.024,0.0,8192.0,30426642.0,988648.0,0.0,0.0,18.0,2265.0
