"Dstat 0.7.2 CSV output"
"Author:","Dag Wieers <dag@wieers.com>",,,,"URL:","http://dag.wieers.com/home-made/dstat/"
"Host:","Server2",,,,"User:","maki"
"Cmdline:","dstat --output server_32_set_3_2.csv 1 70",,,,"Date:","25 Nov 2018 02:49:10 UTC"

"total cpu usage",,,,,,"dsk/total",,"net/total",,"paging",,"system",
"usr","sys","idl","wai","hiq","siq","read","writ","recv","send","in","out","int","csw"
4.603,9.271,83.640,0.879,0.0,1.606,20258.445,87594.085,0.0,0.0,0.0,0.0,18.575,1622.547
4.167,12.500,81.250,0.0,0.0,2.083,0.0,0.0,15091423.0,491176.0,0.0,0.0,18.0,4022.0
4.211,9.474,82.105,2.105,0.0,2.105,0.0,45056.0,16650940.0,538960.0,0.0,0.0,18.0,4441.0
5.319,11.702,80.851,0.0,0.0,2.128,0.0,0.0,20483180.0,663568.0,0.0,0.0,18.0,4833.0
6.742,8.989,84.270,0.0,0.0,0.0,0.0,0.0,20006014.0,650694.0,0.0,0.0,18.0,4608.0
4.301,13.978,79.570,0.0,0.0,2.151,0.0,0.0,21637659.0,701294.0,0.0,0.0,19.0,4681.0
6.742,10.112,82.022,0.0,0.0,1.124,0.0,0.0,23201880.0,751134.0,0.0,0.0,18.0,5123.0
6.316,14.737,76.842,0.0,0.0,2.105,0.0,0.0,20943707.0,681914.0,0.0,0.0,18.0,4749.0
4.348,10.870,83.696,0.0,0.0,1.087,0.0,0.0,21289607.0,689114.0,0.0,0.0,18.0,4910.0
6.522,11.957,80.435,0.0,0.0,1.087,0.0,0.0,22414996.0,726074.0,0.0,0.0,18.0,5105.0
5.682,12.500,79.545,0.0,0.0,2.273,0.0,0.0,20010228.0,650610.0,0.0,0.0,19.0,4283.0
3.226,13.978,80.645,0.0,0.0,2.151,0.0,0.0,22217673.0,720894.0,0.0,0.0,18.0,5407.0
3.226,17.204,79.570,0.0,0.0,0.0,0.0,0.0,22372408.0,724394.0,0.0,0.0,18.0,4982.0
5.102,15.306,76.531,0.0,0.0,3.061,0.0,0.0,19183450.0,622540.0,0.0,0.0,18.0,4405.0
3.297,15.385,81.319,0.0,0.0,0.0,0.0,0.0,22808166.0,739654.0,0.0,0.0,18.0,5263.0
4.167,16.667,76.042,0.0,0.0,3.125,0.0,0.0,21115841.0,683094.0,0.0,0.0,19.0,4535.0
8.511,9.574,79.787,0.0,0.0,2.128,0.0,0.0,21480010.0,698622.0,0.0,0.0,18.0,4727.0
3.297,14.286,81.319,0.0,0.0,1.099,0.0,0.0,22579542.0,731254.0,0.0,0.0,18.0,5296.0
4.348,13.043,80.435,0.0,0.0,2.174,0.0,0.0,23015481.0,744834.0,0.0,0.0,18.0,5357.0
6.593,10.989,81.319,0.0,0.0,1.099,0.0,0.0,20542402.0,668284.0,0.0,0.0,18.0,4712.0
6.818,10.227,81.818,0.0,0.0,1.136,0.0,0.0,21049724.0,681834.0,0.0,0.0,18.0,4713.0
6.667,7.778,83.333,0.0,0.0,2.222,0.0,0.0,22834225.0,739514.0,0.0,0.0,19.0,5074.0
6.250,16.667,76.042,0.0,0.0,1.042,0.0,0.0,21622655.0,702328.0,0.0,0.0,18.0,4985.0
6.667,8.889,83.333,0.0,0.0,1.111,0.0,0.0,22039345.0,714034.0,0.0,0.0,18.0,4937.0
2.273,11.364,85.227,0.0,0.0,1.136,0.0,0.0,21900752.0,710188.0,0.0,0.0,18.0,5124.0
3.409,10.227,82.955,0.0,0.0,3.409,0.0,0.0,19122295.0,621994.0,0.0,0.0,19.0,4372.0
5.155,11.340,79.381,0.0,0.0,4.124,0.0,0.0,21003015.0,679034.0,0.0,0.0,18.0,4864.0
4.545,11.364,82.955,0.0,0.0,1.136,0.0,0.0,23180232.0,751274.0,0.0,0.0,18.0,5136.0
5.376,11.828,79.570,0.0,0.0,3.226,0.0,8192.0,20092272.0,653814.0,0.0,0.0,18.0,4431.0
4.651,10.465,84.884,0.0,0.0,0.0,0.0,0.0,21530208.0,696674.0,0.0,0.0,18.0,4708.0
8.333,14.583,72.917,0.0,0.0,4.167,0.0,0.0,21988287.0,712494.0,0.0,0.0,19.0,4860.0
4.348,15.217,80.435,0.0,0.0,0.0,0.0,0.0,20671323.0,671182.0,0.0,0.0,18.0,4613.0
6.742,11.236,80.899,0.0,0.0,1.124,0.0,0.0,22990300.0,745180.0,0.0,0.0,18.0,5352.0
6.383,13.830,76.596,2.128,0.0,1.064,0.0,49152.0,22303433.0,722368.0,0.0,0.0,18.0,5061.0
7.527,12.903,77.419,0.0,0.0,2.151,0.0,0.0,20804118.0,676918.0,0.0,0.0,18.0,4503.0
5.435,15.217,78.261,0.0,0.0,1.087,0.0,0.0,22553845.0,729854.0,0.0,0.0,19.0,4989.0
4.396,14.286,80.220,0.0,0.0,1.099,0.0,0.0,21810405.0,706754.0,0.0,0.0,18.0,4661.0
5.435,10.870,82.609,0.0,0.0,1.087,0.0,0.0,21032153.0,680764.0,0.0,0.0,18.0,4570.0
6.452,13.978,77.419,0.0,0.0,2.151,0.0,0.0,21277263.0,691638.0,0.0,0.0,18.0,4742.0
7.692,9.890,81.319,0.0,0.0,1.099,0.0,0.0,22436618.0,726568.0,0.0,0.0,19.0,4814.0
6.383,13.830,79.787,0.0,0.0,0.0,0.0,0.0,20760828.0,672454.0,0.0,0.0,18.0,4624.0
10.309,11.340,77.320,0.0,0.0,1.031,0.0,0.0,20288608.0,659142.0,0.0,0.0,18.0,4662.0
5.618,10.112,82.022,0.0,0.0,2.247,0.0,0.0,22457201.0,728112.0,0.0,0.0,18.0,4591.0
3.371,11.236,84.270,0.0,0.0,1.124,0.0,0.0,21809383.0,706552.0,0.0,0.0,18.0,4771.0
4.396,13.187,82.418,0.0,0.0,0.0,0.0,0.0,20897566.0,678742.0,0.0,0.0,19.0,4727.0
7.216,15.464,75.258,0.0,0.0,2.062,0.0,0.0,21589717.0,699256.0,0.0,0.0,18.0,5022.0
5.263,14.737,78.947,0.0,0.0,1.053,0.0,0.0,22825892.0,739374.0,0.0,0.0,18.0,5027.0
6.250,16.667,75.0,0.0,0.0,2.083,0.0,0.0,21348589.0,692804.0,0.0,0.0,18.0,4386.0
8.163,16.327,74.490,0.0,0.0,1.020,0.0,0.0,22579975.0,732728.0,0.0,0.0,18.0,5059.0
6.250,13.542,78.125,0.0,0.0,2.083,0.0,0.0,21305311.0,689674.0,0.0,0.0,19.0,4629.0
4.494,12.360,78.652,0.0,0.0,4.494,0.0,0.0,20981991.0,681818.0,0.0,0.0,18.0,4585.0
7.368,13.684,78.947,0.0,0.0,0.0,0.0,0.0,21382740.0,692820.0,0.0,0.0,18.0,4679.0
7.292,14.583,76.042,0.0,0.0,2.083,0.0,0.0,22795502.0,738954.0,0.0,0.0,18.0,5075.0
4.444,11.111,82.222,0.0,0.0,2.222,0.0,0.0,19168923.0,622960.0,0.0,0.0,18.0,4151.0
5.208,15.625,77.083,0.0,0.0,2.083,0.0,0.0,22320182.0,723134.0,0.0,0.0,19.0,4974.0
7.609,13.043,77.174,0.0,0.0,2.174,0.0,0.0,22294758.0,721034.0,0.0,0.0,18.0,5158.0
8.333,12.500,78.125,0.0,0.0,1.042,0.0,0.0,19937772.0,647522.0,0.0,0.0,18.0,4477.0
4.598,17.241,77.011,0.0,0.0,1.149,0.0,0.0,21977893.0,717108.0,0.0,0.0,23.0,4779.0
6.593,9.890,81.319,0.0,0.0,2.198,0.0,0.0,21996127.0,712494.0,0.0,0.0,18.0,4906.0
7.368,13.684,77.895,0.0,0.0,1.053,0.0,0.0,19880574.0,646118.0,0.0,0.0,19.0,4309.0
3.333,14.444,80.0,0.0,0.0,2.222,0.0,0.0,21568487.0,698774.0,0.0,0.0,18.0,5095.0
5.435,13.043,80.435,0.0,0.0,1.087,0.0,0.0,22691741.0,735034.0,0.0,0.0,18.0,5047.0
5.319,11.702,79.787,0.0,0.0,3.191,0.0,0.0,19937359.0,647662.0,0.0,0.0,18.0,4513.0
8.081,16.162,72.727,2.020,0.0,1.010,0.0,45056.0,22600937.0,732094.0,0.0,0.0,18.0,5170.0
4.301,13.978,80.645,0.0,0.0,1.075,0.0,8192.0,21502961.0,696740.0,0.0,0.0,19.0,4817.0
6.742,12.360,79.775,0.0,0.0,1.124,0.0,0.0,20545335.0,668032.0,0.0,0.0,18.0,4651.0
4.348,13.043,80.435,0.0,0.0,2.174,0.0,0.0,22399069.0,725654.0,0.0,0.0,18.0,5139.0
4.348,13.043,79.348,0.0,0.0,3.261,0.0,0.0,22627079.0,732514.0,0.0,0.0,18.0,5064.0
8.696,9.783,80.435,0.0,0.0,1.087,0.0,0.0,20539981.0,666838.0,0.0,0.0,18.0,4874.0
3.297,12.088,82.418,0.0,0.0,2.198,0.0,0.0,21919597.0,709974.0,0.0,0.0,19.0,4773.0
6.250,9.375,82.292,0.0,0.0,2.083,0.0,0.0,16700443.0,542394.0,0.0,0.0,18.0,3687.0
