"Dstat 0.7.2 CSV output"
"Author:","Dag Wieers <dag@wieers.com>",,,,"URL:","http://dag.wieers.com/home-made/dstat/"
"Host:","Server2",,,,"User:","maki"
"Cmdline:","dstat --output server_32_set_3_8.csv 1 70",,,,"Date:","25 Nov 2018 02:53:05 UTC"

"total cpu usage",,,,,,"dsk/total",,"net/total",,"paging",,"system",
"usr","sys","idl","wai","hiq","siq","read","writ","recv","send","in","out","int","csw"
4.607,9.276,83.651,0.864,0.0,1.602,19866.691,85941.318,0.0,0.0,0.0,0.0,18.569,1642.213
8.989,20.225,66.292,0.0,0.0,4.494,0.0,0.0,30092702.0,980576.0,0.0,0.0,18.0,4129.0
11.628,24.419,56.977,0.0,0.0,6.977,0.0,0.0,32886279.0,1070538.0,0.0,0.0,23.0,3617.0
12.048,28.916,50.602,0.0,0.0,8.434,0.0,0.0,37718449.0,1223758.0,0.0,0.0,18.0,3062.0
7.955,21.591,64.773,0.0,0.0,5.682,0.0,0.0,37021492.0,1197454.0,0.0,0.0,18.0,2858.0
16.667,28.205,47.436,0.0,0.0,7.692,0.0,0.0,39973890.0,1293914.0,0.0,0.0,18.0,2774.0
11.765,34.118,49.412,0.0,0.0,4.706,0.0,0.0,39887908.0,1291212.0,0.0,0.0,19.0,2530.0
9.756,30.488,54.878,0.0,0.0,4.878,0.0,0.0,36761012.0,1194502.0,0.0,0.0,18.0,2500.0
12.941,25.882,54.118,0.0,0.0,7.059,0.0,0.0,40397424.0,1308820.0,0.0,0.0,18.0,2995.0
10.588,24.706,61.176,0.0,0.0,3.529,0.0,0.0,38611941.0,1251942.0,0.0,0.0,18.0,3227.0
14.815,29.630,48.148,0.0,0.0,7.407,0.0,0.0,38809173.0,1259536.0,0.0,0.0,19.0,2475.0
13.793,39.080,37.931,0.0,0.0,9.195,0.0,0.0,39322585.0,1274456.0,0.0,0.0,18.0,2290.0
9.639,22.892,61.446,0.0,0.0,6.024,0.0,0.0,39374233.0,1276882.0,0.0,0.0,18.0,2866.0
11.236,29.213,55.056,0.0,0.0,4.494,0.0,0.0,35782421.0,1160752.0,0.0,0.0,18.0,2432.0
12.821,30.769,43.590,0.0,0.0,12.821,0.0,0.0,39862710.0,1288532.0,0.0,0.0,18.0,2921.0
10.588,25.882,60.0,0.0,0.0,3.529,0.0,0.0,40198524.0,1305174.0,0.0,0.0,18.0,3035.0
14.286,29.762,48.810,0.0,0.0,7.143,0.0,0.0,37060397.0,1202158.0,0.0,0.0,19.0,2770.0
12.941,30.588,45.882,0.0,0.0,10.588,0.0,0.0,40168200.0,1299094.0,0.0,0.0,18.0,2912.0
12.195,30.488,47.561,0.0,0.0,9.756,0.0,0.0,39429067.0,1279592.0,0.0,0.0,18.0,2879.0
15.0,27.500,52.500,0.0,0.0,5.0,0.0,0.0,37531336.0,1220286.0,0.0,0.0,18.0,2450.0
12.048,31.325,51.807,0.0,0.0,4.819,0.0,0.0,39917718.0,1288874.0,0.0,0.0,19.0,3004.0
13.415,34.146,45.122,0.0,0.0,7.317,0.0,0.0,38992418.0,1264056.0,0.0,0.0,18.0,2590.0
8.750,22.500,61.250,0.0,0.0,7.500,0.0,0.0,37358047.0,1206690.0,0.0,0.0,18.0,2561.0
11.111,29.630,54.321,0.0,0.0,4.938,0.0,0.0,39875482.0,1295344.0,0.0,0.0,18.0,2522.0
8.989,30.337,53.933,0.0,0.0,6.742,0.0,0.0,39584811.0,1285440.0,0.0,0.0,18.0,2962.0
15.854,23.171,54.878,0.0,0.0,6.098,0.0,0.0,39291944.0,1275632.0,0.0,0.0,19.0,2615.0
11.392,36.709,43.038,0.0,0.0,8.861,0.0,0.0,37913868.0,1229976.0,0.0,0.0,18.0,2241.0
11.538,21.795,62.821,0.0,0.0,3.846,0.0,0.0,38833906.0,1253952.0,0.0,0.0,18.0,2787.0
15.730,25.843,51.685,0.0,0.0,6.742,0.0,0.0,39054328.0,1269678.0,0.0,0.0,18.0,2778.0
12.644,28.736,52.874,0.0,0.0,5.747,0.0,0.0,37923863.0,1226970.0,0.0,0.0,19.0,2727.0
15.854,35.366,42.683,1.220,0.0,4.878,0.0,45056.0,38966517.0,1265774.0,0.0,0.0,18.0,2594.0
13.750,28.750,53.750,0.0,0.0,3.750,0.0,0.0,37631843.0,1219138.0,0.0,0.0,18.0,2691.0
12.500,31.818,52.273,0.0,0.0,3.409,0.0,0.0,37712003.0,1221988.0,0.0,0.0,18.0,2621.0
13.095,34.524,44.048,0.0,0.0,8.333,0.0,0.0,40038627.0,1294260.0,0.0,0.0,18.0,2751.0
16.279,29.070,48.837,0.0,0.0,5.814,0.0,20480.0,38652129.0,1255472.0,0.0,0.0,18.0,2733.0
14.474,21.053,60.526,0.0,0.0,3.947,0.0,0.0,38767768.0,1256534.0,0.0,0.0,19.0,2761.0
13.253,27.711,53.012,0.0,0.0,6.024,0.0,0.0,39459527.0,1277394.0,0.0,0.0,18.0,2832.0
12.500,33.750,45.0,0.0,0.0,8.750,0.0,0.0,38695388.0,1256864.0,0.0,0.0,18.0,2753.0
12.821,32.051,48.718,0.0,0.0,6.410,0.0,0.0,39783635.0,1286988.0,0.0,0.0,18.0,2780.0
12.500,28.409,54.545,0.0,0.0,4.545,0.0,0.0,40025600.0,1296808.0,0.0,0.0,18.0,3106.0
13.953,29.070,45.349,0.0,0.0,11.628,0.0,0.0,38837981.0,1261978.0,0.0,0.0,19.0,2497.0
11.538,41.026,42.308,0.0,0.0,5.128,0.0,0.0,39878766.0,1286774.0,0.0,0.0,18.0,2521.0
14.286,28.571,50.0,0.0,0.0,7.143,0.0,0.0,37980980.0,1235662.0,0.0,0.0,18.0,2635.0
22.078,27.273,40.260,0.0,0.0,10.390,0.0,0.0,37729199.0,1224906.0,0.0,0.0,18.0,2468.0
8.861,26.582,58.228,0.0,0.0,6.329,0.0,0.0,37733673.0,1218192.0,0.0,0.0,18.0,2506.0
11.111,30.864,53.086,0.0,0.0,4.938,0.0,0.0,39653918.0,1287968.0,0.0,0.0,19.0,2928.0
13.415,35.366,46.341,0.0,0.0,4.878,0.0,0.0,39214131.0,1269678.0,0.0,0.0,18.0,2888.0
13.095,30.952,47.619,0.0,0.0,8.333,0.0,0.0,36238465.0,1174642.0,0.0,0.0,18.0,2450.0
21.519,27.848,43.038,0.0,0.0,7.595,0.0,0.0,40116524.0,1296014.0,0.0,0.0,18.0,2726.0
13.158,31.579,46.053,0.0,0.0,9.211,0.0,0.0,38691049.0,1259458.0,0.0,0.0,19.0,2856.0
12.048,33.735,49.398,0.0,0.0,4.819,0.0,0.0,38772067.0,1254360.0,0.0,0.0,18.0,2407.0
12.048,22.892,62.651,0.0,0.0,2.410,0.0,0.0,34644215.0,1127592.0,0.0,0.0,18.0,2147.0
12.500,31.818,48.864,0.0,0.0,6.818,0.0,0.0,39211993.0,1267134.0,0.0,0.0,18.0,3006.0
11.364,35.227,47.727,0.0,0.0,5.682,0.0,0.0,36941359.0,1196944.0,0.0,0.0,18.0,2899.0
14.815,35.802,35.802,0.0,0.0,13.580,0.0,0.0,40860077.0,1323380.0,0.0,0.0,19.0,2602.0
13.750,37.500,40.0,0.0,0.0,8.750,0.0,0.0,38845569.0,1258148.0,0.0,0.0,18.0,2458.0
12.644,25.287,49.425,0.0,0.0,12.644,0.0,0.0,37527497.0,1214008.0,0.0,0.0,18.0,2494.0
15.0,28.750,45.0,0.0,0.0,11.250,0.0,0.0,38922410.0,1263620.0,0.0,0.0,18.0,2466.0
9.877,34.568,46.914,0.0,0.0,8.642,0.0,0.0,39360068.0,1274874.0,0.0,0.0,18.0,2725.0
16.456,30.380,49.367,0.0,0.0,3.797,0.0,0.0,38625568.0,1256976.0,0.0,0.0,18.0,2592.0
10.465,31.395,53.488,0.0,0.0,4.651,0.0,24576.0,39878810.0,1291460.0,0.0,0.0,19.0,2637.0
13.095,27.381,39.286,13.095,0.0,7.143,0.0,32768.0,39009883.0,1260668.0,0.0,0.0,18.0,3028.0
11.628,30.233,48.837,0.0,0.0,9.302,0.0,0.0,36456915.0,1184870.0,0.0,0.0,23.0,2698.0
14.667,34.667,40.0,0.0,0.0,10.667,0.0,0.0,38720510.0,1256656.0,0.0,0.0,18.0,2496.0
12.791,23.256,59.302,0.0,0.0,4.651,0.0,0.0,37826235.0,1224614.0,0.0,0.0,19.0,2839.0
13.750,27.500,52.500,0.0,0.0,6.250,0.0,8192.0,38234323.0,1241690.0,0.0,0.0,18.0,2732.0
10.390,31.169,49.351,0.0,0.0,9.091,0.0,0.0,40178456.0,1305052.0,0.0,0.0,18.0,2845.0
16.250,27.500,51.250,0.0,0.0,5.0,0.0,0.0,38897259.0,1257586.0,0.0,0.0,18.0,2678.0
9.639,31.325,49.398,0.0,0.0,9.639,0.0,0.0,39568657.0,1283884.0,0.0,0.0,19.0,2617.0
5.952,26.190,60.714,0.0,0.0,7.143,0.0,0.0,39636709.0,1283908.0,0.0,0.0,17.0,3158.0
4.348,11.957,81.522,0.0,0.0,2.174,0.0,0.0,24804685.0,805734.0,0.0,0.0,19.0,1983.0
