"Dstat 0.7.2 CSV output"
"Author:","Dag Wieers <dag@wieers.com>",,,,"URL:","http://dag.wieers.com/home-made/dstat/"
"Host:","Server2",,,,"User:","maki"
"Cmdline:","dstat --output server_16_set_3_1.csv 1 70",,,,"Date:","25 Nov 2018 01:43:30 UTC"

"total cpu usage",,,,,,"dsk/total",,"net/total",,"paging",,"system",
"usr","sys","idl","wai","hiq","siq","read","writ","recv","send","in","out","int","csw"
4.028,7.757,85.845,1.270,0.0,1.101,30262.966,129913.537,0.0,0.0,0.0,0.0,18.720,1556.878
2.198,4.396,93.407,0.0,0.0,0.0,0.0,0.0,8141559.0,263862.0,0.0,0.0,18.0,2705.0
3.0,6.0,90.0,0.0,0.0,1.0,0.0,0.0,6995216.0,226694.0,0.0,0.0,18.0,2515.0
3.125,7.292,89.583,0.0,0.0,0.0,0.0,0.0,8778076.0,286926.0,0.0,0.0,18.0,2779.0
2.174,6.522,91.304,0.0,0.0,0.0,0.0,0.0,10945870.0,354374.0,0.0,0.0,19.0,3377.0
4.255,6.383,88.298,0.0,0.0,1.064,0.0,0.0,10846466.0,351854.0,0.0,0.0,18.0,3481.0
6.250,8.333,85.417,0.0,0.0,0.0,0.0,0.0,9913847.0,323418.0,0.0,0.0,18.0,3107.0
3.158,5.263,90.526,0.0,0.0,1.053,0.0,0.0,10355623.0,336034.0,0.0,0.0,18.0,3225.0
3.093,8.247,87.629,0.0,0.0,1.031,0.0,0.0,11075371.0,358434.0,0.0,0.0,18.0,3580.0
3.191,6.383,87.234,2.128,0.0,1.064,0.0,32768.0,10209755.0,333826.0,0.0,0.0,19.0,3294.0
3.093,8.247,88.660,0.0,0.0,0.0,0.0,0.0,10474714.0,339534.0,0.0,0.0,18.0,3365.0
4.082,11.224,83.673,0.0,0.0,1.020,0.0,0.0,11313222.0,366554.0,0.0,0.0,18.0,3527.0
4.167,7.292,87.500,0.0,0.0,1.042,0.0,0.0,10612581.0,345890.0,0.0,0.0,18.0,3231.0
2.105,7.368,89.474,0.0,0.0,1.053,0.0,0.0,11036697.0,357454.0,0.0,0.0,18.0,3457.0
2.083,9.375,87.500,0.0,0.0,1.042,0.0,0.0,11235307.0,364174.0,0.0,0.0,19.0,3433.0
4.348,4.348,91.304,0.0,0.0,0.0,0.0,0.0,10353213.0,338306.0,0.0,0.0,18.0,3264.0
3.226,7.527,89.247,0.0,0.0,0.0,0.0,0.0,10720909.0,347514.0,0.0,0.0,18.0,3438.0
1.087,5.435,92.391,0.0,0.0,1.087,0.0,0.0,10660617.0,345414.0,0.0,0.0,18.0,3268.0
3.125,7.292,88.542,0.0,0.0,1.042,0.0,0.0,10552259.0,344070.0,0.0,0.0,19.0,3305.0
4.211,5.263,89.474,0.0,0.0,1.053,0.0,0.0,11027972.0,357454.0,0.0,0.0,18.0,3673.0
5.208,6.250,88.542,0.0,0.0,0.0,0.0,0.0,11291454.0,365854.0,0.0,0.0,18.0,3637.0
4.444,4.444,91.111,0.0,0.0,0.0,0.0,0.0,10869147.0,352982.0,0.0,0.0,18.0,3517.0
1.099,6.593,92.308,0.0,0.0,0.0,0.0,0.0,11402500.0,370918.0,0.0,0.0,18.0,3534.0
3.093,9.278,87.629,0.0,0.0,0.0,0.0,0.0,11157578.0,361934.0,0.0,0.0,19.0,3533.0
2.062,7.216,89.691,0.0,0.0,1.031,0.0,0.0,9742013.0,315374.0,0.0,0.0,18.0,3109.0
2.128,6.383,90.426,0.0,0.0,1.064,0.0,0.0,10277103.0,335598.0,0.0,0.0,18.0,3288.0
8.163,12.245,77.551,0.0,0.0,2.041,0.0,0.0,10713604.0,351092.0,0.0,0.0,23.0,3328.0
3.158,6.316,90.526,0.0,0.0,0.0,0.0,0.0,11062481.0,358014.0,0.0,0.0,18.0,3407.0
2.174,7.609,90.217,0.0,0.0,0.0,0.0,0.0,10354900.0,338678.0,0.0,0.0,18.0,3365.0
2.041,10.204,86.735,0.0,0.0,1.020,0.0,0.0,10474739.0,339114.0,0.0,0.0,19.0,3250.0
3.093,8.247,88.660,0.0,0.0,0.0,0.0,8192.0,10529571.0,341006.0,0.0,0.0,18.0,3391.0
5.155,9.278,84.536,0.0,0.0,1.031,0.0,0.0,10851789.0,354078.0,0.0,0.0,18.0,3482.0
4.167,8.333,87.500,0.0,0.0,0.0,0.0,0.0,11200811.0,363054.0,0.0,0.0,18.0,3634.0
2.174,6.522,91.304,0.0,0.0,0.0,0.0,0.0,11365077.0,367814.0,0.0,0.0,19.0,3589.0
3.261,5.435,90.217,0.0,0.0,1.087,0.0,0.0,10415423.0,340078.0,0.0,0.0,18.0,3391.0
2.174,5.435,92.391,0.0,0.0,0.0,0.0,0.0,11412918.0,370194.0,0.0,0.0,18.0,3749.0
1.087,7.609,90.217,0.0,0.0,1.087,0.0,4096.0,10958746.0,354934.0,0.0,0.0,18.0,3588.0
5.263,5.263,87.368,0.0,0.0,2.105,0.0,0.0,10856060.0,354078.0,0.0,0.0,18.0,3389.0
3.158,7.368,88.421,0.0,0.0,1.053,0.0,0.0,11559606.0,374600.0,0.0,0.0,19.0,3852.0
3.226,5.376,88.172,3.226,0.0,0.0,0.0,45056.0,11637457.0,377268.0,0.0,0.0,18.0,3975.0
3.158,8.421,88.421,0.0,0.0,0.0,0.0,0.0,10722142.0,349878.0,0.0,0.0,18.0,3430.0
5.319,6.383,87.234,0.0,0.0,1.064,0.0,36864.0,11520551.0,373694.0,0.0,0.0,18.0,3804.0
3.093,10.309,86.598,0.0,0.0,0.0,0.0,0.0,11369532.0,368234.0,0.0,0.0,18.0,3662.0
1.053,10.526,87.368,0.0,0.0,1.053,0.0,0.0,11418057.0,372698.0,0.0,0.0,19.0,3794.0
3.125,8.333,88.542,0.0,0.0,0.0,0.0,0.0,10928445.0,354094.0,0.0,0.0,18.0,3467.0
1.087,7.609,91.304,0.0,0.0,0.0,0.0,0.0,11447095.0,370894.0,0.0,0.0,18.0,3795.0
6.186,7.216,85.567,0.0,0.0,1.031,0.0,0.0,10310548.0,336090.0,0.0,0.0,18.0,3374.0
6.250,6.250,87.500,0.0,0.0,0.0,0.0,0.0,11746207.0,380834.0,0.0,0.0,18.0,4004.0
2.174,5.435,91.304,0.0,0.0,1.087,0.0,0.0,11512604.0,372994.0,0.0,0.0,19.0,3906.0
5.155,9.278,85.567,0.0,0.0,0.0,0.0,0.0,10608280.0,345750.0,0.0,0.0,18.0,3504.0
2.151,7.527,90.323,0.0,0.0,0.0,0.0,0.0,11676318.0,378594.0,0.0,0.0,18.0,3937.0
3.158,8.421,87.368,0.0,0.0,1.053,0.0,0.0,11321869.0,366834.0,0.0,0.0,18.0,3771.0
4.124,9.278,85.567,0.0,0.0,1.031,0.0,0.0,10462694.0,342066.0,0.0,0.0,18.0,3395.0
3.158,8.421,88.421,0.0,0.0,0.0,0.0,0.0,11563848.0,374954.0,0.0,0.0,19.0,3614.0
3.158,6.316,89.474,0.0,0.0,1.053,0.0,0.0,10863722.0,351574.0,0.0,0.0,18.0,3701.0
4.301,4.301,90.323,0.0,0.0,1.075,0.0,0.0,10158904.0,332146.0,0.0,0.0,18.0,3338.0
3.093,11.340,85.567,0.0,0.0,0.0,0.0,0.0,10565456.0,342474.0,0.0,0.0,18.0,3380.0
5.208,5.208,89.583,0.0,0.0,0.0,0.0,0.0,10867948.0,351434.0,0.0,0.0,19.0,3471.0
3.226,4.301,91.398,0.0,0.0,1.075,0.0,0.0,9783081.0,319990.0,0.0,0.0,18.0,3230.0
1.064,8.511,89.362,0.0,0.0,1.064,0.0,0.0,11027742.0,357314.0,0.0,0.0,18.0,3542.0
3.226,5.376,91.398,0.0,0.0,0.0,0.0,0.0,11002136.0,356194.0,0.0,0.0,18.0,3534.0
4.211,7.368,87.368,0.0,0.0,1.053,0.0,4096.0,10262685.0,335110.0,0.0,0.0,18.0,3258.0
2.105,8.421,88.421,0.0,0.0,1.053,0.0,0.0,10958584.0,354794.0,0.0,0.0,19.0,3404.0
4.167,6.250,89.583,0.0,0.0,0.0,0.0,0.0,9999192.0,324274.0,0.0,0.0,18.0,3243.0
3.125,7.292,88.542,0.0,0.0,1.042,0.0,0.0,9081174.0,296928.0,0.0,0.0,18.0,2880.0
4.348,3.261,92.391,0.0,0.0,0.0,0.0,0.0,10660844.0,345414.0,0.0,0.0,18.0,3247.0
4.211,7.368,87.368,0.0,0.0,1.053,0.0,0.0,10586821.0,342894.0,0.0,0.0,18.0,3061.0
3.125,9.375,87.500,0.0,0.0,0.0,0.0,0.0,10115586.0,329930.0,0.0,0.0,19.0,2993.0
4.255,4.255,91.489,0.0,0.0,0.0,0.0,0.0,10802932.0,350314.0,0.0,0.0,18.0,3085.0
3.191,6.383,87.234,2.128,0.0,1.064,0.0,12288.0,11092835.0,359274.0,0.0,0.0,18.0,3205.0
3.158,4.211,92.632,0.0,0.0,0.0,0.0,0.0,7554241.0,247190.0,0.0,0.0,18.0,2339.0
