"Dstat 0.7.2 CSV output"
"Author:","Dag Wieers <dag@wieers.com>",,,,"URL:","http://dag.wieers.com/home-made/dstat/"
"Host:","Server2",,,,"User:","maki"
"Cmdline:","dstat --output server_64_set_4_2.csv 1 70",,,,"Date:","25 Nov 2018 04:09:54 UTC"

"total cpu usage",,,,,,"dsk/total",,"net/total",,"paging",,"system",
"usr","sys","idl","wai","hiq","siq","read","writ","recv","send","in","out","int","csw"
5.153,10.839,80.789,0.649,0.0,2.571,14404.918,62832.254,0.0,0.0,0.0,0.0,18.489,1576.910
2.105,7.368,87.368,0.0,0.0,3.158,0.0,20480.0,13746776.0,440682.0,0.0,0.0,18.0,3678.0
3.960,9.901,80.198,0.0,0.0,5.941,0.0,0.0,15388221.0,496334.0,0.0,0.0,19.0,3940.0
3.093,9.278,78.351,0.0,0.0,9.278,0.0,0.0,20312980.0,658784.0,0.0,0.0,18.0,4423.0
4.255,9.574,78.723,0.0,0.0,7.447,0.0,0.0,20211955.0,651948.0,0.0,0.0,18.0,4326.0
5.882,12.745,74.510,0.0,0.0,6.863,0.0,0.0,20491365.0,661814.0,0.0,0.0,18.0,4333.0
5.208,9.375,77.083,0.0,0.0,8.333,0.0,0.0,19647299.0,637998.0,0.0,0.0,18.0,4204.0
4.082,14.286,75.510,0.0,0.0,6.122,0.0,0.0,20836280.0,673014.0,0.0,0.0,18.0,4080.0
5.769,12.500,74.038,0.0,0.0,7.692,0.0,0.0,20322726.0,656074.0,0.0,0.0,19.0,4292.0
7.921,9.901,74.257,0.0,0.0,7.921,0.0,0.0,18331095.0,594598.0,0.0,0.0,18.0,3857.0
5.155,10.309,78.351,0.0,0.0,6.186,0.0,0.0,21227533.0,685894.0,0.0,0.0,18.0,4447.0
5.208,8.333,80.208,0.0,0.0,6.250,0.0,0.0,20605625.0,666014.0,0.0,0.0,18.0,4365.0
7.921,12.871,73.267,0.0,0.0,5.941,0.0,0.0,20633625.0,668304.0,0.0,0.0,19.0,4394.0
6.122,8.163,77.551,0.0,0.0,8.163,0.0,0.0,22027224.0,712356.0,0.0,0.0,18.0,4684.0
7.216,8.247,75.258,0.0,0.0,9.278,0.0,0.0,21487420.0,695488.0,0.0,0.0,18.0,4592.0
4.124,9.278,79.381,0.0,0.0,7.216,0.0,0.0,19361862.0,625506.0,0.0,0.0,18.0,4071.0
4.0,14.0,76.0,0.0,0.0,6.0,0.0,0.0,19978496.0,646726.0,0.0,0.0,18.0,4112.0
3.158,8.421,82.105,0.0,0.0,6.316,0.0,0.0,20661622.0,667974.0,0.0,0.0,19.0,4428.0
3.158,9.474,77.895,0.0,0.0,9.474,0.0,0.0,23015341.0,744134.0,0.0,0.0,18.0,4989.0
6.0,13.0,74.0,0.0,0.0,7.0,0.0,0.0,18928706.0,613218.0,0.0,0.0,18.0,3770.0
3.191,12.766,79.787,0.0,0.0,4.255,0.0,0.0,21629434.0,699854.0,0.0,0.0,18.0,4706.0
5.319,5.319,80.851,0.0,0.0,8.511,0.0,0.0,21849726.0,705214.0,0.0,0.0,19.0,4735.0
6.593,6.593,79.121,2.198,0.0,5.495,0.0,32768.0,20550791.0,667258.0,0.0,0.0,18.0,4224.0
4.167,10.417,80.208,0.0,0.0,5.208,0.0,0.0,20921246.0,675258.0,0.0,0.0,18.0,4336.0
6.931,9.901,74.257,0.0,0.0,8.911,0.0,0.0,19589671.0,633254.0,0.0,0.0,18.0,4316.0
4.902,10.784,72.549,0.0,0.0,11.765,0.0,0.0,19565485.0,634218.0,0.0,0.0,18.0,4109.0
4.167,8.333,80.208,0.0,0.0,7.292,0.0,0.0,19729417.0,636058.0,0.0,0.0,19.0,4122.0
7.292,10.417,71.875,0.0,0.0,10.417,0.0,0.0,18239175.0,592648.0,0.0,0.0,23.0,3824.0
6.383,9.574,79.787,0.0,0.0,4.255,0.0,0.0,20772496.0,674258.0,0.0,0.0,18.0,4550.0
3.191,9.574,78.723,0.0,0.0,8.511,0.0,0.0,19695507.0,634440.0,0.0,0.0,18.0,4126.0
4.211,9.474,80.0,0.0,0.0,6.316,0.0,0.0,21497981.0,696468.0,0.0,0.0,18.0,4754.0
6.796,7.767,73.786,0.0,0.0,11.650,0.0,0.0,19440743.0,629598.0,0.0,0.0,18.0,4521.0
3.158,11.579,83.158,0.0,0.0,2.105,0.0,12288.0,18048610.0,582994.0,0.0,0.0,19.0,3880.0
3.093,10.309,81.443,0.0,0.0,5.155,0.0,0.0,18962698.0,612254.0,0.0,0.0,18.0,4298.0
6.186,12.371,74.227,0.0,0.0,7.216,0.0,0.0,20008790.0,648778.0,0.0,0.0,18.0,4301.0
6.061,11.111,76.768,0.0,0.0,6.061,0.0,0.0,21470755.0,692894.0,0.0,0.0,18.0,4575.0
6.316,9.474,80.0,0.0,0.0,4.211,0.0,0.0,19308174.0,624500.0,0.0,0.0,18.0,4109.0
5.825,15.534,70.874,0.0,0.0,7.767,0.0,0.0,21007664.0,682172.0,0.0,0.0,19.0,4409.0
2.041,13.265,78.571,0.0,0.0,6.122,0.0,0.0,20765696.0,670774.0,0.0,0.0,18.0,4211.0
6.122,11.224,76.531,0.0,0.0,6.122,0.0,0.0,20170882.0,651314.0,0.0,0.0,18.0,4193.0
5.051,8.081,76.768,0.0,0.0,10.101,0.0,0.0,18064493.0,586478.0,0.0,0.0,18.0,4322.0
3.125,10.417,82.292,0.0,0.0,4.167,0.0,0.0,12981602.0,416660.0,0.0,0.0,19.0,3252.0
3.061,9.184,81.633,0.0,0.0,6.122,0.0,0.0,16295751.0,525454.0,0.0,0.0,18.0,3806.0
6.186,10.309,77.320,0.0,0.0,6.186,0.0,0.0,20554688.0,666854.0,0.0,0.0,18.0,4737.0
5.263,12.632,75.789,0.0,0.0,6.316,0.0,0.0,21633914.0,699194.0,0.0,0.0,18.0,4493.0
4.167,8.333,79.167,0.0,0.0,8.333,0.0,0.0,21251823.0,686734.0,0.0,0.0,18.0,4576.0
6.316,11.579,76.842,0.0,0.0,5.263,0.0,0.0,21239859.0,688118.0,0.0,0.0,19.0,4713.0
4.082,13.265,76.531,0.0,0.0,6.122,0.0,0.0,21520423.0,696116.0,0.0,0.0,18.0,4827.0
4.950,10.891,75.248,0.0,0.0,8.911,0.0,0.0,20768722.0,671194.0,0.0,0.0,18.0,4540.0
5.155,14.433,74.227,0.0,0.0,6.186,0.0,0.0,20162462.0,653678.0,0.0,0.0,18.0,4182.0
7.143,11.224,78.571,0.0,0.0,3.061,0.0,0.0,20142002.0,649984.0,0.0,0.0,18.0,4210.0
3.093,13.402,78.351,0.0,0.0,5.155,0.0,0.0,19985009.0,645648.0,0.0,0.0,19.0,4195.0
5.319,11.702,74.468,2.128,0.0,6.383,0.0,81920.0,19480094.0,631978.0,0.0,0.0,18.0,3758.0
4.040,14.141,75.758,0.0,0.0,6.061,0.0,0.0,22331447.0,721874.0,0.0,0.0,19.0,4875.0
7.143,10.204,76.531,0.0,0.0,6.122,0.0,0.0,18661003.0,601894.0,0.0,0.0,18.0,3959.0
2.174,8.696,82.609,0.0,0.0,6.522,0.0,0.0,19698673.0,639118.0,0.0,0.0,19.0,4222.0
2.062,9.278,84.536,0.0,0.0,4.124,0.0,0.0,14955061.0,483650.0,0.0,0.0,18.0,3171.0
2.151,4.301,91.398,0.0,0.0,2.151,0.0,0.0,11371608.0,368606.0,0.0,0.0,18.0,2678.0
5.376,6.452,82.796,0.0,0.0,5.376,0.0,4096.0,19111593.0,620576.0,0.0,0.0,18.0,4165.0
5.0,11.0,75.0,0.0,0.0,9.0,0.0,0.0,19752825.0,636198.0,0.0,0.0,18.0,3949.0
6.186,9.278,78.351,0.0,0.0,6.186,0.0,0.0,21788160.0,704654.0,0.0,0.0,19.0,4681.0
4.255,8.511,80.851,0.0,0.0,6.383,0.0,0.0,19644728.0,636178.0,0.0,0.0,18.0,4207.0
4.211,10.526,81.053,0.0,0.0,4.211,0.0,0.0,20861822.0,674698.0,0.0,0.0,18.0,4329.0
5.102,6.122,84.694,0.0,0.0,4.082,0.0,8192.0,15193623.0,491198.0,0.0,0.0,18.0,3336.0
5.263,8.421,84.211,0.0,0.0,2.105,0.0,0.0,13108067.0,426892.0,0.0,0.0,18.0,2941.0
6.122,10.204,79.592,0.0,0.0,4.082,0.0,0.0,20073689.0,647954.0,0.0,0.0,19.0,3989.0
3.125,7.292,84.375,0.0,0.0,5.208,0.0,0.0,15784524.0,509634.0,0.0,0.0,18.0,3832.0
5.941,12.871,76.238,0.0,0.0,4.950,0.0,0.0,18076104.0,586338.0,0.0,0.0,18.0,3688.0
4.255,10.638,79.787,0.0,0.0,5.319,0.0,0.0,21835337.0,705560.0,0.0,0.0,18.0,4516.0
5.319,10.638,78.723,0.0,0.0,5.319,0.0,0.0,20666688.0,667908.0,0.0,0.0,18.0,4346.0
4.0,10.0,79.0,0.0,0.0,7.0,0.0,0.0,17037633.0,553158.0,0.0,0.0,19.0,3618.0
