"Dstat 0.7.2 CSV output"
"Author:","Dag Wieers <dag@wieers.com>",,,,"URL:","http://dag.wieers.com/home-made/dstat/"
"Host:","Server2",,,,"User:","maki"
"Cmdline:","dstat --output server_8_set_4_4.csv 1 70",,,,"Date:","25 Nov 2018 00:59:49 UTC"

"total cpu usage",,,,,,"dsk/total",,"net/total",,"paging",,"system",
"usr","sys","idl","wai","hiq","siq","read","writ","recv","send","in","out","int","csw"
3.281,5.817,88.361,1.836,0.0,0.705,45070.415,192523.628,0.0,0.0,0.0,0.0,18.938,1335.673
8.696,14.130,73.913,0.0,0.0,3.261,0.0,0.0,20745710.0,678338.0,0.0,0.0,24.0,4405.0
6.667,16.667,75.556,0.0,0.0,1.111,0.0,0.0,25513757.0,826874.0,0.0,0.0,18.0,5142.0
6.024,20.482,72.289,0.0,0.0,1.205,0.0,0.0,26270343.0,851654.0,0.0,0.0,18.0,4205.0
6.897,17.241,72.414,0.0,0.0,3.448,0.0,0.0,26254436.0,850356.0,0.0,0.0,18.0,3659.0
10.588,17.647,68.235,0.0,0.0,3.529,0.0,0.0,28431659.0,921028.0,0.0,0.0,19.0,3942.0
8.235,16.471,70.588,1.176,0.0,3.529,0.0,45056.0,28492181.0,924734.0,0.0,0.0,18.0,4477.0
9.756,18.293,67.073,0.0,0.0,4.878,0.0,0.0,26829499.0,869256.0,0.0,0.0,18.0,4024.0
6.667,21.111,68.889,0.0,0.0,3.333,0.0,0.0,27178155.0,880988.0,0.0,0.0,18.0,4064.0
8.333,17.857,70.238,0.0,0.0,3.571,0.0,0.0,29451972.0,955254.0,0.0,0.0,19.0,4296.0
6.742,22.472,68.539,0.0,0.0,2.247,0.0,0.0,28001662.0,909070.0,0.0,0.0,18.0,4139.0
11.364,15.909,69.318,0.0,0.0,3.409,0.0,0.0,28738413.0,931174.0,0.0,0.0,18.0,4444.0
6.818,20.455,70.455,0.0,0.0,2.273,0.0,0.0,29391323.0,952594.0,0.0,0.0,18.0,4483.0
8.333,20.238,66.667,0.0,0.0,4.762,0.0,0.0,27261680.0,884014.0,0.0,0.0,19.0,4185.0
9.302,17.442,72.093,0.0,0.0,1.163,0.0,0.0,27800613.0,900654.0,0.0,0.0,18.0,4230.0
9.639,19.277,68.675,0.0,0.0,2.410,0.0,0.0,28436127.0,922214.0,0.0,0.0,18.0,4396.0
10.227,15.909,70.455,0.0,0.0,3.409,0.0,0.0,28471755.0,922964.0,0.0,0.0,18.0,4236.0
8.791,16.484,72.527,0.0,0.0,2.198,0.0,0.0,27441695.0,889808.0,0.0,0.0,18.0,4569.0
9.639,19.277,67.470,0.0,0.0,3.614,0.0,0.0,27456728.0,889162.0,0.0,0.0,19.0,4227.0
9.091,19.318,68.182,0.0,0.0,3.409,0.0,0.0,27659382.0,897890.0,0.0,0.0,18.0,4426.0
10.0,17.778,67.778,0.0,0.0,4.444,0.0,0.0,27592953.0,895474.0,0.0,0.0,18.0,4129.0
6.593,19.780,70.330,0.0,0.0,3.297,0.0,0.0,29369815.0,950634.0,0.0,0.0,18.0,4310.0
7.317,17.073,73.171,0.0,0.0,2.439,0.0,0.0,28467366.0,925558.0,0.0,0.0,18.0,4129.0
5.682,22.727,70.455,0.0,0.0,1.136,0.0,0.0,28647712.0,926834.0,0.0,0.0,19.0,4200.0
7.609,21.739,68.478,0.0,0.0,2.174,0.0,0.0,29058508.0,940834.0,0.0,0.0,18.0,4129.0
10.0,13.333,74.444,0.0,0.0,2.222,0.0,0.0,26492370.0,859530.0,0.0,0.0,18.0,3653.0
7.059,14.118,76.471,0.0,0.0,2.353,0.0,0.0,28738770.0,930894.0,0.0,0.0,18.0,4099.0
6.452,17.204,74.194,0.0,0.0,2.151,0.0,0.0,27938976.0,904994.0,0.0,0.0,18.0,4254.0
6.742,16.854,74.157,0.0,0.0,2.247,0.0,0.0,26314932.0,856310.0,0.0,0.0,19.0,3694.0
8.511,22.340,67.021,0.0,0.0,2.128,0.0,0.0,28902832.0,936214.0,0.0,0.0,18.0,4110.0
6.742,15.730,75.281,0.0,0.0,2.247,0.0,8192.0,27532546.0,890854.0,0.0,0.0,18.0,4196.0
11.628,10.465,75.581,0.0,0.0,2.326,0.0,0.0,26423182.0,858130.0,0.0,0.0,18.0,3874.0
4.494,16.854,76.404,0.0,0.0,2.247,0.0,0.0,28297727.0,916194.0,0.0,0.0,18.0,4206.0
7.692,15.385,75.824,0.0,0.0,1.099,0.0,0.0,27640606.0,897014.0,0.0,0.0,19.0,3787.0
8.537,12.195,78.049,0.0,0.0,1.220,0.0,0.0,26332310.0,854770.0,0.0,0.0,17.0,3811.0
5.495,16.484,75.824,0.0,0.0,2.198,0.0,0.0,27446118.0,889314.0,0.0,0.0,19.0,3941.0
10.112,13.483,71.910,2.247,0.0,2.247,0.0,49152.0,28012429.0,906534.0,0.0,0.0,18.0,4060.0
6.452,18.280,70.968,0.0,0.0,4.301,0.0,0.0,27512083.0,894058.0,0.0,0.0,18.0,4074.0
8.791,19.780,69.231,0.0,0.0,2.198,0.0,0.0,28175220.0,913270.0,0.0,0.0,19.0,4275.0
3.614,19.277,73.494,0.0,0.0,3.614,0.0,0.0,27964862.0,904714.0,0.0,0.0,18.0,4039.0
11.111,17.778,67.778,0.0,0.0,3.333,0.0,0.0,26838090.0,873532.0,0.0,0.0,18.0,4147.0
6.897,18.391,71.264,0.0,0.0,3.448,0.0,0.0,27813570.0,900168.0,0.0,0.0,18.0,4487.0
11.364,19.318,63.636,0.0,0.0,5.682,0.0,0.0,28604688.0,927114.0,0.0,0.0,18.0,4333.0
10.345,21.839,65.517,0.0,0.0,2.299,0.0,0.0,25152302.0,815850.0,0.0,0.0,19.0,3777.0
6.977,26.744,62.791,0.0,0.0,3.488,0.0,0.0,28643647.0,927814.0,0.0,0.0,18.0,4276.0
6.667,16.667,73.333,0.0,0.0,3.333,0.0,0.0,27852498.0,903100.0,0.0,0.0,18.0,4473.0
11.364,25.0,61.364,0.0,0.0,2.273,0.0,0.0,27374111.0,888024.0,0.0,0.0,18.0,4228.0
6.667,17.778,73.333,0.0,0.0,2.222,0.0,0.0,27614641.0,894494.0,0.0,0.0,19.0,4408.0
9.639,22.892,63.855,0.0,0.0,3.614,0.0,0.0,27281811.0,884274.0,0.0,0.0,18.0,3913.0
8.046,14.943,75.862,0.0,0.0,1.149,0.0,0.0,27382804.0,889070.0,0.0,0.0,18.0,4063.0
5.814,23.256,69.767,0.0,0.0,1.163,0.0,0.0,29179598.0,944754.0,0.0,0.0,18.0,4349.0
8.602,19.355,69.892,0.0,0.0,2.151,0.0,0.0,28168010.0,911574.0,0.0,0.0,18.0,4187.0
9.412,18.824,65.882,0.0,0.0,5.882,0.0,0.0,26284868.0,855190.0,0.0,0.0,18.0,4282.0
8.046,16.092,71.264,0.0,0.0,4.598,0.0,0.0,27464822.0,888412.0,0.0,0.0,19.0,4606.0
8.140,24.419,65.116,0.0,0.0,2.326,0.0,0.0,28760292.0,930820.0,0.0,0.0,18.0,4421.0
12.791,19.767,63.953,0.0,0.0,3.488,0.0,0.0,26228572.0,854804.0,0.0,0.0,18.0,3928.0
5.882,18.824,74.118,0.0,0.0,1.176,0.0,0.0,28743424.0,929546.0,0.0,0.0,18.0,4250.0
5.618,17.978,73.034,0.0,0.0,3.371,0.0,0.0,27402877.0,888194.0,0.0,0.0,19.0,4059.0
8.791,26.374,62.637,0.0,0.0,2.198,0.0,0.0,28338879.0,920632.0,0.0,0.0,18.0,4328.0
5.814,19.767,70.930,0.0,0.0,3.488,0.0,0.0,27891772.0,902322.0,0.0,0.0,18.0,3947.0
7.368,23.158,66.316,0.0,0.0,3.158,0.0,0.0,27817854.0,901914.0,0.0,0.0,18.0,4048.0
8.889,24.444,61.111,0.0,0.0,5.556,0.0,0.0,26631861.0,868364.0,0.0,0.0,24.0,4102.0
10.0,20.0,65.0,0.0,0.0,5.0,0.0,0.0,26193290.0,848864.0,0.0,0.0,18.0,3918.0
9.302,17.442,70.930,0.0,0.0,2.326,0.0,0.0,25716923.0,833808.0,0.0,0.0,18.0,4027.0
8.333,17.857,72.619,0.0,0.0,1.190,0.0,0.0,27428831.0,889034.0,0.0,0.0,18.0,4078.0
6.593,15.385,73.626,0.0,0.0,4.396,0.0,0.0,26742573.0,868364.0,0.0,0.0,18.0,4122.0
8.989,22.472,67.416,0.0,0.0,1.124,0.0,0.0,28695403.0,927814.0,0.0,0.0,18.0,4279.0
9.375,23.958,61.458,1.042,0.0,4.167,0.0,53248.0,28129084.0,911154.0,0.0,0.0,19.0,4667.0
11.628,25.581,60.465,0.0,0.0,2.326,0.0,0.0,26410166.0,858904.0,0.0,0.0,18.0,3825.0
5.882,20.0,74.118,0.0,0.0,0.0,0.0,0.0,27575774.0,892460.0,0.0,0.0,18.0,3968.0
10.989,19.780,65.934,0.0,0.0,3.297,0.0,0.0,24144480.0,783688.0,0.0,0.0,18.0,3656.0
