"Dstat 0.7.2 CSV output"
"Author:","Dag Wieers <dag@wieers.com>",,,,"URL:","http://dag.wieers.com/home-made/dstat/"
"Host:","Server2",,,,"User:","maki"
"Cmdline:","dstat --output server_64_set_3_8.csv 1 70",,,,"Date:","25 Nov 2018 03:57:50 UTC"

"total cpu usage",,,,,,"dsk/total",,"net/total",,"paging",,"system",
"usr","sys","idl","wai","hiq","siq","read","writ","recv","send","in","out","int","csw"
5.054,10.541,81.324,0.673,0.0,2.408,15055.244,65592.276,0.0,0.0,0.0,0.0,18.499,1600.666
6.186,16.495,70.103,0.0,0.0,7.216,0.0,0.0,29990992.0,968622.0,0.0,0.0,18.0,4112.0
8.696,20.652,60.870,0.0,0.0,9.783,0.0,4096.0,31452776.0,1021166.0,0.0,0.0,18.0,3561.0
10.753,21.505,58.065,0.0,0.0,9.677,0.0,0.0,37646699.0,1215732.0,0.0,0.0,18.0,2979.0
12.088,27.473,48.352,0.0,0.0,12.088,0.0,0.0,38768520.0,1253454.0,0.0,0.0,19.0,2538.0
8.235,25.882,52.941,0.0,0.0,12.941,0.0,0.0,37745155.0,1226014.0,0.0,0.0,18.0,2718.0
13.978,29.032,40.860,0.0,0.0,16.129,0.0,0.0,38997667.0,1262368.0,0.0,0.0,18.0,2486.0
12.500,31.818,43.182,0.0,0.0,12.500,0.0,0.0,37740979.0,1223174.0,0.0,0.0,18.0,2428.0
9.091,23.864,56.818,0.0,0.0,10.227,0.0,0.0,38394435.0,1245376.0,0.0,0.0,18.0,2642.0
8.235,25.882,54.118,0.0,0.0,11.765,0.0,0.0,38559552.0,1244700.0,0.0,0.0,19.0,2489.0
9.412,23.529,57.647,0.0,0.0,9.412,0.0,0.0,38516457.0,1252968.0,0.0,0.0,18.0,2741.0
12.644,24.138,48.276,0.0,0.0,14.943,0.0,0.0,37278908.0,1206732.0,0.0,0.0,18.0,2353.0
10.0,25.556,55.556,0.0,0.0,8.889,0.0,32768.0,37963403.0,1229868.0,0.0,0.0,18.0,2449.0
6.742,22.472,61.798,0.0,0.0,8.989,0.0,0.0,39131855.0,1264860.0,0.0,0.0,18.0,2828.0
12.360,15.730,58.427,0.0,0.0,13.483,0.0,0.0,37666760.0,1225780.0,0.0,0.0,18.0,2771.0
8.889,22.222,60.0,0.0,0.0,8.889,0.0,0.0,38028076.0,1229514.0,0.0,0.0,19.0,2619.0
9.412,29.412,54.118,0.0,0.0,7.059,0.0,0.0,39357628.0,1273070.0,0.0,0.0,18.0,2622.0
14.118,28.235,47.059,0.0,0.0,10.588,0.0,0.0,37307249.0,1209482.0,0.0,0.0,18.0,2519.0
11.250,26.250,48.750,0.0,0.0,13.750,0.0,0.0,38271035.0,1241352.0,0.0,0.0,18.0,2318.0
6.897,28.736,57.471,0.0,0.0,6.897,0.0,0.0,39219134.0,1268574.0,0.0,0.0,19.0,2864.0
12.500,26.042,50.0,0.0,0.0,11.458,0.0,0.0,36542782.0,1184998.0,0.0,0.0,18.0,2470.0
11.494,26.437,54.023,0.0,0.0,8.046,0.0,0.0,39239817.0,1271728.0,0.0,0.0,18.0,2782.0
9.756,29.268,50.0,0.0,0.0,10.976,0.0,0.0,39770607.0,1283480.0,0.0,0.0,18.0,2422.0
10.588,27.059,47.059,0.0,0.0,15.294,0.0,0.0,37331517.0,1213620.0,0.0,0.0,18.0,2476.0
11.494,27.586,48.276,0.0,0.0,12.644,0.0,0.0,38769780.0,1256674.0,0.0,0.0,19.0,2588.0
8.333,23.810,58.333,0.0,0.0,9.524,0.0,0.0,38291795.0,1237000.0,0.0,0.0,18.0,2776.0
12.048,21.687,54.217,0.0,0.0,12.048,0.0,0.0,38343923.0,1246858.0,0.0,0.0,18.0,2632.0
12.644,28.736,43.678,0.0,0.0,14.943,0.0,0.0,38607359.0,1250028.0,0.0,0.0,18.0,2539.0
10.465,29.070,48.837,0.0,0.0,11.628,0.0,0.0,39565071.0,1276742.0,0.0,0.0,18.0,2639.0
10.0,31.250,43.750,0.0,0.0,15.0,0.0,0.0,34569405.0,1127082.0,0.0,0.0,24.0,2449.0
9.302,25.581,52.326,0.0,0.0,12.791,0.0,0.0,37957476.0,1231128.0,0.0,0.0,18.0,2541.0
13.415,28.049,48.780,0.0,0.0,9.756,0.0,0.0,38170901.0,1233154.0,0.0,0.0,18.0,2598.0
9.412,27.059,54.118,0.0,0.0,9.412,0.0,0.0,38179337.0,1239740.0,0.0,0.0,18.0,2530.0
13.333,26.667,53.333,0.0,0.0,6.667,0.0,16384.0,37874084.0,1229588.0,0.0,0.0,18.0,2658.0
12.346,32.099,46.914,0.0,0.0,8.642,0.0,0.0,39826359.0,1285720.0,0.0,0.0,19.0,2458.0
10.714,23.810,53.571,0.0,0.0,11.905,0.0,0.0,37994026.0,1235810.0,0.0,0.0,18.0,2592.0
12.500,30.0,48.750,0.0,0.0,8.750,0.0,0.0,39467039.0,1278028.0,0.0,0.0,18.0,2640.0
11.236,29.213,44.944,0.0,0.0,14.607,0.0,0.0,39827146.0,1290834.0,0.0,0.0,18.0,2548.0
9.195,24.138,55.172,0.0,0.0,11.494,0.0,0.0,36930208.0,1198384.0,0.0,0.0,18.0,2739.0
10.989,27.473,48.352,0.0,0.0,13.187,0.0,0.0,39305449.0,1269788.0,0.0,0.0,19.0,2810.0
11.364,19.318,60.227,0.0,0.0,9.091,0.0,0.0,37784885.0,1223354.0,0.0,0.0,18.0,2806.0
11.364,26.136,54.545,0.0,0.0,7.955,0.0,0.0,37732177.0,1226446.0,0.0,0.0,18.0,2463.0
11.957,28.261,50.0,1.087,0.0,8.696,0.0,49152.0,39203070.0,1263320.0,0.0,0.0,18.0,2683.0
9.091,26.136,51.136,0.0,0.0,13.636,0.0,40960.0,38262762.0,1242188.0,0.0,0.0,18.0,2905.0
15.116,27.907,47.674,0.0,0.0,9.302,0.0,0.0,37796393.0,1223914.0,0.0,0.0,18.0,2475.0
10.112,24.719,57.303,0.0,0.0,7.865,0.0,0.0,38849686.0,1258218.0,0.0,0.0,19.0,2824.0
9.890,30.769,48.352,0.0,0.0,10.989,0.0,0.0,38796151.0,1257654.0,0.0,0.0,18.0,2533.0
6.818,22.727,59.091,0.0,0.0,11.364,0.0,0.0,38481511.0,1243284.0,0.0,0.0,18.0,2854.0
13.415,30.488,46.341,0.0,0.0,9.756,0.0,0.0,38199553.0,1243320.0,0.0,0.0,18.0,2466.0
10.0,24.444,56.667,0.0,0.0,8.889,0.0,0.0,38971197.0,1260734.0,0.0,0.0,19.0,2935.0
10.227,25.0,55.682,0.0,0.0,9.091,0.0,0.0,36436301.0,1176896.0,0.0,0.0,18.0,2640.0
10.465,24.419,58.140,0.0,0.0,6.977,0.0,0.0,39416483.0,1281998.0,0.0,0.0,18.0,2725.0
10.638,17.021,65.957,0.0,0.0,6.383,0.0,0.0,39595796.0,1279074.0,0.0,0.0,18.0,3036.0
10.870,31.522,48.913,0.0,0.0,8.696,0.0,0.0,37611204.0,1220682.0,0.0,0.0,19.0,2413.0
12.500,25.0,56.818,0.0,0.0,5.682,0.0,0.0,39806342.0,1290958.0,0.0,0.0,18.0,2707.0
7.865,19.101,62.921,0.0,0.0,10.112,0.0,0.0,37679240.0,1218594.0,0.0,0.0,18.0,3011.0
8.434,21.687,53.012,0.0,0.0,16.867,0.0,0.0,39264849.0,1270814.0,0.0,0.0,18.0,2451.0
9.091,25.0,57.955,0.0,0.0,7.955,0.0,0.0,37205970.0,1205904.0,0.0,0.0,18.0,2593.0
7.955,26.136,57.955,0.0,0.0,7.955,0.0,0.0,38539960.0,1251288.0,0.0,0.0,19.0,2841.0
8.046,26.437,55.172,0.0,0.0,10.345,0.0,0.0,38660600.0,1250362.0,0.0,0.0,18.0,2623.0
7.955,19.318,62.500,0.0,0.0,10.227,0.0,0.0,39184439.0,1271358.0,0.0,0.0,18.0,3136.0
11.494,24.138,54.023,0.0,0.0,10.345,0.0,0.0,39307677.0,1270534.0,0.0,0.0,18.0,2766.0
10.465,22.093,59.302,0.0,0.0,8.140,0.0,0.0,37769679.0,1223792.0,0.0,0.0,18.0,2785.0
11.236,29.213,46.067,0.0,0.0,13.483,0.0,8192.0,39018368.0,1266502.0,0.0,0.0,19.0,2477.0
10.753,24.731,54.839,0.0,0.0,9.677,0.0,0.0,39243221.0,1269208.0,0.0,0.0,18.0,2898.0
8.046,22.989,62.069,0.0,0.0,6.897,0.0,0.0,37414557.0,1213278.0,0.0,0.0,18.0,2747.0
8.889,25.556,53.333,0.0,0.0,12.222,0.0,0.0,38327241.0,1243452.0,0.0,0.0,18.0,2880.0
11.236,23.596,51.685,0.0,0.0,13.483,0.0,0.0,39608075.0,1277740.0,0.0,0.0,18.0,2908.0
9.091,37.500,46.591,0.0,0.0,6.818,0.0,8192.0,39439710.0,1277924.0,0.0,0.0,19.0,2494.0
9.639,26.506,54.217,0.0,0.0,9.639,0.0,0.0,39421920.0,1282698.0,0.0,0.0,18.0,2535.0
8.696,16.304,68.478,0.0,0.0,6.522,0.0,0.0,27874000.0,902272.0,0.0,0.0,18.0,2103.0
