"Dstat 0.7.2 CSV output"
"Author:","Dag Wieers <dag@wieers.com>",,,,"URL:","http://dag.wieers.com/home-made/dstat/"
"Host:","Server2",,,,"User:","maki"
"Cmdline:","dstat --output server_32_set_2_42.csv 1 70",,,,"Date:","25 Nov 2018 02:43:12 UTC"

"total cpu usage",,,,,,"dsk/total",,"net/total",,"paging",,"system",
"usr","sys","idl","wai","hiq","siq","read","writ","recv","send","in","out","int","csw"
4.549,9.119,83.897,0.904,0.0,1.531,20887.396,90251.910,0.0,0.0,0.0,0.0,18.584,1630.517
10.465,24.419,58.140,0.0,0.0,6.977,0.0,0.0,37821440.0,1223796.0,0.0,0.0,18.0,3287.0
12.941,40.0,37.647,1.176,0.0,8.235,0.0,45056.0,40951863.0,1333432.0,0.0,0.0,19.0,1900.0
12.821,39.744,35.897,0.0,0.0,11.538,0.0,0.0,47088977.0,1525894.0,0.0,0.0,18.0,1335.0
16.049,35.802,38.272,0.0,0.0,9.877,0.0,0.0,46371004.0,1498734.0,0.0,0.0,18.0,1420.0
13.580,40.741,29.630,0.0,0.0,16.049,0.0,0.0,45114113.0,1463370.0,0.0,0.0,18.0,1133.0
13.158,39.474,32.895,0.0,0.0,14.474,0.0,0.0,48360168.0,1566988.0,0.0,0.0,18.0,1405.0
15.584,36.364,38.961,0.0,0.0,9.091,0.0,0.0,47473717.0,1537986.0,0.0,0.0,19.0,1538.0
13.095,40.476,36.905,0.0,0.0,9.524,0.0,0.0,48036059.0,1558376.0,0.0,0.0,18.0,1611.0
16.667,42.308,32.051,0.0,0.0,8.974,0.0,0.0,48274648.0,1567918.0,0.0,0.0,18.0,1405.0
12.500,38.750,38.750,0.0,0.0,10.0,0.0,0.0,48389055.0,1564888.0,0.0,0.0,18.0,1430.0
16.667,39.744,34.615,0.0,0.0,8.974,0.0,0.0,48579038.0,1575718.0,0.0,0.0,18.0,1415.0
12.500,40.0,38.750,0.0,0.0,8.750,0.0,0.0,47772746.0,1546614.0,0.0,0.0,18.0,1394.0
17.949,35.897,34.615,0.0,0.0,11.538,0.0,0.0,48609716.0,1576030.0,0.0,0.0,19.0,1560.0
13.095,40.476,34.524,0.0,0.0,11.905,0.0,0.0,45821466.0,1488260.0,0.0,0.0,18.0,1354.0
15.385,37.179,37.179,0.0,0.0,10.256,0.0,0.0,48507118.0,1574268.0,0.0,0.0,18.0,1389.0
12.346,38.272,40.741,0.0,0.0,8.642,0.0,0.0,48987101.0,1582330.0,0.0,0.0,19.0,1518.0
9.877,37.037,41.975,0.0,0.0,11.111,0.0,0.0,45933314.0,1490926.0,0.0,0.0,18.0,1371.0
16.667,43.590,26.923,0.0,0.0,12.821,0.0,0.0,49671363.0,1606930.0,0.0,0.0,18.0,1336.0
18.750,35.0,33.750,0.0,0.0,12.500,0.0,0.0,47772067.0,1553548.0,0.0,0.0,18.0,1268.0
13.580,39.506,40.741,0.0,0.0,6.173,0.0,0.0,47252208.0,1525188.0,0.0,0.0,18.0,1333.0
18.519,32.099,32.099,0.0,0.0,17.284,0.0,0.0,49574681.0,1604772.0,0.0,0.0,18.0,1441.0
12.195,39.024,35.366,0.0,0.0,13.415,0.0,0.0,47498757.0,1547084.0,0.0,0.0,19.0,1432.0
14.815,28.395,49.383,0.0,0.0,7.407,0.0,0.0,45908994.0,1477398.0,0.0,0.0,18.0,1782.0
17.073,37.805,34.146,0.0,0.0,10.976,0.0,0.0,47960491.0,1567812.0,0.0,0.0,18.0,1303.0
13.158,34.211,38.158,0.0,0.0,14.474,0.0,8192.0,47214604.0,1521834.0,0.0,0.0,18.0,1299.0
16.049,38.272,37.037,0.0,0.0,8.642,0.0,0.0,49030348.0,1592460.0,0.0,0.0,19.0,1329.0
17.500,38.750,32.500,0.0,0.0,11.250,0.0,0.0,46709962.0,1518532.0,0.0,0.0,18.0,1355.0
18.072,34.940,34.940,0.0,0.0,12.048,0.0,0.0,48548683.0,1572530.0,0.0,0.0,18.0,1391.0
15.0,35.0,40.0,0.0,0.0,10.0,0.0,0.0,47586464.0,1541294.0,0.0,0.0,18.0,1526.0
14.667,42.667,33.333,0.0,0.0,9.333,0.0,8192.0,47319658.0,1532038.0,0.0,0.0,18.0,1340.0
11.842,35.526,39.474,0.0,0.0,13.158,0.0,0.0,47285164.0,1532272.0,0.0,0.0,18.0,1437.0
16.667,32.051,37.179,0.0,0.0,14.103,0.0,0.0,46669686.0,1509374.0,0.0,0.0,19.0,1691.0
12.658,39.241,35.443,1.266,0.0,11.392,0.0,28672.0,47729264.0,1550660.0,0.0,0.0,18.0,1488.0
16.883,33.766,37.662,0.0,0.0,11.688,0.0,0.0,48243516.0,1558448.0,0.0,0.0,18.0,1435.0
14.118,41.176,37.647,0.0,0.0,7.059,0.0,40960.0,47763940.0,1555220.0,0.0,0.0,18.0,1579.0
18.072,38.554,34.940,0.0,0.0,8.434,0.0,0.0,49005410.0,1588532.0,0.0,0.0,19.0,1315.0
13.750,41.250,36.250,0.0,0.0,8.750,0.0,0.0,48554581.0,1570134.0,0.0,0.0,18.0,1445.0
12.500,36.250,43.750,0.0,0.0,7.500,0.0,0.0,46687146.0,1511960.0,0.0,0.0,18.0,1431.0
16.667,39.744,32.051,0.0,0.0,11.538,0.0,0.0,46966577.0,1525392.0,0.0,0.0,18.0,1192.0
9.756,42.683,34.146,0.0,0.0,13.415,0.0,0.0,47291147.0,1534854.0,0.0,0.0,18.0,1442.0
13.253,34.940,44.578,0.0,0.0,7.229,0.0,0.0,48935497.0,1581054.0,0.0,0.0,19.0,1570.0
15.476,36.905,38.095,0.0,0.0,9.524,0.0,0.0,45584107.0,1481664.0,0.0,0.0,18.0,1231.0
17.333,38.667,41.333,0.0,0.0,2.667,0.0,0.0,46155664.0,1489634.0,0.0,0.0,18.0,1438.0
17.500,37.500,33.750,0.0,0.0,11.250,0.0,0.0,49830295.0,1618088.0,0.0,0.0,18.0,1652.0
16.867,40.964,32.530,0.0,0.0,9.639,0.0,0.0,45427913.0,1473124.0,0.0,0.0,18.0,1228.0
10.465,39.535,39.535,0.0,0.0,10.465,0.0,0.0,49501489.0,1610594.0,0.0,0.0,18.0,1513.0
13.580,37.037,44.444,0.0,0.0,4.938,0.0,0.0,47024912.0,1518690.0,0.0,0.0,19.0,1750.0
17.722,36.709,35.443,0.0,0.0,10.127,0.0,0.0,47740398.0,1547298.0,0.0,0.0,18.0,1545.0
12.821,39.744,35.897,0.0,0.0,11.538,0.0,0.0,49955663.0,1619068.0,0.0,0.0,18.0,1492.0
15.190,36.709,37.975,0.0,0.0,10.127,0.0,0.0,48117027.0,1560868.0,0.0,0.0,18.0,1624.0
16.216,35.135,39.189,0.0,0.0,9.459,0.0,0.0,47242857.0,1525754.0,0.0,0.0,19.0,1506.0
17.105,38.158,35.526,0.0,0.0,9.211,0.0,0.0,48420490.0,1576586.0,0.0,0.0,18.0,1384.0
11.250,37.500,46.250,0.0,0.0,5.0,0.0,0.0,46309685.0,1494122.0,0.0,0.0,18.0,1637.0
19.355,36.559,30.108,0.0,0.0,13.978,0.0,0.0,45062002.0,1459586.0,0.0,0.0,18.0,1325.0
17.105,36.842,30.263,0.0,0.0,15.789,0.0,0.0,45661080.0,1487598.0,0.0,0.0,23.0,1459.0
13.953,33.721,44.186,0.0,0.0,8.140,0.0,0.0,47642510.0,1544374.0,0.0,0.0,19.0,1441.0
12.346,44.444,35.802,0.0,0.0,7.407,0.0,0.0,44821249.0,1455752.0,0.0,0.0,18.0,1273.0
13.750,36.250,38.750,0.0,0.0,11.250,0.0,0.0,47273858.0,1532054.0,0.0,0.0,18.0,1515.0
9.639,38.554,44.578,0.0,0.0,7.229,0.0,0.0,47471063.0,1540594.0,0.0,0.0,18.0,1659.0
11.250,35.0,37.500,0.0,0.0,16.250,0.0,0.0,49488260.0,1598184.0,0.0,0.0,19.0,1471.0
17.105,40.789,32.895,0.0,0.0,9.211,0.0,0.0,47193085.0,1532736.0,0.0,0.0,18.0,1333.0
17.500,32.500,38.750,0.0,0.0,11.250,0.0,0.0,47474114.0,1538446.0,0.0,0.0,18.0,1657.0
16.0,34.667,38.667,0.0,0.0,10.667,0.0,0.0,44600817.0,1445346.0,0.0,0.0,18.0,1086.0
20.482,36.145,32.530,0.0,0.0,10.843,0.0,0.0,46795319.0,1519120.0,0.0,0.0,18.0,1331.0
12.346,33.333,34.568,0.0,0.0,19.753,0.0,45056.0,47746485.0,1548294.0,0.0,0.0,19.0,1448.0
18.519,35.802,34.568,0.0,0.0,11.111,0.0,8192.0,48005630.0,1552840.0,0.0,0.0,18.0,1307.0
14.865,43.243,27.027,0.0,0.0,14.865,0.0,0.0,47840387.0,1551372.0,0.0,0.0,18.0,1268.0
9.756,32.927,48.780,0.0,0.0,8.537,0.0,0.0,48100664.0,1560054.0,0.0,0.0,18.0,1555.0
13.924,35.443,41.772,0.0,0.0,8.861,0.0,0.0,48515814.0,1572300.0,0.0,0.0,18.0,1553.0
12.987,31.169,48.052,0.0,0.0,7.792,0.0,0.0,37112875.0,1207032.0,0.0,0.0,19.0,990.0
