1         Threads
14        Connections per thread
70        Seconds


ALL STATS
========================================================================
Type        Ops/sec     Hits/sec   Misses/sec      Latency       KB/sec 
------------------------------------------------------------------------
Sets        1840.92          ---          ---      7.70500      7429.99 
Gets           0.00         0.00         0.00      0.00000         0.00 
Waits          0.00          ---          ---      0.00000          --- 
Totals      1840.92         0.00         0.00      7.70500      7429.99 


Request Latency Distribution
Type     <= msec         Percent
------------------------------------------------------------------------
SET       0.960         0.00
SET       1.200         0.00
SET       1.300         0.01
SET       1.400         0.01
SET       1.500         0.03
SET       1.600         0.07
SET       1.700         0.15
SET       1.800         0.28
SET       1.900         0.52
SET       2.000         0.89
SET       2.100         1.40
SET       2.200         2.00
SET       2.300         2.74
SET       2.400         3.59
SET       2.500         4.59
SET       2.600         5.61
SET       2.700         6.68
SET       2.800         7.80
SET       2.900         8.83
SET       3.000         9.93
SET       3.100        11.00
SET       3.200        12.04
SET       3.300        13.12
SET       3.400        14.07
SET       3.500        15.06
SET       3.600        16.02
SET       3.700        17.02
SET       3.800        17.97
SET       3.900        18.93
SET       4.000        19.94
SET       4.100        20.86
SET       4.200        21.77
SET       4.300        22.69
SET       4.400        23.58
SET       4.500        24.45
SET       4.600        25.21
SET       4.700        25.96
SET       4.800        26.67
SET       4.900        27.40
SET       5.000        28.10
SET       5.100        28.77
SET       5.200        29.43
SET       5.300        30.03
SET       5.400        30.64
SET       5.500        31.17
SET       5.600        31.69
SET       5.700        32.25
SET       5.800        32.77
SET       5.900        33.27
SET       6.000        33.73
SET       6.100        34.21
SET       6.200        34.67
SET       6.300        35.09
SET       6.400        35.53
SET       6.500        35.97
SET       6.600        36.38
SET       6.700        36.83
SET       6.800        37.27
SET       6.900        37.71
SET       7.000        38.18
SET       7.100        38.67
SET       7.200        39.19
SET       7.300        39.78
SET       7.400        40.41
SET       7.500        41.09
SET       7.600        41.86
SET       7.700        42.73
SET       7.800        43.60
SET       7.900        44.60
SET       8.000        45.68
SET       8.100        46.86
SET       8.200        48.09
SET       8.300        49.32
SET       8.400        50.69
SET       8.500        52.08
SET       8.600        53.60
SET       8.700        55.08
SET       8.800        56.66
SET       8.900        58.32
SET       9.000        59.87
SET       9.100        61.52
SET       9.200        63.16
SET       9.300        64.82
SET       9.400        66.46
SET       9.500        68.24
SET       9.600        69.95
SET       9.700        71.57
SET       9.800        73.22
SET       9.900        74.82
SET      10.000        82.37
SET      11.000        91.57
SET      12.000        95.86
SET      13.000        97.60
SET      14.000        98.47
SET      15.000        98.94
SET      16.000        99.23
SET      17.000        99.42
SET      18.000        99.58
SET      19.000        99.69
SET      20.000        99.76
SET      21.000        99.82
SET      22.000        99.85
SET      23.000        99.87
SET      24.000        99.89
SET      25.000        99.91
SET      26.000        99.92
SET      27.000        99.93
SET      28.000        99.94
SET      29.000        99.95
SET      30.000        99.96
SET      31.000        99.96
SET      32.000        99.96
SET      33.000        99.97
SET      34.000        99.97
SET      35.000        99.97
SET      38.000        99.97
SET      39.000        99.98
SET      40.000        99.99
SET      42.000        99.99
SET      87.000        99.99
SET      88.000        99.99
SET     100.000       100.00
SET     110.000       100.00
---
---
