1         Threads
4         Connections per thread
70        Seconds


ALL STATS
========================================================================
Type        Ops/sec     Hits/sec   Misses/sec      Latency       KB/sec 
------------------------------------------------------------------------
Sets        1312.35          ---          ---      3.04000      5296.67 
Gets           0.00         0.00         0.00      0.00000         0.00 
Waits          0.00          ---          ---      0.00000          --- 
Totals      1312.35         0.00         0.00      3.04000      5296.67 


Request Latency Distribution
Type     <= msec         Percent
------------------------------------------------------------------------
SET       0.900         0.00
SET       0.920         0.00
SET       0.930         0.01
SET       0.940         0.01
SET       0.950         0.01
SET       0.960         0.01
SET       0.970         0.02
SET       0.980         0.02
SET       0.990         0.02
SET       1.000         0.08
SET       1.100         0.38
SET       1.200         1.24
SET       1.300         2.88
SET       1.400         5.58
SET       1.500         9.42
SET       1.600        14.26
SET       1.700        19.88
SET       1.800        26.03
SET       1.900        32.26
SET       2.000        38.28
SET       2.100        43.96
SET       2.200        49.21
SET       2.300        53.96
SET       2.400        58.04
SET       2.500        61.63
SET       2.600        64.77
SET       2.700        67.33
SET       2.800        69.64
SET       2.900        71.61
SET       3.000        73.27
SET       3.100        74.74
SET       3.200        76.06
SET       3.300        77.16
SET       3.400        78.14
SET       3.500        78.97
SET       3.600        79.77
SET       3.700        80.45
SET       3.800        81.05
SET       3.900        81.55
SET       4.000        82.09
SET       4.100        82.52
SET       4.200        82.92
SET       4.300        83.25
SET       4.400        83.60
SET       4.500        83.96
SET       4.600        84.28
SET       4.700        84.60
SET       4.800        84.88
SET       4.900        85.12
SET       5.000        85.35
SET       5.100        85.59
SET       5.200        85.85
SET       5.300        86.04
SET       5.400        86.25
SET       5.500        86.44
SET       5.600        86.65
SET       5.700        86.82
SET       5.800        87.00
SET       5.900        87.21
SET       6.000        87.43
SET       6.100        87.70
SET       6.200        87.99
SET       6.300        88.32
SET       6.400        88.68
SET       6.500        89.08
SET       6.600        89.47
SET       6.700        89.90
SET       6.800        90.42
SET       6.900        90.93
SET       7.000        91.50
SET       7.100        92.05
SET       7.200        92.62
SET       7.300        93.23
SET       7.400        93.86
SET       7.500        94.49
SET       7.600        95.04
SET       7.700        95.59
SET       7.800        96.06
SET       7.900        96.52
SET       8.000        96.88
SET       8.100        97.19
SET       8.200        97.51
SET       8.300        97.76
SET       8.400        98.00
SET       8.500        98.15
SET       8.600        98.34
SET       8.700        98.47
SET       8.800        98.59
SET       8.900        98.69
SET       9.000        98.80
SET       9.100        98.89
SET       9.200        98.96
SET       9.300        99.01
SET       9.400        99.06
SET       9.500        99.13
SET       9.600        99.17
SET       9.700        99.21
SET       9.800        99.26
SET       9.900        99.30
SET      10.000        99.49
SET      11.000        99.73
SET      12.000        99.84
SET      13.000        99.87
SET      14.000        99.91
SET      15.000        99.93
SET      16.000        99.95
SET      17.000        99.97
SET      18.000        99.97
SET      19.000        99.98
SET      20.000        99.99
SET      21.000        99.99
SET      23.000        99.99
SET      26.000        99.99
SET      27.000        99.99
SET      30.000       100.00
SET      35.000       100.00
---
---
