1         Threads
2         Connections per thread
70        Seconds


ALL STATS
========================================================================
Type        Ops/sec     Hits/sec   Misses/sec      Latency       KB/sec 
------------------------------------------------------------------------
Sets         967.02          ---          ---      2.06100      3902.91 
Gets           0.00         0.00         0.00      0.00000         0.00 
Waits          0.00          ---          ---      0.00000          --- 
Totals       967.02         0.00         0.00      2.06100      3902.91 


Request Latency Distribution
Type     <= msec         Percent
------------------------------------------------------------------------
SET       0.820         0.00
SET       0.850         0.01
SET       0.860         0.01
SET       0.880         0.01
SET       0.890         0.02
SET       0.900         0.04
SET       0.910         0.05
SET       0.920         0.07
SET       0.930         0.08
SET       0.940         0.11
SET       0.950         0.13
SET       0.960         0.17
SET       0.970         0.19
SET       0.980         0.24
SET       0.990         0.30
SET       1.000         0.93
SET       1.100         3.68
SET       1.200         8.81
SET       1.300        16.23
SET       1.400        25.21
SET       1.500        34.46
SET       1.600        42.93
SET       1.700        50.74
SET       1.800        57.53
SET       1.900        63.59
SET       2.000        68.36
SET       2.100        72.41
SET       2.200        75.78
SET       2.300        78.75
SET       2.400        81.04
SET       2.500        83.08
SET       2.600        84.87
SET       2.700        86.27
SET       2.800        87.52
SET       2.900        88.58
SET       3.000        89.53
SET       3.100        90.42
SET       3.200        91.14
SET       3.300        91.78
SET       3.400        92.41
SET       3.500        92.93
SET       3.600        93.40
SET       3.700        93.84
SET       3.800        94.27
SET       3.900        94.62
SET       4.000        94.93
SET       4.100        95.20
SET       4.200        95.44
SET       4.300        95.68
SET       4.400        95.89
SET       4.500        96.09
SET       4.600        96.32
SET       4.700        96.52
SET       4.800        96.68
SET       4.900        96.87
SET       5.000        97.02
SET       5.100        97.15
SET       5.200        97.27
SET       5.300        97.40
SET       5.400        97.52
SET       5.500        97.64
SET       5.600        97.75
SET       5.700        97.88
SET       5.800        97.99
SET       5.900        98.06
SET       6.000        98.15
SET       6.100        98.25
SET       6.200        98.34
SET       6.300        98.44
SET       6.400        98.53
SET       6.500        98.59
SET       6.600        98.66
SET       6.700        98.74
SET       6.800        98.82
SET       6.900        98.89
SET       7.000        98.96
SET       7.100        99.02
SET       7.200        99.08
SET       7.300        99.12
SET       7.400        99.17
SET       7.500        99.23
SET       7.600        99.28
SET       7.700        99.31
SET       7.800        99.36
SET       7.900        99.42
SET       8.000        99.45
SET       8.100        99.49
SET       8.200        99.51
SET       8.300        99.54
SET       8.400        99.55
SET       8.500        99.57
SET       8.600        99.60
SET       8.700        99.62
SET       8.800        99.65
SET       8.900        99.66
SET       9.000        99.68
SET       9.100        99.70
SET       9.200        99.73
SET       9.300        99.75
SET       9.400        99.76
SET       9.500        99.77
SET       9.600        99.78
SET       9.700        99.79
SET       9.800        99.81
SET       9.900        99.82
SET      10.000        99.89
SET      11.000        99.93
SET      12.000        99.96
SET      13.000        99.97
SET      14.000        99.98
SET      15.000        99.98
SET      16.000        99.99
SET      17.000       100.00
SET      18.000       100.00
---
---
