1         Threads
8         Connections per thread
70        Seconds


ALL STATS
========================================================================
Type        Ops/sec     Hits/sec   Misses/sec      Latency       KB/sec 
------------------------------------------------------------------------
Sets        3147.29          ---          ---      2.53800     12702.54 
Gets           0.00         0.00         0.00      0.00000         0.00 
Waits          0.00          ---          ---      0.00000          --- 
Totals      3147.29         0.00         0.00      2.53800     12702.54 


Request Latency Distribution
Type     <= msec         Percent
------------------------------------------------------------------------
SET       0.190         0.00
SET       0.200         0.00
SET       0.210         0.01
SET       0.220         0.01
SET       0.230         0.03
SET       0.240         0.06
SET       0.250         0.11
SET       0.260         0.19
SET       0.270         0.31
SET       0.280         0.45
SET       0.290         0.63
SET       0.300         0.88
SET       0.310         1.19
SET       0.320         1.56
SET       0.330         1.99
SET       0.340         2.51
SET       0.350         3.15
SET       0.360         3.85
SET       0.370         4.61
SET       0.380         5.48
SET       0.390         6.45
SET       0.400         7.50
SET       0.410         8.62
SET       0.420         9.79
SET       0.430        11.06
SET       0.440        12.36
SET       0.450        13.73
SET       0.460        15.13
SET       0.470        16.62
SET       0.480        18.12
SET       0.490        19.70
SET       0.500        21.31
SET       0.510        22.92
SET       0.520        24.56
SET       0.530        26.23
SET       0.540        27.92
SET       0.550        29.63
SET       0.560        31.36
SET       0.570        33.09
SET       0.580        34.81
SET       0.590        36.55
SET       0.600        38.27
SET       0.610        39.94
SET       0.620        41.51
SET       0.630        43.10
SET       0.640        44.65
SET       0.650        46.20
SET       0.660        47.67
SET       0.670        49.18
SET       0.680        50.61
SET       0.690        52.00
SET       0.700        53.38
SET       0.710        54.74
SET       0.720        56.05
SET       0.730        57.33
SET       0.740        58.56
SET       0.750        59.69
SET       0.760        60.80
SET       0.770        61.85
SET       0.780        62.88
SET       0.790        63.87
SET       0.800        64.78
SET       0.810        65.61
SET       0.820        66.40
SET       0.830        67.20
SET       0.840        67.92
SET       0.850        68.61
SET       0.860        69.29
SET       0.870        69.89
SET       0.880        70.46
SET       0.890        70.98
SET       0.900        71.50
SET       0.910        71.99
SET       0.920        72.41
SET       0.930        72.83
SET       0.940        73.20
SET       0.950        73.58
SET       0.960        73.90
SET       0.970        74.21
SET       0.980        74.51
SET       0.990        74.78
SET       1.000        75.99
SET       1.100        77.39
SET       1.200        78.27
SET       1.300        78.99
SET       1.400        79.48
SET       1.500        79.81
SET       1.600        80.12
SET       1.700        80.38
SET       1.800        80.63
SET       1.900        80.87
SET       2.000        81.05
SET       2.100        81.22
SET       2.200        81.38
SET       2.300        81.51
SET       2.400        81.62
SET       2.500        81.75
SET       2.600        81.86
SET       2.700        81.96
SET       2.800        82.04
SET       2.900        82.12
SET       3.000        82.21
SET       3.100        82.27
SET       3.200        82.34
SET       3.300        82.40
SET       3.400        82.45
SET       3.500        82.51
SET       3.600        82.56
SET       3.700        82.62
SET       3.800        82.68
SET       3.900        82.75
SET       4.000        82.82
SET       4.100        82.88
SET       4.200        82.94
SET       4.300        83.01
SET       4.400        83.06
SET       4.500        83.13
SET       4.600        83.18
SET       4.700        83.24
SET       4.800        83.28
SET       4.900        83.33
SET       5.000        83.39
SET       5.100        83.43
SET       5.200        83.49
SET       5.300        83.55
SET       5.400        83.61
SET       5.500        83.64
SET       5.600        83.68
SET       5.700        83.71
SET       5.800        83.73
SET       5.900        83.77
SET       6.000        83.80
SET       6.100        83.84
SET       6.200        83.87
SET       6.300        83.90
SET       6.400        83.93
SET       6.500        83.96
SET       6.600        84.01
SET       6.700        84.04
SET       6.800        84.09
SET       6.900        84.12
SET       7.000        84.16
SET       7.100        84.18
SET       7.200        84.22
SET       7.300        84.25
SET       7.400        84.29
SET       7.500        84.32
SET       7.600        84.36
SET       7.700        84.39
SET       7.800        84.44
SET       7.900        84.47
SET       8.000        84.52
SET       8.100        84.59
SET       8.200        84.65
SET       8.300        84.71
SET       8.400        84.77
SET       8.500        84.84
SET       8.600        84.90
SET       8.700        84.94
SET       8.800        85.01
SET       8.900        85.08
SET       9.000        85.15
SET       9.100        85.23
SET       9.200        85.30
SET       9.300        85.38
SET       9.400        85.45
SET       9.500        85.53
SET       9.600        85.62
SET       9.700        85.70
SET       9.800        85.80
SET       9.900        85.92
SET      10.000        86.57
SET      11.000        89.64
SET      12.000        96.44
SET      13.000        99.32
SET      14.000        99.54
SET      15.000        99.65
SET      16.000        99.74
SET      17.000        99.81
SET      18.000        99.84
SET      19.000        99.86
SET      20.000        99.86
SET      21.000        99.87
SET      22.000        99.87
SET      23.000        99.88
SET      24.000        99.89
SET      25.000        99.89
SET      26.000        99.90
SET      27.000        99.92
SET      28.000        99.94
SET      29.000        99.94
SET      30.000        99.95
SET      31.000        99.95
SET      32.000        99.96
SET      33.000        99.97
SET      34.000        99.98
SET      35.000        99.98
SET      37.000        99.99
SET      38.000        99.99
SET      39.000        99.99
SET      92.000        99.99
SET     100.000       100.00
---
---
