1         Threads
2         Connections per thread
70        Seconds


ALL STATS
========================================================================
Type        Ops/sec     Hits/sec   Misses/sec      Latency       KB/sec 
------------------------------------------------------------------------
Sets         163.25          ---          ---      6.01400       658.87 
Gets         163.23      1469.11         0.00      6.21300      5937.96 
Waits          0.00          ---          ---      0.00000          --- 
Totals       326.48      1469.11         0.00      6.11400      6596.84 


Request Latency Distribution
Type     <= msec         Percent
------------------------------------------------------------------------
SET       1.200         0.01
SET       1.300         0.03
SET       1.400         0.27
SET       1.500         1.07
SET       1.600         2.62
SET       1.700         5.21
SET       1.800         8.76
SET       1.900        12.59
SET       2.000        16.62
SET       2.100        20.48
SET       2.200        24.25
SET       2.300        27.75
SET       2.400        30.93
SET       2.500        33.71
SET       2.600        36.03
SET       2.700        38.39
SET       2.800        40.27
SET       2.900        42.21
SET       3.000        43.68
SET       3.100        45.04
SET       3.200        46.25
SET       3.300        47.25
SET       3.400        48.33
SET       3.500        49.39
SET       3.600        50.12
SET       3.700        50.95
SET       3.800        51.82
SET       3.900        52.60
SET       4.000        53.25
SET       4.100        53.76
SET       4.200        54.38
SET       4.300        54.84
SET       4.400        55.29
SET       4.500        55.64
SET       4.600        56.03
SET       4.700        56.42
SET       4.800        56.85
SET       4.900        57.21
SET       5.000        57.62
SET       5.100        57.85
SET       5.200        58.16
SET       5.300        58.51
SET       5.400        58.77
SET       5.500        59.10
SET       5.600        59.40
SET       5.700        59.74
SET       5.800        60.06
SET       5.900        60.42
SET       6.000        60.89
SET       6.100        61.32
SET       6.200        61.68
SET       6.300        62.01
SET       6.400        62.33
SET       6.500        62.71
SET       6.600        63.17
SET       6.700        63.56
SET       6.800        64.00
SET       6.900        64.31
SET       7.000        64.56
SET       7.100        64.87
SET       7.200        65.22
SET       7.300        65.54
SET       7.400        65.99
SET       7.500        66.49
SET       7.600        66.74
SET       7.700        67.09
SET       7.800        67.51
SET       7.900        68.09
SET       8.000        68.56
SET       8.100        68.92
SET       8.200        69.31
SET       8.300        69.69
SET       8.400        70.06
SET       8.500        70.46
SET       8.600        70.80
SET       8.700        71.16
SET       8.800        71.56
SET       8.900        71.88
SET       9.000        72.14
SET       9.100        72.53
SET       9.200        72.81
SET       9.300        73.08
SET       9.400        73.44
SET       9.500        73.70
SET       9.600        74.13
SET       9.700        74.43
SET       9.800        74.81
SET       9.900        75.14
SET      10.000        77.07
SET      11.000        80.91
SET      12.000        86.72
SET      13.000        92.20
SET      14.000        95.49
SET      15.000        99.07
SET      16.000        99.48
SET      17.000        99.62
SET      18.000        99.72
SET      19.000        99.78
SET      20.000        99.79
SET      21.000        99.83
SET      22.000        99.87
SET      23.000        99.90
SET      24.000        99.90
SET      25.000        99.91
SET      26.000        99.94
SET      27.000        99.95
SET      28.000        99.96
SET      29.000        99.98
SET      34.000        99.99
SET      50.000       100.00
---
GET       1.700         0.05
GET       1.800         0.25
GET       1.900         0.67
GET       2.000         1.48
GET       2.100         2.65
GET       2.200         4.31
GET       2.300         6.83
GET       2.400         9.35
GET       2.500        12.08
GET       2.600        15.21
GET       2.700        18.87
GET       2.800        22.63
GET       2.900        26.44
GET       3.000        30.05
GET       3.100        33.63
GET       3.200        37.24
GET       3.300        40.14
GET       3.400        43.16
GET       3.500        45.40
GET       3.600        47.81
GET       3.700        50.13
GET       3.800        52.20
GET       3.900        53.70
GET       4.000        55.50
GET       4.100        57.11
GET       4.200        58.39
GET       4.300        59.69
GET       4.400        60.88
GET       4.500        61.86
GET       4.600        62.77
GET       4.700        63.61
GET       4.800        64.39
GET       4.900        65.28
GET       5.000        65.94
GET       5.100        66.53
GET       5.200        67.11
GET       5.300        67.61
GET       5.400        68.17
GET       5.500        68.69
GET       5.600        69.13
GET       5.700        69.61
GET       5.800        70.00
GET       5.900        70.27
GET       6.000        70.64
GET       6.100        70.94
GET       6.200        71.20
GET       6.300        71.43
GET       6.400        71.71
GET       6.500        71.98
GET       6.600        72.23
GET       6.700        72.37
GET       6.800        72.63
GET       6.900        72.91
GET       7.000        73.15
GET       7.100        73.33
GET       7.200        73.65
GET       7.300        73.80
GET       7.400        73.91
GET       7.500        74.08
GET       7.600        74.30
GET       7.700        74.51
GET       7.800        74.68
GET       7.900        74.93
GET       8.000        75.04
GET       8.100        75.24
GET       8.200        75.37
GET       8.300        75.53
GET       8.400        75.71
GET       8.500        75.95
GET       8.600        76.14
GET       8.700        76.33
GET       8.800        76.48
GET       8.900        76.72
GET       9.000        76.89
GET       9.100        77.01
GET       9.200        77.13
GET       9.300        77.34
GET       9.400        77.56
GET       9.500        77.72
GET       9.600        77.91
GET       9.700        78.10
GET       9.800        78.22
GET       9.900        78.36
GET      10.000        79.52
GET      11.000        82.10
GET      12.000        85.05
GET      13.000        87.58
GET      14.000        89.58
GET      15.000        90.92
GET      16.000        96.13
GET      17.000        97.84
GET      18.000        98.49
GET      19.000        98.70
GET      20.000        98.80
GET      21.000        98.88
GET      22.000        98.99
GET      23.000        99.04
GET      24.000        99.10
GET      25.000        99.16
GET      26.000        99.42
GET      27.000        99.60
GET      28.000        99.75
GET      29.000        99.85
GET      30.000        99.86
GET      31.000        99.89
GET      32.000        99.95
GET      33.000        99.96
GET      44.000        99.97
GET      63.000        99.98
GET     210.000       100.00
---
