1         Threads
4         Connections per thread
70        Seconds


ALL STATS
========================================================================
Type        Ops/sec     Hits/sec   Misses/sec      Latency       KB/sec 
------------------------------------------------------------------------
Sets        1309.03          ---          ---      3.04800      5283.27 
Gets           0.00         0.00         0.00      0.00000         0.00 
Waits          0.00          ---          ---      0.00000          --- 
Totals      1309.03         0.00         0.00      3.04800      5283.27 


Request Latency Distribution
Type     <= msec         Percent
------------------------------------------------------------------------
SET       0.900         0.00
SET       0.920         0.00
SET       0.930         0.01
SET       0.940         0.01
SET       0.950         0.01
SET       0.960         0.02
SET       0.970         0.02
SET       0.980         0.03
SET       0.990         0.04
SET       1.000         0.11
SET       1.100         0.51
SET       1.200         1.48
SET       1.300         3.27
SET       1.400         6.19
SET       1.500        10.14
SET       1.600        15.17
SET       1.700        20.60
SET       1.800        26.66
SET       1.900        32.79
SET       2.000        38.90
SET       2.100        44.60
SET       2.200        49.64
SET       2.300        54.28
SET       2.400        58.39
SET       2.500        61.85
SET       2.600        64.74
SET       2.700        67.34
SET       2.800        69.55
SET       2.900        71.54
SET       3.000        73.09
SET       3.100        74.52
SET       3.200        75.78
SET       3.300        76.87
SET       3.400        77.78
SET       3.500        78.66
SET       3.600        79.41
SET       3.700        80.06
SET       3.800        80.65
SET       3.900        81.23
SET       4.000        81.76
SET       4.100        82.17
SET       4.200        82.54
SET       4.300        82.92
SET       4.400        83.28
SET       4.500        83.63
SET       4.600        83.94
SET       4.700        84.25
SET       4.800        84.53
SET       4.900        84.78
SET       5.000        85.02
SET       5.100        85.27
SET       5.200        85.49
SET       5.300        85.71
SET       5.400        85.91
SET       5.500        86.12
SET       5.600        86.30
SET       5.700        86.54
SET       5.800        86.74
SET       5.900        86.95
SET       6.000        87.17
SET       6.100        87.46
SET       6.200        87.75
SET       6.300        88.08
SET       6.400        88.42
SET       6.500        88.79
SET       6.600        89.21
SET       6.700        89.69
SET       6.800        90.19
SET       6.900        90.74
SET       7.000        91.31
SET       7.100        91.92
SET       7.200        92.48
SET       7.300        93.10
SET       7.400        93.74
SET       7.500        94.34
SET       7.600        94.91
SET       7.700        95.43
SET       7.800        95.90
SET       7.900        96.30
SET       8.000        96.69
SET       8.100        97.04
SET       8.200        97.36
SET       8.300        97.63
SET       8.400        97.88
SET       8.500        98.07
SET       8.600        98.25
SET       8.700        98.39
SET       8.800        98.53
SET       8.900        98.64
SET       9.000        98.73
SET       9.100        98.84
SET       9.200        98.93
SET       9.300        99.00
SET       9.400        99.08
SET       9.500        99.14
SET       9.600        99.19
SET       9.700        99.26
SET       9.800        99.30
SET       9.900        99.33
SET      10.000        99.53
SET      11.000        99.75
SET      12.000        99.85
SET      13.000        99.88
SET      14.000        99.91
SET      15.000        99.93
SET      16.000        99.95
SET      17.000        99.96
SET      18.000        99.97
SET      19.000        99.98
SET      20.000        99.98
SET      21.000        99.98
SET      22.000        99.99
SET      23.000        99.99
SET      24.000        99.99
SET      29.000        99.99
SET      30.000       100.00
SET      34.000       100.00
SET      36.000       100.00
SET      45.000       100.00
---
---
