1         Threads
64        Connections per thread
70        Seconds


ALL STATS
========================================================================
Type        Ops/sec     Hits/sec   Misses/sec      Latency       KB/sec 
------------------------------------------------------------------------
Sets        2036.65          ---          ---     31.41400      8219.98 
Gets           0.00         0.00         0.00      0.00000         0.00 
Waits          0.00          ---          ---      0.00000          --- 
Totals      2036.65         0.00         0.00     31.41400      8219.98 


Request Latency Distribution
Type     <= msec         Percent
------------------------------------------------------------------------
SET       3.700         0.00
SET       7.100         0.00
SET       7.400         0.00
SET       7.800         0.00
SET       8.100         0.00
SET       8.200         0.00
SET       8.500         0.01
SET       8.600         0.01
SET       8.900         0.01
SET       9.000         0.01
SET       9.100         0.01
SET       9.700         0.01
SET       9.900         0.01
SET      10.000         0.01
SET      11.000         0.02
SET      12.000         0.02
SET      13.000         0.04
SET      14.000         0.06
SET      15.000         0.08
SET      16.000         0.13
SET      17.000         0.18
SET      18.000         0.28
SET      19.000         0.42
SET      20.000         0.71
SET      21.000         1.17
SET      22.000         1.88
SET      23.000         3.09
SET      24.000         5.34
SET      25.000         9.01
SET      26.000        13.93
SET      27.000        19.70
SET      28.000        26.14
SET      29.000        33.34
SET      30.000        41.98
SET      31.000        52.02
SET      32.000        62.63
SET      33.000        72.43
SET      34.000        80.44
SET      35.000        86.46
SET      36.000        90.68
SET      37.000        93.44
SET      38.000        95.29
SET      39.000        96.41
SET      40.000        97.20
SET      41.000        97.74
SET      42.000        98.15
SET      43.000        98.47
SET      44.000        98.70
SET      45.000        98.89
SET      46.000        99.06
SET      47.000        99.18
SET      48.000        99.31
SET      49.000        99.43
SET      50.000        99.54
SET      51.000        99.63
SET      52.000        99.70
SET      53.000        99.75
SET      54.000        99.78
SET      55.000        99.84
SET      56.000        99.87
SET      57.000        99.89
SET      58.000        99.89
SET      59.000        99.90
SET      60.000        99.91
SET      61.000        99.91
SET      62.000        99.91
SET      63.000        99.91
SET      64.000        99.92
SET      67.000        99.92
SET      68.000        99.92
SET      69.000        99.93
SET      72.000        99.93
SET      73.000        99.93
SET      74.000        99.93
SET      75.000        99.94
SET      76.000        99.94
SET      77.000        99.94
SET      78.000        99.94
SET      80.000        99.95
SET      81.000        99.95
SET      82.000        99.95
SET      83.000        99.95
SET      84.000        99.96
SET     180.000        99.96
SET     190.000        99.96
SET     210.000        99.96
SET     220.000        99.96
SET     230.000        99.96
SET     250.000        99.96
SET     260.000        99.96
SET     270.000        99.97
SET     280.000        99.97
SET     290.000        99.97
SET     300.000        99.98
SET     330.000        99.98
SET     340.000        99.98
SET     350.000        99.98
SET     360.000        99.98
SET     370.000        99.99
SET     380.000        99.99
SET     410.000        99.99
SET     420.000        99.99
SET     430.000       100.00
SET     440.000       100.00
SET     450.000       100.00
SET     490.000       100.00
---
---
