1         Threads
8         Connections per thread
70        Seconds


ALL STATS
========================================================================
Type        Ops/sec     Hits/sec   Misses/sec      Latency       KB/sec 
------------------------------------------------------------------------
Sets           0.00          ---          ---      0.00000         0.00 
Gets        2933.42      2933.42         0.00      2.72100     11882.03 
Waits          0.00          ---          ---      0.00000          --- 
Totals      2933.42      2933.42         0.00      2.72100     11882.03 


Request Latency Distribution
Type     <= msec         Percent
------------------------------------------------------------------------
---
GET       0.210         0.00
GET       0.220         0.00
GET       0.230         0.00
GET       0.240         0.01
GET       0.250         0.01
GET       0.260         0.03
GET       0.270         0.04
GET       0.280         0.07
GET       0.290         0.12
GET       0.300         0.19
GET       0.310         0.27
GET       0.320         0.38
GET       0.330         0.52
GET       0.340         0.70
GET       0.350         0.92
GET       0.360         1.17
GET       0.370         1.50
GET       0.380         1.88
GET       0.390         2.29
GET       0.400         2.74
GET       0.410         3.27
GET       0.420         3.85
GET       0.430         4.49
GET       0.440         5.22
GET       0.450         6.04
GET       0.460         6.83
GET       0.470         7.74
GET       0.480         8.67
GET       0.490         9.71
GET       0.500        10.73
GET       0.510        11.88
GET       0.520        13.07
GET       0.530        14.28
GET       0.540        15.59
GET       0.550        16.94
GET       0.560        18.28
GET       0.570        19.62
GET       0.580        21.04
GET       0.590        22.49
GET       0.600        23.93
GET       0.610        25.46
GET       0.620        27.00
GET       0.630        28.54
GET       0.640        30.08
GET       0.650        31.56
GET       0.660        33.05
GET       0.670        34.56
GET       0.680        36.03
GET       0.690        37.47
GET       0.700        38.96
GET       0.710        40.37
GET       0.720        41.72
GET       0.730        43.06
GET       0.740        44.32
GET       0.750        45.60
GET       0.760        46.82
GET       0.770        47.97
GET       0.780        49.10
GET       0.790        50.15
GET       0.800        51.20
GET       0.810        52.19
GET       0.820        53.14
GET       0.830        54.06
GET       0.840        54.95
GET       0.850        55.77
GET       0.860        56.59
GET       0.870        57.39
GET       0.880        58.14
GET       0.890        58.85
GET       0.900        59.55
GET       0.910        60.20
GET       0.920        60.84
GET       0.930        61.46
GET       0.940        62.03
GET       0.950        62.61
GET       0.960        63.14
GET       0.970        63.66
GET       0.980        64.20
GET       0.990        64.72
GET       1.000        67.14
GET       1.100        70.53
GET       1.200        72.91
GET       1.300        74.53
GET       1.400        75.63
GET       1.500        76.46
GET       1.600        77.06
GET       1.700        77.52
GET       1.800        77.92
GET       1.900        78.25
GET       2.000        78.58
GET       2.100        78.87
GET       2.200        79.17
GET       2.300        79.45
GET       2.400        79.72
GET       2.500        79.98
GET       2.600        80.20
GET       2.700        80.40
GET       2.800        80.59
GET       2.900        80.76
GET       3.000        80.92
GET       3.100        81.06
GET       3.200        81.19
GET       3.300        81.30
GET       3.400        81.42
GET       3.500        81.52
GET       3.600        81.63
GET       3.700        81.72
GET       3.800        81.79
GET       3.900        81.86
GET       4.000        81.92
GET       4.100        81.97
GET       4.200        82.02
GET       4.300        82.07
GET       4.400        82.12
GET       4.500        82.16
GET       4.600        82.21
GET       4.700        82.25
GET       4.800        82.30
GET       4.900        82.34
GET       5.000        82.37
GET       5.100        82.41
GET       5.200        82.46
GET       5.300        82.50
GET       5.400        82.53
GET       5.500        82.56
GET       5.600        82.59
GET       5.700        82.62
GET       5.800        82.64
GET       5.900        82.68
GET       6.000        82.72
GET       6.100        82.75
GET       6.200        82.78
GET       6.300        82.82
GET       6.400        82.86
GET       6.500        82.88
GET       6.600        82.91
GET       6.700        82.94
GET       6.800        82.97
GET       6.900        83.00
GET       7.000        83.03
GET       7.100        83.06
GET       7.200        83.09
GET       7.300        83.12
GET       7.400        83.15
GET       7.500        83.19
GET       7.600        83.23
GET       7.700        83.28
GET       7.800        83.33
GET       7.900        83.37
GET       8.000        83.43
GET       8.100        83.48
GET       8.200        83.51
GET       8.300        83.56
GET       8.400        83.61
GET       8.500        83.68
GET       8.600        83.77
GET       8.700        83.87
GET       8.800        83.97
GET       8.900        84.08
GET       9.000        84.20
GET       9.100        84.31
GET       9.200        84.42
GET       9.300        84.56
GET       9.400        84.71
GET       9.500        84.87
GET       9.600        85.04
GET       9.700        85.23
GET       9.800        85.41
GET       9.900        85.61
GET      10.000        86.82
GET      11.000        89.97
GET      12.000        95.74
GET      13.000        99.60
GET      14.000        99.81
GET      15.000        99.86
GET      16.000        99.90
GET      17.000        99.91
GET      18.000        99.92
GET      19.000        99.92
GET      20.000        99.93
GET      21.000        99.93
GET      22.000        99.93
GET      23.000        99.94
GET      24.000        99.94
GET      25.000        99.96
GET      26.000        99.98
GET      27.000       100.00
---
