1         Threads
1         Connections per thread
70        Seconds


ALL STATS
========================================================================
Type        Ops/sec     Hits/sec   Misses/sec      Latency       KB/sec 
------------------------------------------------------------------------
Sets           0.00          ---          ---      0.00000         0.00 
Gets        1702.41      1702.41         0.00      0.57800      6895.73 
Waits          0.00          ---          ---      0.00000          --- 
Totals      1702.41      1702.41         0.00      0.57800      6895.73 


Request Latency Distribution
Type     <= msec         Percent
------------------------------------------------------------------------
---
GET       0.180         0.00
GET       0.190         0.01
GET       0.200         0.04
GET       0.210         0.10
GET       0.220         0.27
GET       0.230         0.58
GET       0.240         1.12
GET       0.250         1.90
GET       0.260         2.91
GET       0.270         4.24
GET       0.280         5.78
GET       0.290         7.54
GET       0.300         9.42
GET       0.310        11.44
GET       0.320        13.55
GET       0.330        15.78
GET       0.340        18.17
GET       0.350        20.62
GET       0.360        23.09
GET       0.370        25.71
GET       0.380        28.31
GET       0.390        30.82
GET       0.400        33.30
GET       0.410        35.68
GET       0.420        37.97
GET       0.430        40.23
GET       0.440        42.39
GET       0.450        44.44
GET       0.460        46.33
GET       0.470        48.22
GET       0.480        50.09
GET       0.490        51.88
GET       0.500        53.60
GET       0.510        55.21
GET       0.520        56.89
GET       0.530        58.45
GET       0.540        59.99
GET       0.550        61.46
GET       0.560        62.92
GET       0.570        64.32
GET       0.580        65.70
GET       0.590        67.03
GET       0.600        68.31
GET       0.610        69.53
GET       0.620        70.71
GET       0.630        71.84
GET       0.640        72.91
GET       0.650        73.91
GET       0.660        74.89
GET       0.670        75.88
GET       0.680        76.78
GET       0.690        77.65
GET       0.700        78.51
GET       0.710        79.27
GET       0.720        80.03
GET       0.730        80.80
GET       0.740        81.52
GET       0.750        82.21
GET       0.760        82.91
GET       0.770        83.56
GET       0.780        84.16
GET       0.790        84.72
GET       0.800        85.30
GET       0.810        85.84
GET       0.820        86.37
GET       0.830        86.86
GET       0.840        87.34
GET       0.850        87.79
GET       0.860        88.24
GET       0.870        88.67
GET       0.880        89.08
GET       0.890        89.44
GET       0.900        89.83
GET       0.910        90.19
GET       0.920        90.54
GET       0.930        90.85
GET       0.940        91.18
GET       0.950        91.50
GET       0.960        91.81
GET       0.970        92.08
GET       0.980        92.37
GET       0.990        92.62
GET       1.000        93.98
GET       1.100        95.85
GET       1.200        97.12
GET       1.300        97.87
GET       1.400        98.34
GET       1.500        98.60
GET       1.600        98.78
GET       1.700        98.90
GET       1.800        99.01
GET       1.900        99.10
GET       2.000        99.15
GET       2.100        99.20
GET       2.200        99.25
GET       2.300        99.31
GET       2.400        99.35
GET       2.500        99.38
GET       2.600        99.41
GET       2.700        99.44
GET       2.800        99.46
GET       2.900        99.48
GET       3.000        99.51
GET       3.100        99.52
GET       3.200        99.54
GET       3.300        99.55
GET       3.400        99.58
GET       3.500        99.59
GET       3.600        99.61
GET       3.700        99.62
GET       3.800        99.65
GET       3.900        99.67
GET       4.000        99.69
GET       4.100        99.70
GET       4.200        99.72
GET       4.300        99.74
GET       4.400        99.76
GET       4.500        99.78
GET       4.600        99.79
GET       4.700        99.81
GET       4.800        99.81
GET       4.900        99.83
GET       5.000        99.84
GET       5.100        99.85
GET       5.200        99.86
GET       5.300        99.87
GET       5.400        99.87
GET       5.500        99.88
GET       5.600        99.89
GET       5.700        99.89
GET       5.800        99.90
GET       5.900        99.90
GET       6.000        99.91
GET       6.100        99.92
GET       6.200        99.92
GET       6.300        99.93
GET       6.400        99.93
GET       6.500        99.93
GET       6.700        99.94
GET       6.800        99.94
GET       6.900        99.94
GET       7.000        99.95
GET       7.100        99.95
GET       7.200        99.96
GET       7.300        99.96
GET       7.400        99.97
GET       7.500        99.97
GET       7.600        99.97
GET       7.700        99.97
GET       7.800        99.97
GET       7.900        99.98
GET       8.000        99.98
GET       8.100        99.98
GET       8.200        99.98
GET       8.300        99.98
GET       8.400        99.98
GET       8.600        99.99
GET       8.800        99.99
GET       9.200        99.99
GET       9.500        99.99
GET      11.000        99.99
GET      12.000       100.00
GET      17.000       100.00
GET      18.000       100.00
---
