1         Threads
14        Connections per thread
70        Seconds


ALL STATS
========================================================================
Type        Ops/sec     Hits/sec   Misses/sec      Latency       KB/sec 
------------------------------------------------------------------------
Sets           0.00          ---          ---      0.00000         0.00 
Gets        2977.83      2977.83         0.00      4.76400     12061.89 
Waits          0.00          ---          ---      0.00000          --- 
Totals      2977.83      2977.83         0.00      4.76400     12061.89 


Request Latency Distribution
Type     <= msec         Percent
------------------------------------------------------------------------
---
GET       0.240         0.00
GET       0.250         0.00
GET       0.260         0.00
GET       0.270         0.00
GET       0.280         0.01
GET       0.290         0.01
GET       0.300         0.01
GET       0.310         0.02
GET       0.320         0.03
GET       0.330         0.05
GET       0.340         0.07
GET       0.350         0.09
GET       0.360         0.12
GET       0.370         0.16
GET       0.380         0.22
GET       0.390         0.29
GET       0.400         0.37
GET       0.410         0.47
GET       0.420         0.61
GET       0.430         0.78
GET       0.440         0.97
GET       0.450         1.20
GET       0.460         1.47
GET       0.470         1.74
GET       0.480         2.05
GET       0.490         2.41
GET       0.500         2.78
GET       0.510         3.20
GET       0.520         3.68
GET       0.530         4.20
GET       0.540         4.73
GET       0.550         5.33
GET       0.560         5.97
GET       0.570         6.63
GET       0.580         7.30
GET       0.590         8.04
GET       0.600         8.80
GET       0.610         9.58
GET       0.620        10.41
GET       0.630        11.30
GET       0.640        12.17
GET       0.650        13.12
GET       0.660        14.09
GET       0.670        15.06
GET       0.680        16.06
GET       0.690        17.07
GET       0.700        18.10
GET       0.710        19.16
GET       0.720        20.17
GET       0.730        21.16
GET       0.740        22.23
GET       0.750        23.27
GET       0.760        24.30
GET       0.770        25.38
GET       0.780        26.51
GET       0.790        27.60
GET       0.800        28.66
GET       0.810        29.73
GET       0.820        30.80
GET       0.830        31.82
GET       0.840        32.85
GET       0.850        33.83
GET       0.860        34.86
GET       0.870        35.88
GET       0.880        36.85
GET       0.890        37.77
GET       0.900        38.69
GET       0.910        39.57
GET       0.920        40.46
GET       0.930        41.30
GET       0.940        42.10
GET       0.950        42.91
GET       0.960        43.72
GET       0.970        44.46
GET       0.980        45.21
GET       0.990        45.93
GET       1.000        49.58
GET       1.100        54.55
GET       1.200        57.93
GET       1.300        60.31
GET       1.400        61.97
GET       1.500        63.17
GET       1.600        64.02
GET       1.700        64.72
GET       1.800        65.21
GET       1.900        65.63
GET       2.000        65.96
GET       2.100        66.25
GET       2.200        66.53
GET       2.300        66.76
GET       2.400        66.94
GET       2.500        67.12
GET       2.600        67.26
GET       2.700        67.40
GET       2.800        67.53
GET       2.900        67.63
GET       3.000        67.76
GET       3.100        67.87
GET       3.200        67.97
GET       3.300        68.06
GET       3.400        68.15
GET       3.500        68.22
GET       3.600        68.28
GET       3.700        68.34
GET       3.800        68.41
GET       3.900        68.47
GET       4.000        68.53
GET       4.100        68.58
GET       4.200        68.63
GET       4.300        68.67
GET       4.400        68.73
GET       4.500        68.79
GET       4.600        68.85
GET       4.700        68.91
GET       4.800        68.97
GET       4.900        69.05
GET       5.000        69.12
GET       5.100        69.17
GET       5.200        69.21
GET       5.300        69.24
GET       5.400        69.27
GET       5.500        69.30
GET       5.600        69.32
GET       5.700        69.34
GET       5.800        69.37
GET       5.900        69.39
GET       6.000        69.41
GET       6.100        69.42
GET       6.200        69.45
GET       6.300        69.48
GET       6.400        69.50
GET       6.500        69.52
GET       6.600        69.53
GET       6.700        69.55
GET       6.800        69.56
GET       6.900        69.59
GET       7.000        69.62
GET       7.100        69.64
GET       7.200        69.65
GET       7.300        69.67
GET       7.400        69.70
GET       7.500        69.73
GET       7.600        69.75
GET       7.700        69.76
GET       7.800        69.78
GET       7.900        69.80
GET       8.000        69.81
GET       8.100        69.82
GET       8.200        69.84
GET       8.300        69.86
GET       8.400        69.89
GET       8.500        69.92
GET       8.600        69.96
GET       8.700        69.99
GET       8.800        70.02
GET       8.900        70.06
GET       9.000        70.09
GET       9.100        70.12
GET       9.200        70.16
GET       9.300        70.20
GET       9.400        70.24
GET       9.500        70.28
GET       9.600        70.33
GET       9.700        70.40
GET       9.800        70.47
GET       9.900        70.54
GET      10.000        70.93
GET      11.000        71.96
GET      12.000        74.63
GET      13.000        84.08
GET      14.000        98.41
GET      15.000        99.37
GET      16.000        99.67
GET      17.000        99.81
GET      18.000        99.89
GET      19.000        99.92
GET      20.000        99.94
GET      21.000        99.95
GET      22.000        99.95
GET      24.000        99.96
GET      25.000        99.96
GET      26.000        99.97
GET      27.000        99.98
GET      28.000        99.99
GET      29.000       100.00
---
