1         Threads
6         Connections per thread
70        Seconds


ALL STATS
========================================================================
Type        Ops/sec     Hits/sec   Misses/sec      Latency       KB/sec 
------------------------------------------------------------------------
Sets        2826.08          ---          ---      2.11900     11406.11 
Gets           0.00         0.00         0.00      0.00000         0.00 
Waits          0.00          ---          ---      0.00000          --- 
Totals      2826.08         0.00         0.00      2.11900     11406.11 


Request Latency Distribution
Type     <= msec         Percent
------------------------------------------------------------------------
SET       0.220         0.00
SET       0.230         0.01
SET       0.240         0.01
SET       0.250         0.03
SET       0.260         0.07
SET       0.270         0.12
SET       0.280         0.19
SET       0.290         0.29
SET       0.300         0.42
SET       0.310         0.60
SET       0.320         0.81
SET       0.330         1.05
SET       0.340         1.37
SET       0.350         1.73
SET       0.360         2.17
SET       0.370         2.66
SET       0.380         3.25
SET       0.390         3.91
SET       0.400         4.64
SET       0.410         5.40
SET       0.420         6.27
SET       0.430         7.16
SET       0.440         8.11
SET       0.450         9.10
SET       0.460        10.21
SET       0.470        11.35
SET       0.480        12.52
SET       0.490        13.68
SET       0.500        14.87
SET       0.510        16.16
SET       0.520        17.47
SET       0.530        18.84
SET       0.540        20.24
SET       0.550        21.60
SET       0.560        22.97
SET       0.570        24.39
SET       0.580        25.82
SET       0.590        27.29
SET       0.600        28.77
SET       0.610        30.22
SET       0.620        31.64
SET       0.630        33.17
SET       0.640        34.64
SET       0.650        36.16
SET       0.660        37.68
SET       0.670        39.17
SET       0.680        40.63
SET       0.690        42.05
SET       0.700        43.45
SET       0.710        44.84
SET       0.720        46.17
SET       0.730        47.51
SET       0.740        48.76
SET       0.750        50.05
SET       0.760        51.34
SET       0.770        52.57
SET       0.780        53.76
SET       0.790        54.89
SET       0.800        56.00
SET       0.810        57.07
SET       0.820        58.12
SET       0.830        59.11
SET       0.840        60.07
SET       0.850        61.01
SET       0.860        61.89
SET       0.870        62.74
SET       0.880        63.55
SET       0.890        64.40
SET       0.900        65.21
SET       0.910        65.97
SET       0.920        66.71
SET       0.930        67.41
SET       0.940        68.07
SET       0.950        68.74
SET       0.960        69.33
SET       0.970        69.90
SET       0.980        70.46
SET       0.990        70.99
SET       1.000        73.71
SET       1.100        77.30
SET       1.200        79.88
SET       1.300        81.49
SET       1.400        82.61
SET       1.500        83.32
SET       1.600        83.83
SET       1.700        84.17
SET       1.800        84.43
SET       1.900        84.66
SET       2.000        84.81
SET       2.100        84.94
SET       2.200        85.08
SET       2.300        85.20
SET       2.400        85.30
SET       2.500        85.40
SET       2.600        85.49
SET       2.700        85.55
SET       2.800        85.61
SET       2.900        85.67
SET       3.000        85.72
SET       3.100        85.76
SET       3.200        85.81
SET       3.300        85.85
SET       3.400        85.89
SET       3.500        85.93
SET       3.600        85.95
SET       3.700        85.98
SET       3.800        86.02
SET       3.900        86.05
SET       4.000        86.10
SET       4.100        86.13
SET       4.200        86.16
SET       4.300        86.20
SET       4.400        86.23
SET       4.500        86.26
SET       4.600        86.29
SET       4.700        86.32
SET       4.800        86.36
SET       4.900        86.39
SET       5.000        86.43
SET       5.100        86.45
SET       5.200        86.48
SET       5.300        86.52
SET       5.400        86.54
SET       5.500        86.57
SET       5.600        86.60
SET       5.700        86.63
SET       5.800        86.67
SET       5.900        86.70
SET       6.000        86.74
SET       6.100        86.76
SET       6.200        86.80
SET       6.300        86.83
SET       6.400        86.86
SET       6.500        86.90
SET       6.600        86.92
SET       6.700        86.96
SET       6.800        86.99
SET       6.900        87.02
SET       7.000        87.06
SET       7.100        87.09
SET       7.200        87.14
SET       7.300        87.20
SET       7.400        87.23
SET       7.500        87.29
SET       7.600        87.35
SET       7.700        87.39
SET       7.800        87.47
SET       7.900        87.53
SET       8.000        87.60
SET       8.100        87.66
SET       8.200        87.73
SET       8.300        87.82
SET       8.400        87.91
SET       8.500        88.00
SET       8.600        88.11
SET       8.700        88.21
SET       8.800        88.34
SET       8.900        88.45
SET       9.000        88.57
SET       9.100        88.70
SET       9.200        88.82
SET       9.300        88.96
SET       9.400        89.14
SET       9.500        89.29
SET       9.600        89.46
SET       9.700        89.67
SET       9.800        89.87
SET       9.900        90.07
SET      10.000        91.80
SET      11.000        96.92
SET      12.000        99.56
SET      13.000        99.79
SET      14.000        99.86
SET      15.000        99.90
SET      16.000        99.92
SET      17.000        99.94
SET      18.000        99.95
SET      19.000        99.95
SET      20.000        99.96
SET      21.000        99.96
SET      22.000        99.96
SET      24.000        99.97
SET      25.000        99.97
SET      26.000        99.98
SET      27.000        99.99
SET      28.000        99.99
SET      31.000        99.99
SET      64.000        99.99
SET      79.000        99.99
SET      80.000       100.00
SET     120.000       100.00
SET     140.000       100.00
---
---
