second,get,set,multiget,multigetsharded,cachemisses
1,1288,0,0,0,0
2,2640,0,0,0,0
3,4036,0,0,0,0
4,5420,0,0,0,0
5,6839,0,0,0,0
6,8145,0,0,0,0
7,9478,0,0,0,0
8,10891,0,0,0,0
9,12245,0,0,0,0
10,13630,0,0,0,0
11,15007,0,0,0,0
12,16322,0,0,0,0
13,17679,0,0,0,0
14,19027,0,0,0,0
15,20415,0,0,0,0
16,21829,0,0,0,0
17,23167,0,0,0,0
18,24477,0,0,0,0
19,25915,0,0,0,0
20,27343,0,0,0,0
21,28700,0,0,0,0
22,30144,0,0,0,0
23,31514,0,0,0,0
24,32906,0,0,0,0
25,34317,0,0,0,0
26,35715,0,0,0,0
27,37160,0,0,0,0
28,38613,0,0,0,0
29,40037,0,0,0,0
30,41421,0,0,0,0
31,42824,0,0,0,0
32,44327,0,0,0,0
33,45755,0,0,0,0
34,47130,0,0,0,0
35,48562,0,0,0,0
36,49940,0,0,0,0
37,51396,0,0,0,0
38,52804,0,0,0,0
39,54199,0,0,0,0
40,55522,0,0,0,0
41,56828,0,0,0,0
42,58275,0,0,0,0
43,59700,0,0,0,0
44,61075,0,0,0,0
45,62444,0,0,0,0
46,63842,0,0,0,0
47,65204,0,0,0,0
48,66670,0,0,0,0
49,68119,0,0,0,0
50,69524,0,0,0,0
51,70941,0,0,0,0
52,72315,0,0,0,0
53,73673,0,0,0,0
54,75032,0,0,0,0
55,76437,0,0,0,0
56,77813,0,0,0,0
57,79145,0,0,0,0
58,80492,0,0,0,0
59,81933,0,0,0,0
60,83311,0,0,0,0
61,84758,0,0,0,0
62,86169,0,0,0,0
63,87567,0,0,0,0
64,88975,0,0,0,0
65,90346,0,0,0,0
66,91674,0,0,0,0
67,93053,0,0,0,0
68,94472,0,0,0,0
69,95831,0,0,0,0
70,97210,0,0,0,0
71,97397,0,0,0,0
72,97397,0,0,0,0
73,97397,0,0,0,0
74,97397,0,0,0,0
75,97397,0,0,0,0
76,97397,0,0,0,0
77,97397,0,0,0,0
78,97397,0,0,0,0
79,97397,0,0,0,0
80,97397,0,0,0,0
81,97397,0,0,0,0
82,97397,0,0,0,0
83,97397,0,0,0,0
84,97397,0,0,0,0
85,97397,0,0,0,0
85,97397,0,0,0,0
