"Dstat 0.7.2 CSV output"
"Author:","Dag Wieers <dag@wieers.com>",,,,"URL:","http://dag.wieers.com/home-made/dstat/"
"Host:","Middleware2",,,,"User:","maki"
"Cmdline:","dstat --output dstat.csv 1 70",,,,"Date:","20 Nov 2018 08:00:02 UTC"

"total cpu usage",,,,,,"dsk/total",,"net/total",,"paging",,"system",
"usr","sys","idl","wai","hiq","siq","read","writ","recv","send","in","out","int","csw"
1.987,1.757,95.699,0.094,0.0,0.464,8638.097,181618.806,0.0,0.0,0.0,0.0,1818.467,5304.346
30.759,4.394,62.850,0.0,0.0,1.997,0.0,0.0,5461431.0,5365377.0,0.0,0.0,1916.0,6031.0
15.573,2.188,80.952,0.0,0.0,1.287,0.0,0.0,6228721.0,6137236.0,0.0,0.0,713.0,3345.0
8.237,2.188,88.674,0.0,0.0,0.901,0.0,0.0,6241938.0,6147770.0,0.0,0.0,820.0,3439.0
2.018,1.387,95.082,0.0,0.0,1.513,0.0,0.0,6261217.0,6160343.0,0.0,0.0,863.0,3167.0
8.344,1.517,88.748,0.0,0.0,1.391,0.0,0.0,6302002.0,6208002.0,0.0,0.0,1014.0,3183.0
2.010,2.513,94.472,0.0,0.0,1.005,0.0,0.0,5903055.0,5815543.0,0.0,0.0,1107.0,3226.0
0.888,1.015,97.081,0.0,0.0,1.015,0.0,0.0,5997058.0,5903921.0,0.0,0.0,1038.0,3125.0
0.884,1.894,96.338,0.0,0.0,0.884,0.0,0.0,6164130.0,6071158.0,0.0,0.0,817.0,3210.0
0.892,1.019,97.452,0.0,0.0,0.637,0.0,0.0,6198927.0,6106314.0,0.0,0.0,1024.0,3114.0
1.391,1.517,96.334,0.0,0.0,0.759,0.0,0.0,6187828.0,6093185.0,0.0,0.0,1047.0,3326.0
1.389,1.389,96.338,0.0,0.0,0.884,0.0,0.0,6159289.0,6062531.0,0.0,0.0,990.0,3359.0
1.132,1.384,96.101,0.0,0.0,1.384,0.0,0.0,5958572.0,5868832.0,0.0,0.0,987.0,2998.0
0.512,1.024,97.567,0.0,0.0,0.896,0.0,0.0,6025151.0,5930444.0,0.0,0.0,956.0,3131.0
1.519,1.519,96.329,0.0,0.0,0.633,0.0,12288.0,6007917.0,5916945.0,0.0,0.0,806.0,3242.0
1.627,1.877,95.494,0.0,0.0,1.001,0.0,0.0,6301814.0,6208107.0,0.0,0.0,694.0,3181.0
1.380,1.882,95.734,0.0,0.0,1.004,0.0,0.0,6271970.0,6173185.0,0.0,0.0,791.0,3282.0
1.006,1.258,96.226,0.0,0.0,1.509,0.0,0.0,5985516.0,5899288.0,0.0,0.0,778.0,3289.0
1.247,2.494,95.137,0.0,0.0,1.122,0.0,0.0,5970018.0,5877518.0,0.0,0.0,770.0,3314.0
1.509,1.887,95.849,0.0,0.0,0.755,0.0,4096.0,6324830.0,6222119.0,0.0,0.0,731.0,3326.0
1.380,1.757,95.859,0.0,0.0,1.004,0.0,0.0,6451861.0,6346035.0,0.0,0.0,699.0,3173.0
1.396,1.269,96.827,0.0,0.0,0.508,0.0,0.0,6170426.0,6079733.0,0.0,0.0,702.0,3222.0
1.138,1.770,96.207,0.0,0.0,0.885,0.0,0.0,6403266.0,6304754.0,0.0,0.0,839.0,3505.0
1.141,1.521,96.958,0.0,0.0,0.380,0.0,0.0,6193942.0,6102258.0,0.0,0.0,698.0,3202.0
0.757,1.513,96.343,0.0,0.0,1.387,0.0,1097728.0,6161122.0,6066875.0,0.0,0.0,751.0,3251.0
1.750,2.375,94.750,0.0,0.0,1.125,0.0,0.0,6299738.0,6200010.0,0.0,0.0,818.0,3444.0
1.391,1.517,95.828,0.0,0.0,1.264,0.0,0.0,6298432.0,6203489.0,0.0,0.0,858.0,3470.0
1.272,1.654,96.183,0.0,0.0,0.891,0.0,0.0,6511825.0,6411491.0,0.0,0.0,807.0,3353.0
1.139,1.646,96.582,0.0,0.0,0.633,0.0,0.0,6491446.0,6393350.0,0.0,0.0,680.0,3262.0
0.759,1.519,96.835,0.0,0.0,0.886,0.0,0.0,6346589.0,6252009.0,0.0,0.0,729.0,3262.0
1.509,1.761,95.849,0.0,0.0,0.881,0.0,0.0,6215067.0,6124080.0,0.0,0.0,782.0,3279.0
1.018,1.399,96.692,0.254,0.0,0.636,0.0,69632.0,6308959.0,6212256.0,0.0,0.0,701.0,3275.0
1.380,2.008,95.609,0.0,0.0,1.004,0.0,0.0,6643752.0,6547444.0,0.0,0.0,744.0,3374.0
1.144,1.271,96.696,0.0,0.0,0.889,0.0,0.0,6470576.0,6375332.0,0.0,0.0,803.0,3454.0
1.263,1.389,96.465,0.0,0.0,0.884,0.0,16384.0,6150389.0,6053384.0,0.0,0.0,757.0,3273.0
1.258,1.761,96.101,0.0,0.0,0.881,0.0,0.0,6405970.0,6313682.0,0.0,0.0,674.0,3174.0
1.017,1.144,97.078,0.0,0.0,0.762,0.0,0.0,6199479.0,6098041.0,0.0,0.0,724.0,3267.0
1.631,1.631,95.483,0.0,0.0,1.255,0.0,0.0,6497261.0,6402086.0,0.0,0.0,770.0,3421.0
1.387,1.513,96.343,0.0,0.0,0.757,0.0,0.0,6336513.0,6250415.0,0.0,0.0,694.0,3256.0
0.761,1.269,97.081,0.0,0.0,0.888,0.0,0.0,6218222.0,6123943.0,0.0,0.0,696.0,3194.0
1.259,1.889,96.222,0.0,0.0,0.630,0.0,4096.0,5965447.0,5868883.0,0.0,0.0,698.0,3147.0
1.014,1.141,97.085,0.0,0.0,0.760,0.0,0.0,5776357.0,5691745.0,0.0,0.0,762.0,3176.0
1.017,1.779,96.696,0.0,0.0,0.508,0.0,0.0,6555403.0,6459452.0,0.0,0.0,787.0,3313.0
1.629,1.754,95.739,0.0,0.0,0.877,0.0,0.0,6348367.0,6252624.0,0.0,0.0,647.0,3187.0
0.755,2.013,96.226,0.0,0.0,1.006,0.0,0.0,6211582.0,6111739.0,0.0,0.0,751.0,3299.0
0.888,1.015,97.208,0.0,0.0,0.888,0.0,0.0,6036095.0,5947677.0,0.0,0.0,696.0,3207.0
0.884,1.515,96.591,0.0,0.0,1.010,0.0,0.0,6367425.0,6270102.0,0.0,0.0,671.0,3245.0
0.763,0.891,97.583,0.0,0.0,0.763,0.0,0.0,6089861.0,5996681.0,0.0,0.0,662.0,3157.0
0.999,2.122,95.506,0.0,0.0,1.373,0.0,0.0,6583939.0,6486238.0,0.0,0.0,825.0,3535.0
0.761,1.015,97.335,0.0,0.0,0.888,0.0,0.0,6460796.0,6358168.0,0.0,0.0,712.0,3299.0
1.884,1.759,95.352,0.0,0.0,1.005,0.0,0.0,6309666.0,6217084.0,0.0,0.0,746.0,3307.0
1.502,2.003,95.870,0.0,0.0,0.626,0.0,0.0,6330226.0,6234682.0,0.0,0.0,816.0,3405.0
1.629,1.504,95.990,0.0,0.0,0.877,0.0,0.0,6171632.0,6075894.0,0.0,0.0,955.0,3185.0
0.886,1.392,97.215,0.0,0.0,0.506,0.0,0.0,6118033.0,6026978.0,0.0,0.0,943.0,3018.0
1.009,1.513,96.847,0.0,0.0,0.631,0.0,0.0,6070148.0,5978255.0,0.0,0.0,923.0,2976.0
1.132,1.258,96.478,0.0,0.0,1.132,0.0,1519616.0,6293829.0,6195403.0,0.0,0.0,852.0,3429.0
0.884,1.768,96.843,0.0,0.0,0.505,0.0,0.0,6171837.0,6079995.0,0.0,0.0,801.0,3306.0
0.638,1.148,97.704,0.0,0.0,0.510,0.0,0.0,5962788.0,5872629.0,0.0,0.0,827.0,3258.0
1.141,0.634,97.212,0.0,0.0,1.014,0.0,0.0,6002929.0,5912410.0,0.0,0.0,831.0,3330.0
0.752,2.005,95.739,0.0,0.0,1.504,0.0,0.0,6478734.0,6379983.0,0.0,0.0,848.0,3536.0
1.258,1.384,96.730,0.0,0.0,0.629,0.0,0.0,6190318.0,6089174.0,0.0,0.0,693.0,3174.0
1.009,1.387,96.343,0.252,0.0,1.009,0.0,24576.0,6500251.0,6406059.0,0.0,0.0,770.0,3458.0
1.004,1.631,96.236,0.0,0.0,1.129,0.0,0.0,6234582.0,6141601.0,0.0,0.0,693.0,3311.0
1.008,1.259,96.851,0.0,0.0,0.882,0.0,0.0,6265566.0,6164894.0,0.0,0.0,718.0,3321.0
1.005,2.010,96.357,0.0,0.0,0.628,0.0,0.0,6360123.0,6265187.0,0.0,0.0,801.0,3374.0
1.631,1.129,95.859,0.0,0.0,1.380,0.0,61440.0,6139019.0,6044487.0,0.0,0.0,999.0,3124.0
0.636,1.145,97.328,0.0,0.0,0.891,0.0,0.0,5999971.0,5916741.0,0.0,0.0,824.0,3392.0
0.887,1.267,96.831,0.0,0.0,1.014,0.0,0.0,6173118.0,6079926.0,0.0,0.0,882.0,3477.0
0.763,1.145,97.583,0.0,0.0,0.509,0.0,0.0,6355225.0,6256699.0,0.0,0.0,779.0,3384.0
0.255,0.892,98.089,0.0,0.0,0.764,0.0,0.0,6064018.0,5970415.0,0.0,0.0,764.0,3288.0
0.382,0.892,97.834,0.0,0.0,0.892,0.0,0.0,6195981.0,6106436.0,0.0,0.0,764.0,3305.0
