1         Threads
2         Connections per thread
70        Seconds


ALL STATS
========================================================================
Type        Ops/sec     Hits/sec   Misses/sec      Latency       KB/sec 
------------------------------------------------------------------------
Sets         247.50          ---          ---      4.09500       998.90 
Gets         247.48      1484.89         0.00      3.96500      6002.54 
Waits          0.00          ---          ---      0.00000          --- 
Totals       494.98      1484.89         0.00      4.03000      7001.44 


Request Latency Distribution
Type     <= msec         Percent
------------------------------------------------------------------------
SET       1.100         0.03
SET       1.200         0.21
SET       1.300         0.91
SET       1.400         3.00
SET       1.500         6.36
SET       1.600        11.08
SET       1.700        16.96
SET       1.800        22.88
SET       1.900        28.36
SET       2.000        33.60
SET       2.100        38.00
SET       2.200        41.80
SET       2.300        44.96
SET       2.400        47.61
SET       2.500        50.37
SET       2.600        52.58
SET       2.700        54.53
SET       2.800        56.21
SET       2.900        57.62
SET       3.000        58.96
SET       3.100        60.21
SET       3.200        61.41
SET       3.300        62.37
SET       3.400        63.29
SET       3.500        64.02
SET       3.600        64.72
SET       3.700        65.41
SET       3.800        66.06
SET       3.900        66.82
SET       4.000        67.52
SET       4.100        68.13
SET       4.200        68.73
SET       4.300        69.45
SET       4.400        70.16
SET       4.500        70.81
SET       4.600        71.42
SET       4.700        72.06
SET       4.800        72.68
SET       4.900        73.10
SET       5.000        73.58
SET       5.100        73.93
SET       5.200        74.37
SET       5.300        74.71
SET       5.400        75.10
SET       5.500        75.45
SET       5.600        75.77
SET       5.700        76.01
SET       5.800        76.37
SET       5.900        76.72
SET       6.000        77.02
SET       6.100        77.36
SET       6.200        77.73
SET       6.300        78.03
SET       6.400        78.44
SET       6.500        78.71
SET       6.600        79.12
SET       6.700        79.45
SET       6.800        79.80
SET       6.900        80.19
SET       7.000        80.55
SET       7.100        80.93
SET       7.200        81.33
SET       7.300        81.73
SET       7.400        82.08
SET       7.500        82.45
SET       7.600        82.89
SET       7.700        83.28
SET       7.800        83.71
SET       7.900        84.16
SET       8.000        84.51
SET       8.100        84.88
SET       8.200        85.25
SET       8.300        85.74
SET       8.400        86.20
SET       8.500        86.74
SET       8.600        87.22
SET       8.700        87.60
SET       8.800        88.02
SET       8.900        88.47
SET       9.000        88.91
SET       9.100        89.35
SET       9.200        89.77
SET       9.300        90.16
SET       9.400        90.60
SET       9.500        90.91
SET       9.600        91.24
SET       9.700        91.68
SET       9.800        92.18
SET       9.900        92.69
SET      10.000        94.52
SET      11.000        97.53
SET      12.000        98.69
SET      13.000        99.30
SET      14.000        99.54
SET      15.000        99.62
SET      16.000        99.66
SET      17.000        99.71
SET      18.000        99.73
SET      19.000        99.75
SET      20.000        99.80
SET      21.000        99.83
SET      22.000        99.86
SET      23.000        99.90
SET      24.000        99.91
SET      25.000        99.94
SET      26.000        99.97
SET      27.000        99.98
SET      28.000        99.98
SET      29.000        99.99
SET      61.000       100.00
---
GET       1.200         0.01
GET       1.300         0.01
GET       1.400         0.09
GET       1.500         0.65
GET       1.600         2.26
GET       1.700         4.76
GET       1.800         8.51
GET       1.900        13.15
GET       2.000        18.43
GET       2.100        24.07
GET       2.200        29.66
GET       2.300        35.21
GET       2.400        40.38
GET       2.500        44.90
GET       2.600        49.15
GET       2.700        53.01
GET       2.800        56.58
GET       2.900        59.54
GET       3.000        62.15
GET       3.100        64.14
GET       3.200        65.89
GET       3.300        67.82
GET       3.400        69.52
GET       3.500        70.85
GET       3.600        71.91
GET       3.700        72.95
GET       3.800        73.82
GET       3.900        74.70
GET       4.000        75.46
GET       4.100        76.23
GET       4.200        76.86
GET       4.300        77.41
GET       4.400        77.90
GET       4.500        78.39
GET       4.600        78.83
GET       4.700        79.25
GET       4.800        79.66
GET       4.900        80.09
GET       5.000        80.52
GET       5.100        80.89
GET       5.200        81.26
GET       5.300        81.60
GET       5.400        81.84
GET       5.500        82.19
GET       5.600        82.54
GET       5.700        82.89
GET       5.800        83.17
GET       5.900        83.47
GET       6.000        83.70
GET       6.100        83.91
GET       6.200        84.14
GET       6.300        84.39
GET       6.400        84.67
GET       6.500        84.85
GET       6.600        85.13
GET       6.700        85.36
GET       6.800        85.59
GET       6.900        85.79
GET       7.000        86.00
GET       7.100        86.22
GET       7.200        86.41
GET       7.300        86.62
GET       7.400        86.84
GET       7.500        86.98
GET       7.600        87.13
GET       7.700        87.32
GET       7.800        87.53
GET       7.900        87.70
GET       8.000        87.84
GET       8.100        87.98
GET       8.200        88.21
GET       8.300        88.42
GET       8.400        88.73
GET       8.500        88.93
GET       8.600        89.08
GET       8.700        89.25
GET       8.800        89.40
GET       8.900        89.64
GET       9.000        89.81
GET       9.100        89.97
GET       9.200        90.12
GET       9.300        90.26
GET       9.400        90.42
GET       9.500        90.58
GET       9.600        90.75
GET       9.700        90.89
GET       9.800        91.03
GET       9.900        91.24
GET      10.000        92.33
GET      11.000        95.01
GET      12.000        97.50
GET      13.000        98.89
GET      14.000        99.40
GET      15.000        99.60
GET      16.000        99.74
GET      17.000        99.77
GET      18.000        99.81
GET      19.000        99.85
GET      20.000        99.87
GET      21.000        99.89
GET      22.000        99.90
GET      23.000        99.91
GET      24.000        99.92
GET      25.000        99.93
GET      26.000        99.95
GET      27.000        99.97
GET      28.000        99.98
GET      29.000        99.98
GET      37.000        99.99
GET     210.000       100.00
---
