2         Threads
1         Connections per thread
70        Seconds


ALL STATS
========================================================================
Type        Ops/sec     Hits/sec   Misses/sec      Latency       KB/sec 
------------------------------------------------------------------------
Sets           0.00          ---          ---      0.00000         0.00 
Gets         960.11       960.11         0.00      2.06900      3888.98 
Waits          0.00          ---          ---      0.00000          --- 
Totals       960.11       960.11         0.00      2.06900      3888.98 


Request Latency Distribution
Type     <= msec         Percent
------------------------------------------------------------------------
---
GET       0.740         0.00
GET       0.780         0.00
GET       0.790         0.01
GET       0.810         0.01
GET       0.820         0.01
GET       0.830         0.02
GET       0.840         0.02
GET       0.850         0.03
GET       0.860         0.03
GET       0.870         0.05
GET       0.880         0.07
GET       0.890         0.09
GET       0.900         0.12
GET       0.910         0.16
GET       0.920         0.20
GET       0.930         0.24
GET       0.940         0.29
GET       0.950         0.35
GET       0.960         0.43
GET       0.970         0.53
GET       0.980         0.64
GET       0.990         0.76
GET       1.000         1.67
GET       1.100         4.98
GET       1.200        10.91
GET       1.300        19.33
GET       1.400        28.64
GET       1.500        37.95
GET       1.600        46.26
GET       1.700        53.51
GET       1.800        59.64
GET       1.900        64.78
GET       2.000        69.13
GET       2.100        72.68
GET       2.200        75.62
GET       2.300        78.17
GET       2.400        80.26
GET       2.500        81.97
GET       2.600        83.57
GET       2.700        84.90
GET       2.800        86.04
GET       2.900        87.05
GET       3.000        87.92
GET       3.100        88.79
GET       3.200        89.54
GET       3.300        90.23
GET       3.400        90.83
GET       3.500        91.40
GET       3.600        91.90
GET       3.700        92.38
GET       3.800        92.80
GET       3.900        93.21
GET       4.000        93.58
GET       4.100        93.94
GET       4.200        94.27
GET       4.300        94.63
GET       4.400        94.90
GET       4.500        95.22
GET       4.600        95.50
GET       4.700        95.76
GET       4.800        96.01
GET       4.900        96.29
GET       5.000        96.51
GET       5.100        96.71
GET       5.200        96.89
GET       5.300        97.09
GET       5.400        97.30
GET       5.500        97.47
GET       5.600        97.67
GET       5.700        97.83
GET       5.800        97.98
GET       5.900        98.12
GET       6.000        98.26
GET       6.100        98.38
GET       6.200        98.50
GET       6.300        98.61
GET       6.400        98.69
GET       6.500        98.80
GET       6.600        98.91
GET       6.700        98.99
GET       6.800        99.06
GET       6.900        99.13
GET       7.000        99.20
GET       7.100        99.26
GET       7.200        99.32
GET       7.300        99.36
GET       7.400        99.40
GET       7.500        99.44
GET       7.600        99.48
GET       7.700        99.52
GET       7.800        99.55
GET       7.900        99.58
GET       8.000        99.61
GET       8.100        99.64
GET       8.200        99.67
GET       8.300        99.70
GET       8.400        99.73
GET       8.500        99.74
GET       8.600        99.76
GET       8.700        99.78
GET       8.800        99.79
GET       8.900        99.80
GET       9.000        99.81
GET       9.100        99.82
GET       9.200        99.83
GET       9.300        99.83
GET       9.400        99.84
GET       9.500        99.86
GET       9.600        99.86
GET       9.700        99.88
GET       9.800        99.88
GET       9.900        99.88
GET      10.000        99.91
GET      11.000        99.94
GET      12.000        99.96
GET      13.000        99.96
GET      14.000        99.97
GET      15.000        99.97
GET      16.000        99.98
GET      17.000        99.98
GET      18.000        99.99
GET      19.000        99.99
GET      20.000       100.00
GET     160.000       100.00
---
