1         Threads
2         Connections per thread
70        Seconds


ALL STATS
========================================================================
Type        Ops/sec     Hits/sec   Misses/sec      Latency       KB/sec 
------------------------------------------------------------------------
Sets         240.47          ---          ---      4.17800       970.54 
Gets         240.44      1442.64         0.00      4.11800      5831.77 
Waits          0.00          ---          ---      0.00000          --- 
Totals       480.91      1442.64         0.00      4.14800      6802.30 


Request Latency Distribution
Type     <= msec         Percent
------------------------------------------------------------------------
SET       1.100         0.01
SET       1.200         0.09
SET       1.300         0.36
SET       1.400         1.49
SET       1.500         3.56
SET       1.600         7.04
SET       1.700        11.70
SET       1.800        17.00
SET       1.900        22.39
SET       2.000        27.70
SET       2.100        32.60
SET       2.200        36.98
SET       2.300        40.92
SET       2.400        44.22
SET       2.500        47.20
SET       2.600        49.80
SET       2.700        52.07
SET       2.800        53.97
SET       2.900        55.82
SET       3.000        57.16
SET       3.100        58.66
SET       3.200        59.83
SET       3.300        60.89
SET       3.400        61.96
SET       3.500        62.88
SET       3.600        63.76
SET       3.700        64.59
SET       3.800        65.38
SET       3.900        66.07
SET       4.000        66.80
SET       4.100        67.56
SET       4.200        68.18
SET       4.300        68.75
SET       4.400        69.41
SET       4.500        70.04
SET       4.600        70.68
SET       4.700        71.37
SET       4.800        71.87
SET       4.900        72.48
SET       5.000        72.95
SET       5.100        73.46
SET       5.200        73.85
SET       5.300        74.16
SET       5.400        74.51
SET       5.500        74.94
SET       5.600        75.32
SET       5.700        75.79
SET       5.800        76.13
SET       5.900        76.53
SET       6.000        76.94
SET       6.100        77.28
SET       6.200        77.63
SET       6.300        78.04
SET       6.400        78.39
SET       6.500        78.70
SET       6.600        79.08
SET       6.700        79.39
SET       6.800        79.84
SET       6.900        80.26
SET       7.000        80.59
SET       7.100        80.96
SET       7.200        81.32
SET       7.300        81.76
SET       7.400        82.18
SET       7.500        82.61
SET       7.600        82.90
SET       7.700        83.28
SET       7.800        83.75
SET       7.900        84.16
SET       8.000        84.60
SET       8.100        85.04
SET       8.200        85.50
SET       8.300        85.94
SET       8.400        86.47
SET       8.500        86.94
SET       8.600        87.39
SET       8.700        87.85
SET       8.800        88.29
SET       8.900        88.77
SET       9.000        89.24
SET       9.100        89.75
SET       9.200        90.11
SET       9.300        90.48
SET       9.400        90.96
SET       9.500        91.37
SET       9.600        91.75
SET       9.700        92.10
SET       9.800        92.46
SET       9.900        92.74
SET      10.000        94.55
SET      11.000        97.30
SET      12.000        98.65
SET      13.000        99.36
SET      14.000        99.54
SET      15.000        99.61
SET      16.000        99.66
SET      17.000        99.69
SET      18.000        99.71
SET      19.000        99.76
SET      20.000        99.80
SET      21.000        99.82
SET      22.000        99.84
SET      23.000        99.88
SET      24.000        99.89
SET      25.000        99.93
SET      26.000        99.96
SET      27.000        99.97
SET      30.000        99.98
SET      38.000        99.98
SET      41.000        99.99
SET      61.000       100.00
---
GET       1.400         0.12
GET       1.500         0.50
GET       1.600         1.45
GET       1.700         3.26
GET       1.800         6.48
GET       1.900        10.50
GET       2.000        15.06
GET       2.100        19.89
GET       2.200        25.07
GET       2.300        30.40
GET       2.400        35.70
GET       2.500        40.44
GET       2.600        44.85
GET       2.700        48.54
GET       2.800        52.10
GET       2.900        55.11
GET       3.000        57.99
GET       3.100        60.29
GET       3.200        62.66
GET       3.300        64.42
GET       3.400        66.09
GET       3.500        67.58
GET       3.600        69.03
GET       3.700        70.36
GET       3.800        71.39
GET       3.900        72.34
GET       4.000        73.29
GET       4.100        74.13
GET       4.200        74.73
GET       4.300        75.40
GET       4.400        76.13
GET       4.500        76.63
GET       4.600        77.24
GET       4.700        77.76
GET       4.800        78.16
GET       4.900        78.68
GET       5.000        79.11
GET       5.100        79.45
GET       5.200        79.85
GET       5.300        80.22
GET       5.400        80.54
GET       5.500        80.83
GET       5.600        81.13
GET       5.700        81.42
GET       5.800        81.70
GET       5.900        82.02
GET       6.000        82.38
GET       6.100        82.69
GET       6.200        82.97
GET       6.300        83.23
GET       6.400        83.42
GET       6.500        83.69
GET       6.600        83.96
GET       6.700        84.28
GET       6.800        84.59
GET       6.900        84.91
GET       7.000        85.19
GET       7.100        85.45
GET       7.200        85.68
GET       7.300        85.87
GET       7.400        86.01
GET       7.500        86.19
GET       7.600        86.47
GET       7.700        86.70
GET       7.800        86.94
GET       7.900        87.14
GET       8.000        87.35
GET       8.100        87.58
GET       8.200        87.79
GET       8.300        87.97
GET       8.400        88.20
GET       8.500        88.39
GET       8.600        88.57
GET       8.700        88.75
GET       8.800        88.90
GET       8.900        89.09
GET       9.000        89.28
GET       9.100        89.48
GET       9.200        89.62
GET       9.300        89.82
GET       9.400        89.99
GET       9.500        90.18
GET       9.600        90.39
GET       9.700        90.57
GET       9.800        90.73
GET       9.900        90.93
GET      10.000        92.27
GET      11.000        95.08
GET      12.000        97.59
GET      13.000        99.02
GET      14.000        99.48
GET      15.000        99.62
GET      16.000        99.70
GET      17.000        99.74
GET      18.000        99.77
GET      19.000        99.80
GET      20.000        99.83
GET      21.000        99.86
GET      22.000        99.88
GET      24.000        99.89
GET      25.000        99.93
GET      26.000        99.97
GET      27.000        99.98
GET      28.000        99.98
GET     190.000        99.99
GET     200.000        99.99
GET     210.000       100.00
---
