2         Threads
10        Connections per thread
70        Seconds


ALL STATS
========================================================================
Type        Ops/sec     Hits/sec   Misses/sec      Latency       KB/sec 
------------------------------------------------------------------------
Sets           0.00          ---          ---      0.00000         0.00 
Gets         913.09       913.09         0.00     21.89700      3698.52 
Waits          0.00          ---          ---      0.00000          --- 
Totals       913.09       913.09         0.00     21.89700      3698.52 


Request Latency Distribution
Type     <= msec         Percent
------------------------------------------------------------------------
---
GET       0.260         0.00
GET       0.280         0.00
GET       0.290         0.00
GET       0.330         0.01
GET       0.360         0.01
GET       0.370         0.01
GET       0.390         0.02
GET       0.400         0.02
GET       0.420         0.03
GET       0.430         0.03
GET       0.440         0.03
GET       0.450         0.03
GET       0.460         0.03
GET       0.470         0.04
GET       0.480         0.04
GET       0.490         0.05
GET       0.500         0.05
GET       0.510         0.06
GET       0.520         0.07
GET       0.530         0.07
GET       0.550         0.08
GET       0.560         0.09
GET       0.580         0.09
GET       0.590         0.09
GET       0.600         0.11
GET       0.610         0.12
GET       0.620         0.12
GET       0.630         0.13
GET       0.640         0.13
GET       0.650         0.15
GET       0.660         0.16
GET       0.670         0.17
GET       0.680         0.18
GET       0.690         0.18
GET       0.700         0.19
GET       0.710         0.19
GET       0.720         0.20
GET       0.730         0.21
GET       0.740         0.21
GET       0.750         0.22
GET       0.760         0.23
GET       0.770         0.24
GET       0.780         0.26
GET       0.790         0.27
GET       0.800         0.28
GET       0.810         0.30
GET       0.820         0.32
GET       0.830         0.33
GET       0.840         0.35
GET       0.850         0.35
GET       0.860         0.36
GET       0.870         0.37
GET       0.880         0.39
GET       0.890         0.40
GET       0.900         0.41
GET       0.910         0.42
GET       0.920         0.42
GET       0.930         0.43
GET       0.940         0.44
GET       0.950         0.44
GET       0.960         0.45
GET       0.970         0.46
GET       0.980         0.47
GET       0.990         0.48
GET       1.000         0.51
GET       1.100         0.53
GET       1.200         0.63
GET       1.300         0.69
GET       1.400         0.76
GET       1.500         0.78
GET       1.600         0.80
GET       1.700         0.82
GET       1.800         0.84
GET       1.900         0.87
GET       2.000         0.92
GET       2.100         0.93
GET       2.200         0.94
GET       2.300         0.94
GET       2.400         0.95
GET       2.500         0.95
GET       2.700         0.95
GET       2.900         0.96
GET       3.000         0.96
GET       3.100         0.97
GET       3.200         0.97
GET       3.300         0.98
GET       3.700         0.99
GET       4.000         0.99
GET       4.200         0.99
GET       4.500         0.99
GET       4.600         1.00
GET       4.700         1.00
GET       4.800         1.00
GET       4.900         1.00
GET       5.000         1.01
GET       5.100         1.01
GET       5.200         1.01
GET       5.300         1.01
GET       5.400         1.02
GET       6.000         1.02
GET       6.100         1.03
GET       6.200         1.03
GET       6.400         1.03
GET       6.500         1.03
GET       6.700         1.04
GET       7.100         1.04
GET       7.200         1.05
GET       7.500         1.05
GET       8.100         1.05
GET       8.300         1.06
GET       8.400         1.06
GET       9.100         1.06
GET       9.300         1.06
GET       9.500         1.06
GET       9.600         1.07
GET       9.800         1.07
GET       9.900         1.07
GET      10.000         1.10
GET      11.000         1.13
GET      12.000         1.22
GET      13.000         1.42
GET      14.000         1.90
GET      15.000        15.06
GET      16.000        72.31
GET      17.000        72.78
GET      18.000        73.03
GET      19.000        73.22
GET      20.000        73.27
GET      21.000        73.34
GET      22.000        73.34
GET      23.000        73.36
GET      24.000        73.39
GET      25.000        73.41
GET      26.000        73.47
GET      27.000        73.53
GET      28.000        73.64
GET      29.000        73.80
GET      30.000        74.14
GET      31.000        92.29
GET      32.000        93.03
GET      33.000        93.15
GET      34.000        93.22
GET      35.000        93.24
GET      36.000        93.26
GET      37.000        93.27
GET      39.000        93.27
GET      41.000        93.28
GET      43.000        93.28
GET      44.000        93.31
GET      45.000        93.34
GET      46.000        94.34
GET      47.000        97.64
GET      48.000        97.65
GET      52.000        97.65
GET      53.000        97.65
GET      54.000        97.66
GET      55.000        97.66
GET      57.000        97.66
GET      60.000        97.66
GET      61.000        97.68
GET      62.000        98.88
GET      63.000        99.11
GET      65.000        99.12
GET      66.000        99.12
GET      67.000        99.12
GET      69.000        99.13
GET      71.000        99.13
GET      73.000        99.14
GET      74.000        99.14
GET      75.000        99.14
GET      76.000        99.15
GET      77.000        99.15
GET      78.000        99.48
GET      79.000        99.48
GET      81.000        99.48
GET      83.000        99.49
GET      86.000        99.49
GET      88.000        99.50
GET      90.000        99.51
GET      91.000        99.51
GET      92.000        99.52
GET      93.000        99.59
GET      94.000        99.64
GET     100.000        99.65
GET     110.000        99.69
GET     120.000        99.74
GET     130.000        99.76
GET     140.000        99.77
GET     150.000        99.78
GET     160.000        99.80
GET     170.000        99.81
GET     180.000        99.81
GET     190.000        99.82
GET     200.000        99.83
GET     210.000        99.84
GET     220.000        99.84
GET     230.000        99.85
GET     240.000        99.87
GET     250.000        99.88
GET     260.000        99.89
GET     270.000        99.89
GET     300.000        99.89
GET     310.000        99.89
GET     320.000        99.90
GET     330.000        99.90
GET     340.000        99.91
GET     380.000        99.91
GET     390.000        99.91
GET     410.000        99.91
GET     420.000        99.91
GET     430.000        99.92
GET     440.000        99.92
GET     450.000        99.93
GET     460.000        99.93
GET     470.000        99.94
GET     480.000        99.94
GET     520.000        99.95
GET     540.000        99.95
GET     570.000        99.96
GET     580.000        99.97
GET     590.000        99.97
GET     610.000        99.97
GET     620.000        99.98
GET     640.000        99.98
GET     650.000        99.98
GET     690.000        99.98
GET     700.000        99.98
GET     710.000        99.99
GET     730.000       100.00
GET     750.000       100.00
GET     840.000       100.00
---
