1         Threads
32        Connections per thread
70        Seconds


ALL STATS
========================================================================
Type        Ops/sec     Hits/sec   Misses/sec      Latency       KB/sec 
------------------------------------------------------------------------
Sets           0.00          ---          ---      0.00000         0.00 
Gets         503.60       503.60         0.00     63.53100      2039.85 
Waits          0.00          ---          ---      0.00000          --- 
Totals       503.60       503.60         0.00     63.53100      2039.85 


Request Latency Distribution
Type     <= msec         Percent
------------------------------------------------------------------------
---
GET      16.000         0.00
GET      20.000         0.01
GET      21.000         0.02
GET      22.000         0.03
GET      23.000         0.03
GET      26.000         0.03
GET      28.000         0.03
GET      29.000         0.04
GET      30.000         0.04
GET      31.000         0.24
GET      32.000         0.47
GET      33.000         0.50
GET      34.000         0.54
GET      35.000         0.56
GET      36.000         0.57
GET      37.000         0.58
GET      39.000         0.59
GET      41.000         0.60
GET      42.000         0.60
GET      43.000         0.62
GET      44.000         0.65
GET      45.000         0.79
GET      46.000         2.86
GET      47.000        16.34
GET      48.000        20.14
GET      49.000        20.49
GET      50.000        20.68
GET      51.000        20.74
GET      52.000        20.79
GET      53.000        20.83
GET      54.000        20.87
GET      55.000        20.89
GET      56.000        20.95
GET      57.000        21.05
GET      58.000        21.23
GET      59.000        21.50
GET      60.000        22.24
GET      61.000        24.34
GET      62.000        52.90
GET      63.000        78.13
GET      64.000        80.04
GET      65.000        80.72
GET      66.000        80.97
GET      67.000        81.10
GET      68.000        81.16
GET      69.000        81.21
GET      70.000        81.24
GET      71.000        81.27
GET      72.000        81.35
GET      73.000        81.38
GET      74.000        81.45
GET      75.000        81.61
GET      76.000        81.93
GET      77.000        84.26
GET      78.000        92.30
GET      79.000        94.21
GET      80.000        94.37
GET      81.000        94.44
GET      82.000        94.48
GET      83.000        94.51
GET      84.000        94.52
GET      85.000        94.54
GET      87.000        94.54
GET      88.000        94.56
GET      89.000        94.57
GET      90.000        94.58
GET      91.000        94.62
GET      92.000        94.81
GET      93.000        96.29
GET      94.000        97.80
GET      95.000        97.92
GET      96.000        97.95
GET      98.000        97.96
GET      99.000        97.97
GET     100.000        98.00
GET     110.000        99.22
GET     120.000        99.50
GET     130.000        99.66
GET     140.000        99.76
GET     150.000        99.77
GET     160.000        99.86
GET     170.000        99.90
GET     190.000        99.91
GET     220.000        99.91
GET     230.000        99.95
GET     240.000        99.97
GET     250.000        99.97
GET     260.000       100.00
---
