"Dstat 0.7.2 CSV output"
"Author:","Dag Wieers <dag@wieers.com>",,,,"URL:","http://dag.wieers.com/home-made/dstat/"
"Host:","Server3",,,,"User:","maki"
"Cmdline:","dstat --output server_16_set_1_14.csv 1 70",,,,"Date:","25 Nov 2018 01:19:25 UTC"

"total cpu usage",,,,,,"dsk/total",,"net/total",,"paging",,"system",
"usr","sys","idl","wai","hiq","siq","read","writ","recv","send","in","out","int","csw"
3.828,6.619,86.286,2.561,0.0,0.707,37008.932,132649.851,0.0,0.0,0.0,0.0,18.825,1381.083
8.511,15.957,74.468,0.0,0.0,1.064,0.0,0.0,32430719.0,1051946.0,0.0,0.0,18.0,3629.0
9.524,15.476,72.619,0.0,0.0,2.381,0.0,0.0,35802496.0,1160074.0,0.0,0.0,18.0,3224.0
15.0,27.500,55.0,0.0,0.0,2.500,0.0,0.0,35500812.0,1148644.0,0.0,0.0,18.0,2255.0
11.628,23.256,60.465,0.0,0.0,4.651,0.0,0.0,40548721.0,1314708.0,0.0,0.0,18.0,2243.0
7.059,25.882,64.706,0.0,0.0,2.353,0.0,4096.0,40230484.0,1305612.0,0.0,0.0,19.0,2303.0
11.765,22.353,62.353,0.0,0.0,3.529,0.0,0.0,37050981.0,1199200.0,0.0,0.0,18.0,2028.0
12.048,28.916,53.012,0.0,0.0,6.024,0.0,0.0,39864359.0,1292744.0,0.0,0.0,18.0,2095.0
14.286,28.571,54.762,0.0,0.0,2.381,0.0,0.0,39458956.0,1278048.0,0.0,0.0,18.0,2047.0
9.524,23.810,61.905,0.0,0.0,4.762,0.0,0.0,41038205.0,1332538.0,0.0,0.0,19.0,2110.0
10.0,35.0,50.0,0.0,0.0,5.0,0.0,0.0,39662577.0,1281660.0,0.0,0.0,19.0,1850.0
9.412,23.529,62.353,0.0,0.0,4.706,0.0,0.0,40211423.0,1304348.0,0.0,0.0,18.0,2171.0
14.286,29.762,51.190,0.0,0.0,4.762,0.0,0.0,40031069.0,1297744.0,0.0,0.0,18.0,2000.0
13.953,26.744,55.814,0.0,0.0,3.488,0.0,0.0,40444960.0,1310508.0,0.0,0.0,18.0,1999.0
6.250,27.500,62.500,0.0,0.0,3.750,0.0,0.0,41599265.0,1347814.0,0.0,0.0,18.0,2120.0
13.095,36.905,44.048,0.0,0.0,5.952,0.0,0.0,39198380.0,1271778.0,0.0,0.0,19.0,1814.0
10.0,25.0,61.250,0.0,0.0,3.750,0.0,0.0,39829738.0,1293634.0,0.0,0.0,18.0,1980.0
13.253,27.711,56.627,0.0,0.0,2.410,0.0,0.0,40259222.0,1302734.0,0.0,0.0,18.0,1852.0
10.976,30.488,53.659,0.0,0.0,4.878,0.0,0.0,38699558.0,1254446.0,0.0,0.0,18.0,2066.0
15.385,38.462,42.308,0.0,0.0,3.846,0.0,0.0,40963895.0,1325834.0,0.0,0.0,18.0,1966.0
9.459,32.432,52.703,0.0,0.0,5.405,0.0,0.0,41110826.0,1335288.0,0.0,0.0,18.0,2151.0
13.333,25.556,57.778,0.0,0.0,3.333,0.0,0.0,39345235.0,1270510.0,0.0,0.0,19.0,2173.0
17.647,30.588,45.882,0.0,0.0,5.882,0.0,0.0,40690029.0,1324582.0,0.0,0.0,18.0,1935.0
13.580,32.099,51.852,0.0,0.0,2.469,0.0,0.0,38888786.0,1257144.0,0.0,0.0,18.0,1946.0
12.941,22.353,61.176,0.0,0.0,3.529,0.0,0.0,37747265.0,1222448.0,0.0,0.0,18.0,1951.0
14.286,42.857,37.662,0.0,0.0,5.195,0.0,0.0,40981993.0,1330438.0,0.0,0.0,19.0,1798.0
12.346,28.395,58.025,0.0,0.0,1.235,0.0,0.0,39508176.0,1279852.0,0.0,0.0,18.0,2010.0
12.791,29.070,55.814,0.0,0.0,2.326,0.0,0.0,40663918.0,1317854.0,0.0,0.0,18.0,1870.0
13.580,32.099,51.852,0.0,0.0,2.469,0.0,0.0,37622347.0,1218150.0,0.0,0.0,18.0,1895.0
14.118,28.235,55.294,0.0,0.0,2.353,0.0,0.0,41491005.0,1342980.0,0.0,0.0,19.0,1949.0
18.072,34.940,42.169,0.0,0.0,4.819,0.0,45056.0,36402094.0,1183951.0,0.0,0.0,23.0,1716.0
15.0,26.250,56.250,0.0,0.0,2.500,0.0,0.0,39884101.0,1296838.0,0.0,0.0,18.0,1941.0
12.048,33.735,49.398,0.0,0.0,4.819,0.0,0.0,40877385.0,1320934.0,0.0,0.0,18.0,1867.0
11.765,20.0,65.882,0.0,0.0,2.353,0.0,0.0,38374041.0,1243188.0,0.0,0.0,18.0,2132.0
15.854,35.366,43.902,0.0,0.0,4.878,0.0,0.0,40861221.0,1324838.0,0.0,0.0,18.0,1925.0
10.843,30.120,55.422,0.0,0.0,3.614,0.0,0.0,40484024.0,1312534.0,0.0,0.0,19.0,1961.0
9.195,28.736,57.471,0.0,0.0,4.598,0.0,4096.0,40315392.0,1304480.0,0.0,0.0,18.0,2043.0
15.116,36.047,40.698,0.0,0.0,8.140,0.0,0.0,40404725.0,1312884.0,0.0,0.0,18.0,1856.0
13.580,23.457,60.494,0.0,0.0,2.469,0.0,0.0,39833340.0,1290658.0,0.0,0.0,18.0,2103.0
10.976,28.049,54.878,0.0,0.0,6.098,0.0,0.0,40414858.0,1312394.0,0.0,0.0,18.0,2024.0
21.333,37.333,38.667,0.0,0.0,2.667,0.0,0.0,40173688.0,1301878.0,0.0,0.0,19.0,1760.0
18.750,26.250,51.250,0.0,0.0,3.750,0.0,0.0,39965093.0,1294474.0,0.0,0.0,18.0,1979.0
13.924,36.709,44.304,0.0,0.0,5.063,0.0,0.0,40453655.0,1308540.0,0.0,0.0,18.0,1969.0
16.456,26.582,50.633,0.0,0.0,6.329,0.0,0.0,37556660.0,1218046.0,0.0,0.0,18.0,1889.0
13.415,25.610,53.659,0.0,0.0,7.317,0.0,0.0,40980892.0,1331228.0,0.0,0.0,19.0,2020.0
10.588,30.588,55.294,0.0,0.0,3.529,0.0,0.0,40237348.0,1303294.0,0.0,0.0,18.0,1996.0
15.294,27.059,55.294,0.0,0.0,2.353,0.0,0.0,37216701.0,1204578.0,0.0,0.0,18.0,1899.0
12.048,24.096,61.446,0.0,0.0,2.410,0.0,0.0,40570368.0,1315474.0,0.0,0.0,18.0,1957.0
12.048,26.506,57.831,0.0,0.0,3.614,0.0,0.0,39829262.0,1290536.0,0.0,0.0,18.0,2071.0
15.663,20.482,57.831,0.0,0.0,6.024,0.0,0.0,38213993.0,1239224.0,0.0,0.0,19.0,1855.0
14.118,28.235,56.471,0.0,0.0,1.176,0.0,0.0,39966477.0,1295808.0,0.0,0.0,18.0,1969.0
16.883,29.870,50.649,0.0,0.0,2.597,0.0,0.0,40674092.0,1318134.0,0.0,0.0,18.0,1947.0
13.095,29.762,52.381,0.0,0.0,4.762,0.0,0.0,38349272.0,1241118.0,0.0,0.0,18.0,1764.0
12.821,24.359,60.256,0.0,0.0,2.564,0.0,0.0,39779156.0,1289294.0,0.0,0.0,18.0,2058.0
15.0,26.250,53.750,0.0,0.0,5.0,0.0,0.0,40310941.0,1306860.0,0.0,0.0,19.0,1968.0
12.195,26.829,57.317,0.0,0.0,3.659,0.0,0.0,37817640.0,1226912.0,0.0,0.0,18.0,1818.0
13.253,26.506,55.422,0.0,0.0,4.819,0.0,0.0,40276430.0,1306514.0,0.0,0.0,18.0,2086.0
10.112,19.101,67.416,0.0,0.0,3.371,0.0,0.0,39705812.0,1284254.0,0.0,0.0,18.0,2228.0
12.195,29.268,56.098,0.0,0.0,2.439,0.0,0.0,37299114.0,1208778.0,0.0,0.0,18.0,1929.0
12.195,24.390,60.976,0.0,0.0,2.439,0.0,0.0,39247628.0,1275014.0,0.0,0.0,19.0,2023.0
11.905,35.714,47.619,0.0,0.0,4.762,0.0,0.0,40138192.0,1296434.0,0.0,0.0,18.0,1903.0
14.118,30.588,49.412,1.176,0.0,4.706,0.0,98304.0,37657826.0,1225084.0,0.0,0.0,18.0,1800.0
10.843,24.096,61.446,0.0,0.0,3.614,0.0,0.0,40090579.0,1298954.0,0.0,0.0,18.0,2072.0
10.714,30.952,52.381,0.0,0.0,5.952,0.0,0.0,40782169.0,1318068.0,0.0,0.0,18.0,2115.0
13.636,27.273,54.545,0.0,0.0,4.545,0.0,0.0,36867094.0,1196866.0,0.0,0.0,19.0,1962.0
9.302,29.070,56.977,0.0,0.0,4.651,0.0,0.0,40362905.0,1306514.0,0.0,0.0,18.0,2127.0
13.580,37.037,44.444,0.0,0.0,4.938,0.0,0.0,41002665.0,1330594.0,0.0,0.0,18.0,2051.0
16.279,27.907,51.163,0.0,0.0,4.651,0.0,0.0,37819839.0,1225998.0,0.0,0.0,18.0,1885.0
11.688,32.468,51.948,0.0,0.0,3.896,0.0,0.0,39705805.0,1285300.0,0.0,0.0,18.0,1881.0
15.294,24.706,56.471,0.0,0.0,3.529,0.0,0.0,39948955.0,1295184.0,0.0,0.0,19.0,2113.0
8.889,17.778,70.0,0.0,0.0,3.333,0.0,0.0,28880182.0,940678.0,0.0,0.0,18.0,1753.0
