"Dstat 0.7.2 CSV output"
"Author:","Dag Wieers <dag@wieers.com>",,,,"URL:","http://dag.wieers.com/home-made/dstat/"
"Host:","Server3",,,,"User:","maki"
"Cmdline:","dstat --output server_8_set_4_22.csv 1 70",,,,"Date:","25 Nov 2018 01:05:41 UTC"

"total cpu usage",,,,,,"dsk/total",,"net/total",,"paging",,"system",
"usr","sys","idl","wai","hiq","siq","read","writ","recv","send","in","out","int","csw"
3.659,6.186,86.576,2.905,0.0,0.674,42347.199,151481.622,0.0,0.0,0.0,0.0,18.902,1308.749
5.155,14.433,78.351,0.0,0.0,2.062,0.0,0.0,24277770.0,785082.0,0.0,0.0,18.0,3550.0
6.522,15.217,76.087,0.0,0.0,2.174,0.0,0.0,27999760.0,908214.0,0.0,0.0,18.0,3478.0
12.222,18.889,66.667,0.0,0.0,2.222,0.0,0.0,33287553.0,1080398.0,0.0,0.0,18.0,3327.0
8.696,19.565,70.652,0.0,0.0,1.087,0.0,0.0,34341435.0,1112334.0,0.0,0.0,19.0,3226.0
3.333,21.111,74.444,0.0,0.0,1.111,0.0,0.0,31115328.0,1008252.0,0.0,0.0,18.0,2885.0
6.977,15.116,75.581,0.0,0.0,2.326,0.0,0.0,34117425.0,1106298.0,0.0,0.0,18.0,3171.0
6.818,21.591,70.455,0.0,0.0,1.136,0.0,0.0,31911517.0,1033934.0,0.0,0.0,18.0,2858.0
5.618,19.101,73.034,0.0,0.0,2.247,0.0,0.0,32302763.0,1046534.0,0.0,0.0,18.0,2826.0
7.778,17.778,73.333,0.0,0.0,1.111,0.0,0.0,33361672.0,1083136.0,0.0,0.0,19.0,3061.0
7.778,27.778,64.444,0.0,0.0,0.0,0.0,0.0,33459303.0,1083708.0,0.0,0.0,18.0,3191.0
4.651,13.953,80.233,0.0,0.0,1.163,0.0,0.0,31481504.0,1019440.0,0.0,0.0,18.0,2952.0
12.791,22.093,62.791,0.0,0.0,2.326,0.0,0.0,31352811.0,1020318.0,0.0,0.0,18.0,2792.0
9.195,19.540,68.966,0.0,0.0,2.299,0.0,0.0,33437527.0,1085174.0,0.0,0.0,18.0,3203.0
11.236,20.225,67.416,0.0,0.0,1.124,0.0,0.0,33161045.0,1072574.0,0.0,0.0,18.0,3251.0
9.412,22.353,63.529,1.176,0.0,3.529,0.0,32768.0,31808667.0,1033638.0,0.0,0.0,19.0,3123.0
6.977,19.767,72.093,0.0,0.0,1.163,0.0,0.0,32711504.0,1058154.0,0.0,0.0,18.0,3251.0
5.682,20.455,70.455,0.0,0.0,3.409,0.0,0.0,31146228.0,1011114.0,0.0,0.0,18.0,2955.0
7.955,26.136,64.773,0.0,0.0,1.136,0.0,0.0,31713520.0,1028318.0,0.0,0.0,18.0,2962.0
7.143,20.238,71.429,0.0,0.0,1.190,0.0,0.0,32642182.0,1058854.0,0.0,0.0,19.0,3083.0
5.747,18.391,73.563,0.0,0.0,2.299,0.0,0.0,32132099.0,1039954.0,0.0,0.0,18.0,3043.0
11.905,15.476,72.619,0.0,0.0,0.0,0.0,0.0,30708769.0,996958.0,0.0,0.0,18.0,2800.0
10.112,20.225,68.539,0.0,0.0,1.124,0.0,0.0,30891343.0,999914.0,0.0,0.0,18.0,2865.0
6.742,17.978,74.157,0.0,0.0,1.124,0.0,0.0,32231607.0,1044574.0,0.0,0.0,19.0,3072.0
6.977,15.116,76.744,0.0,0.0,1.163,0.0,0.0,29537266.0,959438.0,0.0,0.0,18.0,2611.0
8.046,17.241,73.563,0.0,0.0,1.149,0.0,0.0,33368245.0,1079714.0,0.0,0.0,18.0,3215.0
10.227,17.045,72.727,0.0,0.0,0.0,0.0,0.0,33110413.0,1072578.0,0.0,0.0,18.0,3166.0
7.609,27.174,63.043,0.0,0.0,2.174,0.0,0.0,29671833.0,963624.0,0.0,0.0,18.0,2733.0
8.696,23.913,64.130,0.0,0.0,3.261,0.0,0.0,33394426.0,1082094.0,0.0,0.0,18.0,3156.0
8.046,16.092,74.713,0.0,0.0,1.149,0.0,0.0,30640587.0,992214.0,0.0,0.0,19.0,3151.0
12.360,23.596,61.798,0.0,0.0,2.247,0.0,12288.0,32487651.0,1054984.0,0.0,0.0,18.0,3095.0
3.297,23.077,71.429,0.0,0.0,2.198,0.0,0.0,31349719.0,1015808.0,0.0,0.0,18.0,3075.0
9.302,13.953,73.256,0.0,0.0,3.488,0.0,0.0,30285702.0,981718.0,0.0,0.0,18.0,2901.0
7.692,21.978,69.231,0.0,0.0,1.099,0.0,0.0,33568333.0,1087958.0,0.0,0.0,19.0,3135.0
9.524,15.476,75.0,0.0,0.0,0.0,0.0,0.0,34159726.0,1108414.0,0.0,0.0,18.0,3142.0
8.434,21.687,68.675,0.0,0.0,1.205,0.0,4096.0,32184050.0,1041774.0,0.0,0.0,18.0,3319.0
9.091,20.455,69.318,0.0,0.0,1.136,0.0,0.0,31586060.0,1024678.0,0.0,0.0,18.0,2817.0
10.588,21.176,67.059,0.0,0.0,1.176,0.0,0.0,32179771.0,1044014.0,0.0,0.0,18.0,3101.0
5.814,23.256,69.767,0.0,0.0,1.163,0.0,0.0,31695603.0,1026020.0,0.0,0.0,19.0,3024.0
9.677,18.280,69.892,0.0,0.0,2.151,0.0,0.0,30409076.0,988088.0,0.0,0.0,18.0,2937.0
10.588,20.0,69.412,0.0,0.0,0.0,0.0,0.0,33389992.0,1079434.0,0.0,0.0,18.0,3285.0
5.556,18.889,73.333,0.0,0.0,2.222,0.0,0.0,32992286.0,1068934.0,0.0,0.0,18.0,3202.0
11.628,24.419,60.465,0.0,0.0,3.488,0.0,0.0,30883994.0,1002904.0,0.0,0.0,19.0,2787.0
10.465,20.930,66.279,0.0,0.0,2.326,0.0,0.0,32828089.0,1063968.0,0.0,0.0,18.0,3097.0
10.227,15.909,72.727,0.0,0.0,1.136,0.0,0.0,33342455.0,1081394.0,0.0,0.0,18.0,3177.0
7.059,15.294,74.118,1.176,0.0,2.353,0.0,28672.0,30916263.0,1003958.0,0.0,0.0,18.0,2769.0
5.495,19.780,71.429,0.0,0.0,3.297,0.0,28672.0,33212776.0,1075794.0,0.0,0.0,18.0,2977.0
6.977,12.791,76.744,0.0,0.0,3.488,0.0,0.0,32922885.0,1065294.0,0.0,0.0,18.0,3126.0
9.890,18.681,70.330,0.0,0.0,1.099,0.0,0.0,31803402.0,1029364.0,0.0,0.0,19.0,2880.0
10.227,18.182,70.455,0.0,0.0,1.136,0.0,0.0,34023952.0,1106528.0,0.0,0.0,18.0,3230.0
9.574,15.957,72.340,0.0,0.0,2.128,0.0,0.0,32404520.0,1047374.0,0.0,0.0,18.0,2977.0
7.609,21.739,69.565,0.0,0.0,1.087,0.0,0.0,34009580.0,1101912.0,0.0,0.0,18.0,3300.0
9.877,19.753,69.136,0.0,0.0,1.235,0.0,0.0,31575353.0,1025098.0,0.0,0.0,18.0,3034.0
12.644,17.241,67.816,0.0,0.0,2.299,0.0,0.0,32343854.0,1049894.0,0.0,0.0,19.0,3005.0
7.778,20.0,70.0,0.0,0.0,2.222,0.0,0.0,33273259.0,1077054.0,0.0,0.0,18.0,3036.0
10.753,24.731,61.290,0.0,0.0,3.226,0.0,0.0,33710810.0,1093418.0,0.0,0.0,18.0,3274.0
5.747,13.793,80.460,0.0,0.0,0.0,0.0,0.0,33558530.0,1087620.0,0.0,0.0,18.0,2998.0
6.818,19.318,71.591,0.0,0.0,2.273,0.0,0.0,31662689.0,1024488.0,0.0,0.0,18.0,2919.0
7.955,23.864,65.909,0.0,0.0,2.273,0.0,0.0,33430021.0,1085504.0,0.0,0.0,19.0,2939.0
6.818,18.182,75.0,0.0,0.0,0.0,0.0,0.0,32391430.0,1049828.0,0.0,0.0,18.0,3144.0
10.112,20.225,67.416,0.0,0.0,2.247,0.0,0.0,32953435.0,1068934.0,0.0,0.0,18.0,3118.0
9.412,15.294,72.941,0.0,0.0,2.353,0.0,0.0,33088694.0,1073958.0,0.0,0.0,18.0,3159.0
7.059,17.647,75.294,0.0,0.0,0.0,0.0,0.0,32136437.0,1039114.0,0.0,0.0,19.0,3005.0
8.889,20.0,67.778,0.0,0.0,3.333,0.0,0.0,32966442.0,1069774.0,0.0,0.0,18.0,3023.0
10.465,18.605,69.767,0.0,0.0,1.163,0.0,0.0,34420298.0,1116518.0,0.0,0.0,18.0,3240.0
8.235,14.118,76.471,0.0,0.0,1.176,0.0,0.0,31829595.0,1030014.0,0.0,0.0,18.0,2990.0
6.897,18.391,73.563,0.0,0.0,1.149,0.0,8192.0,33969119.0,1101134.0,0.0,0.0,18.0,3100.0
10.345,18.391,70.115,0.0,0.0,1.149,0.0,0.0,32725460.0,1062198.0,0.0,0.0,19.0,3000.0
9.091,18.182,70.455,0.0,0.0,2.273,0.0,0.0,32484956.0,1054006.0,0.0,0.0,18.0,2938.0
6.593,14.286,76.923,0.0,0.0,2.198,0.0,0.0,29596849.0,957354.0,0.0,0.0,18.0,2813.0
9.091,19.318,70.455,0.0,0.0,1.136,0.0,0.0,31809633.0,1034910.0,0.0,0.0,18.0,2970.0
