"Dstat 0.7.2 CSV output"
"Author:","Dag Wieers <dag@wieers.com>",,,,"URL:","http://dag.wieers.com/home-made/dstat/"
"Host:","Server3",,,,"User:","maki"
"Cmdline:","dstat --output server_64_set_1_2.csv 1 70",,,,"Date:","25 Nov 2018 03:21:39 UTC"

"total cpu usage",,,,,,"dsk/total",,"net/total",,"paging",,"system",
"usr","sys","idl","wai","hiq","siq","read","writ","recv","send","in","out","int","csw"
5.306,10.404,81.393,1.271,0.0,1.626,17436.662,63513.985,0.0,0.0,0.0,0.0,18.536,1410.586
5.319,6.383,84.043,0.0,0.0,4.255,0.0,0.0,13986858.0,452072.0,0.0,0.0,18.0,3402.0
5.102,9.184,81.633,0.0,0.0,4.082,0.0,0.0,15478038.0,497948.0,0.0,0.0,18.0,3250.0
4.348,8.696,82.609,0.0,0.0,4.348,0.0,0.0,20359667.0,657054.0,0.0,0.0,19.0,4158.0
5.208,9.375,78.125,0.0,0.0,7.292,0.0,0.0,21208544.0,688818.0,0.0,0.0,18.0,4080.0
5.263,10.526,75.789,0.0,0.0,8.421,0.0,0.0,21886327.0,705774.0,0.0,0.0,18.0,4061.0
3.226,10.753,80.645,0.0,0.0,5.376,0.0,0.0,20244384.0,654674.0,0.0,0.0,18.0,4037.0
5.319,9.574,75.532,2.128,0.0,7.447,0.0,45056.0,22289100.0,723258.0,0.0,0.0,18.0,4117.0
3.261,9.783,81.522,0.0,0.0,5.435,0.0,0.0,21403208.0,691214.0,0.0,0.0,19.0,3936.0
4.124,13.402,76.289,0.0,0.0,6.186,0.0,0.0,22031822.0,710954.0,0.0,0.0,18.0,4287.0
5.102,15.306,74.490,0.0,0.0,5.102,0.0,40960.0,22091667.0,717530.0,0.0,0.0,18.0,4254.0
7.143,14.286,73.469,0.0,0.0,5.102,0.0,0.0,22080900.0,712700.0,0.0,0.0,18.0,4754.0
5.155,14.433,76.289,0.0,0.0,4.124,0.0,0.0,22307627.0,720828.0,0.0,0.0,19.0,4579.0
4.255,12.766,77.660,0.0,0.0,5.319,0.0,0.0,21314142.0,690424.0,0.0,0.0,18.0,4466.0
6.186,11.340,76.289,0.0,0.0,6.186,0.0,0.0,21809951.0,704448.0,0.0,0.0,18.0,4637.0
2.105,9.474,81.053,0.0,0.0,7.368,0.0,0.0,20140884.0,650848.0,0.0,0.0,18.0,4430.0
6.452,9.677,77.419,0.0,0.0,6.452,0.0,0.0,21286264.0,690778.0,0.0,0.0,18.0,4163.0
3.125,12.500,77.083,0.0,0.0,7.292,0.0,0.0,21510118.0,693874.0,0.0,0.0,19.0,4481.0
3.030,13.131,75.758,0.0,0.0,8.081,0.0,0.0,23426489.0,757714.0,0.0,0.0,18.0,5025.0
8.163,10.204,74.490,0.0,0.0,7.143,0.0,0.0,22513828.0,730118.0,0.0,0.0,18.0,4701.0
5.319,10.638,77.660,0.0,0.0,6.383,0.0,0.0,22331179.0,720754.0,0.0,0.0,18.0,4363.0
4.211,11.579,75.789,0.0,0.0,8.421,0.0,0.0,21384065.0,690654.0,0.0,0.0,18.0,4299.0
7.447,6.383,76.596,0.0,0.0,9.574,0.0,0.0,22423712.0,728158.0,0.0,0.0,18.0,4333.0
5.263,12.632,76.842,0.0,0.0,5.263,0.0,0.0,22154002.0,715714.0,0.0,0.0,19.0,4441.0
5.208,9.375,79.167,0.0,0.0,6.250,0.0,0.0,21014610.0,678894.0,0.0,0.0,18.0,3999.0
5.435,10.870,79.348,0.0,0.0,4.348,0.0,0.0,21980795.0,712684.0,0.0,0.0,18.0,4717.0
4.211,12.632,75.789,0.0,0.0,7.368,0.0,0.0,20244004.0,652788.0,0.0,0.0,18.0,4414.0
4.082,12.245,76.531,0.0,0.0,7.143,0.0,0.0,22389527.0,723974.0,0.0,0.0,19.0,4592.0
4.348,10.870,80.435,0.0,0.0,4.348,0.0,0.0,21331531.0,691618.0,0.0,0.0,18.0,4411.0
7.216,11.340,77.320,0.0,0.0,4.124,0.0,0.0,22517828.0,726914.0,0.0,0.0,18.0,4873.0
6.250,9.375,79.167,0.0,0.0,5.208,0.0,8192.0,22095280.0,713754.0,0.0,0.0,18.0,4674.0
5.556,10.0,78.889,0.0,0.0,5.556,0.0,0.0,20634820.0,669218.0,0.0,0.0,18.0,4586.0
2.083,14.583,79.167,0.0,0.0,4.167,0.0,0.0,21125986.0,682394.0,0.0,0.0,19.0,4475.0
3.191,10.638,79.787,0.0,0.0,6.383,0.0,0.0,23297508.0,753234.0,0.0,0.0,18.0,4884.0
5.263,9.474,78.947,0.0,0.0,6.316,0.0,0.0,19834892.0,641918.0,0.0,0.0,18.0,4157.0
4.167,12.500,77.083,0.0,0.0,6.250,0.0,0.0,21261165.0,686734.0,0.0,0.0,18.0,4200.0
5.102,17.347,69.388,0.0,0.0,8.163,0.0,4096.0,19646189.0,638099.0,0.0,0.0,23.0,3916.0
7.368,9.474,74.737,2.105,0.0,6.316,0.0,45056.0,22489670.0,729978.0,0.0,0.0,19.0,4547.0
5.208,12.500,76.042,0.0,0.0,6.250,0.0,0.0,22079467.0,712914.0,0.0,0.0,18.0,4534.0
6.316,10.526,77.895,0.0,0.0,5.263,0.0,0.0,22719154.0,734194.0,0.0,0.0,18.0,4664.0
8.421,9.474,77.895,0.0,0.0,4.211,0.0,0.0,21779560.0,706532.0,0.0,0.0,18.0,4636.0
2.174,13.043,79.348,0.0,0.0,5.435,0.0,0.0,20500354.0,660200.0,0.0,0.0,18.0,4416.0
4.301,10.753,80.645,0.0,0.0,4.301,0.0,0.0,21847373.0,706894.0,0.0,0.0,19.0,4749.0
4.211,9.474,78.947,0.0,0.0,7.368,0.0,0.0,22084010.0,713614.0,0.0,0.0,18.0,4985.0
5.319,9.574,78.723,0.0,0.0,6.383,0.0,0.0,20976246.0,679018.0,0.0,0.0,18.0,4282.0
4.211,11.579,77.895,0.0,0.0,6.316,0.0,0.0,22846322.0,738954.0,0.0,0.0,18.0,4872.0
6.122,12.245,74.490,0.0,0.0,7.143,0.0,0.0,22024367.0,711094.0,0.0,0.0,18.0,4594.0
4.124,13.402,76.289,0.0,0.0,6.186,0.0,0.0,21702247.0,703798.0,0.0,0.0,19.0,4664.0
3.371,10.112,84.270,0.0,0.0,2.247,0.0,0.0,22348008.0,722434.0,0.0,0.0,18.0,4771.0
4.255,11.702,79.787,0.0,0.0,4.255,0.0,0.0,21639859.0,698634.0,0.0,0.0,18.0,4476.0
4.167,12.500,75.0,0.0,0.0,8.333,0.0,0.0,21345549.0,691898.0,0.0,0.0,18.0,4279.0
3.261,11.957,78.261,0.0,0.0,6.522,0.0,0.0,20712465.0,668814.0,0.0,0.0,19.0,4389.0
3.125,13.542,78.125,0.0,0.0,5.208,0.0,0.0,21172944.0,683514.0,0.0,0.0,18.0,3807.0
3.371,11.236,79.775,0.0,0.0,5.618,0.0,0.0,21588860.0,700718.0,0.0,0.0,18.0,4224.0
3.191,12.766,78.723,0.0,0.0,5.319,0.0,0.0,22475757.0,724674.0,0.0,0.0,18.0,4768.0
5.155,12.371,77.320,0.0,0.0,5.155,0.0,0.0,22389880.0,724814.0,0.0,0.0,18.0,4597.0
6.383,14.894,74.468,0.0,0.0,4.255,0.0,0.0,21405342.0,693858.0,0.0,0.0,19.0,4528.0
4.211,10.526,77.895,0.0,0.0,7.368,0.0,0.0,21936090.0,708994.0,0.0,0.0,18.0,4320.0
4.124,12.371,78.351,0.0,0.0,5.155,0.0,0.0,21893199.0,707454.0,0.0,0.0,18.0,4305.0
7.216,10.309,76.289,0.0,0.0,6.186,0.0,0.0,21524230.0,697218.0,0.0,0.0,18.0,4039.0
4.211,10.526,78.947,0.0,0.0,6.316,0.0,0.0,21971335.0,709274.0,0.0,0.0,18.0,4435.0
6.122,10.204,75.510,0.0,0.0,8.163,0.0,0.0,21965811.0,710114.0,0.0,0.0,19.0,4690.0
6.250,10.417,75.0,0.0,0.0,8.333,0.0,0.0,21110906.0,684198.0,0.0,0.0,18.0,4558.0
7.292,10.417,78.125,0.0,0.0,4.167,0.0,0.0,22873821.0,738674.0,0.0,0.0,18.0,4569.0
6.0,13.0,74.0,0.0,0.0,7.0,0.0,0.0,21295173.0,688134.0,0.0,0.0,18.0,4669.0
6.522,10.870,78.261,0.0,0.0,4.348,0.0,0.0,21221480.0,688958.0,0.0,0.0,18.0,4147.0
4.950,13.861,71.287,0.0,0.0,9.901,0.0,8192.0,21225467.0,683934.0,0.0,0.0,19.0,4452.0
7.368,10.526,73.684,2.105,0.0,6.316,0.0,12288.0,21857963.0,706894.0,0.0,0.0,18.0,4506.0
6.186,14.433,74.227,0.0,0.0,5.155,0.0,0.0,20300081.0,658438.0,0.0,0.0,18.0,3843.0
3.191,9.574,79.787,0.0,0.0,7.447,0.0,0.0,22053920.0,712774.0,0.0,0.0,18.0,4109.0
4.124,9.278,81.443,0.0,0.0,5.155,0.0,0.0,16545036.0,534554.0,0.0,0.0,18.0,3253.0
