"Dstat 0.7.2 CSV output"
"Author:","Dag Wieers <dag@wieers.com>",,,,"URL:","http://dag.wieers.com/home-made/dstat/"
"Host:","Server3",,,,"User:","maki"
"Cmdline:","dstat --output server_8_set_1_8.csv 1 70",,,,"Date:","25 Nov 2018 00:14:37 UTC"

"total cpu usage",,,,,,"dsk/total",,"net/total",,"paging",,"system",
"usr","sys","idl","wai","hiq","siq","read","writ","recv","send","in","out","int","csw"
2.030,2.226,89.730,5.807,0.0,0.207,91320.458,324605.705,0.0,0.0,0.0,0.0,19.623,437.740
5.682,9.091,84.091,0.0,0.0,1.136,0.0,0.0,23017846.0,748464.0,0.0,0.0,18.0,4221.0
6.383,20.213,72.340,0.0,0.0,1.064,0.0,0.0,30679773.0,992280.0,0.0,0.0,19.0,4263.0
5.882,15.294,76.471,0.0,0.0,2.353,0.0,0.0,31539842.0,1021548.0,0.0,0.0,18.0,3371.0
10.989,18.681,67.033,0.0,0.0,3.297,0.0,0.0,29481197.0,956778.0,0.0,0.0,18.0,3004.0
7.778,17.778,71.111,0.0,0.0,3.333,0.0,0.0,30562942.0,991094.0,0.0,0.0,18.0,3066.0
6.024,14.458,78.313,0.0,0.0,1.205,0.0,0.0,30951884.0,1002154.0,0.0,0.0,18.0,3049.0
6.522,20.652,71.739,0.0,0.0,1.087,0.0,0.0,29299350.0,952158.0,0.0,0.0,19.0,3032.0
11.494,19.540,66.667,0.0,0.0,2.299,0.0,0.0,31296536.0,1017315.0,0.0,0.0,23.0,3461.0
8.889,27.778,61.111,0.0,0.0,2.222,0.0,0.0,30640709.0,992000.0,0.0,0.0,18.0,3025.0
4.494,19.101,71.910,1.124,0.0,3.371,0.0,49152.0,29774950.0,966372.0,0.0,0.0,18.0,2954.0
10.345,17.241,68.966,0.0,0.0,3.448,0.0,0.0,29987937.0,971420.0,0.0,0.0,18.0,3339.0
6.897,20.690,70.115,0.0,0.0,2.299,0.0,0.0,28569113.0,928078.0,0.0,0.0,19.0,3328.0
11.628,18.605,65.116,0.0,0.0,4.651,0.0,0.0,30703719.0,995418.0,0.0,0.0,18.0,3288.0
8.974,24.359,64.103,0.0,0.0,2.564,0.0,0.0,31431907.0,1017620.0,0.0,0.0,18.0,3678.0
7.143,15.476,75.0,0.0,0.0,2.381,0.0,0.0,30346860.0,984868.0,0.0,0.0,18.0,3493.0
8.333,21.429,69.048,0.0,0.0,1.190,0.0,0.0,31372326.0,1019078.0,0.0,0.0,19.0,3271.0
8.235,25.882,61.176,0.0,0.0,4.706,0.0,0.0,30091756.0,973800.0,0.0,0.0,18.0,3684.0
9.412,16.471,71.765,0.0,0.0,2.353,0.0,0.0,31375471.0,1016368.0,0.0,0.0,18.0,3487.0
9.412,21.176,63.529,0.0,0.0,5.882,0.0,0.0,29294955.0,950338.0,0.0,0.0,18.0,3094.0
9.302,18.605,70.930,0.0,0.0,1.163,0.0,0.0,32737201.0,1060254.0,0.0,0.0,18.0,3392.0
5.952,25.0,67.857,0.0,0.0,1.190,0.0,0.0,31314882.0,1016434.0,0.0,0.0,19.0,3208.0
10.714,16.667,70.238,0.0,0.0,2.381,0.0,0.0,30972428.0,1003538.0,0.0,0.0,18.0,3134.0
6.452,22.581,68.817,0.0,0.0,2.151,0.0,0.0,31934496.0,1034432.0,0.0,0.0,18.0,3455.0
9.890,20.879,64.835,0.0,0.0,4.396,0.0,0.0,30727215.0,996908.0,0.0,0.0,18.0,3348.0
4.396,16.484,76.923,0.0,0.0,2.198,0.0,0.0,28714889.0,929774.0,0.0,0.0,18.0,3024.0
8.750,18.750,70.0,0.0,0.0,2.500,0.0,0.0,29527905.0,958816.0,0.0,0.0,19.0,3110.0
9.302,15.116,73.256,0.0,0.0,2.326,0.0,0.0,31778320.0,1030014.0,0.0,0.0,18.0,3587.0
7.955,17.045,72.727,0.0,0.0,2.273,0.0,0.0,31025365.0,1003834.0,0.0,0.0,18.0,3405.0
9.195,22.989,64.368,0.0,0.0,3.448,0.0,0.0,31163236.0,1012374.0,0.0,0.0,18.0,3424.0
10.227,20.455,69.318,0.0,0.0,0.0,0.0,8192.0,32486692.0,1052340.0,0.0,0.0,18.0,3515.0
8.140,18.605,70.930,0.0,0.0,2.326,0.0,0.0,32106160.0,1041148.0,0.0,0.0,19.0,3346.0
11.905,19.048,66.667,0.0,0.0,2.381,0.0,0.0,32398521.0,1050594.0,0.0,0.0,18.0,3358.0
6.897,19.540,72.414,0.0,0.0,1.149,0.0,0.0,31444720.0,1020708.0,0.0,0.0,18.0,3349.0
7.955,15.909,73.864,0.0,0.0,2.273,0.0,0.0,32214164.0,1041634.0,0.0,0.0,18.0,3276.0
10.112,15.730,71.910,0.0,0.0,2.247,0.0,0.0,30293370.0,985696.0,0.0,0.0,18.0,3284.0
8.235,18.824,71.765,0.0,0.0,1.176,0.0,4096.0,31587412.0,1023014.0,0.0,0.0,19.0,3214.0
10.870,19.565,67.391,0.0,0.0,2.174,0.0,0.0,31423127.0,1016434.0,0.0,0.0,18.0,3179.0
9.302,19.767,69.767,0.0,0.0,1.163,0.0,0.0,31635991.0,1027198.0,0.0,0.0,18.0,3332.0
7.955,19.318,69.318,0.0,0.0,3.409,0.0,0.0,30788927.0,998946.0,0.0,0.0,18.0,2923.0
6.024,12.048,80.723,0.0,0.0,1.205,0.0,0.0,31656518.0,1023154.0,0.0,0.0,18.0,3465.0
11.236,17.978,64.045,3.371,0.0,3.371,0.0,57344.0,28603514.0,929058.0,0.0,0.0,19.0,2968.0
8.140,19.767,69.767,0.0,0.0,2.326,0.0,0.0,32365513.0,1050594.0,0.0,0.0,18.0,3365.0
6.742,19.101,71.910,0.0,0.0,2.247,0.0,0.0,31029817.0,1003134.0,0.0,0.0,18.0,2975.0
7.865,12.360,76.404,0.0,0.0,3.371,0.0,0.0,29295238.0,953418.0,0.0,0.0,18.0,3006.0
7.955,21.591,67.045,0.0,0.0,3.409,0.0,0.0,31976560.0,1034074.0,0.0,0.0,18.0,3160.0
7.692,17.582,74.725,0.0,0.0,0.0,0.0,0.0,29927511.0,971074.0,0.0,0.0,19.0,2869.0
8.434,16.867,71.084,0.0,0.0,3.614,0.0,0.0,30811848.0,1000598.0,0.0,0.0,18.0,3154.0
9.677,21.505,66.667,0.0,0.0,2.151,0.0,0.0,31786181.0,1029594.0,0.0,0.0,18.0,3281.0
8.046,17.241,70.115,0.0,0.0,4.598,0.0,0.0,30747770.0,994758.0,0.0,0.0,18.0,3425.0
10.0,21.111,66.667,0.0,0.0,2.222,0.0,0.0,31532358.0,1024924.0,0.0,0.0,19.0,3185.0
5.618,17.978,75.281,0.0,0.0,1.124,0.0,0.0,30917398.0,999840.0,0.0,0.0,18.0,3213.0
6.452,21.505,70.968,0.0,0.0,1.075,0.0,0.0,31816589.0,1032468.0,0.0,0.0,18.0,3437.0
10.345,19.540,68.966,0.0,0.0,1.149,0.0,0.0,30583458.0,991424.0,0.0,0.0,18.0,2929.0
9.091,22.727,67.045,0.0,0.0,1.136,0.0,0.0,31534222.0,1022528.0,0.0,0.0,18.0,3188.0
6.977,18.605,73.256,0.0,0.0,1.163,0.0,0.0,31415822.0,1016092.0,0.0,0.0,19.0,3059.0
9.091,20.455,68.182,0.0,0.0,2.273,0.0,0.0,31246976.0,1015718.0,0.0,0.0,18.0,3004.0
8.046,21.839,68.966,0.0,0.0,1.149,0.0,0.0,32054274.0,1038060.0,0.0,0.0,18.0,3410.0
5.952,25.0,67.857,0.0,0.0,1.190,0.0,0.0,30947672.0,1003488.0,0.0,0.0,18.0,3196.0
14.943,16.092,66.667,0.0,0.0,2.299,0.0,0.0,30646050.0,993914.0,0.0,0.0,18.0,3317.0
8.235,17.647,72.941,0.0,0.0,1.176,0.0,0.0,31682579.0,1026234.0,0.0,0.0,19.0,3142.0
6.522,20.652,70.652,0.0,0.0,2.174,0.0,0.0,32166695.0,1043174.0,0.0,0.0,18.0,2941.0
9.639,15.663,72.289,0.0,0.0,2.410,0.0,0.0,29952252.0,971964.0,0.0,0.0,18.0,2970.0
8.333,16.667,72.619,0.0,0.0,2.381,0.0,0.0,32361204.0,1048354.0,0.0,0.0,18.0,3294.0
9.412,25.882,62.353,0.0,0.0,2.353,0.0,0.0,31142234.0,1007548.0,0.0,0.0,18.0,3199.0
10.714,16.667,71.429,0.0,0.0,1.190,0.0,0.0,29278038.0,953138.0,0.0,0.0,19.0,3219.0
5.556,13.333,78.889,0.0,0.0,2.222,0.0,0.0,29572999.0,956934.0,0.0,0.0,18.0,3199.0
7.955,17.045,72.727,0.0,0.0,2.273,0.0,0.0,31604733.0,1024060.0,0.0,0.0,18.0,3268.0
13.415,21.951,60.976,0.0,0.0,3.659,0.0,0.0,29973500.0,978211.0,0.0,0.0,23.0,2992.0
9.091,18.182,70.455,0.0,0.0,2.273,0.0,0.0,31453382.0,1016640.0,0.0,0.0,18.0,3067.0
6.742,17.978,75.281,0.0,0.0,0.0,0.0,0.0,27142231.0,881140.0,0.0,0.0,19.0,2774.0
