"Dstat 0.7.2 CSV output"
"Author:","Dag Wieers <dag@wieers.com>",,,,"URL:","http://dag.wieers.com/home-made/dstat/"
"Host:","Server3",,,,"User:","maki"
"Cmdline:","dstat --output server_8_set_1_4.csv 1 70",,,,"Date:","25 Nov 2018 00:12:35 UTC"

"total cpu usage",,,,,,"dsk/total",,"net/total",,"paging",,"system",
"usr","sys","idl","wai","hiq","siq","read","writ","recv","send","in","out","int","csw"
1.889,1.906,89.965,6.065,0.0,0.175,95757.155,340277.284,0.0,0.0,0.0,0.0,19.688,346.686
8.696,9.783,81.522,0.0,0.0,0.0,0.0,0.0,19576410.0,633742.0,0.0,0.0,18.0,4244.0
6.522,15.217,75.0,0.0,0.0,3.261,0.0,0.0,26336192.0,856258.0,0.0,0.0,18.0,4779.0
8.989,17.978,70.787,0.0,0.0,2.247,0.0,0.0,29841072.0,966174.0,0.0,0.0,19.0,4399.0
7.143,17.857,72.619,0.0,0.0,2.381,0.0,0.0,29897020.0,967854.0,0.0,0.0,18.0,4316.0
8.140,17.442,69.767,0.0,0.0,4.651,0.0,0.0,28476033.0,924718.0,0.0,0.0,18.0,4113.0
8.235,17.647,72.941,0.0,0.0,1.176,0.0,0.0,28729965.0,932434.0,0.0,0.0,18.0,4129.0
10.989,15.385,72.527,0.0,0.0,1.099,0.0,0.0,26938130.0,871534.0,0.0,0.0,18.0,3549.0
12.088,19.780,65.934,1.099,0.0,1.099,0.0,32768.0,26349260.0,857238.0,0.0,0.0,19.0,3715.0
6.897,14.943,75.862,0.0,0.0,2.299,0.0,0.0,29287678.0,948534.0,0.0,0.0,18.0,4149.0
8.140,19.767,67.442,0.0,0.0,4.651,0.0,0.0,26825087.0,870479.0,0.0,0.0,23.0,3564.0
11.494,22.989,64.368,0.0,0.0,1.149,0.0,0.0,28034891.0,912258.0,0.0,0.0,18.0,3707.0
4.545,17.045,76.136,0.0,0.0,2.273,0.0,0.0,28133377.0,911294.0,0.0,0.0,19.0,4072.0
4.444,17.778,76.667,0.0,0.0,1.111,0.0,0.0,27480610.0,890080.0,0.0,0.0,18.0,3523.0
9.783,16.304,72.826,0.0,0.0,1.087,0.0,0.0,27713051.0,900432.0,0.0,0.0,18.0,3823.0
5.618,15.730,77.528,0.0,0.0,1.124,0.0,0.0,29659503.0,961274.0,0.0,0.0,18.0,3998.0
7.955,14.773,75.0,0.0,0.0,2.273,0.0,0.0,27891367.0,903454.0,0.0,0.0,18.0,3950.0
10.714,15.476,72.619,0.0,0.0,1.190,0.0,0.0,26640833.0,864518.0,0.0,0.0,19.0,3965.0
8.537,12.195,78.049,0.0,0.0,1.220,0.0,0.0,29170908.0,943700.0,0.0,0.0,18.0,4233.0
4.819,19.277,74.699,0.0,0.0,1.205,0.0,0.0,27554232.0,894708.0,0.0,0.0,18.0,3907.0
8.642,22.222,65.432,0.0,0.0,3.704,0.0,0.0,27650519.0,896858.0,0.0,0.0,18.0,3942.0
11.236,17.978,68.539,0.0,0.0,2.247,0.0,0.0,28361076.0,919290.0,0.0,0.0,18.0,3869.0
3.488,10.465,84.884,0.0,0.0,1.163,0.0,0.0,22852502.0,741368.0,0.0,0.0,19.0,5134.0
5.682,17.045,75.0,0.0,0.0,2.273,0.0,0.0,22969712.0,745488.0,0.0,0.0,18.0,4244.0
6.593,15.385,76.923,0.0,0.0,1.099,0.0,0.0,26474645.0,859242.0,0.0,0.0,18.0,4741.0
10.465,18.605,69.767,0.0,0.0,1.163,0.0,0.0,27178088.0,880494.0,0.0,0.0,18.0,3728.0
5.882,18.824,72.941,0.0,0.0,2.353,0.0,0.0,25795961.0,837872.0,0.0,0.0,18.0,3631.0
6.897,12.644,79.310,0.0,0.0,1.149,0.0,0.0,29045544.0,940834.0,0.0,0.0,19.0,3914.0
6.742,13.483,78.652,0.0,0.0,1.124,0.0,0.0,27861088.0,900234.0,0.0,0.0,18.0,3648.0
9.524,13.095,73.810,0.0,0.0,3.571,0.0,0.0,28320377.0,919892.0,0.0,0.0,18.0,3810.0
11.765,20.0,67.059,0.0,0.0,1.176,0.0,8192.0,28894286.0,936980.0,0.0,0.0,18.0,4365.0
11.494,18.391,68.966,0.0,0.0,1.149,0.0,0.0,27683834.0,897854.0,0.0,0.0,18.0,4191.0
7.229,18.072,73.494,0.0,0.0,1.205,0.0,0.0,28781860.0,930194.0,0.0,0.0,19.0,3995.0
8.235,16.471,72.941,0.0,0.0,2.353,0.0,0.0,28346853.0,921650.0,0.0,0.0,18.0,4043.0
5.814,16.279,76.744,0.0,0.0,1.163,0.0,0.0,27757396.0,899600.0,0.0,0.0,18.0,3782.0
4.706,15.294,80.0,0.0,0.0,0.0,0.0,0.0,27824276.0,902828.0,0.0,0.0,18.0,4012.0
8.333,17.857,71.429,0.0,0.0,2.381,0.0,4096.0,27956942.0,907142.0,0.0,0.0,18.0,3903.0
6.897,16.092,73.563,0.0,0.0,3.448,0.0,0.0,26302015.0,853020.0,0.0,0.0,19.0,3678.0
10.0,16.667,72.222,1.111,0.0,0.0,0.0,45056.0,27420192.0,888194.0,0.0,0.0,17.0,3806.0
9.639,20.482,67.470,0.0,0.0,2.410,0.0,0.0,27365067.0,888384.0,0.0,0.0,19.0,3769.0
5.882,16.471,77.647,0.0,0.0,0.0,0.0,0.0,28717135.0,930194.0,0.0,0.0,18.0,4234.0
5.814,13.953,79.070,0.0,0.0,1.163,0.0,40960.0,25578483.0,829084.0,0.0,0.0,18.0,3469.0
5.952,14.286,77.381,0.0,0.0,2.381,0.0,0.0,27391021.0,889084.0,0.0,0.0,19.0,3585.0
6.897,12.644,79.310,0.0,0.0,1.149,0.0,0.0,28181005.0,912768.0,0.0,0.0,18.0,4077.0
8.989,15.730,74.157,0.0,0.0,1.124,0.0,0.0,27338097.0,885394.0,0.0,0.0,18.0,3911.0
11.957,15.217,71.739,0.0,0.0,1.087,0.0,0.0,27853529.0,905818.0,0.0,0.0,18.0,3920.0
7.865,16.854,73.034,0.0,0.0,2.247,0.0,0.0,28297707.0,914654.0,0.0,0.0,19.0,3806.0
11.111,15.556,72.222,0.0,0.0,1.111,0.0,0.0,29201278.0,947200.0,0.0,0.0,18.0,4169.0
8.046,16.092,74.713,0.0,0.0,1.149,0.0,0.0,28238297.0,916112.0,0.0,0.0,18.0,4019.0
7.317,20.732,70.732,0.0,0.0,1.220,0.0,0.0,28725648.0,931594.0,0.0,0.0,18.0,4190.0
6.977,17.442,74.419,0.0,0.0,1.163,0.0,0.0,26998594.0,874260.0,0.0,0.0,18.0,3949.0
12.500,19.318,65.909,0.0,0.0,2.273,0.0,0.0,28834894.0,935292.0,0.0,0.0,19.0,4202.0
9.302,15.116,75.581,0.0,0.0,0.0,0.0,0.0,29205559.0,946080.0,0.0,0.0,18.0,4031.0
5.556,13.333,80.0,0.0,0.0,1.111,0.0,0.0,26516716.0,859428.0,0.0,0.0,18.0,3846.0
8.889,18.889,70.0,0.0,0.0,2.222,0.0,0.0,29223929.0,949218.0,0.0,0.0,18.0,4133.0
10.588,21.176,65.882,0.0,0.0,2.353,0.0,0.0,28773256.0,933694.0,0.0,0.0,18.0,4083.0
6.818,17.045,73.864,0.0,0.0,2.273,0.0,0.0,28764587.0,930474.0,0.0,0.0,19.0,4098.0
6.329,17.722,73.418,0.0,0.0,2.532,0.0,0.0,29059619.0,943478.0,0.0,0.0,18.0,3911.0
9.412,16.471,72.941,0.0,0.0,1.176,0.0,0.0,28297684.0,917314.0,0.0,0.0,18.0,4343.0
5.556,20.0,72.222,0.0,0.0,2.222,0.0,0.0,28289009.0,915354.0,0.0,0.0,18.0,3941.0
11.364,14.773,72.727,0.0,0.0,1.136,0.0,0.0,27680643.0,900078.0,0.0,0.0,18.0,3757.0
8.989,17.978,71.910,0.0,0.0,1.124,0.0,0.0,28379840.0,919694.0,0.0,0.0,18.0,3994.0
4.651,16.279,79.070,0.0,0.0,0.0,0.0,0.0,26562004.0,861034.0,0.0,0.0,19.0,3628.0
8.140,16.279,73.256,0.0,0.0,2.326,0.0,0.0,27607100.0,896858.0,0.0,0.0,18.0,3783.0
9.783,16.304,72.826,0.0,0.0,1.087,0.0,0.0,28799166.0,931874.0,0.0,0.0,18.0,3940.0
8.333,11.905,77.381,0.0,0.0,2.381,0.0,0.0,26063972.0,843920.0,0.0,0.0,18.0,4130.0
9.412,21.176,67.059,0.0,0.0,2.353,0.0,0.0,28916991.0,938372.0,0.0,0.0,19.0,3992.0
9.524,19.048,70.238,0.0,0.0,1.190,0.0,0.0,27999405.0,908634.0,0.0,0.0,18.0,4343.0
11.494,14.943,70.115,1.149,0.0,2.299,0.0,12288.0,27000872.0,873700.0,0.0,0.0,18.0,3970.0
8.434,21.687,67.470,0.0,0.0,2.410,0.0,0.0,27702253.0,899312.0,0.0,0.0,18.0,3794.0
9.890,18.681,68.132,0.0,0.0,3.297,0.0,0.0,22284749.0,726681.0,0.0,0.0,23.0,3115.0
