"Dstat 0.7.2 CSV output"
"Author:","Dag Wieers <dag@wieers.com>",,,,"URL:","http://dag.wieers.com/home-made/dstat/"
"Host:","Server3",,,,"User:","maki"
"Cmdline:","dstat --output server_64_set_2_8.csv 1 70",,,,"Date:","25 Nov 2018 03:41:33 UTC"

"total cpu usage",,,,,,"dsk/total",,"net/total",,"paging",,"system",
"usr","sys","idl","wai","hiq","siq","read","writ","recv","send","in","out","int","csw"
5.444,10.786,80.691,1.176,0.0,1.903,16053.544,58632.811,0.0,0.0,0.0,0.0,18.515,1414.888
11.236,24.719,55.056,0.0,0.0,8.989,0.0,0.0,29579239.0,959320.0,0.0,0.0,18.0,3597.0
9.195,26.437,52.874,0.0,0.0,11.494,0.0,0.0,32252539.0,1040160.0,0.0,0.0,18.0,3265.0
17.722,34.177,40.506,0.0,0.0,7.595,0.0,0.0,38520454.0,1247454.0,0.0,0.0,18.0,2141.0
20.0,36.250,30.0,0.0,0.0,13.750,0.0,0.0,39331821.0,1279082.0,0.0,0.0,19.0,1909.0
10.870,33.696,44.565,0.0,0.0,10.870,0.0,0.0,39199038.0,1267454.0,0.0,0.0,18.0,2150.0
16.456,32.911,32.911,0.0,0.0,17.722,0.0,0.0,38961671.0,1260178.0,0.0,0.0,18.0,2552.0
16.250,35.0,41.250,0.0,0.0,7.500,0.0,0.0,37704117.0,1225932.0,0.0,0.0,18.0,1992.0
14.634,39.024,31.707,0.0,0.0,14.634,0.0,0.0,38888016.0,1257234.0,0.0,0.0,18.0,2000.0
11.628,33.721,41.860,0.0,0.0,12.791,0.0,0.0,37578608.0,1215060.0,0.0,0.0,19.0,2158.0
13.636,30.682,50.0,0.0,0.0,5.682,0.0,0.0,38030075.0,1234756.0,0.0,0.0,18.0,2064.0
11.364,36.364,43.182,0.0,0.0,9.091,0.0,0.0,38618754.0,1252054.0,0.0,0.0,18.0,2144.0
12.644,32.184,49.425,0.0,0.0,5.747,0.0,0.0,38291761.0,1238552.0,0.0,0.0,18.0,1939.0
17.857,27.381,42.857,0.0,0.0,11.905,0.0,0.0,38680668.0,1256378.0,0.0,0.0,18.0,2049.0
13.953,36.047,38.372,0.0,0.0,11.628,0.0,0.0,37968585.0,1228130.0,0.0,0.0,19.0,1953.0
14.103,33.333,38.462,1.282,0.0,12.821,0.0,45056.0,38384790.0,1241628.0,0.0,0.0,18.0,1912.0
14.634,34.146,45.122,0.0,0.0,6.098,0.0,36864.0,38972371.0,1266524.0,0.0,0.0,18.0,2199.0
13.095,34.524,42.857,0.0,0.0,9.524,0.0,0.0,37009596.0,1195774.0,0.0,0.0,18.0,1934.0
17.284,30.864,44.444,0.0,0.0,7.407,0.0,0.0,38284466.0,1239388.0,0.0,0.0,19.0,1872.0
15.116,36.047,38.372,0.0,0.0,10.465,0.0,0.0,37849343.0,1228658.0,0.0,0.0,18.0,2032.0
19.540,35.632,31.034,0.0,0.0,13.793,0.0,0.0,39475259.0,1280754.0,0.0,0.0,18.0,2204.0
19.101,33.708,35.955,0.0,0.0,11.236,0.0,0.0,37746406.0,1216000.0,0.0,0.0,18.0,2118.0
15.190,35.443,40.506,0.0,0.0,8.861,0.0,0.0,37903716.0,1232746.0,0.0,0.0,18.0,2032.0
16.250,36.250,36.250,0.0,0.0,11.250,0.0,0.0,39709431.0,1286420.0,0.0,0.0,19.0,1923.0
11.494,36.782,43.678,0.0,0.0,8.046,0.0,0.0,37640601.0,1218338.0,0.0,0.0,18.0,1986.0
18.293,32.927,36.585,0.0,0.0,12.195,0.0,0.0,38257740.0,1240344.0,0.0,0.0,18.0,1769.0
12.791,31.395,46.512,0.0,0.0,9.302,0.0,0.0,38337615.0,1239108.0,0.0,0.0,18.0,2006.0
10.465,29.070,46.512,0.0,0.0,13.953,0.0,0.0,37862334.0,1228954.0,0.0,0.0,18.0,2328.0
12.941,36.471,38.824,0.0,0.0,11.765,0.0,0.0,38402117.0,1245944.0,0.0,0.0,19.0,1943.0
12.941,32.941,37.647,0.0,0.0,16.471,0.0,0.0,38780184.0,1255792.0,0.0,0.0,18.0,1784.0
9.890,27.473,50.549,0.0,0.0,12.088,0.0,0.0,37986834.0,1233014.0,0.0,0.0,18.0,2127.0
14.286,30.769,48.352,0.0,0.0,6.593,0.0,16384.0,39400416.0,1272684.0,0.0,0.0,18.0,2178.0
15.854,31.707,41.463,0.0,0.0,10.976,0.0,0.0,38064058.0,1238408.0,0.0,0.0,18.0,1922.0
12.195,31.707,46.341,0.0,0.0,9.756,0.0,0.0,38815701.0,1256814.0,0.0,0.0,19.0,1997.0
12.195,36.585,45.122,0.0,0.0,6.098,0.0,0.0,39069627.0,1267656.0,0.0,0.0,18.0,2196.0
14.286,25.275,51.648,0.0,0.0,8.791,0.0,0.0,38441189.0,1241628.0,0.0,0.0,18.0,2007.0
15.0,33.750,38.750,0.0,0.0,12.500,0.0,0.0,38746524.0,1254308.0,0.0,0.0,18.0,2009.0
13.580,35.802,40.741,0.0,0.0,9.877,0.0,0.0,38442479.0,1247492.0,0.0,0.0,18.0,1907.0
13.953,33.721,43.023,0.0,0.0,9.302,0.0,0.0,38777503.0,1255974.0,0.0,0.0,19.0,2080.0
16.667,32.143,36.905,0.0,0.0,14.286,0.0,0.0,39108729.0,1268220.0,0.0,0.0,18.0,2017.0
11.628,38.372,38.372,0.0,0.0,11.628,0.0,0.0,38647406.0,1250930.0,0.0,0.0,18.0,2126.0
12.346,37.037,38.272,0.0,0.0,12.346,0.0,0.0,38987166.0,1263600.0,0.0,0.0,18.0,2011.0
12.500,33.750,45.0,0.0,0.0,8.750,0.0,0.0,39082316.0,1265148.0,0.0,0.0,18.0,2039.0
5.682,17.045,69.318,0.0,0.0,7.955,0.0,0.0,28516515.0,928068.0,0.0,0.0,19.0,2394.0
7.778,20.0,67.778,0.0,0.0,4.444,0.0,0.0,24742192.0,806815.0,0.0,0.0,23.0,2711.0
8.696,20.652,61.957,1.087,0.0,7.609,0.0,49152.0,29987778.0,970352.0,0.0,0.0,18.0,2978.0
9.890,17.582,70.330,0.0,0.0,2.198,0.0,0.0,29395839.0,955962.0,0.0,0.0,18.0,2885.0
7.955,13.636,70.455,0.0,0.0,7.955,0.0,0.0,26378346.0,860222.0,0.0,0.0,18.0,3965.0
16.471,24.706,50.588,0.0,0.0,8.235,0.0,0.0,32494623.0,1052284.0,0.0,0.0,19.0,3053.0
6.522,14.130,70.652,0.0,0.0,8.696,0.0,0.0,25160233.0,818222.0,0.0,0.0,18.0,3402.0
11.905,23.810,50.0,0.0,0.0,14.286,0.0,0.0,35482233.0,1151694.0,0.0,0.0,18.0,2252.0
11.494,28.736,49.425,0.0,0.0,10.345,0.0,0.0,39698580.0,1281380.0,0.0,0.0,18.0,2032.0
13.187,29.670,51.648,0.0,0.0,5.495,0.0,0.0,38473059.0,1245968.0,0.0,0.0,19.0,2190.0
12.048,27.711,51.807,0.0,0.0,8.434,0.0,0.0,38664738.0,1257576.0,0.0,0.0,18.0,2083.0
13.187,24.176,52.747,0.0,0.0,9.890,0.0,0.0,35142875.0,1138900.0,0.0,0.0,18.0,2453.0
6.667,11.111,76.667,0.0,0.0,5.556,0.0,0.0,27567066.0,894578.0,0.0,0.0,18.0,3090.0
6.452,15.054,70.968,0.0,0.0,7.527,0.0,0.0,27390949.0,888468.0,0.0,0.0,18.0,2911.0
3.529,14.118,74.118,0.0,0.0,8.235,0.0,0.0,29525990.0,959950.0,0.0,0.0,19.0,2795.0
5.495,14.286,74.725,0.0,0.0,5.495,0.0,0.0,27166015.0,877622.0,0.0,0.0,18.0,2527.0
13.187,18.681,62.637,0.0,0.0,5.495,0.0,0.0,28768289.0,937924.0,0.0,0.0,18.0,2606.0
9.783,11.957,73.913,0.0,0.0,4.348,0.0,0.0,25715147.0,834428.0,0.0,0.0,18.0,3043.0
13.830,24.468,50.0,0.0,0.0,11.702,0.0,0.0,36814313.0,1192272.0,0.0,0.0,18.0,2279.0
16.092,26.437,48.276,0.0,0.0,9.195,0.0,8192.0,37359506.0,1211918.0,0.0,0.0,19.0,2085.0
10.0,26.250,51.250,0.0,0.0,12.500,0.0,0.0,38241214.0,1236654.0,0.0,0.0,18.0,2134.0
15.294,28.235,48.235,0.0,0.0,8.235,0.0,0.0,38249519.0,1236624.0,0.0,0.0,18.0,2211.0
8.333,29.762,53.571,0.0,0.0,8.333,0.0,0.0,39182022.0,1274652.0,0.0,0.0,18.0,1950.0
15.116,30.233,45.349,0.0,0.0,9.302,0.0,0.0,39522660.0,1277320.0,0.0,0.0,18.0,2106.0
10.345,28.736,52.874,0.0,0.0,8.046,0.0,0.0,38677066.0,1249748.0,0.0,0.0,19.0,2057.0
10.843,22.892,56.627,0.0,0.0,9.639,0.0,0.0,37756941.0,1228518.0,0.0,0.0,18.0,1844.0
13.483,24.719,52.809,0.0,0.0,8.989,0.0,0.0,39117090.0,1263346.0,0.0,0.0,18.0,2100.0
7.692,15.385,73.626,0.0,0.0,3.297,0.0,0.0,29074991.0,945034.0,0.0,0.0,18.0,1846.0
