"Dstat 0.7.2 CSV output"
"Author:","Dag Wieers <dag@wieers.com>",,,,"URL:","http://dag.wieers.com/home-made/dstat/"
"Host:","Server3",,,,"User:","maki"
"Cmdline:","dstat --output server_64_set_1_22.csv 1 70",,,,"Date:","25 Nov 2018 03:29:34 UTC"

"total cpu usage",,,,,,"dsk/total",,"net/total",,"paging",,"system",
"usr","sys","idl","wai","hiq","siq","read","writ","recv","send","in","out","int","csw"
5.342,10.502,81.206,1.232,0.0,1.718,16858.332,61474.497,0.0,0.0,0.0,0.0,18.528,1422.295
9.890,26.374,52.747,0.0,0.0,10.989,0.0,0.0,38340303.0,1239704.0,0.0,0.0,18.0,2336.0
17.073,31.707,43.902,0.0,0.0,7.317,0.0,0.0,40934212.0,1328814.0,0.0,0.0,18.0,2028.0
17.500,47.500,23.750,0.0,0.0,11.250,0.0,0.0,47402990.0,1517942.0,0.0,0.0,19.0,1207.0
24.691,44.444,16.049,0.0,0.0,14.815,0.0,0.0,52536343.0,1715074.0,0.0,0.0,17.0,691.0
23.457,48.148,14.815,1.235,0.0,12.346,0.0,90112.0,52724797.0,1701734.0,0.0,0.0,19.0,774.0
17.105,44.737,22.368,0.0,0.0,15.789,0.0,0.0,50527758.0,1643774.0,0.0,0.0,18.0,905.0
20.0,40.0,22.500,0.0,0.0,17.500,0.0,0.0,49979283.0,1623050.0,0.0,0.0,18.0,941.0
22.500,46.250,12.500,0.0,0.0,18.750,0.0,0.0,51986238.0,1676366.0,0.0,0.0,19.0,730.0
16.250,53.750,10.0,0.0,0.0,20.0,0.0,0.0,53197372.0,1719100.0,0.0,0.0,18.0,576.0
19.753,51.852,17.284,0.0,0.0,11.111,0.0,0.0,51802351.0,1677778.0,0.0,0.0,18.0,858.0
16.250,48.750,22.500,0.0,0.0,12.500,0.0,0.0,50306299.0,1644692.0,0.0,0.0,18.0,877.0
18.293,47.561,21.951,0.0,0.0,12.195,0.0,0.0,49450731.0,1595906.0,0.0,0.0,18.0,951.0
24.096,49.398,12.048,0.0,0.0,14.458,0.0,0.0,50852418.0,1649810.0,0.0,0.0,19.0,662.0
21.687,44.578,16.867,0.0,0.0,16.867,0.0,0.0,54053596.0,1757034.0,0.0,0.0,18.0,883.0
17.073,57.317,15.854,0.0,0.0,9.756,0.0,8192.0,52864695.0,1703554.0,0.0,0.0,18.0,770.0
23.077,43.590,15.385,0.0,0.0,17.949,0.0,0.0,50956398.0,1659858.0,0.0,0.0,18.0,688.0
16.049,51.852,19.753,0.0,0.0,12.346,0.0,0.0,51073373.0,1654788.0,0.0,0.0,19.0,774.0
17.647,47.059,16.471,0.0,0.0,18.824,0.0,0.0,51775117.0,1678308.0,0.0,0.0,17.0,690.0
18.072,48.193,18.072,0.0,0.0,15.663,0.0,0.0,50734697.0,1639838.0,0.0,0.0,19.0,661.0
15.789,47.368,21.053,0.0,0.0,15.789,0.0,0.0,52958492.0,1718954.0,0.0,0.0,18.0,750.0
17.284,49.383,20.988,0.0,0.0,12.346,0.0,0.0,52694741.0,1699354.0,0.0,0.0,18.0,1033.0
22.500,43.750,16.250,0.0,0.0,17.500,0.0,0.0,52000299.0,1699490.0,0.0,0.0,18.0,741.0
21.333,50.667,17.333,0.0,0.0,10.667,0.0,0.0,51676075.0,1670794.0,0.0,0.0,19.0,932.0
18.182,45.455,20.779,0.0,0.0,15.584,0.0,0.0,52213446.0,1690958.0,0.0,0.0,18.0,927.0
20.513,52.564,15.385,0.0,0.0,11.538,0.0,0.0,53754618.0,1739524.0,0.0,0.0,18.0,707.0
19.753,50.617,19.753,0.0,0.0,9.877,0.0,0.0,52152699.0,1684744.0,0.0,0.0,18.0,816.0
16.867,46.988,16.867,0.0,0.0,19.277,0.0,0.0,52422210.0,1709104.0,0.0,0.0,19.0,758.0
18.519,50.617,17.284,0.0,0.0,13.580,0.0,0.0,52226872.0,1679598.0,0.0,0.0,18.0,665.0
14.667,49.333,17.333,0.0,0.0,18.667,0.0,0.0,51887589.0,1691160.0,0.0,0.0,18.0,728.0
20.0,51.250,16.250,0.0,0.0,12.500,0.0,0.0,52812717.0,1706988.0,0.0,0.0,18.0,715.0
19.277,50.602,16.867,0.0,0.0,13.253,0.0,12288.0,51305074.0,1668538.0,0.0,0.0,18.0,834.0
18.750,46.250,21.250,0.0,0.0,13.750,0.0,0.0,51506786.0,1659470.0,0.0,0.0,19.0,847.0
20.779,50.649,18.182,0.0,0.0,10.390,0.0,0.0,52084611.0,1694470.0,0.0,0.0,18.0,694.0
23.457,44.444,17.284,0.0,0.0,14.815,0.0,0.0,51521148.0,1672330.0,0.0,0.0,18.0,795.0
18.182,49.351,18.182,0.0,0.0,14.286,0.0,32768.0,52190761.0,1690488.0,0.0,0.0,18.0,902.0
21.250,50.0,13.750,0.0,0.0,15.0,0.0,0.0,53776721.0,1735194.0,0.0,0.0,19.0,702.0
16.250,52.500,17.500,0.0,0.0,13.750,0.0,0.0,51784976.0,1683658.0,0.0,0.0,18.0,749.0
20.0,46.250,20.0,0.0,0.0,13.750,0.0,0.0,50266568.0,1627814.0,0.0,0.0,18.0,869.0
17.949,53.846,15.385,0.0,0.0,12.821,0.0,0.0,53106711.0,1712374.0,0.0,0.0,18.0,640.0
16.250,48.750,23.750,0.0,0.0,11.250,0.0,0.0,48457837.0,1568516.0,0.0,0.0,18.0,838.0
18.519,48.148,19.753,0.0,0.0,13.580,0.0,0.0,50719776.0,1645104.0,0.0,0.0,23.0,714.0
23.529,48.235,12.941,0.0,0.0,15.294,0.0,0.0,49677700.0,1618739.0,0.0,0.0,19.0,775.0
20.779,50.649,15.584,0.0,0.0,12.987,0.0,0.0,51689037.0,1686054.0,0.0,0.0,18.0,705.0
23.810,46.429,17.857,0.0,0.0,11.905,0.0,0.0,52289121.0,1692814.0,0.0,0.0,18.0,801.0
14.474,47.368,18.421,0.0,0.0,19.737,0.0,0.0,51986130.0,1679828.0,0.0,0.0,18.0,826.0
15.0,47.500,22.500,0.0,0.0,15.0,0.0,0.0,52516067.0,1697814.0,0.0,0.0,18.0,835.0
18.519,49.383,20.988,0.0,0.0,11.111,0.0,0.0,51205769.0,1667624.0,0.0,0.0,19.0,882.0
24.051,44.304,18.987,0.0,0.0,12.658,0.0,0.0,51043028.0,1644150.0,0.0,0.0,18.0,922.0
18.519,50.617,18.519,0.0,0.0,12.346,0.0,0.0,53037477.0,1725954.0,0.0,0.0,18.0,751.0
16.456,49.367,21.519,0.0,0.0,12.658,0.0,0.0,52001102.0,1686256.0,0.0,0.0,18.0,778.0
17.722,46.835,20.253,0.0,0.0,15.190,0.0,0.0,50954477.0,1656006.0,0.0,0.0,18.0,688.0
18.072,45.783,24.096,0.0,0.0,12.048,0.0,0.0,49406275.0,1600860.0,0.0,0.0,19.0,982.0
18.824,52.941,14.118,0.0,0.0,14.118,0.0,0.0,50913837.0,1651680.0,0.0,0.0,18.0,771.0
19.753,48.148,17.284,0.0,0.0,14.815,0.0,0.0,51291594.0,1661418.0,0.0,0.0,18.0,895.0
20.779,48.052,16.883,0.0,0.0,14.286,0.0,0.0,52164233.0,1687606.0,0.0,0.0,18.0,853.0
25.610,42.683,17.073,0.0,0.0,14.634,0.0,0.0,53450537.0,1733638.0,0.0,0.0,19.0,837.0
18.987,48.101,20.253,0.0,0.0,12.658,0.0,0.0,51315352.0,1660590.0,0.0,0.0,18.0,847.0
19.444,47.222,18.056,0.0,0.0,15.278,0.0,0.0,51118188.0,1644820.0,0.0,0.0,18.0,763.0
25.0,47.500,13.750,0.0,0.0,13.750,0.0,0.0,51212091.0,1677784.0,0.0,0.0,18.0,622.0
20.0,50.0,16.250,0.0,0.0,13.750,0.0,0.0,52315593.0,1692700.0,0.0,0.0,18.0,743.0
14.474,44.737,25.0,0.0,0.0,15.789,0.0,0.0,51208957.0,1656654.0,0.0,0.0,19.0,935.0
22.222,46.914,22.222,0.0,0.0,8.642,0.0,8192.0,51359216.0,1664972.0,0.0,0.0,18.0,784.0
16.667,46.154,25.641,0.0,0.0,11.538,0.0,0.0,49735192.0,1609540.0,0.0,0.0,18.0,879.0
20.513,50.0,16.667,0.0,0.0,12.821,0.0,0.0,50994788.0,1645846.0,0.0,0.0,18.0,884.0
19.737,51.316,15.789,0.0,0.0,13.158,0.0,0.0,52685303.0,1714144.0,0.0,0.0,18.0,827.0
22.078,44.156,20.779,1.299,0.0,11.688,0.0,49152.0,51645575.0,1664494.0,0.0,0.0,19.0,870.0
18.605,50.0,18.605,0.0,0.0,12.791,0.0,45056.0,51162709.0,1667092.0,0.0,0.0,18.0,582.0
12.941,40.0,31.765,0.0,0.0,15.294,0.0,0.0,43815859.0,1427512.0,0.0,0.0,18.0,1214.0
11.957,22.826,51.087,0.0,0.0,14.130,0.0,0.0,36162649.0,1170554.0,0.0,0.0,18.0,1917.0
3.191,15.957,77.660,0.0,0.0,3.191,0.0,0.0,23404940.0,766166.0,0.0,0.0,18.0,1519.0
