"Dstat 0.7.2 CSV output"
"Author:","Dag Wieers <dag@wieers.com>",,,,"URL:","http://dag.wieers.com/home-made/dstat/"
"Host:","Server3",,,,"User:","maki"
"Cmdline:","dstat --output server_8_set_3_1.csv 1 70",,,,"Date:","25 Nov 2018 00:40:06 UTC"

"total cpu usage",,,,,,"dsk/total",,"net/total",,"paging",,"system",
"usr","sys","idl","wai","hiq","siq","read","writ","recv","send","in","out","int","csw"
3.152,4.990,87.560,3.788,0.0,0.510,57890.520,206476.831,0.0,0.0,0.0,0.0,19.131,1026.966
1.075,4.301,94.624,0.0,0.0,0.0,0.0,0.0,8408128.0,272970.0,0.0,0.0,18.0,2651.0
3.125,6.250,89.583,0.0,0.0,1.042,0.0,0.0,7892561.0,258038.0,0.0,0.0,18.0,2631.0
3.191,6.383,90.426,0.0,0.0,0.0,0.0,0.0,9181862.0,297534.0,0.0,0.0,19.0,2906.0
3.191,8.511,88.298,0.0,0.0,0.0,0.0,0.0,10119938.0,328194.0,0.0,0.0,18.0,2989.0
3.297,4.396,91.209,0.0,0.0,1.099,0.0,0.0,10095110.0,329718.0,0.0,0.0,18.0,3105.0
3.158,7.368,89.474,0.0,0.0,0.0,0.0,0.0,10444197.0,338274.0,0.0,0.0,18.0,3216.0
3.158,7.368,89.474,0.0,0.0,0.0,0.0,0.0,10582489.0,342754.0,0.0,0.0,18.0,3050.0
4.348,5.435,90.217,0.0,0.0,0.0,0.0,0.0,10535984.0,344278.0,0.0,0.0,19.0,3008.0
4.124,7.216,86.598,0.0,0.0,2.062,0.0,0.0,9642216.0,311740.0,0.0,0.0,18.0,2821.0
4.255,5.319,90.426,0.0,0.0,0.0,0.0,0.0,10578177.0,342828.0,0.0,0.0,18.0,3071.0
3.226,7.527,88.172,0.0,0.0,1.075,0.0,0.0,10704655.0,349878.0,0.0,0.0,18.0,3208.0
5.208,6.250,88.542,0.0,0.0,0.0,0.0,0.0,10580266.0,342894.0,0.0,0.0,18.0,3161.0
3.226,6.452,90.323,0.0,0.0,0.0,0.0,0.0,10509011.0,340514.0,0.0,0.0,19.0,3077.0
4.301,5.376,89.247,0.0,0.0,1.075,0.0,0.0,10471163.0,341058.0,0.0,0.0,18.0,3100.0
1.087,7.609,91.304,0.0,0.0,0.0,0.0,0.0,10560882.0,342894.0,0.0,0.0,18.0,3247.0
4.167,7.292,88.542,0.0,0.0,0.0,0.0,20480.0,10764047.0,348634.0,0.0,0.0,18.0,3347.0
5.319,5.319,89.362,0.0,0.0,0.0,0.0,0.0,10661423.0,348058.0,0.0,0.0,18.0,3147.0
4.211,5.263,90.526,0.0,0.0,0.0,0.0,0.0,10005352.0,323854.0,0.0,0.0,19.0,2858.0
4.124,7.216,87.629,0.0,0.0,1.031,0.0,0.0,10876474.0,352974.0,0.0,0.0,18.0,3295.0
4.396,6.593,89.011,0.0,0.0,0.0,0.0,0.0,10695983.0,348898.0,0.0,0.0,18.0,3232.0
3.226,4.301,91.398,0.0,0.0,1.075,0.0,0.0,10630030.0,344714.0,0.0,0.0,18.0,3207.0
3.158,6.316,86.316,3.158,0.0,1.053,0.0,32768.0,10673312.0,345834.0,0.0,0.0,18.0,3131.0
4.301,6.452,89.247,0.0,0.0,0.0,0.0,0.0,10765577.0,351850.0,0.0,0.0,19.0,3062.0
4.301,4.301,91.398,0.0,0.0,0.0,0.0,0.0,9434738.0,305094.0,0.0,0.0,18.0,2750.0
4.301,4.301,90.323,0.0,0.0,1.075,0.0,0.0,9769797.0,317274.0,0.0,0.0,18.0,2863.0
4.348,6.522,89.130,0.0,0.0,0.0,0.0,0.0,10523097.0,343298.0,0.0,0.0,18.0,3042.0
4.082,8.163,87.755,0.0,0.0,0.0,0.0,0.0,9897310.0,320914.0,0.0,0.0,18.0,2923.0
4.301,4.301,90.323,0.0,0.0,1.075,0.0,0.0,10643039.0,344434.0,0.0,0.0,19.0,3168.0
6.250,6.250,86.458,0.0,0.0,1.042,0.0,0.0,10259386.0,335318.0,0.0,0.0,18.0,2975.0
4.211,6.316,89.474,0.0,0.0,0.0,0.0,0.0,9534151.0,308874.0,0.0,0.0,18.0,2776.0
2.198,4.396,93.407,0.0,0.0,0.0,0.0,0.0,10513373.0,340514.0,0.0,0.0,18.0,3032.0
4.167,5.208,87.500,0.0,0.0,3.125,0.0,16384.0,10445279.0,341198.0,0.0,0.0,19.0,3145.0
3.191,5.319,91.489,0.0,0.0,0.0,0.0,0.0,9547090.0,309014.0,0.0,0.0,18.0,2794.0
5.155,6.186,87.629,0.0,0.0,1.031,0.0,0.0,9562310.0,309994.0,0.0,0.0,18.0,2725.0
4.301,6.452,88.172,0.0,0.0,1.075,0.0,0.0,9909254.0,323838.0,0.0,0.0,18.0,2695.0
3.061,8.163,88.776,0.0,0.0,0.0,0.0,0.0,9702750.0,314474.0,0.0,0.0,18.0,2748.0
4.211,6.316,88.421,0.0,0.0,1.053,0.0,0.0,10318812.0,334214.0,0.0,0.0,19.0,2968.0
3.226,6.452,90.323,0.0,0.0,0.0,0.0,0.0,9913164.0,321566.0,0.0,0.0,18.0,2915.0
3.226,4.301,92.473,0.0,0.0,0.0,0.0,0.0,7699511.0,251646.0,0.0,0.0,18.0,2446.0
3.226,8.602,88.172,0.0,0.0,0.0,0.0,0.0,10677612.0,346254.0,0.0,0.0,18.0,3039.0
5.208,6.250,88.542,0.0,0.0,0.0,0.0,0.0,10530624.0,340794.0,0.0,0.0,18.0,3015.0
3.191,6.383,89.362,0.0,0.0,1.064,0.0,0.0,9764356.0,319218.0,0.0,0.0,19.0,2866.0
5.435,8.696,83.696,0.0,0.0,2.174,0.0,0.0,10151142.0,332995.0,0.0,0.0,23.0,3046.0
3.191,6.383,89.362,0.0,0.0,1.064,0.0,0.0,10400933.0,337434.0,0.0,0.0,18.0,3243.0
3.226,6.452,90.323,0.0,0.0,0.0,0.0,0.0,8216573.0,268434.0,0.0,0.0,18.0,2640.0
3.158,5.263,90.526,0.0,0.0,1.053,0.0,0.0,8874965.0,287734.0,0.0,0.0,18.0,2813.0
4.167,5.208,90.625,0.0,0.0,0.0,0.0,0.0,9614188.0,311674.0,0.0,0.0,19.0,2935.0
3.261,4.348,92.391,0.0,0.0,0.0,0.0,0.0,9079269.0,296678.0,0.0,0.0,18.0,2934.0
3.158,6.316,90.526,0.0,0.0,0.0,0.0,0.0,10253957.0,332394.0,0.0,0.0,18.0,3055.0
4.124,9.278,85.567,0.0,0.0,1.031,0.0,0.0,10409566.0,336734.0,0.0,0.0,18.0,2993.0
2.128,6.383,90.426,0.0,0.0,1.064,0.0,0.0,10244218.0,334758.0,0.0,0.0,18.0,3233.0
4.211,7.368,87.368,1.053,0.0,0.0,0.0,94208.0,10867847.0,352274.0,0.0,0.0,19.0,3325.0
1.042,10.417,88.542,0.0,0.0,0.0,0.0,0.0,10924053.0,354094.0,0.0,0.0,18.0,3216.0
3.261,4.348,90.217,0.0,0.0,2.174,0.0,0.0,9829209.0,320478.0,0.0,0.0,18.0,2916.0
4.255,4.255,91.489,0.0,0.0,0.0,0.0,0.0,7802880.0,253014.0,0.0,0.0,18.0,2393.0
4.301,2.151,93.548,0.0,0.0,0.0,0.0,0.0,8261101.0,267854.0,0.0,0.0,18.0,2478.0
3.191,6.383,90.426,0.0,0.0,0.0,0.0,0.0,9396780.0,307318.0,0.0,0.0,19.0,2930.0
3.191,5.319,90.426,0.0,0.0,1.064,0.0,0.0,10898077.0,352904.0,0.0,0.0,18.0,3088.0
3.158,7.368,89.474,0.0,0.0,0.0,0.0,0.0,10573877.0,342754.0,0.0,0.0,18.0,3037.0
4.301,6.452,88.172,0.0,0.0,1.075,0.0,0.0,9496329.0,309978.0,0.0,0.0,18.0,2693.0
2.198,4.396,93.407,0.0,0.0,0.0,0.0,0.0,10426868.0,338274.0,0.0,0.0,18.0,3023.0
1.075,6.452,92.473,0.0,0.0,0.0,0.0,0.0,10521971.0,340374.0,0.0,0.0,19.0,3071.0
6.186,6.186,87.629,0.0,0.0,0.0,0.0,0.0,9785836.0,319778.0,0.0,0.0,18.0,2786.0
3.158,6.316,89.474,0.0,0.0,1.053,0.0,0.0,10292984.0,333654.0,0.0,0.0,18.0,3150.0
5.263,6.316,88.421,0.0,0.0,0.0,0.0,0.0,9684706.0,313852.0,0.0,0.0,18.0,2861.0
5.208,6.250,87.500,0.0,0.0,1.042,0.0,0.0,11011565.0,359538.0,0.0,0.0,18.0,3370.0
1.053,9.474,89.474,0.0,0.0,0.0,0.0,0.0,10273348.0,332814.0,0.0,0.0,19.0,3148.0
2.174,5.435,91.304,0.0,0.0,1.087,0.0,8192.0,10513292.0,340654.0,0.0,0.0,18.0,3266.0
3.191,6.383,90.426,0.0,0.0,0.0,0.0,0.0,9857311.0,322158.0,0.0,0.0,18.0,3029.0
1.111,2.222,95.556,0.0,0.0,1.111,0.0,0.0,8448042.0,273734.0,0.0,0.0,18.0,2449.0
