"Dstat 0.7.2 CSV output"
"Author:","Dag Wieers <dag@wieers.com>",,,,"URL:","http://dag.wieers.com/home-made/dstat/"
"Host:","Server3",,,,"User:","maki"
"Cmdline:","dstat --output server_16_set_4_14.csv 1 70",,,,"Date:","25 Nov 2018 02:07:22 UTC"

"total cpu usage",,,,,,"dsk/total",,"net/total",,"paging",,"system",
"usr","sys","idl","wai","hiq","siq","read","writ","recv","send","in","out","int","csw"
4.499,8.306,84.382,1.821,0.0,0.992,25693.302,92660.033,0.0,0.0,0.0,0.0,18.657,1435.787
5.814,17.442,74.419,0.0,0.0,2.326,0.0,0.0,31434705.0,1019084.0,0.0,0.0,18.0,3728.0
8.046,27.586,62.069,0.0,0.0,2.299,0.0,0.0,35123790.0,1136274.0,0.0,0.0,19.0,3032.0
9.524,27.381,58.333,0.0,0.0,4.762,0.0,0.0,37252476.0,1206834.0,0.0,0.0,18.0,2632.0
13.095,35.714,47.619,0.0,0.0,3.571,0.0,0.0,38042444.0,1233904.0,0.0,0.0,18.0,1812.0
13.580,27.160,55.556,0.0,0.0,3.704,0.0,0.0,41332785.0,1338166.0,0.0,0.0,18.0,2115.0
14.286,28.571,53.571,0.0,0.0,3.571,0.0,0.0,41106573.0,1332834.0,0.0,0.0,19.0,1914.0
8.333,27.381,60.714,0.0,0.0,3.571,0.0,0.0,36062938.0,1170960.0,0.0,0.0,18.0,2438.0
5.952,23.810,67.857,0.0,0.0,2.381,0.0,0.0,35241456.0,1143538.0,0.0,0.0,18.0,2950.0
8.602,22.581,64.516,0.0,0.0,4.301,0.0,0.0,33734881.0,1094908.0,0.0,0.0,18.0,2675.0
16.0,32.0,45.333,0.0,0.0,6.667,0.0,0.0,38725576.0,1256014.0,0.0,0.0,18.0,2178.0
10.976,35.366,45.122,3.659,0.0,4.878,0.0,45056.0,41564480.0,1349214.0,0.0,0.0,19.0,2087.0
14.474,23.684,57.895,0.0,0.0,3.947,0.0,0.0,40829665.0,1319180.0,0.0,0.0,18.0,2094.0
17.105,32.895,42.105,0.0,0.0,7.895,0.0,4096.0,38666194.0,1254936.0,0.0,0.0,18.0,1957.0
16.049,37.037,41.975,0.0,0.0,4.938,0.0,0.0,40911969.0,1325620.0,0.0,0.0,18.0,1950.0
15.385,30.769,50.0,0.0,0.0,3.846,0.0,0.0,40423393.0,1308128.0,0.0,0.0,18.0,1979.0
15.476,27.381,54.762,0.0,0.0,2.381,0.0,0.0,37731258.0,1227398.0,0.0,0.0,19.0,1881.0
9.524,30.952,55.952,0.0,0.0,3.571,0.0,0.0,40946501.0,1326254.0,0.0,0.0,17.0,2084.0
13.158,30.263,52.632,0.0,0.0,3.947,0.0,0.0,38757069.0,1252888.0,0.0,0.0,19.0,2095.0
13.750,35.0,46.250,0.0,0.0,5.0,0.0,0.0,37411520.0,1216070.0,0.0,0.0,18.0,1837.0
15.909,22.727,59.091,0.0,0.0,2.273,0.0,0.0,41080661.0,1329474.0,0.0,0.0,18.0,2345.0
9.412,27.059,60.0,0.0,0.0,3.529,0.0,0.0,41439200.0,1343540.0,0.0,0.0,19.0,2215.0
11.905,25.0,58.333,0.0,0.0,4.762,0.0,0.0,38003690.0,1231598.0,0.0,0.0,18.0,1955.0
10.588,21.176,65.882,0.0,0.0,2.353,0.0,0.0,39757109.0,1287220.0,0.0,0.0,18.0,2112.0
15.294,31.765,45.882,0.0,0.0,7.059,0.0,0.0,41037177.0,1328980.0,0.0,0.0,18.0,1825.0
17.722,31.646,45.570,0.0,0.0,5.063,0.0,0.0,38115648.0,1240352.0,0.0,0.0,18.0,1692.0
13.514,35.135,45.946,0.0,0.0,5.405,0.0,0.0,41287932.0,1335354.0,0.0,0.0,19.0,1910.0
11.111,27.160,58.025,0.0,0.0,3.704,0.0,0.0,40816666.0,1323034.0,0.0,0.0,18.0,2084.0
18.519,28.395,48.148,0.0,0.0,4.938,0.0,0.0,36692734.0,1191886.0,0.0,0.0,18.0,1760.0
17.722,35.443,45.570,0.0,0.0,1.266,0.0,0.0,41204951.0,1332834.0,0.0,0.0,18.0,1843.0
15.730,26.966,52.809,0.0,0.0,4.494,0.0,0.0,41247398.0,1335074.0,0.0,0.0,18.0,2142.0
16.456,36.709,41.772,0.0,0.0,5.063,0.0,0.0,40636233.0,1317204.0,0.0,0.0,19.0,1887.0
14.118,28.235,51.765,0.0,0.0,5.882,0.0,0.0,41205847.0,1338368.0,0.0,0.0,18.0,1934.0
11.392,32.911,51.899,0.0,0.0,3.797,0.0,16384.0,40252236.0,1301558.0,0.0,0.0,18.0,1977.0
17.073,24.390,53.659,0.0,0.0,4.878,0.0,0.0,40385651.0,1311044.0,0.0,0.0,18.0,1891.0
12.195,35.366,50.0,0.0,0.0,2.439,0.0,0.0,39762023.0,1289508.0,0.0,0.0,18.0,1774.0
11.842,42.105,40.789,0.0,0.0,5.263,0.0,0.0,40868836.0,1319674.0,0.0,0.0,19.0,1700.0
16.667,30.952,47.619,0.0,0.0,4.762,0.0,0.0,41197988.0,1337372.0,0.0,0.0,18.0,1917.0
13.095,27.381,54.762,0.0,0.0,4.762,0.0,0.0,37151075.0,1207538.0,0.0,0.0,18.0,1898.0
10.976,28.049,54.878,0.0,0.0,6.098,0.0,0.0,41223159.0,1332134.0,0.0,0.0,18.0,2004.0
16.049,34.568,40.741,0.0,0.0,8.642,0.0,0.0,39246921.0,1273881.0,0.0,0.0,23.0,1890.0
18.072,32.530,37.349,6.024,0.0,6.024,0.0,49152.0,39127611.0,1271844.0,0.0,0.0,19.0,1784.0
10.976,25.610,57.317,0.0,0.0,6.098,0.0,0.0,40730333.0,1321428.0,0.0,0.0,18.0,2109.0
19.753,37.037,40.741,0.0,0.0,2.469,0.0,40960.0,40653419.0,1315962.0,0.0,0.0,18.0,1865.0
17.568,31.081,45.946,0.0,0.0,5.405,0.0,0.0,38223885.0,1241398.0,0.0,0.0,18.0,1738.0
13.415,26.829,54.878,0.0,0.0,4.878,0.0,0.0,40932065.0,1321370.0,0.0,0.0,19.0,1979.0
10.959,36.986,43.836,0.0,0.0,8.219,0.0,0.0,40514106.0,1313654.0,0.0,0.0,18.0,1935.0
17.284,29.630,48.148,0.0,0.0,4.938,0.0,0.0,40022466.0,1300758.0,0.0,0.0,18.0,1996.0
15.663,30.120,50.602,0.0,0.0,3.614,0.0,0.0,38421955.0,1242396.0,0.0,0.0,18.0,2003.0
8.537,29.268,59.756,0.0,0.0,2.439,0.0,0.0,40315324.0,1309034.0,0.0,0.0,18.0,1939.0
17.722,35.443,43.038,0.0,0.0,3.797,0.0,0.0,40904305.0,1325818.0,0.0,0.0,19.0,1891.0
10.345,26.437,60.920,0.0,0.0,2.299,0.0,0.0,40868564.0,1322054.0,0.0,0.0,18.0,2144.0
8.861,31.646,56.962,0.0,0.0,2.532,0.0,0.0,41823861.0,1354814.0,0.0,0.0,18.0,2090.0
16.667,30.952,46.429,0.0,0.0,5.952,0.0,0.0,37731107.0,1224598.0,0.0,0.0,18.0,1943.0
8.219,35.616,50.685,0.0,0.0,5.479,0.0,0.0,40561576.0,1312814.0,0.0,0.0,18.0,1849.0
13.750,38.750,42.500,0.0,0.0,5.0,0.0,0.0,41218781.0,1337940.0,0.0,0.0,19.0,1913.0
14.943,32.184,48.276,0.0,0.0,4.598,0.0,0.0,38448868.0,1246932.0,0.0,0.0,18.0,1883.0
9.524,33.333,53.571,0.0,0.0,3.571,0.0,0.0,39567504.0,1281174.0,0.0,0.0,18.0,1940.0
11.628,29.070,51.163,0.0,0.0,8.140,0.0,0.0,39063973.0,1265906.0,0.0,0.0,18.0,2174.0
13.750,36.250,43.750,0.0,0.0,6.250,0.0,0.0,39222836.0,1271918.0,0.0,0.0,18.0,1942.0
14.634,30.488,51.220,0.0,0.0,3.659,0.0,0.0,40752041.0,1320020.0,0.0,0.0,18.0,2095.0
19.231,32.051,46.154,0.0,0.0,2.564,0.0,0.0,40721798.0,1321074.0,0.0,0.0,19.0,1842.0
17.105,27.632,51.316,0.0,0.0,3.947,0.0,0.0,37601561.0,1218158.0,0.0,0.0,18.0,1943.0
14.815,28.395,53.086,0.0,0.0,3.704,0.0,0.0,39610828.0,1281570.0,0.0,0.0,18.0,1939.0
13.580,37.037,43.210,0.0,0.0,6.173,0.0,8192.0,40055920.0,1298394.0,0.0,0.0,18.0,1947.0
12.500,28.750,55.0,0.0,0.0,3.750,0.0,0.0,37999145.0,1234818.0,0.0,0.0,19.0,1972.0
12.0,36.0,49.333,0.0,0.0,2.667,0.0,0.0,41058743.0,1327020.0,0.0,0.0,18.0,1875.0
8.750,26.250,62.500,0.0,0.0,2.500,0.0,0.0,38434625.0,1248302.0,0.0,0.0,18.0,2150.0
12.791,30.233,54.651,0.0,0.0,2.326,0.0,0.0,36408232.0,1179444.0,0.0,0.0,18.0,2017.0
11.111,30.864,54.321,0.0,0.0,3.704,0.0,0.0,39191385.0,1272214.0,0.0,0.0,18.0,2185.0
12.346,18.519,66.667,0.0,0.0,2.469,0.0,0.0,31544801.0,1022404.0,0.0,0.0,19.0,1692.0
