"Dstat 0.7.2 CSV output"
"Author:","Dag Wieers <dag@wieers.com>",,,,"URL:","http://dag.wieers.com/home-made/dstat/"
"Host:","Server3",,,,"User:","maki"
"Cmdline:","dstat --output server_32_set_1_8.csv 1 70",,,,"Date:","25 Nov 2018 02:21:04 UTC"

"total cpu usage",,,,,,"dsk/total",,"net/total",,"paging",,"system",
"usr","sys","idl","wai","hiq","siq","read","writ","recv","send","in","out","int","csw"
4.622,8.650,83.984,1.684,0.0,1.060,23629.295,85381.732,0.0,0.0,0.0,0.0,18.627,1449.509
6.667,23.333,67.778,0.0,0.0,2.222,0.0,0.0,30592357.0,989342.0,0.0,0.0,19.0,3775.0
10.345,14.943,68.966,2.299,0.0,3.448,0.0,94208.0,34254710.0,1110374.0,0.0,0.0,18.0,3834.0
13.415,28.049,56.098,0.0,0.0,2.439,0.0,0.0,36512352.0,1186098.0,0.0,0.0,18.0,2513.0
12.903,23.656,60.215,0.0,0.0,3.226,0.0,0.0,38169674.0,1233434.0,0.0,0.0,18.0,2621.0
16.867,26.506,50.602,0.0,0.0,6.024,0.0,0.0,39024112.0,1265980.0,0.0,0.0,18.0,2325.0
16.456,30.380,45.570,0.0,0.0,7.595,0.0,0.0,38217891.0,1239992.0,0.0,0.0,19.0,2202.0
20.988,33.333,41.975,0.0,0.0,3.704,0.0,0.0,37431755.0,1209494.0,0.0,0.0,18.0,1864.0
16.216,33.784,44.595,0.0,0.0,5.405,0.0,0.0,39403141.0,1278654.0,0.0,0.0,18.0,1790.0
15.584,32.468,44.156,0.0,0.0,7.792,0.0,0.0,39192577.0,1270114.0,0.0,0.0,18.0,2054.0
10.127,29.114,55.696,0.0,0.0,5.063,0.0,0.0,36864972.0,1192554.0,0.0,0.0,18.0,2207.0
14.458,37.349,42.169,0.0,0.0,6.024,0.0,0.0,39223129.0,1275100.0,0.0,0.0,19.0,1967.0
17.949,29.487,48.718,0.0,0.0,3.846,0.0,0.0,38523730.0,1249130.0,0.0,0.0,18.0,2254.0
15.116,26.744,55.814,0.0,0.0,2.326,0.0,0.0,36923030.0,1195218.0,0.0,0.0,18.0,2100.0
11.250,32.500,51.250,0.0,0.0,5.0,0.0,0.0,39728736.0,1285386.0,0.0,0.0,18.0,2200.0
14.634,25.610,56.098,0.0,0.0,3.659,0.0,0.0,37268733.0,1212698.0,0.0,0.0,18.0,2245.0
16.092,25.287,56.322,0.0,0.0,2.299,0.0,0.0,38104017.0,1234118.0,0.0,0.0,19.0,2617.0
17.284,34.568,40.741,0.0,0.0,7.407,0.0,0.0,39649472.0,1282154.0,0.0,0.0,18.0,2380.0
14.286,22.619,54.762,0.0,0.0,8.333,0.0,0.0,38560581.0,1253144.0,0.0,0.0,18.0,2489.0
13.953,26.744,56.977,0.0,0.0,2.326,0.0,0.0,37752342.0,1220200.0,0.0,0.0,18.0,2145.0
10.811,35.135,48.649,0.0,0.0,5.405,0.0,0.0,39144019.0,1267252.0,0.0,0.0,19.0,2131.0
25.882,34.118,35.294,0.0,0.0,4.706,0.0,0.0,38855519.0,1263032.0,0.0,0.0,18.0,1947.0
11.111,33.333,50.617,0.0,0.0,4.938,0.0,0.0,39429248.0,1278234.0,0.0,0.0,18.0,2377.0
14.103,37.179,44.872,0.0,0.0,3.846,0.0,0.0,38621857.0,1248306.0,0.0,0.0,18.0,2076.0
15.0,36.250,45.0,0.0,0.0,3.750,0.0,0.0,38552697.0,1250984.0,0.0,0.0,18.0,2024.0
11.538,29.487,53.846,0.0,0.0,5.128,0.0,0.0,35223178.0,1144608.0,0.0,0.0,19.0,2046.0
13.333,38.667,46.667,0.0,0.0,1.333,0.0,0.0,38663891.0,1251494.0,0.0,0.0,18.0,2128.0
15.0,25.0,53.750,0.0,0.0,6.250,0.0,0.0,38097349.0,1234678.0,0.0,0.0,18.0,2273.0
12.360,34.831,48.315,0.0,0.0,4.494,0.0,0.0,36719797.0,1190240.0,0.0,0.0,18.0,2123.0
16.667,32.143,45.238,0.0,0.0,5.952,0.0,0.0,38625042.0,1249888.0,0.0,0.0,18.0,2082.0
15.190,31.646,45.570,0.0,0.0,7.595,0.0,0.0,37683734.0,1223338.0,0.0,0.0,19.0,2006.0
10.811,33.784,47.297,0.0,0.0,8.108,0.0,0.0,38464151.0,1244740.0,0.0,0.0,18.0,2418.0
10.667,41.333,41.333,0.0,0.0,6.667,0.0,0.0,37929023.0,1229028.0,0.0,0.0,18.0,2391.0
19.048,33.333,40.476,0.0,0.0,7.143,0.0,40960.0,39153476.0,1271358.0,0.0,0.0,18.0,2395.0
16.279,34.884,41.860,0.0,0.0,6.977,0.0,0.0,38919052.0,1262274.0,0.0,0.0,19.0,2251.0
16.250,36.250,41.250,0.0,0.0,6.250,0.0,0.0,38253314.0,1236234.0,0.0,0.0,18.0,2702.0
14.286,42.857,27.273,0.0,0.0,15.584,0.0,0.0,38407206.0,1249390.0,0.0,0.0,18.0,2404.0
15.278,43.056,31.944,0.0,0.0,9.722,0.0,0.0,39671334.0,1285514.0,0.0,0.0,18.0,2395.0
15.278,43.056,36.111,0.0,0.0,5.556,0.0,0.0,39459410.0,1278514.0,0.0,0.0,18.0,2523.0
14.458,30.120,50.602,0.0,0.0,4.819,0.0,0.0,38672607.0,1252614.0,0.0,0.0,18.0,2447.0
12.346,22.222,58.025,0.0,0.0,7.407,0.0,0.0,35050899.0,1134018.0,0.0,0.0,19.0,2394.0
20.513,30.769,44.872,0.0,0.0,3.846,0.0,0.0,37443376.0,1214406.0,0.0,0.0,18.0,2259.0
12.346,29.630,54.321,0.0,0.0,3.704,0.0,0.0,39502609.0,1277740.0,0.0,0.0,18.0,2540.0
16.438,30.137,45.205,0.0,0.0,8.219,0.0,0.0,35811784.0,1164332.0,0.0,0.0,18.0,2298.0
16.250,30.0,46.250,0.0,0.0,7.500,0.0,0.0,39653945.0,1279074.0,0.0,0.0,19.0,2620.0
15.190,36.709,40.506,0.0,0.0,7.595,0.0,0.0,38381597.0,1245976.0,0.0,0.0,19.0,2702.0
14.634,30.488,46.341,0.0,0.0,8.537,0.0,0.0,36377184.0,1179554.0,0.0,0.0,18.0,2452.0
9.524,30.952,57.143,0.0,0.0,2.381,0.0,0.0,38919081.0,1262068.0,0.0,0.0,18.0,2579.0
15.190,32.911,48.101,0.0,0.0,3.797,0.0,0.0,38906135.0,1259894.0,0.0,0.0,18.0,2284.0
12.821,30.769,50.0,0.0,0.0,6.410,0.0,0.0,35927377.0,1166534.0,0.0,0.0,19.0,1902.0
11.905,28.571,54.762,0.0,0.0,4.762,0.0,0.0,38225817.0,1236596.0,0.0,0.0,18.0,2380.0
14.458,30.120,50.602,0.0,0.0,4.819,0.0,0.0,37590529.0,1221484.0,0.0,0.0,18.0,2453.0
14.815,30.864,48.148,0.0,0.0,6.173,0.0,0.0,36930636.0,1196878.0,0.0,0.0,18.0,2154.0
15.476,32.143,50.0,0.0,0.0,2.381,0.0,0.0,39079069.0,1264374.0,0.0,0.0,18.0,2634.0
7.143,34.524,53.571,0.0,0.0,4.762,0.0,0.0,39472414.0,1280334.0,0.0,0.0,19.0,2372.0
15.190,22.785,58.228,0.0,0.0,3.797,0.0,0.0,36558484.0,1186938.0,0.0,0.0,18.0,2269.0
17.722,40.506,37.975,0.0,0.0,3.797,0.0,0.0,37074602.0,1199146.0,0.0,0.0,18.0,2115.0
9.412,28.235,57.647,0.0,0.0,4.706,0.0,0.0,38600712.0,1253672.0,0.0,0.0,18.0,2645.0
13.483,28.090,55.056,0.0,0.0,3.371,0.0,0.0,35903271.0,1164398.0,0.0,0.0,18.0,2518.0
14.815,23.457,58.025,0.0,0.0,3.704,0.0,0.0,38011308.0,1228674.0,0.0,0.0,19.0,2413.0
14.118,30.588,49.412,0.0,0.0,5.882,0.0,0.0,35817382.0,1163275.0,0.0,0.0,23.0,2198.0
20.930,27.907,46.512,0.0,0.0,4.651,0.0,0.0,37002225.0,1205150.0,0.0,0.0,18.0,2070.0
9.639,33.735,49.398,0.0,0.0,7.229,0.0,0.0,37060097.0,1198574.0,0.0,0.0,18.0,2008.0
8.537,29.268,56.098,0.0,0.0,6.098,0.0,0.0,39100614.0,1265914.0,0.0,0.0,18.0,2455.0
17.722,35.443,41.772,1.266,0.0,3.797,0.0,61440.0,38302020.0,1245318.0,0.0,0.0,19.0,1965.0
11.111,24.691,58.025,0.0,0.0,6.173,0.0,0.0,36080150.0,1164694.0,0.0,0.0,18.0,2277.0
15.0,30.0,50.0,0.0,0.0,5.0,0.0,0.0,38525625.0,1249752.0,0.0,0.0,18.0,2376.0
15.476,30.952,48.810,0.0,0.0,4.762,0.0,0.0,38423046.0,1245804.0,0.0,0.0,18.0,2191.0
10.843,24.096,62.651,0.0,0.0,2.410,0.0,0.0,36274896.0,1174214.0,0.0,0.0,18.0,2405.0
22.785,25.316,45.570,0.0,0.0,6.329,0.0,0.0,38339118.0,1242328.0,0.0,0.0,19.0,2267.0
10.843,22.892,63.855,0.0,0.0,2.410,0.0,0.0,29171979.0,950478.0,0.0,0.0,18.0,1937.0
