"Dstat 0.7.2 CSV output"
"Author:","Dag Wieers <dag@wieers.com>",,,,"URL:","http://dag.wieers.com/home-made/dstat/"
"Host:","Server3",,,,"User:","maki"
"Cmdline:","dstat --output server_32_set_2_2.csv 1 70",,,,"Date:","25 Nov 2018 02:33:03 UTC"

"total cpu usage",,,,,,"dsk/total",,"net/total",,"paging",,"system",
"usr","sys","idl","wai","hiq","siq","read","writ","recv","send","in","out","int","csw"
4.829,9.177,83.200,1.582,0.0,1.212,22079.391,79922.708,0.0,0.0,0.0,0.0,18.605,1427.118
4.348,6.522,88.043,0.0,0.0,1.087,0.0,0.0,13414684.0,438030.0,0.0,0.0,18.0,3112.0
5.319,10.638,84.043,0.0,0.0,0.0,0.0,0.0,15823427.0,512466.0,0.0,0.0,19.0,3596.0
4.301,11.828,82.796,0.0,0.0,1.075,0.0,0.0,21392110.0,692474.0,0.0,0.0,18.0,4511.0
5.435,13.043,78.261,0.0,0.0,3.261,0.0,0.0,19186386.0,625792.0,0.0,0.0,18.0,3855.0
6.522,10.870,81.522,0.0,0.0,1.087,0.0,0.0,22372811.0,725374.0,0.0,0.0,18.0,4403.0
9.375,9.375,80.208,0.0,0.0,1.042,0.0,0.0,21667629.0,701994.0,0.0,0.0,19.0,4318.0
4.348,16.304,77.174,0.0,0.0,2.174,0.0,0.0,20517823.0,666538.0,0.0,0.0,18.0,4217.0
4.301,11.828,80.645,0.0,0.0,3.226,0.0,0.0,22941495.0,743294.0,0.0,0.0,18.0,4749.0
8.421,12.632,78.947,0.0,0.0,0.0,0.0,0.0,23733754.0,768774.0,0.0,0.0,18.0,4583.0
7.527,8.602,80.645,0.0,0.0,3.226,0.0,0.0,21725740.0,705478.0,0.0,0.0,18.0,4259.0
7.527,12.903,78.495,0.0,0.0,1.075,0.0,0.0,22731632.0,737414.0,0.0,0.0,19.0,4812.0
8.889,7.778,83.333,0.0,0.0,0.0,0.0,0.0,19810340.0,640248.0,0.0,0.0,18.0,4313.0
6.452,13.978,77.419,0.0,0.0,2.151,0.0,0.0,22187767.0,721298.0,0.0,0.0,18.0,4860.0
5.618,13.483,80.899,0.0,0.0,0.0,0.0,0.0,22907631.0,742314.0,0.0,0.0,18.0,4749.0
3.409,10.227,82.955,0.0,0.0,3.409,0.0,0.0,21779789.0,704094.0,0.0,0.0,18.0,4897.0
4.167,15.625,77.083,0.0,0.0,3.125,0.0,0.0,20881847.0,680372.0,0.0,0.0,18.0,4495.0
6.452,15.054,78.495,0.0,0.0,0.0,0.0,0.0,21143301.0,684914.0,0.0,0.0,19.0,4745.0
4.444,11.111,83.333,0.0,0.0,1.111,0.0,0.0,20660199.0,668674.0,0.0,0.0,18.0,4594.0
4.444,13.333,81.111,0.0,0.0,1.111,0.0,0.0,22469180.0,730398.0,0.0,0.0,18.0,4834.0
6.383,13.830,78.723,0.0,0.0,1.064,0.0,0.0,22981993.0,744694.0,0.0,0.0,18.0,4709.0
6.522,10.870,81.522,0.0,0.0,1.087,0.0,0.0,22091139.0,714734.0,0.0,0.0,19.0,4581.0
9.574,13.830,76.596,0.0,0.0,0.0,0.0,0.0,21293441.0,692878.0,0.0,0.0,18.0,4327.0
5.618,8.989,83.146,0.0,0.0,2.247,0.0,0.0,21876453.0,708574.0,0.0,0.0,18.0,4588.0
6.522,9.783,82.609,0.0,0.0,1.087,0.0,0.0,21316886.0,689114.0,0.0,0.0,18.0,4300.0
7.447,12.766,78.723,0.0,0.0,1.064,0.0,0.0,21331539.0,694558.0,0.0,0.0,18.0,4286.0
7.778,10.0,81.111,0.0,0.0,1.111,0.0,0.0,21543031.0,698074.0,0.0,0.0,19.0,4245.0
6.186,16.495,76.289,0.0,0.0,1.031,0.0,0.0,21220574.0,686874.0,0.0,0.0,18.0,4383.0
5.376,13.978,79.570,0.0,0.0,1.075,0.0,0.0,21791703.0,708558.0,0.0,0.0,18.0,4543.0
4.348,5.435,89.130,0.0,0.0,1.087,0.0,0.0,14153274.0,458450.0,0.0,0.0,18.0,3180.0
4.167,5.208,88.542,0.0,0.0,2.083,0.0,0.0,11895314.0,385872.0,0.0,0.0,18.0,2821.0
6.593,6.593,83.516,2.198,0.0,1.099,0.0,32768.0,16144179.0,525646.0,0.0,0.0,19.0,3430.0
5.376,12.903,80.645,0.0,0.0,1.075,0.0,0.0,18825142.0,609750.0,0.0,0.0,18.0,3759.0
4.396,9.890,84.615,0.0,0.0,1.099,0.0,0.0,21102554.0,683654.0,0.0,0.0,18.0,4151.0
6.593,13.187,79.121,0.0,0.0,1.099,0.0,12288.0,22555130.0,733338.0,0.0,0.0,18.0,4432.0
3.297,14.286,80.220,0.0,0.0,2.198,0.0,0.0,22441472.0,726700.0,0.0,0.0,18.0,4580.0
4.444,8.889,85.556,0.0,0.0,1.111,0.0,0.0,21573147.0,698848.0,0.0,0.0,19.0,4330.0
5.747,8.046,85.057,0.0,0.0,1.149,0.0,0.0,19037122.0,618958.0,0.0,0.0,18.0,3904.0
2.174,11.957,83.696,0.0,0.0,2.174,0.0,0.0,21539772.0,697234.0,0.0,0.0,18.0,4284.0
4.348,14.130,81.522,0.0,0.0,0.0,0.0,0.0,22752692.0,736154.0,0.0,0.0,18.0,4561.0
6.452,10.753,80.645,0.0,0.0,2.151,0.0,0.0,20443120.0,665936.0,0.0,0.0,19.0,3914.0
4.545,11.364,84.091,0.0,0.0,0.0,0.0,0.0,21118757.0,683514.0,0.0,0.0,18.0,3822.0
7.527,13.978,78.495,0.0,0.0,0.0,0.0,0.0,21530100.0,697094.0,0.0,0.0,18.0,4106.0
5.495,13.187,80.220,0.0,0.0,1.099,0.0,0.0,19619527.0,638138.0,0.0,0.0,18.0,3480.0
6.667,11.111,81.111,0.0,0.0,1.111,0.0,0.0,21824133.0,707734.0,0.0,0.0,18.0,4315.0
6.593,10.989,81.319,0.0,0.0,1.099,0.0,0.0,23417649.0,757854.0,0.0,0.0,18.0,4731.0
6.667,10.0,82.222,0.0,0.0,1.111,0.0,0.0,21458710.0,697778.0,0.0,0.0,19.0,4265.0
6.593,8.791,82.418,0.0,0.0,2.198,0.0,0.0,21101575.0,683794.0,0.0,0.0,18.0,4226.0
6.452,12.903,80.645,0.0,0.0,0.0,0.0,0.0,22618903.0,732514.0,0.0,0.0,18.0,4573.0
5.376,11.828,81.720,0.0,0.0,1.075,0.0,0.0,20935246.0,680418.0,0.0,0.0,18.0,4068.0
6.061,17.172,75.758,0.0,0.0,1.010,0.0,0.0,22558260.0,730974.0,0.0,0.0,18.0,4430.0
9.783,8.696,81.522,0.0,0.0,0.0,0.0,0.0,22350245.0,723554.0,0.0,0.0,19.0,4321.0
8.889,7.778,81.111,0.0,0.0,2.222,0.0,0.0,19918132.0,648358.0,0.0,0.0,18.0,3949.0
4.348,11.957,81.522,0.0,0.0,2.174,0.0,0.0,22130531.0,715994.0,0.0,0.0,18.0,4290.0
5.495,10.989,83.516,0.0,0.0,0.0,0.0,0.0,22252931.0,721314.0,0.0,0.0,18.0,4493.0
7.292,12.500,79.167,0.0,0.0,1.042,0.0,0.0,19257764.0,624698.0,0.0,0.0,19.0,3809.0
6.522,10.870,81.522,0.0,0.0,1.087,0.0,0.0,21262108.0,689814.0,0.0,0.0,18.0,4082.0
7.368,15.789,76.842,0.0,0.0,0.0,0.0,0.0,22126717.0,716694.0,0.0,0.0,18.0,4297.0
6.522,10.870,82.609,0.0,0.0,0.0,0.0,0.0,21172439.0,686570.0,0.0,0.0,18.0,4091.0
7.527,11.828,80.645,0.0,0.0,0.0,0.0,0.0,21558272.0,700462.0,0.0,0.0,18.0,3869.0
5.556,8.889,83.333,0.0,0.0,2.222,0.0,0.0,22264716.0,720054.0,0.0,0.0,19.0,4268.0
3.297,12.088,81.319,2.198,0.0,1.099,0.0,20480.0,20753686.0,672738.0,0.0,0.0,18.0,4038.0
4.706,7.059,87.059,0.0,0.0,1.176,0.0,0.0,19641025.0,639484.0,0.0,0.0,18.0,3985.0
4.348,13.043,82.609,0.0,0.0,0.0,0.0,0.0,21745674.0,704654.0,0.0,0.0,18.0,4280.0
6.742,11.236,80.899,0.0,0.0,1.124,0.0,0.0,21441475.0,696228.0,0.0,0.0,18.0,4291.0
5.682,7.955,84.091,0.0,0.0,2.273,0.0,32768.0,21715591.0,706458.0,0.0,0.0,19.0,4319.0
4.348,10.870,82.609,0.0,0.0,2.174,0.0,0.0,21822114.0,706972.0,0.0,0.0,18.0,4437.0
11.224,12.245,75.510,0.0,0.0,1.020,0.0,0.0,21702446.0,701294.0,0.0,0.0,18.0,4397.0
2.326,11.628,84.884,0.0,0.0,1.163,0.0,0.0,22170439.0,721578.0,0.0,0.0,18.0,4499.0
6.383,10.638,81.915,0.0,0.0,1.064,0.0,0.0,21761588.0,704748.0,0.0,0.0,18.0,4486.0
4.255,9.574,84.043,0.0,0.0,2.128,0.0,0.0,18030949.0,584534.0,0.0,0.0,19.0,3950.0
