"Dstat 0.7.2 CSV output"
"Author:","Dag Wieers <dag@wieers.com>",,,,"URL:","http://dag.wieers.com/home-made/dstat/"
"Host:","Server3",,,,"User:","maki"
"Cmdline:","dstat --output server_16_set_3_64.csv 1 70",,,,"Date:","25 Nov 2018 01:57:43 UTC"

"total cpu usage",,,,,,"dsk/total",,"net/total",,"paging",,"system",
"usr","sys","idl","wai","hiq","siq","read","writ","recv","send","in","out","int","csw"
4.438,8.161,84.491,1.934,0.0,0.976,27379.168,98628.613,0.0,0.0,0.0,0.0,18.683,1407.963
7.059,18.824,71.765,0.0,0.0,2.353,0.0,0.0,34440904.0,1116248.0,0.0,0.0,18.0,3320.0
9.091,21.591,68.182,0.0,0.0,1.136,0.0,0.0,33986714.0,1098704.0,0.0,0.0,19.0,3094.0
14.286,29.762,52.381,0.0,0.0,3.571,0.0,0.0,39180103.0,1271284.0,0.0,0.0,18.0,2133.0
12.658,31.646,50.633,0.0,0.0,5.063,0.0,12288.0,40880173.0,1324660.0,0.0,0.0,18.0,1825.0
14.118,29.412,54.118,0.0,0.0,2.353,0.0,0.0,39156689.0,1270534.0,0.0,0.0,18.0,1960.0
13.750,25.0,53.750,0.0,0.0,7.500,0.0,0.0,39620707.0,1285778.0,0.0,0.0,19.0,1876.0
16.250,32.500,46.250,0.0,0.0,5.0,0.0,0.0,42040683.0,1361674.0,0.0,0.0,18.0,2017.0
16.667,36.905,44.048,0.0,0.0,2.381,0.0,0.0,41690521.0,1348794.0,0.0,0.0,18.0,1935.0
12.195,28.049,54.878,1.220,0.0,3.659,0.0,36864.0,37035351.0,1203598.0,0.0,0.0,18.0,1978.0
13.253,37.349,44.578,0.0,0.0,4.819,0.0,0.0,41862908.0,1353554.0,0.0,0.0,18.0,1935.0
16.456,41.772,37.975,0.0,0.0,3.797,0.0,0.0,41845465.0,1354114.0,0.0,0.0,19.0,1707.0
18.519,25.926,51.852,0.0,0.0,3.704,0.0,0.0,38600272.0,1253504.0,0.0,0.0,18.0,1758.0
9.639,28.916,59.036,0.0,0.0,2.410,0.0,0.0,41344100.0,1338434.0,0.0,0.0,18.0,2073.0
11.250,36.250,50.0,0.0,0.0,2.500,0.0,0.0,41339942.0,1338228.0,0.0,0.0,18.0,1936.0
13.924,25.316,55.696,0.0,0.0,5.063,0.0,0.0,40748527.0,1326798.0,0.0,0.0,18.0,1989.0
8.537,28.049,58.537,0.0,0.0,4.878,0.0,0.0,40090628.0,1296434.0,0.0,0.0,19.0,1856.0
15.385,30.769,50.0,0.0,0.0,3.846,0.0,0.0,41356981.0,1338640.0,0.0,0.0,18.0,1874.0
13.953,33.721,44.186,0.0,0.0,8.140,0.0,0.0,38173031.0,1243863.0,0.0,0.0,23.0,2015.0
12.346,27.160,56.790,0.0,0.0,3.704,0.0,0.0,40710736.0,1320066.0,0.0,0.0,18.0,1913.0
9.412,25.882,60.0,0.0,0.0,4.706,0.0,0.0,40903723.0,1324014.0,0.0,0.0,18.0,1939.0
14.458,26.506,53.012,0.0,0.0,6.024,0.0,0.0,39006849.0,1267718.0,0.0,0.0,19.0,1797.0
5.952,34.524,54.762,0.0,0.0,4.762,0.0,0.0,41621064.0,1348374.0,0.0,0.0,18.0,1945.0
11.905,28.571,54.762,0.0,0.0,4.762,0.0,0.0,41430929.0,1338714.0,0.0,0.0,18.0,2057.0
13.580,22.222,61.728,0.0,0.0,2.469,0.0,0.0,37373891.0,1211890.0,0.0,0.0,18.0,1840.0
15.0,26.250,53.750,0.0,0.0,5.0,0.0,0.0,41395972.0,1342214.0,0.0,0.0,18.0,1936.0
11.628,36.047,50.0,0.0,0.0,2.326,0.0,0.0,42515689.0,1379034.0,0.0,0.0,19.0,1892.0
17.284,27.160,51.852,0.0,0.0,3.704,0.0,0.0,38656311.0,1252318.0,0.0,0.0,18.0,1775.0
15.190,43.038,37.975,0.0,0.0,3.797,0.0,0.0,41763639.0,1355234.0,0.0,0.0,18.0,1650.0
13.924,35.443,48.101,0.0,0.0,2.532,0.0,0.0,41138719.0,1329034.0,0.0,0.0,18.0,1911.0
15.584,25.974,50.649,0.0,0.0,7.792,0.0,8192.0,36770038.0,1193864.0,0.0,0.0,18.0,1678.0
14.286,30.952,52.381,0.0,0.0,2.381,0.0,0.0,42688982.0,1382048.0,0.0,0.0,19.0,2095.0
15.385,32.051,48.718,0.0,0.0,3.846,0.0,0.0,41149702.0,1335914.0,0.0,0.0,18.0,1790.0
10.976,31.707,53.659,0.0,0.0,3.659,0.0,0.0,39559940.0,1284024.0,0.0,0.0,18.0,1933.0
12.658,32.911,51.899,0.0,0.0,2.532,0.0,0.0,40794601.0,1317788.0,0.0,0.0,18.0,1845.0
9.756,36.585,50.0,0.0,0.0,3.659,0.0,4096.0,40794971.0,1324574.0,0.0,0.0,18.0,1810.0
13.333,28.889,53.333,0.0,0.0,4.444,0.0,0.0,37562676.0,1217178.0,0.0,0.0,19.0,1812.0
10.976,37.805,48.780,0.0,0.0,2.439,0.0,0.0,41802325.0,1352714.0,0.0,0.0,18.0,1951.0
10.976,32.927,54.878,0.0,0.0,1.220,0.0,0.0,40963825.0,1329054.0,0.0,0.0,18.0,1850.0
11.905,32.143,52.381,0.0,0.0,3.571,0.0,0.0,40151538.0,1301318.0,0.0,0.0,18.0,1860.0
9.877,32.099,49.383,2.469,0.0,6.173,0.0,90112.0,41750341.0,1352854.0,0.0,0.0,19.0,1945.0
12.987,37.662,45.455,0.0,0.0,3.896,0.0,0.0,41481982.0,1343474.0,0.0,0.0,18.0,1843.0
15.476,28.571,52.381,0.0,0.0,3.571,0.0,0.0,38605607.0,1249930.0,0.0,0.0,18.0,1665.0
10.976,30.488,53.659,0.0,0.0,4.878,0.0,0.0,40901758.0,1329762.0,0.0,0.0,18.0,1897.0
10.976,35.366,50.0,0.0,0.0,3.659,0.0,0.0,39892789.0,1291966.0,0.0,0.0,18.0,1735.0
7.317,24.390,65.854,0.0,0.0,2.439,0.0,0.0,37471078.0,1212294.0,0.0,0.0,19.0,1819.0
16.216,35.135,41.892,0.0,0.0,6.757,0.0,0.0,41542851.0,1348218.0,0.0,0.0,18.0,1900.0
16.049,33.333,44.444,0.0,0.0,6.173,0.0,0.0,39979448.0,1297694.0,0.0,0.0,18.0,1891.0
11.111,28.395,56.790,0.0,0.0,3.704,0.0,0.0,38197285.0,1235114.0,0.0,0.0,18.0,1758.0
14.815,30.864,48.148,0.0,0.0,6.173,0.0,0.0,40196537.0,1302890.0,0.0,0.0,18.0,1959.0
11.392,32.911,49.367,0.0,0.0,6.329,0.0,12288.0,40760615.0,1320654.0,0.0,0.0,19.0,1903.0
11.364,21.591,62.500,0.0,0.0,4.545,0.0,0.0,38655193.0,1251774.0,0.0,0.0,18.0,1872.0
10.714,27.381,57.143,0.0,0.0,4.762,0.0,0.0,40131014.0,1305390.0,0.0,0.0,18.0,1915.0
12.658,36.709,48.101,0.0,0.0,2.532,0.0,0.0,42195932.0,1364820.0,0.0,0.0,18.0,1861.0
15.294,32.941,47.059,0.0,0.0,4.706,0.0,0.0,40518434.0,1312888.0,0.0,0.0,18.0,1927.0
9.524,30.952,54.762,0.0,0.0,4.762,0.0,0.0,39737089.0,1289278.0,0.0,0.0,19.0,1831.0
13.415,29.268,52.439,0.0,0.0,4.878,0.0,0.0,41694040.0,1353974.0,0.0,0.0,18.0,1972.0
10.976,35.366,51.220,0.0,0.0,2.439,0.0,0.0,39720311.0,1286572.0,0.0,0.0,18.0,1897.0
11.538,32.051,48.718,0.0,0.0,7.692,0.0,0.0,39585807.0,1281644.0,0.0,0.0,18.0,1784.0
8.989,31.461,57.303,0.0,0.0,2.247,0.0,0.0,41875599.0,1359368.0,0.0,0.0,18.0,1946.0
10.588,35.294,48.235,0.0,0.0,5.882,0.0,0.0,41053599.0,1326118.0,0.0,0.0,19.0,1886.0
13.924,30.380,49.367,0.0,0.0,6.329,0.0,0.0,39393753.0,1277378.0,0.0,0.0,18.0,1971.0
8.750,26.250,63.750,0.0,0.0,1.250,0.0,0.0,42559199.0,1380294.0,0.0,0.0,18.0,2132.0
13.636,29.545,53.409,0.0,0.0,3.409,0.0,0.0,42199865.0,1367414.0,0.0,0.0,18.0,2052.0
13.793,31.034,51.724,0.0,0.0,3.448,0.0,0.0,38483181.0,1247278.0,0.0,0.0,18.0,1868.0
12.987,36.364,44.156,0.0,0.0,6.494,0.0,0.0,41054684.0,1330520.0,0.0,0.0,18.0,1881.0
15.0,26.250,53.750,0.0,0.0,5.0,0.0,0.0,41529808.0,1344948.0,0.0,0.0,19.0,1789.0
11.111,33.333,53.086,0.0,0.0,2.469,0.0,0.0,38142123.0,1240978.0,0.0,0.0,18.0,1749.0
11.905,30.952,53.571,0.0,0.0,3.571,0.0,0.0,41733311.0,1348514.0,0.0,0.0,18.0,1973.0
11.842,28.947,53.947,0.0,0.0,5.263,0.0,0.0,41002482.0,1328280.0,0.0,0.0,18.0,1991.0
14.286,21.429,59.524,0.0,0.0,4.762,0.0,0.0,34030847.0,1107492.0,0.0,0.0,19.0,1773.0
