"Dstat 0.7.2 CSV output"
"Author:","Dag Wieers <dag@wieers.com>",,,,"URL:","http://dag.wieers.com/home-made/dstat/"
"Host:","Server3",,,,"User:","maki"
"Cmdline:","dstat --output server_16_set_2_8.csv 1 70",,,,"Date:","25 Nov 2018 01:33:13 UTC"

"total cpu usage",,,,,,"dsk/total",,"net/total",,"paging",,"system",
"usr","sys","idl","wai","hiq","siq","read","writ","recv","send","in","out","int","csw"
4.045,7.171,85.702,2.288,0.0,0.794,32844.715,117941.174,0.0,0.0,0.0,0.0,18.763,1404.658
6.593,17.582,73.626,0.0,0.0,2.198,0.0,0.0,29946394.0,970800.0,0.0,0.0,18.0,3546.0
8.511,21.277,69.149,0.0,0.0,1.064,0.0,0.0,31666391.0,1028318.0,0.0,0.0,19.0,3624.0
13.333,25.556,57.778,0.0,0.0,3.333,0.0,0.0,36761950.0,1187934.0,0.0,0.0,18.0,2759.0
8.333,28.571,59.524,0.0,0.0,3.571,0.0,0.0,39606472.0,1284740.0,0.0,0.0,18.0,2331.0
15.663,32.530,49.398,0.0,0.0,2.410,0.0,0.0,38163502.0,1235456.0,0.0,0.0,18.0,2194.0
9.412,25.882,62.353,0.0,0.0,2.353,0.0,0.0,39065794.0,1268080.0,0.0,0.0,19.0,2342.0
10.667,32.0,56.0,0.0,0.0,1.333,0.0,0.0,38114975.0,1234908.0,0.0,0.0,18.0,2027.0
12.346,33.333,49.383,0.0,0.0,4.938,0.0,0.0,38103060.0,1233698.0,0.0,0.0,18.0,2156.0
10.127,30.380,55.696,0.0,0.0,3.797,0.0,0.0,38659670.0,1255134.0,0.0,0.0,18.0,2366.0
11.905,29.762,54.762,0.0,0.0,3.571,0.0,0.0,37799452.0,1225874.0,0.0,0.0,18.0,2193.0
10.465,26.744,58.140,0.0,0.0,4.651,0.0,0.0,38085544.0,1230026.0,0.0,0.0,19.0,2416.0
15.294,23.529,58.824,0.0,0.0,2.353,0.0,0.0,35538927.0,1153312.0,0.0,0.0,18.0,2074.0
5.263,31.579,59.211,0.0,0.0,3.947,0.0,0.0,39498321.0,1281948.0,0.0,0.0,18.0,2320.0
11.905,26.190,58.333,0.0,0.0,3.571,0.0,0.0,38088991.0,1231894.0,0.0,0.0,18.0,2293.0
13.793,27.586,55.172,0.0,0.0,3.448,0.0,0.0,33774406.0,1099688.0,0.0,0.0,18.0,2227.0
6.452,19.355,70.968,0.0,0.0,3.226,0.0,0.0,30995710.0,1004824.0,0.0,0.0,19.0,3272.0
8.989,15.730,73.034,0.0,0.0,2.247,0.0,0.0,31679216.0,1028586.0,0.0,0.0,18.0,2942.0
10.870,16.304,70.652,0.0,0.0,2.174,0.0,0.0,30823719.0,998644.0,0.0,0.0,18.0,2639.0
11.111,25.556,58.889,0.0,0.0,4.444,0.0,0.0,38482346.0,1249394.0,0.0,0.0,18.0,2366.0
14.118,28.235,54.118,0.0,0.0,3.529,0.0,0.0,37885790.0,1225474.0,0.0,0.0,18.0,2208.0
9.412,22.353,64.706,0.0,0.0,3.529,0.0,0.0,37378269.0,1212422.0,0.0,0.0,19.0,2358.0
10.465,19.767,65.116,2.326,0.0,2.326,0.0,32768.0,37873153.0,1226322.0,0.0,0.0,18.0,2568.0
14.607,23.596,60.674,0.0,0.0,1.124,0.0,0.0,39117767.0,1265214.0,0.0,0.0,18.0,2228.0
12.048,22.892,61.446,0.0,0.0,3.614,0.0,0.0,36763092.0,1195058.0,0.0,0.0,18.0,2208.0
13.793,28.736,52.874,0.0,0.0,4.598,0.0,0.0,39202471.0,1269560.0,0.0,0.0,19.0,2254.0
15.663,22.892,55.422,0.0,0.0,6.024,0.0,0.0,38789318.0,1257168.0,0.0,0.0,18.0,2313.0
12.941,28.235,55.294,0.0,0.0,3.529,0.0,0.0,33793053.0,1094818.0,0.0,0.0,18.0,1974.0
10.465,24.419,62.791,0.0,0.0,2.326,0.0,0.0,38819532.0,1258074.0,0.0,0.0,18.0,2273.0
10.112,26.966,61.798,0.0,0.0,1.124,0.0,0.0,37911847.0,1228880.0,0.0,0.0,18.0,2123.0
10.345,28.736,58.621,0.0,0.0,2.299,0.0,0.0,37446847.0,1213758.0,0.0,0.0,19.0,2348.0
11.905,27.381,57.143,0.0,0.0,3.571,0.0,0.0,39273371.0,1272420.0,0.0,0.0,18.0,2250.0
10.345,25.287,60.920,0.0,0.0,3.448,0.0,16384.0,38819453.0,1257374.0,0.0,0.0,18.0,2302.0
15.730,19.101,57.303,0.0,0.0,7.865,0.0,0.0,37830724.0,1228172.0,0.0,0.0,18.0,2427.0
10.588,28.235,60.0,0.0,0.0,1.176,0.0,0.0,38233632.0,1241492.0,0.0,0.0,18.0,2162.0
14.118,34.118,48.235,0.0,0.0,3.529,0.0,0.0,38423399.0,1242686.0,0.0,0.0,19.0,2147.0
12.346,23.457,58.025,0.0,0.0,6.173,0.0,0.0,35963290.0,1168178.0,0.0,0.0,18.0,2459.0
11.111,24.691,62.963,0.0,0.0,1.235,0.0,0.0,38720179.0,1253594.0,0.0,0.0,18.0,2147.0
18.072,33.735,42.169,0.0,0.0,6.024,0.0,0.0,39001150.0,1263814.0,0.0,0.0,18.0,2539.0
17.857,30.952,48.810,0.0,0.0,2.381,0.0,0.0,38055397.0,1235518.0,0.0,0.0,18.0,2600.0
10.0,26.250,60.0,0.0,0.0,3.750,0.0,0.0,38093133.0,1234450.0,0.0,0.0,19.0,2192.0
10.843,26.506,61.446,0.0,0.0,1.205,0.0,0.0,39459417.0,1274520.0,0.0,0.0,18.0,2257.0
10.465,23.256,60.465,0.0,0.0,5.814,0.0,0.0,35842284.0,1164052.0,0.0,0.0,18.0,2008.0
11.688,28.571,54.545,0.0,0.0,5.195,0.0,0.0,38862936.0,1258280.0,0.0,0.0,18.0,2470.0
15.476,26.190,53.571,0.0,0.0,4.762,0.0,0.0,38326075.0,1246304.0,0.0,0.0,19.0,2377.0
15.730,29.213,49.438,0.0,0.0,5.618,0.0,0.0,36685193.0,1191278.0,0.0,0.0,18.0,2069.0
8.750,31.250,55.0,0.0,0.0,5.0,0.0,0.0,39251873.0,1267520.0,0.0,0.0,18.0,2327.0
13.924,31.646,50.633,0.0,0.0,3.797,0.0,0.0,38983847.0,1262628.0,0.0,0.0,18.0,2401.0
12.500,31.250,50.0,0.0,0.0,6.250,0.0,0.0,37152062.0,1205838.0,0.0,0.0,18.0,2099.0
8.989,22.472,66.292,0.0,0.0,2.247,0.0,0.0,36450683.0,1182614.0,0.0,0.0,18.0,2367.0
13.636,25.0,57.955,0.0,0.0,3.409,0.0,0.0,37998103.0,1231848.0,0.0,0.0,19.0,2352.0
9.524,19.048,70.238,0.0,0.0,1.190,0.0,0.0,38202613.0,1239924.0,0.0,0.0,18.0,2520.0
8.989,22.472,64.045,2.247,0.0,2.247,0.0,57344.0,35836784.0,1161128.0,0.0,0.0,18.0,2184.0
14.286,25.0,57.143,0.0,0.0,3.571,0.0,0.0,38625136.0,1247294.0,0.0,0.0,18.0,2275.0
8.046,27.586,60.920,0.0,0.0,3.448,0.0,0.0,37819175.0,1229856.0,0.0,0.0,18.0,2124.0
10.227,26.136,57.955,0.0,0.0,5.682,0.0,0.0,37920124.0,1227536.0,0.0,0.0,19.0,2243.0
10.465,26.744,58.140,0.0,0.0,4.651,0.0,0.0,38949359.0,1259820.0,0.0,0.0,18.0,2591.0
12.346,24.691,59.259,0.0,0.0,3.704,0.0,0.0,37257240.0,1210050.0,0.0,0.0,18.0,2666.0
13.415,26.829,56.098,0.0,0.0,3.659,0.0,0.0,38439333.0,1247434.0,0.0,0.0,18.0,2363.0
11.765,29.412,54.118,0.0,0.0,4.706,0.0,0.0,39182877.0,1266400.0,0.0,0.0,19.0,2530.0
12.658,32.911,49.367,0.0,0.0,5.063,0.0,0.0,38006164.0,1233508.0,0.0,0.0,18.0,2353.0
9.195,24.138,64.368,0.0,0.0,2.299,0.0,0.0,37099195.0,1205788.0,0.0,0.0,18.0,2189.0
7.229,27.711,62.651,0.0,0.0,2.410,0.0,0.0,38620857.0,1250934.0,0.0,0.0,18.0,2398.0
16.667,28.571,50.0,0.0,0.0,4.762,0.0,0.0,38457609.0,1248258.0,0.0,0.0,18.0,2186.0
8.696,21.739,68.478,0.0,0.0,1.087,0.0,0.0,36612157.0,1183734.0,0.0,0.0,19.0,2286.0
12.644,26.437,55.172,0.0,0.0,5.747,0.0,0.0,37356783.0,1207018.0,0.0,0.0,18.0,2336.0
16.092,25.287,54.023,0.0,0.0,4.598,0.0,0.0,37480603.0,1217384.0,0.0,0.0,18.0,2244.0
10.714,27.381,58.333,0.0,0.0,3.571,0.0,0.0,37368525.0,1210766.0,0.0,0.0,18.0,2210.0
15.385,28.571,52.747,0.0,0.0,3.297,0.0,8192.0,38642468.0,1253174.0,0.0,0.0,18.0,2288.0
9.412,34.118,49.412,0.0,0.0,7.059,0.0,0.0,39090214.0,1268562.0,0.0,0.0,18.0,2277.0
9.195,22.989,66.667,0.0,0.0,1.149,0.0,0.0,25879060.0,839968.0,0.0,0.0,19.0,1707.0
