"Dstat 0.7.2 CSV output"
"Author:","Dag Wieers <dag@wieers.com>",,,,"URL:","http://dag.wieers.com/home-made/dstat/"
"Host:","Server3",,,,"User:","maki"
"Cmdline:","dstat --output server_8_set_2_2.csv 1 70",,,,"Date:","25 Nov 2018 00:26:32 UTC"

"total cpu usage",,,,,,"dsk/total",,"net/total",,"paging",,"system",
"usr","sys","idl","wai","hiq","siq","read","writ","recv","send","in","out","int","csw"
2.635,3.743,88.603,4.643,0.0,0.376,71913.623,256057.591,0.0,0.0,0.0,0.0,19.340,760.190
5.263,8.421,84.211,0.0,0.0,2.105,0.0,0.0,13335160.0,434786.0,0.0,0.0,19.0,3555.0
5.319,6.383,87.234,0.0,0.0,1.064,0.0,0.0,13504795.0,436974.0,0.0,0.0,18.0,3424.0
4.444,8.889,84.444,0.0,0.0,2.222,0.0,0.0,20023674.0,648654.0,0.0,0.0,18.0,4525.0
5.435,10.870,82.609,0.0,0.0,1.087,0.0,0.0,16715532.0,543638.0,0.0,0.0,18.0,3989.0
5.435,13.043,81.522,0.0,0.0,0.0,0.0,0.0,21311897.0,690654.0,0.0,0.0,19.0,4604.0
6.383,11.702,79.787,0.0,0.0,2.128,0.0,0.0,20590030.0,667340.0,0.0,0.0,18.0,4249.0
7.778,8.889,83.333,0.0,0.0,0.0,0.0,0.0,20461483.0,665792.0,0.0,0.0,18.0,4420.0
5.682,7.955,85.227,0.0,0.0,1.136,0.0,0.0,20955071.0,678334.0,0.0,0.0,18.0,4895.0
5.435,14.130,79.348,0.0,0.0,1.087,0.0,0.0,20551005.0,665240.0,0.0,0.0,19.0,4568.0
5.682,9.091,84.091,0.0,0.0,1.136,0.0,0.0,21373525.0,695612.0,0.0,0.0,18.0,4903.0
4.348,11.957,83.696,0.0,0.0,0.0,0.0,0.0,19986931.0,647394.0,0.0,0.0,18.0,4533.0
5.682,7.955,86.364,0.0,0.0,0.0,0.0,0.0,20309005.0,658174.0,0.0,0.0,18.0,4294.0
6.667,8.889,83.333,0.0,0.0,1.111,0.0,0.0,19017525.0,616998.0,0.0,0.0,18.0,3800.0
5.319,13.830,78.723,0.0,0.0,2.128,0.0,0.0,20002028.0,649494.0,0.0,0.0,19.0,4094.0
7.865,10.112,79.775,0.0,0.0,2.247,0.0,0.0,19355550.0,629327.0,0.0,0.0,24.0,3944.0
10.417,13.542,73.958,0.0,0.0,2.083,0.0,0.0,20746688.0,675658.0,0.0,0.0,18.0,4413.0
5.435,13.043,79.348,1.087,0.0,1.087,0.0,45056.0,21104374.0,683514.0,0.0,0.0,18.0,4283.0
6.522,9.783,83.696,0.0,0.0,0.0,0.0,0.0,21545404.0,698354.0,0.0,0.0,18.0,4405.0
4.598,10.345,83.908,0.0,0.0,1.149,0.0,0.0,20387917.0,663478.0,0.0,0.0,18.0,4309.0
6.522,10.870,82.609,0.0,0.0,0.0,0.0,0.0,21558331.0,698214.0,0.0,0.0,19.0,4903.0
8.333,11.458,79.167,0.0,0.0,1.042,0.0,0.0,20672096.0,669794.0,0.0,0.0,18.0,4419.0
9.783,7.609,81.522,0.0,0.0,1.087,0.0,0.0,21434056.0,696518.0,0.0,0.0,18.0,4668.0
5.435,10.870,83.696,0.0,0.0,0.0,0.0,0.0,20386852.0,660554.0,0.0,0.0,18.0,4413.0
5.435,13.043,80.435,0.0,0.0,1.087,0.0,0.0,20162006.0,652858.0,0.0,0.0,19.0,4352.0
2.381,8.333,88.095,0.0,0.0,1.190,0.0,0.0,21096892.0,686438.0,0.0,0.0,18.0,5114.0
3.448,8.046,87.356,0.0,0.0,1.149,0.0,0.0,21195218.0,686314.0,0.0,0.0,18.0,4903.0
4.396,12.088,82.418,0.0,0.0,1.099,0.0,0.0,21039619.0,681554.0,0.0,0.0,18.0,4654.0
6.316,13.684,78.947,0.0,0.0,1.053,0.0,0.0,21109894.0,686998.0,0.0,0.0,18.0,4590.0
5.435,11.957,81.522,0.0,0.0,1.087,0.0,0.0,19868748.0,643194.0,0.0,0.0,19.0,4080.0
3.333,8.889,86.667,0.0,0.0,1.111,0.0,8192.0,19993453.0,648094.0,0.0,0.0,18.0,4279.0
3.371,10.112,85.393,0.0,0.0,1.124,0.0,0.0,19840344.0,641490.0,0.0,0.0,18.0,4221.0
4.444,14.444,81.111,0.0,0.0,0.0,0.0,0.0,20718329.0,674982.0,0.0,0.0,18.0,4555.0
6.383,9.574,81.915,0.0,0.0,2.128,0.0,0.0,21108723.0,682814.0,0.0,0.0,18.0,4534.0
4.301,13.978,80.645,0.0,0.0,1.075,0.0,0.0,21039532.0,682534.0,0.0,0.0,19.0,4685.0
7.527,10.753,80.645,0.0,0.0,1.075,0.0,0.0,19002437.0,617698.0,0.0,0.0,18.0,4030.0
4.444,8.889,86.667,0.0,0.0,0.0,0.0,4096.0,19690858.0,638294.0,0.0,0.0,18.0,4270.0
4.301,12.903,81.720,0.0,0.0,1.075,0.0,0.0,20628898.0,667974.0,0.0,0.0,18.0,4704.0
6.593,9.890,82.418,0.0,0.0,1.099,0.0,0.0,20184756.0,656758.0,0.0,0.0,18.0,4420.0
4.494,10.112,84.270,0.0,0.0,1.124,0.0,0.0,18832767.0,609364.0,0.0,0.0,19.0,3599.0
4.444,10.0,84.444,0.0,0.0,1.111,0.0,0.0,19855096.0,642494.0,0.0,0.0,18.0,4309.0
4.444,13.333,82.222,0.0,0.0,0.0,0.0,0.0,19672431.0,640098.0,0.0,0.0,18.0,4199.0
4.211,12.632,82.105,0.0,0.0,1.053,0.0,0.0,19595706.0,635214.0,0.0,0.0,18.0,4166.0
5.435,10.870,83.696,0.0,0.0,0.0,0.0,0.0,21043890.0,682114.0,0.0,0.0,19.0,4492.0
6.742,10.112,82.022,0.0,0.0,1.124,0.0,0.0,19335116.0,628758.0,0.0,0.0,18.0,4047.0
4.301,11.828,83.871,0.0,0.0,0.0,0.0,0.0,19647591.0,636754.0,0.0,0.0,18.0,4232.0
5.556,7.778,84.444,0.0,0.0,2.222,0.0,4096.0,21065521.0,681834.0,0.0,0.0,18.0,4467.0
8.889,8.889,80.0,2.222,0.0,0.0,0.0,20480.0,19921501.0,648930.0,0.0,0.0,18.0,4128.0
5.376,11.828,82.796,0.0,0.0,0.0,0.0,0.0,20270145.0,656634.0,0.0,0.0,19.0,4362.0
6.667,8.889,82.222,0.0,0.0,2.222,0.0,0.0,21649081.0,701434.0,0.0,0.0,18.0,4604.0
8.421,11.579,80.0,0.0,0.0,0.0,0.0,0.0,20470014.0,665298.0,0.0,0.0,18.0,4501.0
3.158,14.737,81.053,0.0,0.0,1.053,0.0,36864.0,19578450.0,634654.0,0.0,0.0,18.0,4160.0
8.421,9.474,82.105,0.0,0.0,0.0,0.0,0.0,20647640.0,668538.0,0.0,0.0,18.0,4509.0
5.556,7.778,85.556,0.0,0.0,1.111,0.0,0.0,17995200.0,585712.0,0.0,0.0,19.0,4018.0
5.319,12.766,79.787,0.0,0.0,2.128,0.0,0.0,19444470.0,629754.0,0.0,0.0,18.0,4321.0
4.494,6.742,88.764,0.0,0.0,0.0,0.0,0.0,18393955.0,596014.0,0.0,0.0,18.0,3845.0
4.348,10.870,82.609,0.0,0.0,2.174,0.0,0.0,20068127.0,652698.0,0.0,0.0,18.0,4290.0
6.742,7.865,85.393,0.0,0.0,0.0,0.0,0.0,21601542.0,700034.0,0.0,0.0,18.0,4339.0
4.301,13.978,80.645,0.0,0.0,1.075,0.0,0.0,21696672.0,702554.0,0.0,0.0,19.0,4830.0
5.618,11.236,80.899,0.0,0.0,2.247,0.0,0.0,20003212.0,650038.0,0.0,0.0,18.0,4266.0
5.618,8.989,85.393,0.0,0.0,0.0,0.0,0.0,19422790.0,629894.0,0.0,0.0,18.0,4128.0
3.371,10.112,85.393,0.0,0.0,1.124,0.0,0.0,20961704.0,678614.0,0.0,0.0,18.0,4557.0
5.682,12.500,81.818,0.0,0.0,0.0,0.0,0.0,20461371.0,665578.0,0.0,0.0,18.0,4161.0
4.348,11.957,83.696,0.0,0.0,0.0,0.0,0.0,20624596.0,668114.0,0.0,0.0,19.0,4643.0
6.522,13.043,79.348,0.0,0.0,1.087,0.0,0.0,20914192.0,677914.0,0.0,0.0,18.0,4789.0
6.452,11.828,80.645,0.0,0.0,1.075,0.0,0.0,19355817.0,629598.0,0.0,0.0,18.0,4282.0
5.435,11.957,81.522,0.0,0.0,1.087,0.0,0.0,20945498.0,677914.0,0.0,0.0,18.0,4479.0
6.593,9.890,82.418,0.0,0.0,1.099,0.0,0.0,21765778.0,705494.0,0.0,0.0,18.0,4685.0
4.545,11.364,82.955,0.0,0.0,1.136,0.0,0.0,20201956.0,657038.0,0.0,0.0,19.0,4452.0
8.163,12.245,76.531,0.0,0.0,3.061,0.0,0.0,19204380.0,622054.0,0.0,0.0,19.0,4246.0
5.435,8.696,85.870,0.0,0.0,0.0,0.0,0.0,18230692.0,590694.0,0.0,0.0,18.0,3994.0
