"Dstat 0.7.2 CSV output"
"Author:","Dag Wieers <dag@wieers.com>",,,,"URL:","http://dag.wieers.com/home-made/dstat/"
"Host:","Server3",,,,"User:","maki"
"Cmdline:","dstat --output server_8_set_4_4.csv 1 70",,,,"Date:","25 Nov 2018 00:59:49 UTC"

"total cpu usage",,,,,,"dsk/total",,"net/total",,"paging",,"system",
"usr","sys","idl","wai","hiq","siq","read","writ","recv","send","in","out","int","csw"
3.516,5.863,86.910,3.082,0.0,0.629,45132.685,161334.061,0.0,0.0,0.0,0.0,18.945,1261.964
4.348,11.957,82.609,0.0,0.0,1.087,0.0,0.0,21580116.0,699262.0,0.0,0.0,18.0,4266.0
6.024,13.253,79.518,0.0,0.0,1.205,0.0,0.0,25774233.0,837778.0,0.0,0.0,18.0,4758.0
9.302,22.093,65.116,0.0,0.0,3.488,0.0,0.0,25459381.0,828443.0,0.0,0.0,23.0,3559.0
5.952,21.429,69.048,0.0,0.0,3.571,0.0,0.0,27158471.0,878954.0,0.0,0.0,19.0,3641.0
9.195,18.391,70.115,0.0,0.0,2.299,0.0,0.0,28207976.0,914778.0,0.0,0.0,18.0,3609.0
11.111,20.988,64.198,0.0,0.0,3.704,0.0,0.0,28721290.0,931034.0,0.0,0.0,18.0,3866.0
10.0,12.222,76.667,0.0,0.0,1.111,0.0,0.0,26428041.0,856834.0,0.0,0.0,18.0,3362.0
11.765,20.0,65.882,0.0,0.0,2.353,0.0,0.0,27338274.0,887378.0,0.0,0.0,18.0,3469.0
9.091,19.318,70.455,0.0,0.0,1.136,0.0,0.0,29443310.0,954134.0,0.0,0.0,19.0,3806.0
9.524,19.048,67.857,0.0,0.0,3.571,0.0,0.0,28250108.0,913674.0,0.0,0.0,18.0,3771.0
8.602,21.505,65.591,0.0,0.0,4.301,0.0,0.0,28691963.0,933398.0,0.0,0.0,18.0,3564.0
5.556,24.444,67.778,0.0,0.0,2.222,0.0,0.0,29335119.0,950494.0,0.0,0.0,18.0,4398.0
9.474,20.0,68.421,0.0,0.0,2.105,0.0,0.0,27301163.0,883434.0,0.0,0.0,18.0,3438.0
10.345,21.839,64.368,0.0,0.0,3.448,0.0,4096.0,27728219.0,899658.0,0.0,0.0,19.0,3682.0
11.765,21.176,64.706,1.176,0.0,1.176,0.0,45056.0,28588812.0,927752.0,0.0,0.0,18.0,3660.0
4.878,20.732,71.951,0.0,0.0,2.439,0.0,0.0,28176680.0,911994.0,0.0,0.0,18.0,4070.0
8.046,16.092,74.713,0.0,0.0,1.149,0.0,0.0,27481709.0,893078.0,0.0,0.0,18.0,3446.0
11.628,19.767,67.442,0.0,0.0,1.163,0.0,0.0,27476326.0,889594.0,0.0,0.0,18.0,3779.0
5.319,19.149,73.404,0.0,0.0,2.128,0.0,0.0,27573484.0,892954.0,0.0,0.0,19.0,3749.0
9.412,21.176,67.059,0.0,0.0,2.353,0.0,0.0,27572461.0,896438.0,0.0,0.0,18.0,3988.0
8.046,20.690,68.966,0.0,0.0,2.299,0.0,0.0,29335227.0,949654.0,0.0,0.0,18.0,4079.0
10.465,17.442,68.605,0.0,0.0,3.488,0.0,0.0,28894216.0,936214.0,0.0,0.0,18.0,3806.0
13.953,19.767,65.116,0.0,0.0,1.163,0.0,0.0,28018498.0,909158.0,0.0,0.0,19.0,3646.0
9.195,16.092,70.115,0.0,0.0,4.598,0.0,0.0,29430272.0,953294.0,0.0,0.0,18.0,3962.0
9.783,15.217,73.913,0.0,0.0,1.087,0.0,0.0,26661528.0,863134.0,0.0,0.0,18.0,3178.0
8.434,20.482,68.675,0.0,0.0,2.410,0.0,0.0,28566576.0,926226.0,0.0,0.0,18.0,3721.0
11.957,21.739,61.957,0.0,0.0,4.348,0.0,0.0,28021490.0,909432.0,0.0,0.0,18.0,3547.0
9.412,18.824,68.235,0.0,0.0,3.529,0.0,0.0,26380337.0,856628.0,0.0,0.0,19.0,3664.0
6.098,15.854,74.390,0.0,0.0,3.659,0.0,0.0,28933096.0,934954.0,0.0,0.0,18.0,3789.0
5.882,23.529,65.882,0.0,0.0,4.706,0.0,16384.0,27256983.0,885584.0,0.0,0.0,18.0,3463.0
8.889,14.444,76.667,0.0,0.0,0.0,0.0,0.0,26181677.0,849554.0,0.0,0.0,18.0,3810.0
8.140,25.581,65.116,0.0,0.0,1.163,0.0,0.0,28254489.0,915848.0,0.0,0.0,18.0,3853.0
9.524,22.619,65.476,0.0,0.0,2.381,0.0,0.0,27797339.0,903018.0,0.0,0.0,19.0,3893.0
7.229,21.687,68.675,0.0,0.0,2.410,0.0,0.0,26475518.0,855294.0,0.0,0.0,18.0,3484.0
10.989,19.780,67.033,0.0,0.0,2.198,0.0,8192.0,27346692.0,888054.0,0.0,0.0,18.0,3778.0
13.953,17.442,66.279,0.0,0.0,2.326,0.0,0.0,28125929.0,911484.0,0.0,0.0,18.0,3909.0
8.989,21.348,67.416,0.0,0.0,2.247,0.0,0.0,27727129.0,899254.0,0.0,0.0,18.0,3797.0
9.877,16.049,72.840,0.0,0.0,1.235,0.0,0.0,28064385.0,909268.0,0.0,0.0,19.0,3468.0
6.897,18.391,73.563,0.0,0.0,1.149,0.0,0.0,27793047.0,903718.0,0.0,0.0,18.0,3595.0
6.742,15.730,75.281,0.0,0.0,2.247,0.0,0.0,26780331.0,866354.0,0.0,0.0,18.0,3429.0
8.046,12.644,77.011,0.0,0.0,2.299,0.0,0.0,27878421.0,904154.0,0.0,0.0,18.0,4053.0
9.783,19.565,68.478,0.0,0.0,2.174,0.0,0.0,28649034.0,928564.0,0.0,0.0,18.0,3821.0
8.046,19.540,70.115,0.0,0.0,2.299,0.0,0.0,25054811.0,813166.0,0.0,0.0,19.0,3485.0
4.706,14.118,80.0,0.0,0.0,1.176,0.0,0.0,28708487.0,928094.0,0.0,0.0,18.0,3663.0
11.765,24.706,56.471,1.176,0.0,5.882,0.0,77824.0,28121617.0,914358.0,0.0,0.0,18.0,3527.0
3.261,19.565,75.0,0.0,0.0,2.174,0.0,0.0,27007220.0,876154.0,0.0,0.0,18.0,3737.0
9.677,23.656,64.516,0.0,0.0,2.151,0.0,0.0,27752979.0,897714.0,0.0,0.0,18.0,3844.0
10.976,19.512,68.293,0.0,0.0,1.220,0.0,0.0,27278586.0,885304.0,0.0,0.0,19.0,3556.0
10.227,22.727,64.773,0.0,0.0,2.273,0.0,0.0,27262330.0,885188.0,0.0,0.0,18.0,3609.0
8.889,17.778,71.111,0.0,0.0,2.222,0.0,0.0,29054230.0,941114.0,0.0,0.0,18.0,3466.0
10.227,23.864,60.227,0.0,0.0,5.682,0.0,0.0,28263477.0,917212.0,0.0,0.0,18.0,3802.0
8.511,19.149,71.277,0.0,0.0,1.064,0.0,0.0,26350272.0,853828.0,0.0,0.0,19.0,3680.0
9.877,18.519,70.370,0.0,0.0,1.235,0.0,0.0,27382689.0,886172.0,0.0,0.0,18.0,4084.0
9.783,17.391,68.478,0.0,0.0,4.348,0.0,0.0,28800292.0,936758.0,0.0,0.0,18.0,3496.0
8.750,17.500,73.750,0.0,0.0,0.0,0.0,0.0,25887656.0,838214.0,0.0,0.0,18.0,3485.0
6.593,20.879,70.330,0.0,0.0,2.198,0.0,0.0,29227138.0,946994.0,0.0,0.0,18.0,3764.0
9.756,19.512,68.293,0.0,0.0,2.439,0.0,0.0,27330900.0,888610.0,0.0,0.0,18.0,3688.0
6.818,13.636,77.273,0.0,0.0,2.273,0.0,0.0,27372591.0,886654.0,0.0,0.0,19.0,3428.0
9.412,21.176,67.059,0.0,0.0,2.353,0.0,0.0,28997979.0,938314.0,0.0,0.0,18.0,4099.0
9.524,16.667,71.429,0.0,0.0,2.381,0.0,0.0,27546607.0,895878.0,0.0,0.0,18.0,3465.0
11.111,24.444,62.222,0.0,0.0,2.222,0.0,0.0,26590129.0,860754.0,0.0,0.0,18.0,3542.0
7.527,12.903,78.495,0.0,0.0,1.075,0.0,0.0,26047592.0,844234.0,0.0,0.0,19.0,3344.0
10.976,18.293,65.854,0.0,0.0,4.878,0.0,0.0,25274703.0,823723.0,0.0,0.0,23.0,3605.0
9.302,13.953,75.581,0.0,0.0,1.163,0.0,0.0,27912981.0,906394.0,0.0,0.0,18.0,3619.0
7.317,26.829,63.415,0.0,0.0,2.439,0.0,0.0,26992213.0,873634.0,0.0,0.0,18.0,4088.0
10.588,12.941,74.118,0.0,0.0,2.353,0.0,8192.0,28441450.0,924578.0,0.0,0.0,18.0,3767.0
7.059,20.0,69.412,0.0,0.0,3.529,0.0,0.0,28371167.0,917874.0,0.0,0.0,19.0,4040.0
7.527,19.355,70.968,0.0,0.0,2.151,0.0,0.0,26492856.0,857040.0,0.0,0.0,17.0,3501.0
9.091,24.675,64.935,0.0,0.0,1.299,0.0,0.0,27248337.0,886712.0,0.0,0.0,19.0,3653.0
5.747,10.345,81.609,0.0,0.0,2.299,0.0,0.0,22700636.0,736014.0,0.0,0.0,18.0,3054.0
