"Dstat 0.7.2 CSV output"
"Author:","Dag Wieers <dag@wieers.com>",,,,"URL:","http://dag.wieers.com/home-made/dstat/"
"Host:","Server3",,,,"User:","maki"
"Cmdline:","dstat --output server_16_set_1_1.csv 1 70",,,,"Date:","25 Nov 2018 01:11:38 UTC"

"total cpu usage",,,,,,"dsk/total",,"net/total",,"paging",,"system",
"usr","sys","idl","wai","hiq","siq","read","writ","recv","send","in","out","int","csw"
3.759,6.455,86.343,2.748,0.0,0.696,39854.721,142685.866,0.0,0.0,0.0,0.0,18.865,1339.881
4.255,3.191,92.553,0.0,0.0,0.0,0.0,0.0,8198287.0,266522.0,0.0,0.0,18.0,2391.0
4.167,7.292,87.500,0.0,0.0,1.042,0.0,0.0,7737730.0,253418.0,0.0,0.0,18.0,2443.0
5.208,4.167,90.625,0.0,0.0,0.0,0.0,0.0,9011192.0,291654.0,0.0,0.0,19.0,2596.0
2.198,5.495,92.308,0.0,0.0,0.0,0.0,0.0,10828887.0,350734.0,0.0,0.0,18.0,2985.0
5.263,6.316,88.421,0.0,0.0,0.0,0.0,0.0,9978562.0,326218.0,0.0,0.0,18.0,2695.0
3.297,2.198,94.505,0.0,0.0,0.0,0.0,0.0,9069781.0,293754.0,0.0,0.0,18.0,2530.0
2.151,8.602,88.172,0.0,0.0,1.075,0.0,0.0,10875185.0,351926.0,0.0,0.0,18.0,2906.0
4.494,2.247,93.258,0.0,0.0,0.0,0.0,0.0,10125604.0,330698.0,0.0,0.0,19.0,2707.0
3.093,9.278,86.598,0.0,0.0,1.031,0.0,0.0,10984916.0,355774.0,0.0,0.0,18.0,3100.0
4.348,5.435,86.957,3.261,0.0,0.0,0.0,36864.0,11564201.0,374954.0,0.0,0.0,18.0,3341.0
3.191,6.383,89.362,0.0,0.0,1.064,0.0,0.0,10194709.0,332518.0,0.0,0.0,18.0,2881.0
2.151,7.527,90.323,0.0,0.0,0.0,0.0,0.0,10755665.0,347934.0,0.0,0.0,18.0,2961.0
4.082,7.143,87.755,0.0,0.0,1.020,0.0,0.0,10025484.0,325254.0,0.0,0.0,19.0,2584.0
2.128,8.511,89.362,0.0,0.0,0.0,0.0,0.0,10181719.0,331958.0,0.0,0.0,18.0,2605.0
2.222,4.444,91.111,0.0,0.0,2.222,0.0,0.0,10547656.0,341566.0,0.0,0.0,23.0,2709.0
6.316,8.421,85.263,0.0,0.0,0.0,0.0,0.0,10866802.0,356463.0,0.0,0.0,18.0,3050.0
4.348,6.522,88.043,0.0,0.0,1.087,0.0,0.0,10069393.0,330150.0,0.0,0.0,18.0,2630.0
6.250,4.167,88.542,0.0,0.0,1.042,0.0,0.0,10889446.0,352554.0,0.0,0.0,19.0,2963.0
3.226,6.452,90.323,0.0,0.0,0.0,0.0,0.0,11239571.0,364034.0,0.0,0.0,18.0,3118.0
4.211,8.421,87.368,0.0,0.0,0.0,0.0,0.0,10869173.0,355198.0,0.0,0.0,18.0,2926.0
1.087,6.522,92.391,0.0,0.0,0.0,0.0,0.0,9731011.0,315174.0,0.0,0.0,18.0,2457.0
4.211,8.421,87.368,0.0,0.0,0.0,0.0,0.0,9964870.0,322594.0,0.0,0.0,18.0,2574.0
4.124,9.278,85.567,0.0,0.0,1.031,0.0,0.0,10424129.0,340778.0,0.0,0.0,19.0,2779.0
4.167,7.292,87.500,0.0,0.0,1.042,0.0,0.0,10815116.0,350174.0,0.0,0.0,18.0,2858.0
4.167,8.333,87.500,0.0,0.0,0.0,0.0,0.0,10513604.0,340234.0,0.0,0.0,18.0,3028.0
4.348,6.522,89.130,0.0,0.0,0.0,0.0,0.0,10415031.0,340358.0,0.0,0.0,18.0,2597.0
4.255,6.383,88.298,0.0,0.0,1.064,0.0,0.0,10310298.0,334214.0,0.0,0.0,18.0,2811.0
5.376,6.452,88.172,0.0,0.0,0.0,0.0,0.0,10336400.0,334634.0,0.0,0.0,19.0,2799.0
5.208,6.250,88.542,0.0,0.0,0.0,0.0,0.0,10467019.0,342178.0,0.0,0.0,18.0,2597.0
1.087,4.348,93.478,0.0,0.0,1.087,0.0,8192.0,10085627.0,326654.0,0.0,0.0,18.0,2449.0
2.128,6.383,91.489,0.0,0.0,0.0,0.0,0.0,10358142.0,335474.0,0.0,0.0,18.0,2802.0
3.261,6.522,89.130,0.0,0.0,1.087,0.0,0.0,10683027.0,349038.0,0.0,0.0,18.0,2871.0
3.125,7.292,88.542,0.0,0.0,1.042,0.0,0.0,10794570.0,349334.0,0.0,0.0,19.0,2714.0
5.263,6.316,88.421,0.0,0.0,0.0,0.0,0.0,11503306.0,372854.0,0.0,0.0,18.0,3212.0
4.255,7.447,88.298,0.0,0.0,0.0,0.0,4096.0,11054796.0,361078.0,0.0,0.0,18.0,3021.0
3.125,6.250,88.542,0.0,0.0,2.083,0.0,0.0,10332444.0,334494.0,0.0,0.0,18.0,2774.0
3.226,8.602,88.172,0.0,0.0,0.0,0.0,0.0,10837703.0,351434.0,0.0,0.0,19.0,2910.0
4.211,8.421,86.316,0.0,0.0,1.053,0.0,0.0,10912256.0,356178.0,0.0,0.0,18.0,2888.0
4.211,6.316,89.474,0.0,0.0,0.0,0.0,0.0,10893744.0,352974.0,0.0,0.0,18.0,2764.0
4.167,7.292,88.542,0.0,0.0,0.0,0.0,8192.0,10898207.0,352694.0,0.0,0.0,18.0,2763.0
3.158,7.368,86.316,2.105,0.0,1.053,0.0,45056.0,10376352.0,339238.0,0.0,0.0,18.0,2694.0
1.042,10.417,87.500,0.0,0.0,1.042,0.0,0.0,9501938.0,307334.0,0.0,0.0,19.0,2481.0
4.255,4.255,91.489,0.0,0.0,0.0,0.0,0.0,10375277.0,336594.0,0.0,0.0,18.0,2788.0
4.211,6.316,89.474,0.0,0.0,0.0,0.0,0.0,10108466.0,329858.0,0.0,0.0,18.0,2653.0
2.151,6.452,91.398,0.0,0.0,0.0,0.0,0.0,10120589.0,327914.0,0.0,0.0,18.0,2675.0
2.083,7.292,89.583,0.0,0.0,1.042,0.0,4096.0,10466201.0,338554.0,0.0,0.0,18.0,2908.0
4.255,8.511,87.234,0.0,0.0,0.0,0.0,0.0,10354497.0,337978.0,0.0,0.0,19.0,2749.0
3.158,6.316,90.526,0.0,0.0,0.0,0.0,0.0,10029212.0,325674.0,0.0,0.0,18.0,2602.0
3.093,7.216,88.660,0.0,0.0,1.031,0.0,0.0,10798643.0,349474.0,0.0,0.0,18.0,2914.0
2.083,10.417,87.500,0.0,0.0,0.0,0.0,0.0,10696418.0,349598.0,0.0,0.0,18.0,2962.0
2.151,5.376,92.473,0.0,0.0,0.0,0.0,0.0,9731216.0,315034.0,0.0,0.0,18.0,2575.0
4.082,9.184,85.714,0.0,0.0,1.020,0.0,0.0,9860866.0,319580.0,0.0,0.0,19.0,2641.0
3.261,5.435,91.304,0.0,0.0,0.0,0.0,0.0,9861710.0,321672.0,0.0,0.0,18.0,2575.0
2.128,5.319,91.489,0.0,0.0,1.064,0.0,0.0,10388390.0,336734.0,0.0,0.0,18.0,2839.0
4.167,7.292,88.542,0.0,0.0,0.0,0.0,0.0,10824707.0,350594.0,0.0,0.0,18.0,2893.0
3.158,8.421,88.421,0.0,0.0,0.0,0.0,0.0,10432316.0,340358.0,0.0,0.0,18.0,2811.0
2.105,9.474,87.368,0.0,0.0,1.053,0.0,0.0,9864930.0,319794.0,0.0,0.0,18.0,2619.0
3.093,7.216,89.691,0.0,0.0,0.0,0.0,0.0,10414046.0,337154.0,0.0,0.0,19.0,2651.0
3.261,5.435,91.304,0.0,0.0,0.0,0.0,0.0,10350690.0,338464.0,0.0,0.0,18.0,2709.0
3.226,4.301,92.473,0.0,0.0,0.0,0.0,0.0,10379419.0,336388.0,0.0,0.0,18.0,2497.0
3.158,7.368,89.474,0.0,0.0,0.0,0.0,0.0,10375384.0,335754.0,0.0,0.0,19.0,2568.0
4.255,7.447,87.234,0.0,0.0,1.064,0.0,0.0,9935564.0,324678.0,0.0,0.0,18.0,2361.0
2.151,5.376,91.398,0.0,0.0,1.075,0.0,0.0,10660433.0,345414.0,0.0,0.0,18.0,2741.0
2.151,5.376,92.473,0.0,0.0,0.0,0.0,0.0,10448750.0,338834.0,0.0,0.0,18.0,2493.0
4.255,6.383,89.362,0.0,0.0,0.0,0.0,0.0,10570875.0,344698.0,0.0,0.0,18.0,2631.0
2.062,10.309,87.629,0.0,0.0,0.0,0.0,8192.0,10076591.0,326654.0,0.0,0.0,19.0,2478.0
5.319,6.383,88.298,0.0,0.0,0.0,0.0,0.0,10707842.0,346254.0,0.0,0.0,18.0,2801.0
6.316,7.368,86.316,0.0,0.0,0.0,0.0,0.0,10488742.0,343298.0,0.0,0.0,18.0,2709.0
2.128,7.447,89.362,0.0,0.0,1.064,0.0,0.0,10210719.0,330434.0,0.0,0.0,18.0,2739.0
3.093,5.155,90.722,0.0,0.0,1.031,0.0,0.0,8626468.0,279754.0,0.0,0.0,18.0,2355.0
