"Dstat 0.7.2 CSV output"
"Author:","Dag Wieers <dag@wieers.com>",,,,"URL:","http://dag.wieers.com/home-made/dstat/"
"Host:","Server3",,,,"User:","maki"
"Cmdline:","dstat --output server_16_set_2_22.csv 1 70",,,,"Date:","25 Nov 2018 01:37:26 UTC"

"total cpu usage",,,,,,"dsk/total",,"net/total",,"paging",,"system",
"usr","sys","idl","wai","hiq","siq","read","writ","recv","send","in","out","int","csw"
4.134,7.389,85.427,2.219,0.0,0.830,31754.949,114068.308,0.0,0.0,0.0,0.0,18.746,1399.620
8.602,20.430,67.742,0.0,0.0,3.226,0.0,4096.0,34070744.0,1104846.0,0.0,0.0,18.0,3500.0
10.227,25.0,61.364,0.0,0.0,3.409,0.0,0.0,37312027.0,1208638.0,0.0,0.0,19.0,2687.0
9.639,28.916,56.627,2.410,0.0,2.410,0.0,49152.0,39854630.0,1291118.0,0.0,0.0,18.0,2127.0
10.465,31.395,52.326,0.0,0.0,5.814,0.0,0.0,39956475.0,1294968.0,0.0,0.0,18.0,2061.0
13.253,25.301,59.036,0.0,0.0,2.410,0.0,0.0,40186848.0,1304818.0,0.0,0.0,18.0,2113.0
7.317,19.512,69.512,0.0,0.0,3.659,0.0,4096.0,40384315.0,1309314.0,0.0,0.0,18.0,1980.0
10.345,19.540,67.816,0.0,0.0,2.299,0.0,0.0,39615041.0,1282154.0,0.0,0.0,19.0,2031.0
11.236,25.843,58.427,0.0,0.0,4.494,0.0,0.0,40819753.0,1324002.0,0.0,0.0,18.0,2027.0
8.889,26.667,61.111,0.0,0.0,3.333,0.0,0.0,41932005.0,1359788.0,0.0,0.0,18.0,2278.0
10.714,29.762,57.143,0.0,0.0,2.381,0.0,0.0,42251906.0,1364894.0,0.0,0.0,18.0,1911.0
11.765,27.059,58.824,0.0,0.0,2.353,0.0,0.0,40186705.0,1305140.0,0.0,0.0,19.0,2068.0
9.524,27.381,59.524,0.0,0.0,3.571,0.0,0.0,41314164.0,1336432.0,0.0,0.0,18.0,1979.0
8.434,25.301,61.446,0.0,0.0,4.819,0.0,0.0,38849540.0,1261154.0,0.0,0.0,18.0,1934.0
11.111,27.778,57.778,0.0,0.0,3.333,0.0,0.0,41010838.0,1326814.0,0.0,0.0,18.0,2259.0
15.385,25.641,53.846,0.0,0.0,5.128,0.0,0.0,41180887.0,1336318.0,0.0,0.0,18.0,1863.0
12.346,34.568,46.914,0.0,0.0,6.173,0.0,0.0,40929112.0,1326394.0,0.0,0.0,19.0,1802.0
11.905,30.952,54.762,0.0,0.0,2.381,0.0,0.0,41968123.0,1361752.0,0.0,0.0,18.0,1946.0
10.465,27.907,58.140,0.0,0.0,3.488,0.0,0.0,39870957.0,1294272.0,0.0,0.0,18.0,1920.0
11.765,35.294,50.588,0.0,0.0,2.353,0.0,0.0,38404584.0,1241274.0,0.0,0.0,18.0,1790.0
8.235,24.706,61.176,0.0,0.0,5.882,0.0,0.0,40722816.0,1319052.0,0.0,0.0,18.0,2102.0
10.465,31.395,50.0,0.0,0.0,8.140,0.0,0.0,39745821.0,1289558.0,0.0,0.0,19.0,1730.0
10.345,31.034,55.172,0.0,0.0,3.448,0.0,0.0,39171081.0,1268792.0,0.0,0.0,18.0,1989.0
9.524,22.619,63.095,0.0,0.0,4.762,0.0,0.0,41089156.0,1330734.0,0.0,0.0,18.0,2087.0
17.073,29.268,50.0,0.0,0.0,3.659,0.0,0.0,40054991.0,1298788.0,0.0,0.0,18.0,1922.0
9.195,27.586,60.920,0.0,0.0,2.299,0.0,0.0,39273619.0,1273688.0,0.0,0.0,18.0,1870.0
17.647,18.824,61.176,0.0,0.0,2.353,0.0,0.0,41482623.0,1342634.0,0.0,0.0,19.0,2018.0
10.345,25.287,60.920,0.0,0.0,3.448,0.0,0.0,40320788.0,1312238.0,0.0,0.0,18.0,2210.0
8.974,23.077,62.821,0.0,0.0,5.128,0.0,0.0,41654258.0,1347180.0,0.0,0.0,18.0,2099.0
13.095,38.095,46.429,0.0,0.0,2.381,0.0,0.0,40689710.0,1316840.0,0.0,0.0,18.0,1849.0
11.364,23.864,63.636,0.0,0.0,1.136,0.0,0.0,37065690.0,1206258.0,0.0,0.0,18.0,1889.0
16.867,31.325,45.783,0.0,0.0,6.024,0.0,0.0,40479927.0,1309240.0,0.0,0.0,18.0,1666.0
17.241,32.184,44.828,0.0,0.0,5.747,0.0,12288.0,39616475.0,1289533.0,0.0,0.0,24.0,2030.0
12.048,26.506,55.422,1.205,0.0,4.819,0.0,45056.0,39722502.0,1285514.0,0.0,0.0,18.0,1946.0
11.250,32.500,51.250,0.0,0.0,5.0,0.0,0.0,39256307.0,1275154.0,0.0,0.0,18.0,1841.0
17.978,16.854,60.674,0.0,0.0,4.494,0.0,0.0,41344214.0,1339134.0,0.0,0.0,18.0,2025.0
6.593,27.473,60.440,0.0,0.0,5.495,0.0,0.0,40545368.0,1312798.0,0.0,0.0,19.0,1944.0
11.905,28.571,55.952,0.0,0.0,3.571,0.0,40960.0,38531244.0,1247434.0,0.0,0.0,18.0,1979.0
11.364,29.545,54.545,0.0,0.0,4.545,0.0,0.0,41173848.0,1335074.0,0.0,0.0,18.0,2130.0
12.500,41.250,41.250,0.0,0.0,5.0,0.0,0.0,39494621.0,1279478.0,0.0,0.0,18.0,1902.0
14.118,36.471,45.882,0.0,0.0,3.529,0.0,0.0,40890147.0,1327160.0,0.0,0.0,18.0,1926.0
11.905,32.143,50.0,0.0,0.0,5.952,0.0,0.0,40643879.0,1315828.0,0.0,0.0,19.0,1967.0
14.634,30.488,50.0,0.0,0.0,4.878,0.0,0.0,39481956.0,1282418.0,0.0,0.0,18.0,1873.0
14.118,28.235,54.118,0.0,0.0,3.529,0.0,0.0,39632489.0,1285094.0,0.0,0.0,18.0,1891.0
12.048,24.096,59.036,0.0,0.0,4.819,0.0,0.0,38848010.0,1256494.0,0.0,0.0,18.0,1866.0
8.434,28.916,60.241,0.0,0.0,2.410,0.0,0.0,39590055.0,1286618.0,0.0,0.0,18.0,1887.0
9.756,24.390,63.415,0.0,0.0,2.439,0.0,0.0,41525629.0,1343194.0,0.0,0.0,19.0,2188.0
12.088,27.473,57.143,0.0,0.0,3.297,0.0,0.0,40276168.0,1303994.0,0.0,0.0,18.0,2032.0
11.494,24.138,59.770,0.0,0.0,4.598,0.0,0.0,40117479.0,1300964.0,0.0,0.0,18.0,2127.0
12.222,32.222,47.778,0.0,0.0,7.778,0.0,0.0,39109434.0,1269530.0,0.0,0.0,18.0,1968.0
8.235,32.941,52.941,0.0,0.0,5.882,0.0,0.0,40661240.0,1312954.0,0.0,0.0,18.0,2001.0
12.658,32.911,48.101,0.0,0.0,6.329,0.0,0.0,38654047.0,1256114.0,0.0,0.0,19.0,1954.0
12.821,29.487,53.846,0.0,0.0,3.846,0.0,0.0,41573476.0,1346768.0,0.0,0.0,18.0,2037.0
15.909,28.409,50.0,0.0,0.0,5.682,0.0,0.0,39264713.0,1273754.0,0.0,0.0,18.0,1736.0
13.253,27.711,55.422,0.0,0.0,3.614,0.0,0.0,38538122.0,1248620.0,0.0,0.0,18.0,1930.0
20.482,32.530,42.169,0.0,0.0,4.819,0.0,0.0,40972544.0,1326188.0,0.0,0.0,19.0,1706.0
9.302,24.419,60.465,0.0,0.0,5.814,0.0,0.0,38625282.0,1255134.0,0.0,0.0,18.0,2122.0
16.250,27.500,48.750,0.0,0.0,7.500,0.0,0.0,39175044.0,1270538.0,0.0,0.0,18.0,2001.0
12.195,29.268,54.878,0.0,0.0,3.659,0.0,0.0,40636478.0,1316532.0,0.0,0.0,18.0,1904.0
15.116,24.419,55.814,0.0,0.0,4.651,0.0,0.0,37920288.0,1225948.0,0.0,0.0,18.0,1982.0
11.628,25.581,58.140,0.0,0.0,4.651,0.0,0.0,40925887.0,1328198.0,0.0,0.0,19.0,1976.0
11.494,22.989,62.069,0.0,0.0,3.448,0.0,0.0,39636679.0,1283274.0,0.0,0.0,18.0,1892.0
11.250,31.250,55.0,0.0,0.0,2.500,0.0,8192.0,39002621.0,1264592.0,0.0,0.0,18.0,1839.0
20.482,27.711,45.783,0.0,0.0,6.024,0.0,0.0,39711400.0,1287178.0,0.0,0.0,18.0,1770.0
16.092,29.885,48.276,1.149,0.0,4.598,0.0,12288.0,39524313.0,1282854.0,0.0,0.0,18.0,1918.0
14.118,24.706,57.647,0.0,0.0,3.529,0.0,0.0,41050169.0,1330874.0,0.0,0.0,19.0,1964.0
15.730,29.213,49.438,0.0,0.0,5.618,0.0,0.0,39299479.0,1272782.0,0.0,0.0,18.0,1977.0
8.989,29.213,58.427,0.0,0.0,3.371,0.0,0.0,40312222.0,1308206.0,0.0,0.0,18.0,1973.0
15.294,28.235,51.765,0.0,0.0,4.706,0.0,8192.0,41153776.0,1329194.0,0.0,0.0,18.0,1977.0
14.607,33.708,46.067,0.0,0.0,5.618,0.0,0.0,40287408.0,1304670.0,0.0,0.0,18.0,1956.0
12.195,21.951,60.976,0.0,0.0,4.878,0.0,0.0,31131141.0,1014980.0,0.0,0.0,18.0,1437.0
