"Dstat 0.7.2 CSV output"
"Author:","Dag Wieers <dag@wieers.com>",,,,"URL:","http://dag.wieers.com/home-made/dstat/"
"Host:","Server3",,,,"User:","maki"
"Cmdline:","dstat --output server_32_set_1_4.csv 1 70",,,,"Date:","25 Nov 2018 02:19:11 UTC"

"total cpu usage",,,,,,"dsk/total",,"net/total",,"paging",,"system",
"usr","sys","idl","wai","hiq","siq","read","writ","recv","send","in","out","int","csw"
4.615,8.627,83.998,1.702,0.0,1.058,23893.819,86319.750,0.0,0.0,0.0,0.0,18.631,1441.460
3.488,9.302,86.047,0.0,0.0,1.163,0.0,0.0,20725319.0,673346.0,0.0,0.0,18.0,4082.0
5.682,10.227,82.955,0.0,0.0,1.136,0.0,0.0,26094796.0,845420.0,0.0,0.0,18.0,4585.0
8.889,21.111,67.778,0.0,0.0,2.222,0.0,0.0,28726301.0,930408.0,0.0,0.0,19.0,4271.0
8.889,17.778,71.111,0.0,0.0,2.222,0.0,0.0,27443269.0,890418.0,0.0,0.0,18.0,3469.0
4.494,21.348,71.910,0.0,0.0,2.247,0.0,0.0,28289554.0,914160.0,0.0,0.0,18.0,3364.0
4.444,24.444,70.0,0.0,0.0,1.111,0.0,0.0,29812446.0,967306.0,0.0,0.0,18.0,3700.0
9.639,14.458,73.494,0.0,0.0,2.410,0.0,0.0,27715581.0,901758.0,0.0,0.0,18.0,3139.0
8.140,17.442,72.093,0.0,0.0,2.326,0.0,0.0,29119130.0,942654.0,0.0,0.0,19.0,3364.0
7.955,18.182,71.591,0.0,0.0,2.273,0.0,0.0,30680028.0,992354.0,0.0,0.0,18.0,3561.0
8.333,21.429,69.048,0.0,0.0,1.190,0.0,0.0,28973230.0,941658.0,0.0,0.0,18.0,3225.0
5.952,21.429,71.429,0.0,0.0,1.190,0.0,0.0,30216840.0,979894.0,0.0,0.0,18.0,3424.0
7.865,16.854,73.034,0.0,0.0,2.247,0.0,0.0,31266088.0,1012094.0,0.0,0.0,18.0,3679.0
6.977,15.116,73.256,0.0,0.0,4.651,0.0,0.0,28451455.0,925138.0,0.0,0.0,19.0,3331.0
6.667,20.0,71.111,0.0,0.0,2.222,0.0,0.0,31280583.0,1011254.0,0.0,0.0,18.0,3791.0
6.897,18.391,72.414,0.0,0.0,2.299,0.0,0.0,30385857.0,984234.0,0.0,0.0,18.0,3597.0
9.302,13.953,74.419,0.0,0.0,2.326,0.0,0.0,27563905.0,895804.0,0.0,0.0,18.0,3343.0
5.952,17.857,75.0,0.0,0.0,1.190,0.0,0.0,29781216.0,964008.0,0.0,0.0,18.0,3533.0
7.778,22.222,68.889,0.0,0.0,1.111,0.0,0.0,29189344.0,945734.0,0.0,0.0,18.0,3499.0
6.593,16.484,73.626,0.0,0.0,3.297,0.0,0.0,27727875.0,901478.0,0.0,0.0,19.0,3368.0
5.556,17.778,75.556,0.0,0.0,1.111,0.0,0.0,27221979.0,882314.0,0.0,0.0,18.0,3257.0
8.046,14.943,74.713,0.0,0.0,2.299,0.0,0.0,30446574.0,985280.0,0.0,0.0,18.0,3516.0
10.227,12.500,75.0,0.0,0.0,2.273,0.0,0.0,26949734.0,875372.0,0.0,0.0,18.0,3080.0
8.889,20.0,67.778,1.111,0.0,2.222,0.0,53248.0,28427322.0,920814.0,0.0,0.0,18.0,3101.0
7.447,23.404,68.085,0.0,0.0,1.064,0.0,8192.0,30368698.0,984654.0,0.0,0.0,19.0,3453.0
10.112,17.978,69.663,0.0,0.0,2.247,0.0,0.0,27430123.0,890698.0,0.0,0.0,18.0,3033.0
11.236,17.978,68.539,0.0,0.0,2.247,0.0,0.0,30758030.0,994660.0,0.0,0.0,18.0,3487.0
8.889,17.778,70.0,0.0,0.0,3.333,0.0,0.0,30230462.0,980174.0,0.0,0.0,18.0,3468.0
9.890,19.780,68.132,0.0,0.0,2.198,0.0,0.0,26090025.0,847092.0,0.0,0.0,19.0,2879.0
8.046,13.793,75.862,0.0,0.0,2.299,0.0,0.0,29620792.0,960294.0,0.0,0.0,18.0,3731.0
8.235,17.647,72.941,0.0,0.0,1.176,0.0,0.0,30446628.0,984934.0,0.0,0.0,18.0,3894.0
7.609,18.478,72.826,0.0,0.0,1.087,0.0,0.0,27940099.0,906164.0,0.0,0.0,18.0,3183.0
9.783,21.739,67.391,0.0,0.0,1.087,0.0,0.0,30524758.0,991168.0,0.0,0.0,19.0,3457.0
8.046,16.092,72.414,0.0,0.0,3.448,0.0,0.0,28599064.0,926470.0,0.0,0.0,18.0,3241.0
9.302,12.791,74.419,0.0,0.0,3.488,0.0,8192.0,27712997.0,899592.0,0.0,0.0,18.0,3341.0
7.692,19.780,71.429,0.0,0.0,1.099,0.0,0.0,29383087.0,953014.0,0.0,0.0,18.0,3437.0
7.865,16.854,71.910,0.0,0.0,3.371,0.0,0.0,29369979.0,950214.0,0.0,0.0,18.0,3377.0
8.140,15.116,74.419,0.0,0.0,2.326,0.0,0.0,27378419.0,890278.0,0.0,0.0,19.0,3200.0
7.778,22.222,70.0,0.0,0.0,0.0,0.0,0.0,28804004.0,931314.0,0.0,0.0,18.0,3299.0
8.511,18.085,71.277,0.0,0.0,2.128,0.0,0.0,29689954.0,962040.0,0.0,0.0,18.0,3307.0
11.236,15.730,70.787,0.0,0.0,2.247,0.0,0.0,26872622.0,874264.0,0.0,0.0,18.0,3064.0
6.818,15.909,75.0,0.0,0.0,2.273,0.0,0.0,29274689.0,948814.0,0.0,0.0,18.0,3328.0
9.195,19.540,70.115,0.0,0.0,1.149,0.0,0.0,30528715.0,987380.0,0.0,0.0,19.0,3388.0
11.494,18.391,70.115,0.0,0.0,0.0,0.0,0.0,29436126.0,956152.0,0.0,0.0,18.0,3397.0
6.897,13.793,75.862,0.0,0.0,3.448,0.0,0.0,30849378.0,1000614.0,0.0,0.0,18.0,3793.0
8.889,21.111,68.889,0.0,0.0,1.111,0.0,0.0,30822253.0,996694.0,0.0,0.0,18.0,3483.0
9.091,12.500,75.0,0.0,0.0,3.409,0.0,0.0,29639678.0,963918.0,0.0,0.0,18.0,3646.0
8.889,16.667,73.333,0.0,0.0,1.111,0.0,0.0,28466430.0,921374.0,0.0,0.0,19.0,3237.0
5.814,18.605,72.093,0.0,0.0,3.488,0.0,0.0,28970943.0,935448.0,0.0,0.0,18.0,3243.0
6.593,20.879,71.429,0.0,0.0,1.099,0.0,0.0,30050026.0,976098.0,0.0,0.0,18.0,3310.0
6.667,14.444,77.778,0.0,0.0,1.111,0.0,0.0,28937457.0,939574.0,0.0,0.0,18.0,3321.0
7.778,14.444,76.667,0.0,0.0,1.111,0.0,0.0,27446812.0,888334.0,0.0,0.0,18.0,3105.0
7.778,21.111,68.889,0.0,0.0,2.222,0.0,0.0,28951330.0,940680.0,0.0,0.0,19.0,3342.0
7.527,21.505,62.366,2.151,0.0,6.452,0.0,20480.0,25589922.0,830735.0,0.0,0.0,23.0,3166.0
4.762,15.476,78.571,0.0,0.0,1.190,0.0,16384.0,29348137.0,952734.0,0.0,0.0,18.0,3500.0
9.302,16.279,73.256,0.0,0.0,1.163,0.0,0.0,29237134.0,948938.0,0.0,0.0,18.0,3530.0
7.955,13.636,76.136,0.0,0.0,2.273,0.0,0.0,29036884.0,940274.0,0.0,0.0,18.0,3300.0
5.747,18.391,73.563,0.0,0.0,2.299,0.0,0.0,29516992.0,955534.0,0.0,0.0,19.0,3178.0
10.0,16.667,71.111,0.0,0.0,2.222,0.0,0.0,29985116.0,972458.0,0.0,0.0,18.0,3479.0
8.989,21.348,67.416,0.0,0.0,2.247,0.0,0.0,30761324.0,997840.0,0.0,0.0,18.0,3646.0
7.059,17.647,75.294,0.0,0.0,0.0,0.0,0.0,29962914.0,970580.0,0.0,0.0,18.0,3701.0
6.452,19.355,70.968,0.0,0.0,3.226,0.0,0.0,30127116.0,976526.0,0.0,0.0,19.0,3756.0
6.742,20.225,73.034,0.0,0.0,0.0,0.0,0.0,29828314.0,969040.0,0.0,0.0,18.0,3474.0
4.706,12.941,81.176,0.0,0.0,1.176,0.0,0.0,29218868.0,943354.0,0.0,0.0,18.0,3667.0
8.989,16.854,73.034,0.0,0.0,1.124,0.0,0.0,29419538.0,953218.0,0.0,0.0,18.0,3697.0
9.783,15.217,71.739,0.0,0.0,3.261,0.0,0.0,27478852.0,894058.0,0.0,0.0,18.0,3231.0
2.247,19.101,75.281,0.0,0.0,3.371,0.0,0.0,30046959.0,974154.0,0.0,0.0,19.0,3531.0
6.522,19.565,70.652,0.0,0.0,3.261,0.0,0.0,31250545.0,1011814.0,0.0,0.0,18.0,3573.0
8.696,20.652,69.565,0.0,0.0,1.087,0.0,0.0,26911011.0,872786.0,0.0,0.0,18.0,2992.0
4.651,15.116,79.070,0.0,0.0,1.163,0.0,0.0,29132672.0,944474.0,0.0,0.0,18.0,3413.0
8.602,12.903,76.344,0.0,0.0,2.151,0.0,8192.0,25852126.0,837374.0,0.0,0.0,18.0,3097.0
