"Dstat 0.7.2 CSV output"
"Author:","Dag Wieers <dag@wieers.com>",,,,"URL:","http://dag.wieers.com/home-made/dstat/"
"Host:","Server3",,,,"User:","maki"
"Cmdline:","dstat --output server_32_set_4_22.csv 1 70",,,,"Date:","25 Nov 2018 03:13:26 UTC"

"total cpu usage",,,,,,"dsk/total",,"net/total",,"paging",,"system",
"usr","sys","idl","wai","hiq","siq","read","writ","recv","send","in","out","int","csw"
5.228,10.197,81.727,1.314,0.0,1.533,18078.652,65774.684,0.0,0.0,0.0,0.0,18.545,1423.550
11.628,26.744,58.140,0.0,0.0,3.488,0.0,0.0,36001104.0,1166582.0,0.0,0.0,18.0,2743.0
12.195,37.805,42.683,0.0,0.0,7.317,0.0,0.0,43286189.0,1393858.0,0.0,0.0,18.0,1819.0
13.750,48.750,27.500,0.0,0.0,10.0,0.0,0.0,46044719.0,1494512.0,0.0,0.0,18.0,1098.0
18.824,40.0,31.765,0.0,0.0,9.412,0.0,0.0,46375352.0,1505660.0,0.0,0.0,18.0,1211.0
15.294,37.647,37.647,0.0,0.0,9.412,0.0,0.0,47858700.0,1550328.0,0.0,0.0,19.0,1132.0
20.0,40.0,26.250,0.0,0.0,13.750,0.0,0.0,48186758.0,1557488.0,0.0,0.0,18.0,1137.0
18.182,42.857,29.870,0.0,0.0,9.091,0.0,0.0,48749649.0,1584274.0,0.0,0.0,18.0,1070.0
15.0,45.0,33.750,0.0,0.0,6.250,0.0,0.0,47806968.0,1547100.0,0.0,0.0,18.0,1071.0
17.808,46.575,26.027,0.0,0.0,9.589,0.0,0.0,49031380.0,1586358.0,0.0,0.0,18.0,988.0
14.773,43.182,29.545,0.0,0.0,12.500,0.0,45056.0,46918691.0,1524344.0,0.0,0.0,19.0,1116.0
16.049,46.914,27.160,0.0,0.0,9.877,0.0,0.0,49272245.0,1595894.0,0.0,0.0,18.0,1158.0
20.238,44.048,27.381,0.0,0.0,8.333,0.0,0.0,48594384.0,1576352.0,0.0,0.0,18.0,971.0
14.634,35.366,42.683,0.0,0.0,7.317,0.0,0.0,44845498.0,1453160.0,0.0,0.0,18.0,1388.0
18.987,44.304,30.380,0.0,0.0,6.329,0.0,0.0,49587932.0,1606114.0,0.0,0.0,19.0,1087.0
20.0,41.250,32.500,0.0,0.0,6.250,0.0,0.0,47766521.0,1545642.0,0.0,0.0,18.0,1243.0
17.857,40.476,34.524,0.0,0.0,7.143,0.0,0.0,50384734.0,1632792.0,0.0,0.0,19.0,1257.0
14.667,44.0,33.333,0.0,0.0,8.0,0.0,0.0,48704401.0,1579810.0,0.0,0.0,18.0,1176.0
20.238,40.476,29.762,0.0,0.0,9.524,0.0,0.0,46876991.0,1523666.0,0.0,0.0,18.0,1080.0
14.815,40.741,37.037,0.0,0.0,7.407,0.0,0.0,49358801.0,1598348.0,0.0,0.0,19.0,1314.0
17.073,32.927,36.585,0.0,0.0,13.415,0.0,12288.0,47022746.0,1525976.0,0.0,0.0,18.0,1314.0
19.048,44.048,28.571,0.0,0.0,8.333,0.0,0.0,48139395.0,1559766.0,0.0,0.0,18.0,1181.0
18.750,45.0,27.500,0.0,0.0,8.750,0.0,0.0,47768140.0,1548648.0,0.0,0.0,18.0,1055.0
20.988,35.802,32.099,0.0,0.0,11.111,0.0,0.0,47002941.0,1520294.0,0.0,0.0,18.0,1114.0
12.346,38.272,41.975,0.0,0.0,7.407,0.0,0.0,47603386.0,1544160.0,0.0,0.0,19.0,1284.0
13.924,45.570,30.380,0.0,0.0,10.127,0.0,0.0,47211942.0,1524214.0,0.0,0.0,18.0,961.0
17.722,43.038,31.646,0.0,0.0,7.595,0.0,0.0,48670142.0,1584554.0,0.0,0.0,18.0,1039.0
18.182,37.662,36.364,0.0,0.0,7.792,0.0,0.0,47293619.0,1530424.0,0.0,0.0,18.0,1247.0
19.231,37.179,33.333,0.0,0.0,10.256,0.0,0.0,48546099.0,1571888.0,0.0,0.0,18.0,1091.0
18.987,35.443,35.443,0.0,0.0,10.127,0.0,0.0,46734854.0,1518194.0,0.0,0.0,19.0,1040.0
17.284,37.037,34.568,0.0,0.0,11.111,0.0,4096.0,45408296.0,1470408.0,0.0,0.0,18.0,1134.0
20.732,37.805,34.146,0.0,0.0,7.317,0.0,0.0,46259141.0,1494534.0,0.0,0.0,18.0,1094.0
21.839,32.184,33.333,0.0,0.0,12.644,0.0,0.0,49198575.0,1595894.0,0.0,0.0,18.0,1278.0
20.732,36.585,34.146,0.0,0.0,8.537,0.0,0.0,47839295.0,1551996.0,0.0,0.0,19.0,1254.0
19.231,37.179,34.615,0.0,0.0,8.974,0.0,0.0,46298032.0,1500340.0,0.0,0.0,18.0,1072.0
17.857,36.905,30.952,0.0,0.0,14.286,0.0,4096.0,47868343.0,1553114.0,0.0,0.0,18.0,1146.0
18.987,36.709,32.911,0.0,0.0,11.392,0.0,0.0,44307872.0,1437790.0,0.0,0.0,18.0,1019.0
18.519,45.679,25.926,0.0,0.0,9.877,0.0,0.0,48684224.0,1578114.0,0.0,0.0,18.0,1143.0
19.737,43.421,27.632,0.0,0.0,9.211,0.0,0.0,48586211.0,1573148.0,0.0,0.0,19.0,1187.0
18.824,44.706,29.412,0.0,0.0,7.059,0.0,0.0,46484931.0,1503062.0,0.0,0.0,18.0,1170.0
19.231,42.308,25.641,0.0,0.0,12.821,0.0,24576.0,48480840.0,1575092.0,0.0,0.0,18.0,1048.0
15.0,47.500,23.750,3.750,0.0,10.0,0.0,28672.0,48018721.0,1555360.0,0.0,0.0,18.0,1090.0
16.667,39.286,32.143,0.0,0.0,11.905,0.0,0.0,44860896.0,1455658.0,0.0,0.0,18.0,1053.0
21.333,41.333,29.333,0.0,0.0,8.0,0.0,0.0,49108160.0,1590500.0,0.0,0.0,19.0,1111.0
21.519,39.241,30.380,0.0,0.0,8.861,0.0,0.0,47691755.0,1545008.0,0.0,0.0,18.0,1067.0
20.253,37.975,32.911,0.0,0.0,8.861,0.0,0.0,45222131.0,1459966.0,0.0,0.0,18.0,1139.0
20.253,40.506,31.646,0.0,0.0,7.595,0.0,0.0,46449990.0,1508212.0,0.0,0.0,18.0,1027.0
20.988,44.444,20.988,0.0,0.0,13.580,0.0,0.0,47100649.0,1530739.0,0.0,0.0,23.0,1024.0
16.0,38.667,37.333,0.0,0.0,8.0,0.0,0.0,47940931.0,1554734.0,0.0,0.0,18.0,1077.0
20.732,40.244,30.488,0.0,0.0,8.537,0.0,0.0,46640837.0,1515378.0,0.0,0.0,19.0,1134.0
22.222,41.975,24.691,0.0,0.0,11.111,0.0,0.0,48149491.0,1560964.0,0.0,0.0,18.0,1145.0
15.476,38.095,42.857,0.0,0.0,3.571,0.0,0.0,46762254.0,1508740.0,0.0,0.0,18.0,1265.0
20.779,48.052,24.675,0.0,0.0,6.494,0.0,0.0,46972185.0,1529032.0,0.0,0.0,18.0,1102.0
20.513,46.154,28.205,0.0,0.0,5.128,0.0,0.0,47409304.0,1532054.0,0.0,0.0,19.0,1016.0
11.250,41.250,38.750,0.0,0.0,8.750,0.0,0.0,46423637.0,1507974.0,0.0,0.0,18.0,1184.0
17.647,44.706,25.882,0.0,0.0,11.765,0.0,0.0,46813157.0,1511556.0,0.0,0.0,18.0,1053.0
14.474,40.789,36.842,0.0,0.0,7.895,0.0,0.0,47582008.0,1546120.0,0.0,0.0,18.0,1227.0
21.250,37.500,37.500,0.0,0.0,3.750,0.0,0.0,47867254.0,1548574.0,0.0,0.0,18.0,1169.0
18.987,44.304,27.848,0.0,0.0,8.861,0.0,0.0,48680966.0,1571312.0,0.0,0.0,19.0,1117.0
13.253,40.964,39.759,0.0,0.0,6.024,0.0,0.0,46351266.0,1509872.0,0.0,0.0,18.0,1343.0
13.415,39.024,39.024,0.0,0.0,8.537,0.0,0.0,46142441.0,1495794.0,0.0,0.0,18.0,1234.0
21.519,35.443,32.911,0.0,0.0,10.127,0.0,0.0,46446210.0,1505018.0,0.0,0.0,18.0,1106.0
20.270,36.486,35.135,0.0,0.0,8.108,0.0,0.0,48402067.0,1564600.0,0.0,0.0,18.0,1143.0
16.667,39.744,30.769,0.0,0.0,12.821,0.0,0.0,47639723.0,1545008.0,0.0,0.0,19.0,1134.0
17.500,43.750,30.0,0.0,0.0,8.750,0.0,0.0,47842568.0,1554158.0,0.0,0.0,17.0,1216.0
17.647,47.059,27.059,0.0,0.0,8.235,0.0,0.0,48231706.0,1562186.0,0.0,0.0,19.0,1034.0
18.072,39.759,34.940,0.0,0.0,7.229,0.0,8192.0,47940820.0,1554734.0,0.0,0.0,18.0,1160.0
15.0,45.0,31.250,0.0,0.0,8.750,0.0,0.0,47432969.0,1535356.0,0.0,0.0,18.0,1296.0
16.250,45.0,30.0,0.0,0.0,8.750,0.0,0.0,49073309.0,1585748.0,0.0,0.0,19.0,1025.0
15.190,37.975,41.772,0.0,0.0,5.063,0.0,0.0,47603526.0,1545420.0,0.0,0.0,18.0,1163.0
16.667,30.952,42.857,0.0,0.0,9.524,0.0,0.0,37954169.0,1237102.0,0.0,0.0,18.0,1019.0
