2         Threads
4         Connections per thread
70        Seconds


ALL STATS
========================================================================
Type        Ops/sec     Hits/sec   Misses/sec      Latency       KB/sec 
------------------------------------------------------------------------
Sets        5437.82          ---          ---      1.46800     21947.18 
Gets           0.00         0.00         0.00      0.00000         0.00 
Waits          0.00          ---          ---      0.00000          --- 
Totals      5437.82         0.00         0.00      1.46800     21947.18 


Request Latency Distribution
Type     <= msec         Percent
------------------------------------------------------------------------
SET       0.190         0.00
SET       0.200         0.00
SET       0.210         0.00
SET       0.220         0.01
SET       0.230         0.02
SET       0.240         0.04
SET       0.250         0.07
SET       0.260         0.12
SET       0.270         0.19
SET       0.280         0.30
SET       0.290         0.44
SET       0.300         0.62
SET       0.310         0.81
SET       0.320         1.05
SET       0.330         1.33
SET       0.340         1.67
SET       0.350         2.07
SET       0.360         2.51
SET       0.370         3.01
SET       0.380         3.57
SET       0.390         4.21
SET       0.400         4.91
SET       0.410         5.66
SET       0.420         6.43
SET       0.430         7.26
SET       0.440         8.15
SET       0.450         9.06
SET       0.460        10.01
SET       0.470        11.01
SET       0.480        12.07
SET       0.490        13.18
SET       0.500        14.32
SET       0.510        15.53
SET       0.520        16.75
SET       0.530        18.05
SET       0.540        19.40
SET       0.550        20.80
SET       0.560        22.22
SET       0.570        23.69
SET       0.580        25.18
SET       0.590        26.74
SET       0.600        28.33
SET       0.610        29.94
SET       0.620        31.59
SET       0.630        33.28
SET       0.640        34.98
SET       0.650        36.69
SET       0.660        38.45
SET       0.670        40.21
SET       0.680        41.91
SET       0.690        43.63
SET       0.700        45.33
SET       0.710        47.04
SET       0.720        48.67
SET       0.730        50.28
SET       0.740        51.88
SET       0.750        53.41
SET       0.760        54.89
SET       0.770        56.37
SET       0.780        57.76
SET       0.790        59.07
SET       0.800        60.35
SET       0.810        61.58
SET       0.820        62.77
SET       0.830        63.89
SET       0.840        64.98
SET       0.850        66.03
SET       0.860        67.02
SET       0.870        67.94
SET       0.880        68.79
SET       0.890        69.60
SET       0.900        70.36
SET       0.910        71.06
SET       0.920        71.71
SET       0.930        72.33
SET       0.940        72.91
SET       0.950        73.45
SET       0.960        73.97
SET       0.970        74.46
SET       0.980        74.90
SET       0.990        75.30
SET       1.000        77.26
SET       1.100        79.48
SET       1.200        80.59
SET       1.300        81.24
SET       1.400        81.65
SET       1.500        82.02
SET       1.600        82.29
SET       1.700        82.53
SET       1.800        82.75
SET       1.900        82.92
SET       2.000        83.07
SET       2.100        83.21
SET       2.200        83.33
SET       2.300        83.44
SET       2.400        83.54
SET       2.500        83.66
SET       2.600        83.75
SET       2.700        83.87
SET       2.800        83.98
SET       2.900        84.08
SET       3.000        84.20
SET       3.100        84.30
SET       3.200        84.40
SET       3.300        84.50
SET       3.400        84.61
SET       3.500        84.73
SET       3.600        84.87
SET       3.700        85.04
SET       3.800        85.25
SET       3.900        85.45
SET       4.000        85.71
SET       4.100        85.98
SET       4.200        86.36
SET       4.300        86.79
SET       4.400        87.28
SET       4.500        87.83
SET       4.600        88.51
SET       4.700        89.25
SET       4.800        90.11
SET       4.900        91.03
SET       5.000        91.98
SET       5.100        93.01
SET       5.200        94.01
SET       5.300        94.90
SET       5.400        95.72
SET       5.500        96.52
SET       5.600        97.21
SET       5.700        97.78
SET       5.800        98.23
SET       5.900        98.59
SET       6.000        98.85
SET       6.100        99.04
SET       6.200        99.16
SET       6.300        99.24
SET       6.400        99.33
SET       6.500        99.40
SET       6.600        99.46
SET       6.700        99.49
SET       6.800        99.52
SET       6.900        99.56
SET       7.000        99.59
SET       7.100        99.61
SET       7.200        99.64
SET       7.300        99.66
SET       7.400        99.68
SET       7.500        99.69
SET       7.600        99.70
SET       7.700        99.72
SET       7.800        99.73
SET       7.900        99.75
SET       8.000        99.76
SET       8.100        99.78
SET       8.200        99.80
SET       8.300        99.81
SET       8.400        99.81
SET       8.500        99.82
SET       8.600        99.82
SET       8.700        99.83
SET       8.800        99.84
SET       8.900        99.84
SET       9.000        99.85
SET       9.100        99.85
SET       9.200        99.85
SET       9.300        99.86
SET       9.400        99.86
SET       9.500        99.86
SET       9.600        99.87
SET       9.700        99.87
SET       9.800        99.88
SET       9.900        99.88
SET      10.000        99.89
SET      11.000        99.90
SET      12.000        99.91
SET      13.000        99.92
SET      14.000        99.93
SET      15.000        99.95
SET      16.000        99.97
SET      17.000        99.97
SET      18.000        99.97
SET      20.000        99.97
SET      21.000        99.97
SET      30.000        99.98
SET      47.000        99.98
SET      49.000        99.98
SET      50.000        99.98
SET      51.000        99.98
SET      54.000        99.98
SET      55.000        99.99
SET      56.000        99.99
SET      86.000        99.99
SET     150.000        99.99
SET     300.000        99.99
SET     330.000       100.00
SET     430.000       100.00
SET     530.000       100.00
---
---
