1         Threads
32        Connections per thread
70        Seconds


ALL STATS
========================================================================
Type        Ops/sec     Hits/sec   Misses/sec      Latency       KB/sec 
------------------------------------------------------------------------
Sets           0.00          ---          ---      0.00000         0.00 
Gets         484.40       484.40         0.00     66.04900      1962.10 
Waits          0.00          ---          ---      0.00000          --- 
Totals       484.40       484.40         0.00     66.04900      1962.10 


Request Latency Distribution
Type     <= msec         Percent
------------------------------------------------------------------------
---
GET      14.000         0.00
GET      17.000         0.01
GET      18.000         0.01
GET      27.000         0.01
GET      28.000         0.02
GET      29.000         0.03
GET      30.000         0.10
GET      31.000         0.94
GET      32.000         1.58
GET      33.000         1.65
GET      34.000         1.67
GET      35.000         1.67
GET      36.000         1.69
GET      37.000         1.69
GET      38.000         1.71
GET      39.000         1.71
GET      40.000         1.72
GET      41.000         1.72
GET      42.000         1.77
GET      43.000         1.79
GET      44.000         1.85
GET      45.000         2.09
GET      46.000         3.84
GET      47.000        12.49
GET      48.000        15.32
GET      49.000        15.69
GET      50.000        15.85
GET      51.000        15.97
GET      52.000        16.04
GET      53.000        16.05
GET      54.000        16.07
GET      55.000        16.10
GET      56.000        16.12
GET      57.000        16.17
GET      58.000        16.30
GET      59.000        16.55
GET      60.000        17.02
GET      61.000        18.97
GET      62.000        43.26
GET      63.000        69.08
GET      64.000        71.31
GET      65.000        71.78
GET      66.000        72.09
GET      67.000        72.19
GET      68.000        72.27
GET      69.000        72.30
GET      70.000        72.31
GET      71.000        72.32
GET      72.000        72.36
GET      73.000        72.44
GET      74.000        72.56
GET      75.000        72.79
GET      76.000        73.23
GET      77.000        77.16
GET      78.000        89.04
GET      79.000        92.02
GET      80.000        92.27
GET      81.000        92.38
GET      82.000        92.42
GET      83.000        92.45
GET      84.000        92.47
GET      85.000        92.47
GET      87.000        92.47
GET      88.000        92.48
GET      89.000        92.50
GET      90.000        92.53
GET      91.000        92.57
GET      92.000        92.84
GET      93.000        94.77
GET      94.000        96.96
GET      95.000        97.21
GET      96.000        97.28
GET      97.000        97.30
GET      98.000        97.31
GET      99.000        97.31
GET     100.000        97.33
GET     110.000        98.82
GET     120.000        99.23
GET     130.000        99.45
GET     140.000        99.72
GET     150.000        99.73
GET     160.000        99.83
GET     170.000        99.89
GET     190.000        99.89
GET     200.000        99.90
GET     220.000        99.91
GET     240.000        99.95
GET     250.000        99.99
GET     260.000       100.00
---
