1         Threads
2         Connections per thread
70        Seconds


ALL STATS
========================================================================
Type        Ops/sec     Hits/sec   Misses/sec      Latency       KB/sec 
------------------------------------------------------------------------
Sets         442.02          ---          ---      2.45500      1784.01 
Gets         442.01       442.01         0.00      2.05400      1790.38 
Waits          0.00          ---          ---      0.00000          --- 
Totals       884.03       442.01         0.00      2.25500      3574.39 


Request Latency Distribution
Type     <= msec         Percent
------------------------------------------------------------------------
SET       1.100         0.02
SET       1.200         0.26
SET       1.300         1.51
SET       1.400         4.69
SET       1.500        10.32
SET       1.600        17.44
SET       1.700        25.61
SET       1.800        33.78
SET       1.900        41.25
SET       2.000        48.39
SET       2.100        54.52
SET       2.200        59.90
SET       2.300        64.28
SET       2.400        68.12
SET       2.500        71.60
SET       2.600        74.55
SET       2.700        77.13
SET       2.800        79.43
SET       2.900        81.36
SET       3.000        83.11
SET       3.100        84.57
SET       3.200        85.88
SET       3.300        87.03
SET       3.400        88.05
SET       3.500        88.92
SET       3.600        89.71
SET       3.700        90.44
SET       3.800        91.15
SET       3.900        91.72
SET       4.000        92.30
SET       4.100        92.72
SET       4.200        93.15
SET       4.300        93.53
SET       4.400        93.93
SET       4.500        94.23
SET       4.600        94.51
SET       4.700        94.81
SET       4.800        95.09
SET       4.900        95.36
SET       5.000        95.54
SET       5.100        95.77
SET       5.200        96.00
SET       5.300        96.17
SET       5.400        96.35
SET       5.500        96.52
SET       5.600        96.64
SET       5.700        96.78
SET       5.800        96.94
SET       5.900        97.08
SET       6.000        97.20
SET       6.100        97.29
SET       6.200        97.42
SET       6.300        97.58
SET       6.400        97.69
SET       6.500        97.82
SET       6.600        97.93
SET       6.700        98.01
SET       6.800        98.11
SET       6.900        98.22
SET       7.000        98.31
SET       7.100        98.38
SET       7.200        98.46
SET       7.300        98.54
SET       7.400        98.63
SET       7.500        98.68
SET       7.600        98.75
SET       7.700        98.81
SET       7.800        98.88
SET       7.900        98.94
SET       8.000        98.99
SET       8.100        99.04
SET       8.200        99.09
SET       8.300        99.14
SET       8.400        99.18
SET       8.500        99.23
SET       8.600        99.26
SET       8.700        99.30
SET       8.800        99.34
SET       8.900        99.39
SET       9.000        99.45
SET       9.100        99.49
SET       9.200        99.51
SET       9.300        99.52
SET       9.400        99.55
SET       9.500        99.57
SET       9.600        99.60
SET       9.700        99.63
SET       9.800        99.64
SET       9.900        99.67
SET      10.000        99.77
SET      11.000        99.88
SET      12.000        99.94
SET      13.000        99.96
SET      14.000        99.97
SET      15.000        99.98
SET      16.000        99.99
SET      17.000       100.00
SET      23.000       100.00
---
GET       0.980         0.00
GET       1.000         0.04
GET       1.100         0.67
GET       1.200         3.81
GET       1.300        10.36
GET       1.400        19.86
GET       1.500        30.62
GET       1.600        40.39
GET       1.700        49.39
GET       1.800        57.17
GET       1.900        63.61
GET       2.000        68.86
GET       2.100        73.21
GET       2.200        76.78
GET       2.300        79.74
GET       2.400        82.25
GET       2.500        84.31
GET       2.600        86.13
GET       2.700        87.72
GET       2.800        88.95
GET       2.900        90.08
GET       3.000        91.03
GET       3.100        91.89
GET       3.200        92.63
GET       3.300        93.21
GET       3.400        93.79
GET       3.500        94.28
GET       3.600        94.73
GET       3.700        95.07
GET       3.800        95.41
GET       3.900        95.70
GET       4.000        95.98
GET       4.100        96.22
GET       4.200        96.43
GET       4.300        96.63
GET       4.400        96.81
GET       4.500        97.02
GET       4.600        97.19
GET       4.700        97.35
GET       4.800        97.46
GET       4.900        97.58
GET       5.000        97.70
GET       5.100        97.83
GET       5.200        97.97
GET       5.300        98.07
GET       5.400        98.16
GET       5.500        98.22
GET       5.600        98.30
GET       5.700        98.36
GET       5.800        98.42
GET       5.900        98.49
GET       6.000        98.56
GET       6.100        98.66
GET       6.200        98.73
GET       6.300        98.83
GET       6.400        98.89
GET       6.500        98.94
GET       6.600        98.99
GET       6.700        99.03
GET       6.800        99.08
GET       6.900        99.13
GET       7.000        99.17
GET       7.100        99.21
GET       7.200        99.28
GET       7.300        99.31
GET       7.400        99.37
GET       7.500        99.42
GET       7.600        99.45
GET       7.700        99.50
GET       7.800        99.55
GET       7.900        99.58
GET       8.000        99.60
GET       8.100        99.63
GET       8.200        99.65
GET       8.300        99.66
GET       8.400        99.68
GET       8.500        99.70
GET       8.600        99.72
GET       8.700        99.73
GET       8.800        99.74
GET       8.900        99.75
GET       9.000        99.76
GET       9.100        99.78
GET       9.200        99.78
GET       9.300        99.79
GET       9.400        99.81
GET       9.500        99.82
GET       9.600        99.83
GET       9.700        99.84
GET       9.800        99.86
GET       9.900        99.87
GET      10.000        99.90
GET      11.000        99.95
GET      12.000        99.96
GET      13.000        99.98
GET      14.000        99.99
GET      15.000        99.99
GET      16.000        99.99
GET     210.000       100.00
---
