1         Threads
1         Connections per thread
70        Seconds


ALL STATS
========================================================================
Type        Ops/sec     Hits/sec   Misses/sec      Latency       KB/sec 
------------------------------------------------------------------------
Sets         539.45          ---          ---      1.84600      2177.22 
Gets           0.00         0.00         0.00      0.00000         0.00 
Waits          0.00          ---          ---      0.00000          --- 
Totals       539.45         0.00         0.00      1.84600      2177.22 


Request Latency Distribution
Type     <= msec         Percent
------------------------------------------------------------------------
SET       0.780         0.00
SET       0.790         0.01
SET       0.800         0.01
SET       0.810         0.01
SET       0.820         0.02
SET       0.830         0.03
SET       0.840         0.03
SET       0.850         0.03
SET       0.860         0.04
SET       0.870         0.05
SET       0.880         0.08
SET       0.890         0.10
SET       0.900         0.11
SET       0.910         0.16
SET       0.920         0.20
SET       0.930         0.26
SET       0.940         0.35
SET       0.950         0.43
SET       0.960         0.57
SET       0.970         0.71
SET       0.980         0.84
SET       0.990         1.00
SET       1.000         2.18
SET       1.100         6.53
SET       1.200        14.05
SET       1.300        23.75
SET       1.400        34.47
SET       1.500        44.63
SET       1.600        53.64
SET       1.700        61.59
SET       1.800        67.82
SET       1.900        72.85
SET       2.000        77.16
SET       2.100        80.56
SET       2.200        83.38
SET       2.300        85.63
SET       2.400        87.49
SET       2.500        89.10
SET       2.600        90.38
SET       2.700        91.43
SET       2.800        92.41
SET       2.900        93.12
SET       3.000        93.78
SET       3.100        94.36
SET       3.200        94.83
SET       3.300        95.25
SET       3.400        95.58
SET       3.500        95.89
SET       3.600        96.16
SET       3.700        96.34
SET       3.800        96.59
SET       3.900        96.80
SET       4.000        96.99
SET       4.100        97.15
SET       4.200        97.31
SET       4.300        97.46
SET       4.400        97.59
SET       4.500        97.71
SET       4.600        97.85
SET       4.700        97.96
SET       4.800        98.06
SET       4.900        98.16
SET       5.000        98.24
SET       5.100        98.34
SET       5.200        98.44
SET       5.300        98.47
SET       5.400        98.54
SET       5.500        98.60
SET       5.600        98.64
SET       5.700        98.72
SET       5.800        98.79
SET       5.900        98.85
SET       6.000        98.90
SET       6.100        98.95
SET       6.200        99.03
SET       6.300        99.10
SET       6.400        99.15
SET       6.500        99.18
SET       6.600        99.21
SET       6.700        99.28
SET       6.800        99.33
SET       6.900        99.40
SET       7.000        99.46
SET       7.100        99.52
SET       7.200        99.55
SET       7.300        99.57
SET       7.400        99.59
SET       7.500        99.63
SET       7.600        99.66
SET       7.700        99.67
SET       7.800        99.70
SET       7.900        99.73
SET       8.000        99.74
SET       8.100        99.76
SET       8.200        99.77
SET       8.300        99.79
SET       8.400        99.80
SET       8.500        99.81
SET       8.600        99.81
SET       8.700        99.83
SET       8.800        99.83
SET       8.900        99.84
SET       9.000        99.84
SET       9.100        99.86
SET       9.200        99.86
SET       9.300        99.88
SET       9.400        99.89
SET       9.600        99.89
SET       9.700        99.90
SET       9.800        99.91
SET       9.900        99.92
SET      10.000        99.95
SET      11.000        99.98
SET      12.000        99.99
SET      13.000        99.99
SET      14.000        99.99
SET      16.000       100.00
SET      19.000       100.00
---
---
