1         Threads
22        Connections per thread
70        Seconds


ALL STATS
========================================================================
Type        Ops/sec     Hits/sec   Misses/sec      Latency       KB/sec 
------------------------------------------------------------------------
Sets        2172.74          ---          ---     10.11600      8769.21 
Gets           0.00         0.00         0.00      0.00000         0.00 
Waits          0.00          ---          ---      0.00000          --- 
Totals      2172.74         0.00         0.00     10.11600      8769.21 


Request Latency Distribution
Type     <= msec         Percent
------------------------------------------------------------------------
SET       1.600         0.00
SET       1.700         0.00
SET       1.800         0.00
SET       1.900         0.01
SET       2.000         0.01
SET       2.100         0.02
SET       2.200         0.03
SET       2.300         0.04
SET       2.400         0.06
SET       2.500         0.08
SET       2.600         0.11
SET       2.700         0.15
SET       2.800         0.21
SET       2.900         0.28
SET       3.000         0.41
SET       3.100         0.59
SET       3.200         0.81
SET       3.300         1.07
SET       3.400         1.40
SET       3.500         1.82
SET       3.600         2.28
SET       3.700         2.79
SET       3.800         3.26
SET       3.900         3.73
SET       4.000         4.22
SET       4.100         4.68
SET       4.200         5.14
SET       4.300         5.60
SET       4.400         6.01
SET       4.500         6.44
SET       4.600         6.85
SET       4.700         7.26
SET       4.800         7.64
SET       4.900         8.03
SET       5.000         8.45
SET       5.100         8.87
SET       5.200         9.27
SET       5.300         9.68
SET       5.400        10.05
SET       5.500        10.40
SET       5.600        10.72
SET       5.700        11.08
SET       5.800        11.43
SET       5.900        11.76
SET       6.000        12.09
SET       6.100        12.39
SET       6.200        12.73
SET       6.300        13.06
SET       6.400        13.39
SET       6.500        13.72
SET       6.600        14.00
SET       6.700        14.30
SET       6.800        14.65
SET       6.900        14.96
SET       7.000        15.27
SET       7.100        15.58
SET       7.200        15.90
SET       7.300        16.20
SET       7.400        16.52
SET       7.500        16.86
SET       7.600        17.19
SET       7.700        17.53
SET       7.800        17.90
SET       7.900        18.31
SET       8.000        18.75
SET       8.100        19.25
SET       8.200        19.77
SET       8.300        20.35
SET       8.400        20.98
SET       8.500        21.72
SET       8.600        22.55
SET       8.700        23.41
SET       8.800        24.33
SET       8.900        25.36
SET       9.000        26.58
SET       9.100        28.00
SET       9.200        29.50
SET       9.300        31.11
SET       9.400        32.84
SET       9.500        34.64
SET       9.600        36.52
SET       9.700        38.43
SET       9.800        40.46
SET       9.900        42.57
SET      10.000        53.99
SET      11.000        72.83
SET      12.000        85.14
SET      13.000        91.66
SET      14.000        95.03
SET      15.000        96.65
SET      16.000        97.53
SET      17.000        98.14
SET      18.000        98.64
SET      19.000        99.02
SET      20.000        99.33
SET      21.000        99.53
SET      22.000        99.66
SET      23.000        99.75
SET      24.000        99.79
SET      25.000        99.82
SET      26.000        99.85
SET      27.000        99.88
SET      28.000        99.89
SET      29.000        99.91
SET      30.000        99.93
SET      31.000        99.94
SET      32.000        99.95
SET      33.000        99.96
SET      34.000        99.96
SET      35.000        99.97
SET      36.000        99.97
SET      37.000        99.97
SET      38.000        99.98
SET      39.000        99.98
SET      40.000        99.98
SET      42.000        99.99
SET      78.000        99.99
SET      79.000        99.99
SET      83.000        99.99
SET      85.000        99.99
SET      87.000        99.99
SET      90.000        99.99
SET      91.000       100.00
SET      94.000       100.00
---
---
