1         Threads
64        Connections per thread
70        Seconds


ALL STATS
========================================================================
Type        Ops/sec     Hits/sec   Misses/sec      Latency       KB/sec 
------------------------------------------------------------------------
Sets        1906.60          ---          ---     33.55800      7695.11 
Gets           0.00         0.00         0.00      0.00000         0.00 
Waits          0.00          ---          ---      0.00000          --- 
Totals      1906.60         0.00         0.00     33.55800      7695.11 


Request Latency Distribution
Type     <= msec         Percent
------------------------------------------------------------------------
SET       4.200         0.00
SET       4.300         0.00
SET       5.100         0.00
SET       7.100         0.00
SET       9.900         0.00
SET      10.000         0.01
SET      11.000         0.01
SET      12.000         0.01
SET      13.000         0.02
SET      14.000         0.02
SET      15.000         0.02
SET      16.000         0.03
SET      17.000         0.04
SET      18.000         0.05
SET      19.000         0.09
SET      20.000         0.17
SET      21.000         0.36
SET      22.000         0.78
SET      23.000         1.54
SET      24.000         2.67
SET      25.000         4.06
SET      26.000         6.14
SET      27.000         9.13
SET      28.000        13.66
SET      29.000        19.74
SET      30.000        27.00
SET      31.000        34.53
SET      32.000        41.86
SET      33.000        49.68
SET      34.000        57.93
SET      35.000        66.66
SET      36.000        75.44
SET      37.000        83.05
SET      38.000        88.62
SET      39.000        92.45
SET      40.000        94.62
SET      41.000        95.99
SET      42.000        96.78
SET      43.000        97.30
SET      44.000        97.72
SET      45.000        98.07
SET      46.000        98.35
SET      47.000        98.64
SET      48.000        98.85
SET      49.000        98.97
SET      50.000        99.12
SET      51.000        99.26
SET      52.000        99.39
SET      53.000        99.50
SET      54.000        99.58
SET      55.000        99.68
SET      56.000        99.78
SET      57.000        99.82
SET      58.000        99.85
SET      59.000        99.87
SET      60.000        99.89
SET      61.000        99.92
SET      62.000        99.94
SET      63.000        99.95
SET      64.000        99.96
SET      65.000        99.96
SET      68.000        99.96
SET      71.000        99.96
SET      73.000        99.97
SET      75.000        99.97
SET      78.000        99.97
SET      79.000        99.97
SET      80.000        99.97
SET      81.000        99.97
SET     110.000        99.97
SET     120.000        99.98
SET     140.000        99.98
SET     150.000        99.99
SET     160.000        99.99
SET     170.000       100.00
SET     180.000       100.00
---
---
