1         Threads
42        Connections per thread
70        Seconds


ALL STATS
========================================================================
Type        Ops/sec     Hits/sec   Misses/sec      Latency       KB/sec 
------------------------------------------------------------------------
Sets        2343.87          ---          ---     17.91400      9459.93 
Gets           0.00         0.00         0.00      0.00000         0.00 
Waits          0.00          ---          ---      0.00000          --- 
Totals      2343.87         0.00         0.00     17.91400      9459.93 


Request Latency Distribution
Type     <= msec         Percent
------------------------------------------------------------------------
SET       2.700         0.00
SET       2.800         0.00
SET       3.600         0.00
SET       3.700         0.00
SET       3.800         0.00
SET       4.000         0.00
SET       4.300         0.00
SET       4.400         0.01
SET       4.500         0.01
SET       4.600         0.01
SET       4.700         0.01
SET       4.900         0.01
SET       5.000         0.01
SET       5.200         0.02
SET       5.300         0.02
SET       5.400         0.03
SET       5.500         0.03
SET       5.600         0.04
SET       5.700         0.05
SET       5.800         0.06
SET       5.900         0.07
SET       6.000         0.09
SET       6.100         0.11
SET       6.200         0.13
SET       6.300         0.15
SET       6.400         0.18
SET       6.500         0.20
SET       6.600         0.23
SET       6.700         0.25
SET       6.800         0.28
SET       6.900         0.31
SET       7.000         0.34
SET       7.100         0.37
SET       7.200         0.40
SET       7.300         0.44
SET       7.400         0.47
SET       7.500         0.50
SET       7.600         0.54
SET       7.700         0.57
SET       7.800         0.60
SET       7.900         0.63
SET       8.000         0.67
SET       8.100         0.71
SET       8.200         0.74
SET       8.300         0.78
SET       8.400         0.83
SET       8.500         0.88
SET       8.600         0.94
SET       8.700         1.00
SET       8.800         1.08
SET       8.900         1.16
SET       9.000         1.25
SET       9.100         1.35
SET       9.200         1.46
SET       9.300         1.58
SET       9.400         1.71
SET       9.500         1.87
SET       9.600         2.04
SET       9.700         2.22
SET       9.800         2.39
SET       9.900         2.62
SET      10.000         4.11
SET      11.000         8.20
SET      12.000        14.26
SET      13.000        20.37
SET      14.000        25.02
SET      15.000        29.16
SET      16.000        33.83
SET      17.000        40.95
SET      18.000        52.86
SET      19.000        66.11
SET      20.000        75.94
SET      21.000        83.42
SET      22.000        88.82
SET      23.000        92.26
SET      24.000        94.33
SET      25.000        95.75
SET      26.000        96.72
SET      27.000        97.40
SET      28.000        97.98
SET      29.000        98.38
SET      30.000        98.74
SET      31.000        98.99
SET      32.000        99.17
SET      33.000        99.28
SET      34.000        99.38
SET      35.000        99.46
SET      36.000        99.54
SET      37.000        99.61
SET      38.000        99.67
SET      39.000        99.70
SET      40.000        99.73
SET      41.000        99.76
SET      42.000        99.78
SET      43.000        99.80
SET      44.000        99.84
SET      45.000        99.85
SET      46.000        99.86
SET      47.000        99.87
SET      48.000        99.90
SET      49.000        99.91
SET      50.000        99.92
SET      51.000        99.92
SET      52.000        99.93
SET      53.000        99.94
SET      54.000        99.94
SET      55.000        99.95
SET      56.000        99.95
SET      57.000        99.95
SET      59.000        99.95
SET      60.000        99.96
SET      61.000        99.96
SET      63.000        99.96
SET      64.000        99.97
SET      65.000        99.97
SET      66.000        99.98
SET      67.000        99.98
SET      68.000        99.98
SET      69.000        99.98
SET      71.000        99.98
SET      72.000        99.98
SET      78.000        99.98
SET      95.000        99.98
SET     100.000        99.98
SET     120.000        99.99
SET     130.000        99.99
SET     140.000        99.99
SET     160.000        99.99
SET     210.000       100.00
SET     220.000       100.00
SET     280.000       100.00
SET     290.000       100.00
---
---
