1         Threads
22        Connections per thread
70        Seconds


ALL STATS
========================================================================
Type        Ops/sec     Hits/sec   Misses/sec      Latency       KB/sec 
------------------------------------------------------------------------
Sets        2051.40          ---          ---     10.71900      8279.51 
Gets           0.00         0.00         0.00      0.00000         0.00 
Waits          0.00          ---          ---      0.00000          --- 
Totals      2051.40         0.00         0.00     10.71900      8279.51 


Request Latency Distribution
Type     <= msec         Percent
------------------------------------------------------------------------
SET       1.800         0.00
SET       1.900         0.00
SET       2.000         0.00
SET       2.100         0.01
SET       2.200         0.01
SET       2.300         0.02
SET       2.400         0.02
SET       2.500         0.03
SET       2.600         0.05
SET       2.700         0.06
SET       2.800         0.08
SET       2.900         0.12
SET       3.000         0.16
SET       3.100         0.21
SET       3.200         0.28
SET       3.300         0.35
SET       3.400         0.47
SET       3.500         0.61
SET       3.600         0.79
SET       3.700         0.99
SET       3.800         1.22
SET       3.900         1.47
SET       4.000         1.77
SET       4.100         2.09
SET       4.200         2.41
SET       4.300         2.73
SET       4.400         3.05
SET       4.500         3.39
SET       4.600         3.72
SET       4.700         4.01
SET       4.800         4.30
SET       4.900         4.59
SET       5.000         4.88
SET       5.100         5.18
SET       5.200         5.49
SET       5.300         5.83
SET       5.400         6.18
SET       5.500         6.51
SET       5.600         6.84
SET       5.700         7.18
SET       5.800         7.54
SET       5.900         7.86
SET       6.000         8.16
SET       6.100         8.48
SET       6.200         8.77
SET       6.300         9.06
SET       6.400         9.35
SET       6.500         9.65
SET       6.600         9.96
SET       6.700        10.23
SET       6.800        10.51
SET       6.900        10.78
SET       7.000        11.06
SET       7.100        11.35
SET       7.200        11.61
SET       7.300        11.88
SET       7.400        12.17
SET       7.500        12.45
SET       7.600        12.74
SET       7.700        13.07
SET       7.800        13.41
SET       7.900        13.77
SET       8.000        14.15
SET       8.100        14.57
SET       8.200        15.01
SET       8.300        15.53
SET       8.400        16.03
SET       8.500        16.56
SET       8.600        17.23
SET       8.700        17.91
SET       8.800        18.71
SET       8.900        19.60
SET       9.000        20.53
SET       9.100        21.64
SET       9.200        22.81
SET       9.300        24.10
SET       9.400        25.49
SET       9.500        27.00
SET       9.600        28.66
SET       9.700        30.49
SET       9.800        32.26
SET       9.900        34.22
SET      10.000        45.66
SET      11.000        66.23
SET      12.000        80.50
SET      13.000        88.64
SET      14.000        92.83
SET      15.000        94.97
SET      16.000        96.28
SET      17.000        97.22
SET      18.000        98.03
SET      19.000        98.70
SET      20.000        99.12
SET      21.000        99.36
SET      22.000        99.54
SET      23.000        99.64
SET      24.000        99.70
SET      25.000        99.74
SET      26.000        99.79
SET      27.000        99.82
SET      28.000        99.85
SET      29.000        99.87
SET      30.000        99.89
SET      31.000        99.91
SET      32.000        99.92
SET      33.000        99.92
SET      34.000        99.93
SET      35.000        99.93
SET      36.000        99.95
SET      37.000        99.95
SET      38.000        99.97
SET      39.000        99.98
SET      40.000        99.98
SET      41.000        99.98
SET      42.000        99.98
SET      43.000        99.98
SET      54.000        99.98
SET     100.000        99.99
SET     110.000        99.99
SET     130.000       100.00
SET     140.000       100.00
---
---
