1         Threads
2         Connections per thread
70        Seconds


ALL STATS
========================================================================
Type        Ops/sec     Hits/sec   Misses/sec      Latency       KB/sec 
------------------------------------------------------------------------
Sets         396.30          ---          ---      2.46200      1599.46 
Gets         396.28      1188.85         0.00      2.56500      4807.76 
Waits          0.00          ---          ---      0.00000          --- 
Totals       792.58      1188.85         0.00      2.51400      6407.23 


Request Latency Distribution
Type     <= msec         Percent
------------------------------------------------------------------------
SET       1.100         0.01
SET       1.200         0.17
SET       1.300         0.96
SET       1.400         3.18
SET       1.500         7.91
SET       1.600        14.82
SET       1.700        23.54
SET       1.800        32.70
SET       1.900        41.71
SET       2.000        49.79
SET       2.100        56.51
SET       2.200        62.26
SET       2.300        67.18
SET       2.400        71.26
SET       2.500        74.52
SET       2.600        77.32
SET       2.700        79.76
SET       2.800        81.76
SET       2.900        83.48
SET       3.000        84.90
SET       3.100        86.23
SET       3.200        87.35
SET       3.300        88.26
SET       3.400        89.05
SET       3.500        89.72
SET       3.600        90.25
SET       3.700        90.84
SET       3.800        91.35
SET       3.900        91.84
SET       4.000        92.20
SET       4.100        92.59
SET       4.200        92.95
SET       4.300        93.22
SET       4.400        93.51
SET       4.500        93.78
SET       4.600        94.05
SET       4.700        94.28
SET       4.800        94.57
SET       4.900        94.82
SET       5.000        95.03
SET       5.100        95.19
SET       5.200        95.38
SET       5.300        95.48
SET       5.400        95.65
SET       5.500        95.81
SET       5.600        95.97
SET       5.700        96.13
SET       5.800        96.31
SET       5.900        96.46
SET       6.000        96.59
SET       6.100        96.72
SET       6.200        96.88
SET       6.300        97.01
SET       6.400        97.17
SET       6.500        97.32
SET       6.600        97.40
SET       6.700        97.55
SET       6.800        97.69
SET       6.900        97.78
SET       7.000        97.87
SET       7.100        97.98
SET       7.200        98.07
SET       7.300        98.15
SET       7.400        98.24
SET       7.500        98.32
SET       7.600        98.39
SET       7.700        98.45
SET       7.800        98.57
SET       7.900        98.62
SET       8.000        98.71
SET       8.100        98.75
SET       8.200        98.80
SET       8.300        98.85
SET       8.400        98.94
SET       8.500        98.98
SET       8.600        99.05
SET       8.700        99.10
SET       8.800        99.15
SET       8.900        99.20
SET       9.000        99.24
SET       9.100        99.29
SET       9.200        99.31
SET       9.300        99.36
SET       9.400        99.39
SET       9.500        99.43
SET       9.600        99.46
SET       9.700        99.47
SET       9.800        99.52
SET       9.900        99.53
SET      10.000        99.67
SET      11.000        99.82
SET      12.000        99.90
SET      13.000        99.93
SET      14.000        99.96
SET      15.000        99.98
SET      16.000        99.99
SET      21.000        99.99
SET      88.000       100.00
SET      96.000       100.00
---
GET       1.200         0.01
GET       1.300         0.20
GET       1.400         1.25
GET       1.500         3.93
GET       1.600         8.78
GET       1.700        15.86
GET       1.800        24.46
GET       1.900        33.50
GET       2.000        42.14
GET       2.100        50.30
GET       2.200        57.11
GET       2.300        62.83
GET       2.400        67.55
GET       2.500        71.35
GET       2.600        74.61
GET       2.700        77.28
GET       2.800        79.59
GET       2.900        81.60
GET       3.000        83.23
GET       3.100        84.59
GET       3.200        85.99
GET       3.300        87.03
GET       3.400        88.06
GET       3.500        88.86
GET       3.600        89.59
GET       3.700        90.24
GET       3.800        90.77
GET       3.900        91.30
GET       4.000        91.73
GET       4.100        92.16
GET       4.200        92.50
GET       4.300        92.79
GET       4.400        93.13
GET       4.500        93.41
GET       4.600        93.70
GET       4.700        93.93
GET       4.800        94.22
GET       4.900        94.45
GET       5.000        94.65
GET       5.100        94.87
GET       5.200        95.02
GET       5.300        95.22
GET       5.400        95.43
GET       5.500        95.61
GET       5.600        95.81
GET       5.700        95.97
GET       5.800        96.12
GET       5.900        96.30
GET       6.000        96.45
GET       6.100        96.57
GET       6.200        96.68
GET       6.300        96.81
GET       6.400        96.95
GET       6.500        97.09
GET       6.600        97.19
GET       6.700        97.31
GET       6.800        97.43
GET       6.900        97.56
GET       7.000        97.66
GET       7.100        97.77
GET       7.200        97.89
GET       7.300        97.96
GET       7.400        98.07
GET       7.500        98.15
GET       7.600        98.27
GET       7.700        98.33
GET       7.800        98.41
GET       7.900        98.48
GET       8.000        98.54
GET       8.100        98.60
GET       8.200        98.68
GET       8.300        98.75
GET       8.400        98.79
GET       8.500        98.82
GET       8.600        98.90
GET       8.700        98.95
GET       8.800        99.00
GET       8.900        99.07
GET       9.000        99.09
GET       9.100        99.14
GET       9.200        99.21
GET       9.300        99.26
GET       9.400        99.30
GET       9.500        99.34
GET       9.600        99.39
GET       9.700        99.44
GET       9.800        99.47
GET       9.900        99.49
GET      10.000        99.66
GET      11.000        99.84
GET      12.000        99.95
GET      13.000        99.97
GET      14.000        99.97
GET      15.000        99.98
GET      16.000        99.99
GET      17.000        99.99
GET      23.000        99.99
GET     160.000       100.00
GET     170.000       100.00
---
