1         Threads
2         Connections per thread
70        Seconds


ALL STATS
========================================================================
Type        Ops/sec     Hits/sec   Misses/sec      Latency       KB/sec 
------------------------------------------------------------------------
Sets         155.59          ---          ---      4.84800       627.96 
Gets         155.59      1400.29         0.00      7.98000      5659.81 
Waits          0.00          ---          ---      0.00000          --- 
Totals       311.18      1400.29         0.00      6.41400      6287.77 


Request Latency Distribution
Type     <= msec         Percent
------------------------------------------------------------------------
SET       1.300         0.04
SET       1.400         0.37
SET       1.500         0.99
SET       1.600         2.15
SET       1.700         4.53
SET       1.800         8.06
SET       1.900        12.54
SET       2.000        18.62
SET       2.100        24.96
SET       2.200        31.29
SET       2.300        37.21
SET       2.400        42.32
SET       2.500        46.69
SET       2.600        50.23
SET       2.700        53.67
SET       2.800        56.07
SET       2.900        58.12
SET       3.000        60.12
SET       3.100        61.63
SET       3.200        63.17
SET       3.300        64.38
SET       3.400        65.44
SET       3.500        66.37
SET       3.600        67.13
SET       3.700        67.92
SET       3.800        68.40
SET       3.900        68.88
SET       4.000        69.31
SET       4.100        69.69
SET       4.200        70.14
SET       4.300        70.51
SET       4.400        70.95
SET       4.500        71.31
SET       4.600        71.66
SET       4.700        71.99
SET       4.800        72.25
SET       4.900        72.48
SET       5.000        72.72
SET       5.100        72.94
SET       5.200        73.08
SET       5.300        73.28
SET       5.400        73.43
SET       5.500        73.66
SET       5.600        73.83
SET       5.700        74.04
SET       5.800        74.22
SET       5.900        74.34
SET       6.000        74.45
SET       6.100        74.50
SET       6.200        74.64
SET       6.300        74.81
SET       6.400        75.00
SET       6.500        75.10
SET       6.600        75.20
SET       6.700        75.41
SET       6.800        75.60
SET       6.900        75.73
SET       7.000        75.88
SET       7.100        76.03
SET       7.200        76.15
SET       7.300        76.32
SET       7.400        76.45
SET       7.500        76.56
SET       7.600        76.73
SET       7.700        76.86
SET       7.800        77.05
SET       7.900        77.16
SET       8.000        77.31
SET       8.100        77.47
SET       8.200        77.73
SET       8.300        77.83
SET       8.400        78.00
SET       8.500        78.18
SET       8.600        78.36
SET       8.700        78.53
SET       8.800        78.76
SET       8.900        78.92
SET       9.000        79.18
SET       9.100        79.47
SET       9.200        79.79
SET       9.300        80.17
SET       9.400        80.55
SET       9.500        80.88
SET       9.600        81.29
SET       9.700        81.82
SET       9.800        82.23
SET       9.900        82.82
SET      10.000        86.60
SET      11.000        91.84
SET      12.000        95.65
SET      13.000        98.96
SET      14.000        99.30
SET      15.000        99.55
SET      16.000        99.61
SET      17.000        99.62
SET      18.000        99.68
SET      19.000        99.69
SET      20.000        99.71
SET      21.000        99.72
SET      22.000        99.72
SET      23.000        99.73
SET      24.000        99.79
SET      25.000        99.82
SET      26.000        99.86
SET      27.000        99.89
SET      30.000        99.90
SET      37.000        99.91
SET      43.000        99.92
SET      44.000        99.93
SET      47.000        99.94
SET      52.000        99.94
SET      55.000        99.95
SET     130.000        99.96
SET     410.000        99.97
SET     440.000        99.98
SET     500.000        99.99
SET     590.000       100.00
---
GET       1.600         0.01
GET       1.700         0.06
GET       1.800         0.19
GET       1.900         0.63
GET       2.000         1.43
GET       2.100         2.61
GET       2.200         4.39
GET       2.300         6.67
GET       2.400         9.69
GET       2.500        12.82
GET       2.600        16.26
GET       2.700        19.76
GET       2.800        22.73
GET       2.900        25.78
GET       3.000        28.56
GET       3.100        30.78
GET       3.200        32.50
GET       3.300        34.16
GET       3.400        35.50
GET       3.500        36.66
GET       3.600        37.71
GET       3.700        38.43
GET       3.800        39.13
GET       3.900        39.72
GET       4.000        40.38
GET       4.100        40.86
GET       4.200        41.20
GET       4.300        41.56
GET       4.400        41.92
GET       4.500        42.14
GET       4.600        42.44
GET       4.700        42.74
GET       4.800        42.94
GET       4.900        43.20
GET       5.000        43.44
GET       5.100        43.73
GET       5.200        43.89
GET       5.300        44.10
GET       5.400        44.34
GET       5.500        44.48
GET       5.600        44.68
GET       5.700        44.84
GET       5.800        45.01
GET       5.900        45.19
GET       6.000        45.33
GET       6.100        45.55
GET       6.200        45.67
GET       6.300        45.88
GET       6.400        46.02
GET       6.500        46.18
GET       6.600        46.36
GET       6.700        46.52
GET       6.800        46.64
GET       6.900        46.84
GET       7.000        47.05
GET       7.100        47.25
GET       7.200        47.46
GET       7.300        47.67
GET       7.400        47.93
GET       7.500        48.20
GET       7.600        48.45
GET       7.700        48.68
GET       7.800        48.92
GET       7.900        49.11
GET       8.000        49.31
GET       8.100        49.50
GET       8.200        49.81
GET       8.300        50.05
GET       8.400        50.46
GET       8.500        50.75
GET       8.600        51.20
GET       8.700        51.61
GET       8.800        52.06
GET       8.900        52.37
GET       9.000        52.70
GET       9.100        53.08
GET       9.200        53.38
GET       9.300        53.78
GET       9.400        54.21
GET       9.500        54.62
GET       9.600        54.92
GET       9.700        55.18
GET       9.800        55.66
GET       9.900        56.15
GET      10.000        58.58
GET      11.000        66.67
GET      12.000        76.07
GET      13.000        92.80
GET      14.000        98.11
GET      15.000        98.76
GET      16.000        99.02
GET      17.000        99.16
GET      18.000        99.26
GET      19.000        99.29
GET      20.000        99.34
GET      21.000        99.38
GET      22.000        99.41
GET      23.000        99.46
GET      24.000        99.55
GET      25.000        99.69
GET      26.000        99.74
GET      27.000        99.81
GET      28.000        99.87
GET      29.000        99.92
GET      32.000        99.93
GET      43.000        99.94
GET      53.000        99.94
GET      66.000        99.95
GET     200.000        99.96
GET     210.000        99.97
GET     250.000        99.98
GET     420.000        99.99
GET     590.000       100.00
---
