1         Threads
22        Connections per thread
70        Seconds


ALL STATS
========================================================================
Type        Ops/sec     Hits/sec   Misses/sec      Latency       KB/sec 
------------------------------------------------------------------------
Sets        2310.80          ---          ---      9.51500      9326.46 
Gets           0.00         0.00         0.00      0.00000         0.00 
Waits          0.00          ---          ---      0.00000          --- 
Totals      2310.80         0.00         0.00      9.51500      9326.46 


Request Latency Distribution
Type     <= msec         Percent
------------------------------------------------------------------------
SET       1.600         0.00
SET       1.700         0.00
SET       1.800         0.01
SET       1.900         0.01
SET       2.000         0.02
SET       2.100         0.03
SET       2.200         0.05
SET       2.300         0.07
SET       2.400         0.10
SET       2.500         0.14
SET       2.600         0.21
SET       2.700         0.30
SET       2.800         0.44
SET       2.900         0.66
SET       3.000         0.95
SET       3.100         1.35
SET       3.200         1.84
SET       3.300         2.41
SET       3.400         3.07
SET       3.500         3.80
SET       3.600         4.60
SET       3.700         5.35
SET       3.800         6.06
SET       3.900         6.75
SET       4.000         7.35
SET       4.100         7.92
SET       4.200         8.49
SET       4.300         9.04
SET       4.400         9.57
SET       4.500        10.08
SET       4.600        10.61
SET       4.700        11.11
SET       4.800        11.66
SET       4.900        12.15
SET       5.000        12.65
SET       5.100        13.16
SET       5.200        13.68
SET       5.300        14.16
SET       5.400        14.62
SET       5.500        15.05
SET       5.600        15.47
SET       5.700        15.89
SET       5.800        16.32
SET       5.900        16.70
SET       6.000        17.06
SET       6.100        17.45
SET       6.200        17.81
SET       6.300        18.17
SET       6.400        18.50
SET       6.500        18.84
SET       6.600        19.13
SET       6.700        19.42
SET       6.800        19.72
SET       6.900        20.02
SET       7.000        20.34
SET       7.100        20.65
SET       7.200        20.94
SET       7.300        21.29
SET       7.400        21.64
SET       7.500        21.99
SET       7.600        22.40
SET       7.700        22.79
SET       7.800        23.25
SET       7.900        23.72
SET       8.000        24.23
SET       8.100        24.86
SET       8.200        25.51
SET       8.300        26.28
SET       8.400        27.16
SET       8.500        28.10
SET       8.600        29.13
SET       8.700        30.22
SET       8.800        31.48
SET       8.900        32.84
SET       9.000        34.35
SET       9.100        36.00
SET       9.200        37.70
SET       9.300        39.46
SET       9.400        41.38
SET       9.500        43.33
SET       9.600        45.30
SET       9.700        47.32
SET       9.800        49.32
SET       9.900        51.35
SET      10.000        62.52
SET      11.000        79.14
SET      12.000        88.93
SET      13.000        93.83
SET      14.000        96.30
SET      15.000        97.40
SET      16.000        98.05
SET      17.000        98.53
SET      18.000        98.91
SET      19.000        99.22
SET      20.000        99.45
SET      21.000        99.60
SET      22.000        99.70
SET      23.000        99.76
SET      24.000        99.81
SET      25.000        99.84
SET      26.000        99.87
SET      27.000        99.88
SET      28.000        99.90
SET      29.000        99.92
SET      30.000        99.94
SET      31.000        99.95
SET      32.000        99.96
SET      33.000        99.97
SET      34.000        99.97
SET      35.000        99.98
SET      36.000        99.98
SET      37.000        99.98
SET      38.000        99.99
SET      39.000        99.99
SET      40.000        99.99
SET      45.000        99.99
SET      47.000        99.99
SET      60.000        99.99
SET      73.000        99.99
SET      77.000       100.00
SET      84.000       100.00
SET      86.000       100.00
SET      87.000       100.00
SET     100.000       100.00
SET     120.000       100.00
SET     130.000       100.00
SET     150.000       100.00
---
---
