1         Threads
42        Connections per thread
70        Seconds


ALL STATS
========================================================================
Type        Ops/sec     Hits/sec   Misses/sec      Latency       KB/sec 
------------------------------------------------------------------------
Sets        2314.46          ---          ---     18.14200      9341.22 
Gets           0.00         0.00         0.00      0.00000         0.00 
Waits          0.00          ---          ---      0.00000          --- 
Totals      2314.46         0.00         0.00     18.14200      9341.22 


Request Latency Distribution
Type     <= msec         Percent
------------------------------------------------------------------------
SET       2.600         0.00
SET       3.000         0.00
SET       3.300         0.00
SET       3.600         0.00
SET       4.000         0.00
SET       4.100         0.01
SET       4.600         0.01
SET       4.900         0.01
SET       5.300         0.01
SET       5.600         0.01
SET       5.700         0.01
SET       5.800         0.01
SET       5.900         0.01
SET       6.000         0.02
SET       6.100         0.03
SET       6.200         0.04
SET       6.300         0.05
SET       6.400         0.06
SET       6.500         0.07
SET       6.600         0.08
SET       6.700         0.09
SET       6.800         0.11
SET       6.900         0.13
SET       7.000         0.15
SET       7.100         0.17
SET       7.200         0.20
SET       7.300         0.23
SET       7.400         0.25
SET       7.500         0.28
SET       7.600         0.32
SET       7.700         0.35
SET       7.800         0.38
SET       7.900         0.42
SET       8.000         0.46
SET       8.100         0.49
SET       8.200         0.52
SET       8.300         0.56
SET       8.400         0.60
SET       8.500         0.65
SET       8.600         0.70
SET       8.700         0.75
SET       8.800         0.82
SET       8.900         0.87
SET       9.000         0.93
SET       9.100         1.00
SET       9.200         1.06
SET       9.300         1.12
SET       9.400         1.19
SET       9.500         1.26
SET       9.600         1.33
SET       9.700         1.42
SET       9.800         1.50
SET       9.900         1.59
SET      10.000         2.06
SET      11.000         3.23
SET      12.000         6.45
SET      13.000        13.17
SET      14.000        21.89
SET      15.000        30.51
SET      16.000        37.66
SET      17.000        43.96
SET      18.000        51.37
SET      19.000        60.89
SET      20.000        71.30
SET      21.000        80.62
SET      22.000        87.66
SET      23.000        92.45
SET      24.000        95.15
SET      25.000        96.79
SET      26.000        97.71
SET      27.000        98.26
SET      28.000        98.65
SET      29.000        98.95
SET      30.000        99.19
SET      31.000        99.38
SET      32.000        99.50
SET      33.000        99.61
SET      34.000        99.68
SET      35.000        99.74
SET      36.000        99.78
SET      37.000        99.82
SET      38.000        99.86
SET      39.000        99.89
SET      40.000        99.91
SET      41.000        99.93
SET      42.000        99.95
SET      43.000        99.96
SET      44.000        99.97
SET      45.000        99.97
SET      46.000        99.97
SET      47.000        99.98
SET      48.000        99.98
SET      51.000        99.98
SET      55.000        99.98
SET      57.000        99.98
SET      61.000        99.98
SET      73.000        99.98
SET      80.000        99.98
SET      81.000        99.98
SET      82.000        99.99
SET      83.000        99.99
SET      95.000        99.99
SET      96.000        99.99
SET     100.000        99.99
SET     110.000        99.99
SET     120.000        99.99
SET     130.000       100.00
SET     140.000       100.00
SET     160.000       100.00
SET     210.000       100.00
SET     240.000       100.00
---
---
