1         Threads
4         Connections per thread
70        Seconds


ALL STATS
========================================================================
Type        Ops/sec     Hits/sec   Misses/sec      Latency       KB/sec 
------------------------------------------------------------------------
Sets        1621.30          ---          ---      2.46200      6543.62 
Gets           0.00         0.00         0.00      0.00000         0.00 
Waits          0.00          ---          ---      0.00000          --- 
Totals      1621.30         0.00         0.00      2.46200      6543.62 


Request Latency Distribution
Type     <= msec         Percent
------------------------------------------------------------------------
SET       0.760         0.00
SET       0.770         0.00
SET       0.780         0.01
SET       0.790         0.02
SET       0.800         0.02
SET       0.810         0.03
SET       0.820         0.05
SET       0.830         0.06
SET       0.840         0.08
SET       0.850         0.10
SET       0.860         0.14
SET       0.870         0.18
SET       0.880         0.23
SET       0.890         0.30
SET       0.900         0.37
SET       0.910         0.46
SET       0.920         0.57
SET       0.930         0.67
SET       0.940         0.80
SET       0.950         0.93
SET       0.960         1.09
SET       0.970         1.28
SET       0.980         1.45
SET       0.990         1.64
SET       1.000         3.08
SET       1.100         7.26
SET       1.200        13.16
SET       1.300        20.37
SET       1.400        28.30
SET       1.500        36.33
SET       1.600        43.74
SET       1.700        50.68
SET       1.800        56.52
SET       1.900        61.53
SET       2.000        65.74
SET       2.100        69.10
SET       2.200        71.97
SET       2.300        74.35
SET       2.400        76.28
SET       2.500        77.89
SET       2.600        79.21
SET       2.700        80.31
SET       2.800        81.21
SET       2.900        82.02
SET       3.000        82.67
SET       3.100        83.24
SET       3.200        83.77
SET       3.300        84.26
SET       3.400        84.68
SET       3.500        85.10
SET       3.600        85.42
SET       3.700        85.74
SET       3.800        86.02
SET       3.900        86.27
SET       4.000        86.46
SET       4.100        86.68
SET       4.200        86.87
SET       4.300        87.04
SET       4.400        87.22
SET       4.500        87.38
SET       4.600        87.51
SET       4.700        87.64
SET       4.800        87.77
SET       4.900        87.89
SET       5.000        88.03
SET       5.100        88.16
SET       5.200        88.31
SET       5.300        88.49
SET       5.400        88.61
SET       5.500        88.72
SET       5.600        88.85
SET       5.700        88.97
SET       5.800        89.11
SET       5.900        89.30
SET       6.000        89.47
SET       6.100        89.71
SET       6.200        90.04
SET       6.300        90.41
SET       6.400        90.89
SET       6.500        91.39
SET       6.600        91.93
SET       6.700        92.53
SET       6.800        93.13
SET       6.900        93.71
SET       7.000        94.30
SET       7.100        94.91
SET       7.200        95.49
SET       7.300        95.98
SET       7.400        96.43
SET       7.500        96.89
SET       7.600        97.26
SET       7.700        97.60
SET       7.800        97.90
SET       7.900        98.14
SET       8.000        98.35
SET       8.100        98.51
SET       8.200        98.66
SET       8.300        98.78
SET       8.400        98.88
SET       8.500        98.97
SET       8.600        99.05
SET       8.700        99.12
SET       8.800        99.17
SET       8.900        99.22
SET       9.000        99.27
SET       9.100        99.32
SET       9.200        99.37
SET       9.300        99.41
SET       9.400        99.44
SET       9.500        99.48
SET       9.600        99.52
SET       9.700        99.54
SET       9.800        99.57
SET       9.900        99.59
SET      10.000        99.71
SET      11.000        99.83
SET      12.000        99.89
SET      13.000        99.92
SET      14.000        99.93
SET      15.000        99.94
SET      16.000        99.96
SET      17.000        99.97
SET      18.000        99.98
SET      19.000        99.98
SET      20.000        99.98
SET      22.000        99.99
SET      23.000        99.99
SET      25.000        99.99
SET      26.000        99.99
SET      27.000       100.00
SET      52.000       100.00
---
---
