1         Threads
1         Connections per thread
70        Seconds


ALL STATS
========================================================================
Type        Ops/sec     Hits/sec   Misses/sec      Latency       KB/sec 
------------------------------------------------------------------------
Sets         533.18          ---          ---      1.86900      2151.91 
Gets           0.00         0.00         0.00      0.00000         0.00 
Waits          0.00          ---          ---      0.00000          --- 
Totals       533.18         0.00         0.00      1.86900      2151.91 


Request Latency Distribution
Type     <= msec         Percent
------------------------------------------------------------------------
SET       0.810         0.00
SET       0.840         0.01
SET       0.850         0.01
SET       0.870         0.02
SET       0.900         0.02
SET       0.910         0.03
SET       0.920         0.04
SET       0.930         0.05
SET       0.940         0.08
SET       0.950         0.10
SET       0.960         0.13
SET       0.970         0.17
SET       0.980         0.21
SET       0.990         0.26
SET       1.000         0.86
SET       1.100         3.39
SET       1.200         8.89
SET       1.300        17.94
SET       1.400        28.92
SET       1.500        40.06
SET       1.600        50.37
SET       1.700        58.63
SET       1.800        65.95
SET       1.900        71.69
SET       2.000        76.47
SET       2.100        80.17
SET       2.200        83.27
SET       2.300        85.80
SET       2.400        87.76
SET       2.500        89.38
SET       2.600        90.79
SET       2.700        92.00
SET       2.800        92.98
SET       2.900        93.68
SET       3.000        94.36
SET       3.100        94.86
SET       3.200        95.23
SET       3.300        95.61
SET       3.400        95.95
SET       3.500        96.25
SET       3.600        96.53
SET       3.700        96.77
SET       3.800        96.97
SET       3.900        97.17
SET       4.000        97.40
SET       4.100        97.58
SET       4.200        97.73
SET       4.300        97.85
SET       4.400        97.99
SET       4.500        98.08
SET       4.600        98.21
SET       4.700        98.29
SET       4.800        98.38
SET       4.900        98.47
SET       5.000        98.54
SET       5.100        98.61
SET       5.200        98.66
SET       5.300        98.71
SET       5.400        98.78
SET       5.500        98.82
SET       5.600        98.86
SET       5.700        98.91
SET       5.800        98.97
SET       5.900        99.01
SET       6.000        99.06
SET       6.100        99.10
SET       6.200        99.15
SET       6.300        99.19
SET       6.400        99.22
SET       6.500        99.24
SET       6.600        99.30
SET       6.700        99.34
SET       6.800        99.37
SET       6.900        99.41
SET       7.000        99.45
SET       7.100        99.48
SET       7.200        99.51
SET       7.300        99.54
SET       7.400        99.58
SET       7.500        99.59
SET       7.600        99.61
SET       7.700        99.64
SET       7.800        99.67
SET       7.900        99.69
SET       8.000        99.70
SET       8.100        99.71
SET       8.200        99.73
SET       8.300        99.75
SET       8.400        99.76
SET       8.500        99.79
SET       8.600        99.80
SET       8.700        99.80
SET       8.800        99.82
SET       8.900        99.83
SET       9.000        99.84
SET       9.100        99.86
SET       9.200        99.86
SET       9.300        99.87
SET       9.400        99.88
SET       9.500        99.89
SET       9.600        99.89
SET       9.800        99.90
SET       9.900        99.91
SET      10.000        99.94
SET      11.000        99.96
SET      12.000        99.98
SET      13.000        99.99
SET      14.000        99.99
SET      15.000        99.99
SET      18.000       100.00
SET      19.000       100.00
---
---
