1         Threads
22        Connections per thread
70        Seconds


ALL STATS
========================================================================
Type        Ops/sec     Hits/sec   Misses/sec      Latency       KB/sec 
------------------------------------------------------------------------
Sets        2496.78          ---          ---      8.80600     10077.08 
Gets           0.00         0.00         0.00      0.00000         0.00 
Waits          0.00          ---          ---      0.00000          --- 
Totals      2496.78         0.00         0.00      8.80600     10077.08 


Request Latency Distribution
Type     <= msec         Percent
------------------------------------------------------------------------
SET       1.100         0.00
SET       1.200         0.00
SET       1.300         0.01
SET       1.400         0.02
SET       1.500         0.05
SET       1.600         0.10
SET       1.700         0.19
SET       1.800         0.31
SET       1.900         0.47
SET       2.000         0.69
SET       2.100         1.01
SET       2.200         1.43
SET       2.300         2.02
SET       2.400         2.71
SET       2.500         3.59
SET       2.600         4.62
SET       2.700         5.74
SET       2.800         6.97
SET       2.900         8.07
SET       3.000         9.13
SET       3.100         9.96
SET       3.200        10.68
SET       3.300        11.27
SET       3.400        11.78
SET       3.500        12.18
SET       3.600        12.56
SET       3.700        12.89
SET       3.800        13.21
SET       3.900        13.48
SET       4.000        13.75
SET       4.100        14.02
SET       4.200        14.28
SET       4.300        14.55
SET       4.400        14.82
SET       4.500        15.07
SET       4.600        15.32
SET       4.700        15.61
SET       4.800        15.87
SET       4.900        16.17
SET       5.000        16.47
SET       5.100        16.77
SET       5.200        17.08
SET       5.300        17.37
SET       5.400        17.68
SET       5.500        17.96
SET       5.600        18.26
SET       5.700        18.54
SET       5.800        18.85
SET       5.900        19.15
SET       6.000        19.41
SET       6.100        19.72
SET       6.200        20.06
SET       6.300        20.40
SET       6.400        20.75
SET       6.500        21.10
SET       6.600        21.49
SET       6.700        21.91
SET       6.800        22.36
SET       6.900        22.84
SET       7.000        23.38
SET       7.100        23.95
SET       7.200        24.55
SET       7.300        25.23
SET       7.400        25.91
SET       7.500        26.60
SET       7.600        27.39
SET       7.700        28.25
SET       7.800        29.17
SET       7.900        30.18
SET       8.000        31.32
SET       8.100        32.57
SET       8.200        33.94
SET       8.300        35.47
SET       8.400        37.17
SET       8.500        38.91
SET       8.600        40.83
SET       8.700        42.89
SET       8.800        45.06
SET       8.900        47.26
SET       9.000        49.51
SET       9.100        51.72
SET       9.200        53.92
SET       9.300        56.16
SET       9.400        58.31
SET       9.500        60.42
SET       9.600        62.44
SET       9.700        64.28
SET       9.800        66.05
SET       9.900        67.73
SET      10.000        75.13
SET      11.000        84.92
SET      12.000        91.03
SET      13.000        94.13
SET      14.000        95.94
SET      15.000        96.95
SET      16.000        97.67
SET      17.000        98.29
SET      18.000        98.76
SET      19.000        99.13
SET      20.000        99.40
SET      21.000        99.57
SET      22.000        99.65
SET      23.000        99.71
SET      24.000        99.75
SET      25.000        99.78
SET      26.000        99.81
SET      27.000        99.84
SET      28.000        99.86
SET      29.000        99.88
SET      30.000        99.89
SET      31.000        99.90
SET      32.000        99.91
SET      33.000        99.92
SET      34.000        99.93
SET      35.000        99.93
SET      36.000        99.94
SET      37.000        99.94
SET      38.000        99.94
SET      39.000        99.94
SET      40.000        99.95
SET      43.000        99.95
SET      45.000        99.95
SET      48.000        99.95
SET      50.000        99.96
SET      51.000        99.96
SET      52.000        99.97
SET      53.000        99.97
SET      54.000        99.97
SET      55.000        99.97
SET      56.000        99.98
SET      57.000        99.98
SET      58.000        99.99
SET      59.000        99.99
SET      62.000        99.99
SET     110.000        99.99
SET     120.000        99.99
SET     150.000       100.00
SET     170.000       100.00
---
---
