1         Threads
2         Connections per thread
70        Seconds


ALL STATS
========================================================================
Type        Ops/sec     Hits/sec   Misses/sec      Latency       KB/sec 
------------------------------------------------------------------------
Sets         454.81          ---          ---      2.40900      1835.62 
Gets         454.79       454.79         0.00      1.97300      1842.17 
Waits          0.00          ---          ---      0.00000          --- 
Totals       909.60       454.79         0.00      2.19100      3677.79 


Request Latency Distribution
Type     <= msec         Percent
------------------------------------------------------------------------
SET       1.000         0.00
SET       1.100         0.12
SET       1.200         1.08
SET       1.300         3.94
SET       1.400         9.79
SET       1.500        18.15
SET       1.600        27.17
SET       1.700        36.39
SET       1.800        45.16
SET       1.900        52.68
SET       2.000        59.35
SET       2.100        65.00
SET       2.200        69.43
SET       2.300        73.13
SET       2.400        76.17
SET       2.500        78.74
SET       2.600        81.10
SET       2.700        82.95
SET       2.800        84.33
SET       2.900        85.68
SET       3.000        86.79
SET       3.100        87.87
SET       3.200        88.78
SET       3.300        89.44
SET       3.400        90.22
SET       3.500        90.77
SET       3.600        91.34
SET       3.700        91.77
SET       3.800        92.21
SET       3.900        92.57
SET       4.000        92.95
SET       4.100        93.28
SET       4.200        93.57
SET       4.300        93.85
SET       4.400        94.13
SET       4.500        94.36
SET       4.600        94.60
SET       4.700        94.81
SET       4.800        95.01
SET       4.900        95.24
SET       5.000        95.45
SET       5.100        95.69
SET       5.200        95.87
SET       5.300        96.08
SET       5.400        96.25
SET       5.500        96.38
SET       5.600        96.51
SET       5.700        96.62
SET       5.800        96.75
SET       5.900        96.87
SET       6.000        97.01
SET       6.100        97.09
SET       6.200        97.23
SET       6.300        97.33
SET       6.400        97.43
SET       6.500        97.54
SET       6.600        97.63
SET       6.700        97.74
SET       6.800        97.86
SET       6.900        97.96
SET       7.000        98.03
SET       7.100        98.12
SET       7.200        98.22
SET       7.300        98.32
SET       7.400        98.39
SET       7.500        98.49
SET       7.600        98.60
SET       7.700        98.66
SET       7.800        98.73
SET       7.900        98.81
SET       8.000        98.88
SET       8.100        98.94
SET       8.200        98.99
SET       8.300        99.04
SET       8.400        99.10
SET       8.500        99.13
SET       8.600        99.16
SET       8.700        99.20
SET       8.800        99.26
SET       8.900        99.29
SET       9.000        99.33
SET       9.100        99.37
SET       9.200        99.42
SET       9.300        99.45
SET       9.400        99.46
SET       9.500        99.50
SET       9.600        99.52
SET       9.700        99.55
SET       9.800        99.58
SET       9.900        99.61
SET      10.000        99.71
SET      11.000        99.85
SET      12.000        99.89
SET      13.000        99.91
SET      14.000        99.92
SET      15.000        99.92
SET      16.000        99.92
SET      18.000        99.93
SET      19.000        99.93
SET      21.000        99.94
SET      32.000        99.94
SET      51.000        99.95
SET      56.000        99.95
SET      57.000        99.95
SET      70.000        99.96
SET      73.000        99.96
SET      81.000        99.96
SET      83.000        99.97
SET     120.000        99.97
SET     160.000        99.97
SET     170.000        99.97
SET     200.000        99.98
SET     250.000        99.98
SET     370.000        99.99
SET     390.000        99.99
SET     420.000       100.00
SET     430.000       100.00
---
GET       0.920         0.00
GET       0.940         0.01
GET       0.960         0.02
GET       0.970         0.03
GET       0.980         0.03
GET       0.990         0.04
GET       1.000         0.19
GET       1.100         1.73
GET       1.200         6.68
GET       1.300        15.46
GET       1.400        26.45
GET       1.500        37.91
GET       1.600        48.55
GET       1.700        57.62
GET       1.800        64.98
GET       1.900        70.96
GET       2.000        75.95
GET       2.100        79.85
GET       2.200        82.92
GET       2.300        85.32
GET       2.400        87.18
GET       2.500        88.55
GET       2.600        89.83
GET       2.700        90.97
GET       2.800        91.83
GET       2.900        92.55
GET       3.000        93.17
GET       3.100        93.66
GET       3.200        94.07
GET       3.300        94.49
GET       3.400        94.83
GET       3.500        95.17
GET       3.600        95.48
GET       3.700        95.74
GET       3.800        95.93
GET       3.900        96.12
GET       4.000        96.32
GET       4.100        96.51
GET       4.200        96.72
GET       4.300        96.85
GET       4.400        96.98
GET       4.500        97.12
GET       4.600        97.23
GET       4.700        97.34
GET       4.800        97.47
GET       4.900        97.59
GET       5.000        97.68
GET       5.100        97.78
GET       5.200        97.85
GET       5.300        97.92
GET       5.400        98.03
GET       5.500        98.12
GET       5.600        98.23
GET       5.700        98.29
GET       5.800        98.36
GET       5.900        98.43
GET       6.000        98.50
GET       6.100        98.53
GET       6.200        98.60
GET       6.300        98.67
GET       6.400        98.73
GET       6.500        98.78
GET       6.600        98.85
GET       6.700        98.91
GET       6.800        98.95
GET       6.900        99.01
GET       7.000        99.07
GET       7.100        99.13
GET       7.200        99.19
GET       7.300        99.22
GET       7.400        99.28
GET       7.500        99.32
GET       7.600        99.33
GET       7.700        99.37
GET       7.800        99.41
GET       7.900        99.43
GET       8.000        99.45
GET       8.100        99.48
GET       8.200        99.52
GET       8.300        99.52
GET       8.400        99.54
GET       8.500        99.56
GET       8.600        99.57
GET       8.700        99.59
GET       8.800        99.62
GET       8.900        99.64
GET       9.000        99.65
GET       9.100        99.65
GET       9.200        99.66
GET       9.300        99.68
GET       9.400        99.70
GET       9.500        99.71
GET       9.600        99.72
GET       9.700        99.74
GET       9.800        99.76
GET       9.900        99.78
GET      10.000        99.86
GET      11.000        99.92
GET      12.000        99.95
GET      13.000        99.96
GET      15.000        99.97
GET      17.000        99.97
GET      19.000        99.97
GET      51.000        99.98
GET      56.000        99.98
GET      60.000        99.98
GET     120.000        99.99
GET     190.000        99.99
GET     250.000       100.00
GET     400.000       100.00
---
