1         Threads
22        Connections per thread
70        Seconds


ALL STATS
========================================================================
Type        Ops/sec     Hits/sec   Misses/sec      Latency       KB/sec 
------------------------------------------------------------------------
Sets        1618.81          ---          ---     13.58500      6533.56 
Gets           0.00         0.00         0.00      0.00000         0.00 
Waits          0.00          ---          ---      0.00000          --- 
Totals      1618.81         0.00         0.00     13.58500      6533.56 


Request Latency Distribution
Type     <= msec         Percent
------------------------------------------------------------------------
SET       4.800         0.00
SET       4.900         0.00
SET       5.300         0.00
SET       5.500         0.01
SET       5.600         0.01
SET       5.700         0.01
SET       5.800         0.01
SET       5.900         0.02
SET       6.000         0.02
SET       6.100         0.02
SET       6.200         0.02
SET       6.300         0.03
SET       6.400         0.03
SET       6.500         0.04
SET       6.600         0.05
SET       6.700         0.06
SET       6.800         0.07
SET       6.900         0.09
SET       7.000         0.11
SET       7.100         0.15
SET       7.200         0.19
SET       7.300         0.24
SET       7.400         0.30
SET       7.500         0.38
SET       7.600         0.48
SET       7.700         0.58
SET       7.800         0.71
SET       7.900         0.87
SET       8.000         1.06
SET       8.100         1.29
SET       8.200         1.55
SET       8.300         1.82
SET       8.400         2.15
SET       8.500         2.53
SET       8.600         2.92
SET       8.700         3.36
SET       8.800         3.88
SET       8.900         4.47
SET       9.000         5.06
SET       9.100         5.74
SET       9.200         6.46
SET       9.300         7.22
SET       9.400         8.05
SET       9.500         8.89
SET       9.600         9.86
SET       9.700        10.87
SET       9.800        11.88
SET       9.900        13.01
SET      10.000        19.62
SET      11.000        32.39
SET      12.000        43.28
SET      13.000        52.51
SET      14.000        62.97
SET      15.000        74.70
SET      16.000        83.83
SET      17.000        89.09
SET      18.000        92.50
SET      19.000        94.56
SET      20.000        96.06
SET      21.000        97.31
SET      22.000        98.16
SET      23.000        98.74
SET      24.000        99.11
SET      25.000        99.30
SET      26.000        99.44
SET      27.000        99.53
SET      28.000        99.60
SET      29.000        99.67
SET      30.000        99.71
SET      31.000        99.76
SET      32.000        99.80
SET      33.000        99.83
SET      34.000        99.87
SET      35.000        99.89
SET      36.000        99.91
SET      37.000        99.92
SET      38.000        99.93
SET      39.000        99.94
SET      40.000        99.94
SET      41.000        99.95
SET      42.000        99.95
SET      43.000        99.96
SET      44.000        99.96
SET      45.000        99.97
SET      46.000        99.97
SET      47.000        99.98
SET      48.000        99.98
SET      49.000        99.98
SET      51.000        99.98
SET      52.000        99.99
SET      53.000        99.99
SET      55.000        99.99
SET      56.000        99.99
SET      68.000        99.99
SET      73.000        99.99
SET      74.000        99.99
SET      77.000       100.00
SET      78.000       100.00
SET      90.000       100.00
SET      91.000       100.00
SET      94.000       100.00
SET     100.000       100.00
---
---
