1         Threads
4         Connections per thread
70        Seconds


ALL STATS
========================================================================
Type        Ops/sec     Hits/sec   Misses/sec      Latency       KB/sec 
------------------------------------------------------------------------
Sets        1425.15          ---          ---      2.80200      5751.94 
Gets           0.00         0.00         0.00      0.00000         0.00 
Waits          0.00          ---          ---      0.00000          --- 
Totals      1425.15         0.00         0.00      2.80200      5751.94 


Request Latency Distribution
Type     <= msec         Percent
------------------------------------------------------------------------
SET       0.830         0.00
SET       0.850         0.00
SET       0.880         0.01
SET       0.890         0.01
SET       0.900         0.02
SET       0.910         0.03
SET       0.920         0.03
SET       0.930         0.04
SET       0.940         0.05
SET       0.950         0.07
SET       0.960         0.08
SET       0.970         0.11
SET       0.980         0.14
SET       0.990         0.17
SET       1.000         0.44
SET       1.100         1.61
SET       1.200         3.92
SET       1.300         7.67
SET       1.400        12.81
SET       1.500        18.75
SET       1.600        25.32
SET       1.700        32.11
SET       1.800        38.71
SET       1.900        44.90
SET       2.000        50.63
SET       2.100        55.52
SET       2.200        59.85
SET       2.300        63.58
SET       2.400        66.55
SET       2.500        69.11
SET       2.600        71.43
SET       2.700        73.37
SET       2.800        74.99
SET       2.900        76.30
SET       3.000        77.54
SET       3.100        78.50
SET       3.200        79.36
SET       3.300        80.14
SET       3.400        80.83
SET       3.500        81.47
SET       3.600        82.06
SET       3.700        82.58
SET       3.800        83.05
SET       3.900        83.48
SET       4.000        83.89
SET       4.100        84.26
SET       4.200        84.60
SET       4.300        84.93
SET       4.400        85.23
SET       4.500        85.51
SET       4.600        85.74
SET       4.700        85.96
SET       4.800        86.17
SET       4.900        86.38
SET       5.000        86.59
SET       5.100        86.78
SET       5.200        87.01
SET       5.300        87.21
SET       5.400        87.41
SET       5.500        87.59
SET       5.600        87.77
SET       5.700        87.94
SET       5.800        88.13
SET       5.900        88.31
SET       6.000        88.53
SET       6.100        88.75
SET       6.200        89.04
SET       6.300        89.33
SET       6.400        89.70
SET       6.500        90.10
SET       6.600        90.57
SET       6.700        91.03
SET       6.800        91.56
SET       6.900        92.12
SET       7.000        92.67
SET       7.100        93.23
SET       7.200        93.83
SET       7.300        94.39
SET       7.400        94.94
SET       7.500        95.41
SET       7.600        95.90
SET       7.700        96.37
SET       7.800        96.73
SET       7.900        97.06
SET       8.000        97.39
SET       8.100        97.67
SET       8.200        97.89
SET       8.300        98.08
SET       8.400        98.24
SET       8.500        98.39
SET       8.600        98.53
SET       8.700        98.66
SET       8.800        98.76
SET       8.900        98.85
SET       9.000        98.94
SET       9.100        99.02
SET       9.200        99.09
SET       9.300        99.15
SET       9.400        99.19
SET       9.500        99.24
SET       9.600        99.29
SET       9.700        99.35
SET       9.800        99.39
SET       9.900        99.43
SET      10.000        99.61
SET      11.000        99.76
SET      12.000        99.85
SET      13.000        99.89
SET      14.000        99.92
SET      15.000        99.94
SET      16.000        99.95
SET      17.000        99.97
SET      18.000        99.97
SET      19.000        99.98
SET      20.000        99.98
SET      21.000        99.99
SET      22.000        99.99
SET      23.000       100.00
SET      25.000       100.00
SET      31.000       100.00
---
---
