1         Threads
4         Connections per thread
70        Seconds


ALL STATS
========================================================================
Type        Ops/sec     Hits/sec   Misses/sec      Latency       KB/sec 
------------------------------------------------------------------------
Sets        1373.56          ---          ---      2.90700      5543.73 
Gets           0.00         0.00         0.00      0.00000         0.00 
Waits          0.00          ---          ---      0.00000          --- 
Totals      1373.56         0.00         0.00      2.90700      5543.73 


Request Latency Distribution
Type     <= msec         Percent
------------------------------------------------------------------------
SET       0.730         0.00
SET       0.850         0.00
SET       0.860         0.01
SET       0.880         0.01
SET       0.890         0.01
SET       0.900         0.02
SET       0.910         0.02
SET       0.920         0.02
SET       0.930         0.03
SET       0.940         0.04
SET       0.950         0.05
SET       0.960         0.07
SET       0.970         0.08
SET       0.980         0.09
SET       0.990         0.11
SET       1.000         0.29
SET       1.100         1.03
SET       1.200         2.63
SET       1.300         5.41
SET       1.400         9.44
SET       1.500        14.64
SET       1.600        20.43
SET       1.700        26.67
SET       1.800        33.02
SET       1.900        39.23
SET       2.000        45.02
SET       2.100        50.25
SET       2.200        55.02
SET       2.300        59.12
SET       2.400        62.54
SET       2.500        65.42
SET       2.600        67.91
SET       2.700        70.19
SET       2.800        72.15
SET       2.900        73.77
SET       3.000        75.27
SET       3.100        76.54
SET       3.200        77.61
SET       3.300        78.56
SET       3.400        79.44
SET       3.500        80.22
SET       3.600        80.88
SET       3.700        81.48
SET       3.800        81.99
SET       3.900        82.46
SET       4.000        82.91
SET       4.100        83.31
SET       4.200        83.69
SET       4.300        84.07
SET       4.400        84.37
SET       4.500        84.70
SET       4.600        84.99
SET       4.700        85.25
SET       4.800        85.48
SET       4.900        85.75
SET       5.000        86.00
SET       5.100        86.29
SET       5.200        86.57
SET       5.300        86.84
SET       5.400        87.06
SET       5.500        87.25
SET       5.600        87.45
SET       5.700        87.67
SET       5.800        87.88
SET       5.900        88.13
SET       6.000        88.39
SET       6.100        88.67
SET       6.200        88.99
SET       6.300        89.37
SET       6.400        89.75
SET       6.500        90.19
SET       6.600        90.64
SET       6.700        91.10
SET       6.800        91.64
SET       6.900        92.17
SET       7.000        92.69
SET       7.100        93.22
SET       7.200        93.78
SET       7.300        94.28
SET       7.400        94.80
SET       7.500        95.32
SET       7.600        95.80
SET       7.700        96.19
SET       7.800        96.53
SET       7.900        96.87
SET       8.000        97.16
SET       8.100        97.45
SET       8.200        97.69
SET       8.300        97.89
SET       8.400        98.08
SET       8.500        98.23
SET       8.600        98.35
SET       8.700        98.47
SET       8.800        98.55
SET       8.900        98.65
SET       9.000        98.74
SET       9.100        98.82
SET       9.200        98.91
SET       9.300        98.97
SET       9.400        99.04
SET       9.500        99.09
SET       9.600        99.15
SET       9.700        99.18
SET       9.800        99.23
SET       9.900        99.28
SET      10.000        99.47
SET      11.000        99.73
SET      12.000        99.81
SET      13.000        99.90
SET      14.000        99.93
SET      15.000        99.95
SET      16.000        99.96
SET      17.000        99.98
SET      18.000        99.99
SET      19.000        99.99
SET      20.000        99.99
SET      21.000        99.99
SET      22.000       100.00
SET      23.000       100.00
---
---
