1         Threads
64        Connections per thread
70        Seconds


ALL STATS
========================================================================
Type        Ops/sec     Hits/sec   Misses/sec      Latency       KB/sec 
------------------------------------------------------------------------
Sets        2099.87          ---          ---     30.68500      8475.13 
Gets           0.00         0.00         0.00      0.00000         0.00 
Waits          0.00          ---          ---      0.00000          --- 
Totals      2099.87         0.00         0.00     30.68500      8475.13 


Request Latency Distribution
Type     <= msec         Percent
------------------------------------------------------------------------
SET       2.600         0.00
SET       2.800         0.00
SET       4.300         0.00
SET       4.500         0.00
SET       5.100         0.00
SET       5.300         0.00
SET       5.600         0.01
SET       5.700         0.01
SET       5.800         0.01
SET       6.300         0.01
SET       7.000         0.01
SET       7.400         0.01
SET       7.700         0.01
SET       7.800         0.01
SET       8.300         0.01
SET       8.500         0.01
SET       8.600         0.01
SET       8.900         0.01
SET       9.100         0.02
SET       9.200         0.02
SET       9.500         0.02
SET       9.900         0.02
SET      10.000         0.02
SET      11.000         0.03
SET      12.000         0.04
SET      13.000         0.05
SET      14.000         0.07
SET      15.000         0.11
SET      16.000         0.14
SET      17.000         0.21
SET      18.000         0.36
SET      19.000         0.58
SET      20.000         1.00
SET      21.000         1.57
SET      22.000         2.43
SET      23.000         4.09
SET      24.000         6.97
SET      25.000        11.73
SET      26.000        17.95
SET      27.000        24.96
SET      28.000        31.65
SET      29.000        39.08
SET      30.000        47.74
SET      31.000        57.61
SET      32.000        68.12
SET      33.000        77.12
SET      34.000        84.18
SET      35.000        89.39
SET      36.000        92.85
SET      37.000        94.90
SET      38.000        96.21
SET      39.000        97.02
SET      40.000        97.69
SET      41.000        98.15
SET      42.000        98.52
SET      43.000        98.82
SET      44.000        99.03
SET      45.000        99.18
SET      46.000        99.28
SET      47.000        99.35
SET      48.000        99.45
SET      49.000        99.56
SET      50.000        99.64
SET      51.000        99.70
SET      52.000        99.74
SET      53.000        99.77
SET      54.000        99.80
SET      55.000        99.83
SET      56.000        99.85
SET      57.000        99.87
SET      58.000        99.90
SET      59.000        99.92
SET      60.000        99.94
SET      61.000        99.95
SET      62.000        99.95
SET      63.000        99.95
SET      64.000        99.96
SET      65.000        99.96
SET      66.000        99.96
SET      67.000        99.96
SET      68.000        99.96
SET      78.000        99.96
SET      86.000        99.96
SET     100.000        99.97
SET     110.000        99.97
SET     130.000        99.97
SET     140.000        99.98
SET     150.000        99.98
SET     170.000        99.98
SET     180.000        99.99
SET     190.000       100.00
SET     200.000       100.00
---
---
