1         Threads
1         Connections per thread
70        Seconds


ALL STATS
========================================================================
Type        Ops/sec     Hits/sec   Misses/sec      Latency       KB/sec 
------------------------------------------------------------------------
Sets         551.48          ---          ---      1.80700      2225.77 
Gets           0.00         0.00         0.00      0.00000         0.00 
Waits          0.00          ---          ---      0.00000          --- 
Totals       551.48         0.00         0.00      1.80700      2225.77 


Request Latency Distribution
Type     <= msec         Percent
------------------------------------------------------------------------
SET       0.700         0.00
SET       0.770         0.01
SET       0.800         0.01
SET       0.820         0.01
SET       0.830         0.02
SET       0.840         0.04
SET       0.850         0.06
SET       0.860         0.08
SET       0.870         0.10
SET       0.880         0.13
SET       0.890         0.18
SET       0.900         0.23
SET       0.910         0.29
SET       0.920         0.41
SET       0.930         0.51
SET       0.940         0.66
SET       0.950         0.80
SET       0.960         0.96
SET       0.970         1.18
SET       0.980         1.41
SET       0.990         1.68
SET       1.000         3.68
SET       1.100         9.92
SET       1.200        18.89
SET       1.300        29.03
SET       1.400        39.23
SET       1.500        48.68
SET       1.600        57.00
SET       1.700        63.80
SET       1.800        69.46
SET       1.900        74.17
SET       2.000        78.06
SET       2.100        81.28
SET       2.200        84.05
SET       2.300        86.20
SET       2.400        88.02
SET       2.500        89.41
SET       2.600        90.59
SET       2.700        91.61
SET       2.800        92.56
SET       2.900        93.28
SET       3.000        93.96
SET       3.100        94.52
SET       3.200        95.05
SET       3.300        95.45
SET       3.400        95.86
SET       3.500        96.15
SET       3.600        96.45
SET       3.700        96.64
SET       3.800        96.88
SET       3.900        97.08
SET       4.000        97.25
SET       4.100        97.42
SET       4.200        97.56
SET       4.300        97.69
SET       4.400        97.81
SET       4.500        97.89
SET       4.600        98.00
SET       4.700        98.09
SET       4.800        98.16
SET       4.900        98.26
SET       5.000        98.33
SET       5.100        98.39
SET       5.200        98.45
SET       5.300        98.52
SET       5.400        98.57
SET       5.500        98.63
SET       5.600        98.69
SET       5.700        98.73
SET       5.800        98.79
SET       5.900        98.83
SET       6.000        98.89
SET       6.100        98.94
SET       6.200        99.00
SET       6.300        99.06
SET       6.400        99.10
SET       6.500        99.16
SET       6.600        99.22
SET       6.700        99.25
SET       6.800        99.27
SET       6.900        99.32
SET       7.000        99.35
SET       7.100        99.39
SET       7.200        99.41
SET       7.300        99.44
SET       7.400        99.47
SET       7.500        99.50
SET       7.600        99.54
SET       7.700        99.57
SET       7.800        99.58
SET       7.900        99.61
SET       8.000        99.63
SET       8.100        99.66
SET       8.200        99.68
SET       8.300        99.71
SET       8.400        99.72
SET       8.500        99.74
SET       8.600        99.76
SET       8.700        99.76
SET       8.800        99.78
SET       8.900        99.80
SET       9.000        99.82
SET       9.100        99.83
SET       9.200        99.83
SET       9.400        99.84
SET       9.500        99.85
SET       9.600        99.86
SET       9.700        99.87
SET       9.800        99.88
SET       9.900        99.89
SET      10.000        99.92
SET      11.000        99.96
SET      12.000        99.97
SET      13.000        99.99
SET      14.000        99.99
SET      15.000       100.00
SET      17.000       100.00
---
---
