1         Threads
42        Connections per thread
70        Seconds


ALL STATS
========================================================================
Type        Ops/sec     Hits/sec   Misses/sec      Latency       KB/sec 
------------------------------------------------------------------------
Sets        2362.26          ---          ---     17.77400      9534.15 
Gets           0.00         0.00         0.00      0.00000         0.00 
Waits          0.00          ---          ---      0.00000          --- 
Totals      2362.26         0.00         0.00     17.77400      9534.15 


Request Latency Distribution
Type     <= msec         Percent
------------------------------------------------------------------------
SET       3.300         0.00
SET       3.600         0.00
SET       3.700         0.00
SET       3.900         0.00
SET       4.000         0.01
SET       4.100         0.01
SET       4.200         0.01
SET       4.300         0.01
SET       4.400         0.01
SET       4.500         0.01
SET       4.600         0.02
SET       4.700         0.02
SET       4.800         0.02
SET       4.900         0.02
SET       5.000         0.02
SET       5.100         0.03
SET       5.200         0.03
SET       5.300         0.03
SET       5.400         0.04
SET       5.500         0.05
SET       5.600         0.05
SET       5.700         0.06
SET       5.800         0.07
SET       5.900         0.08
SET       6.000         0.09
SET       6.100         0.11
SET       6.200         0.13
SET       6.300         0.15
SET       6.400         0.18
SET       6.500         0.21
SET       6.600         0.23
SET       6.700         0.26
SET       6.800         0.29
SET       6.900         0.32
SET       7.000         0.36
SET       7.100         0.38
SET       7.200         0.41
SET       7.300         0.43
SET       7.400         0.46
SET       7.500         0.49
SET       7.600         0.52
SET       7.700         0.56
SET       7.800         0.59
SET       7.900         0.62
SET       8.000         0.66
SET       8.100         0.69
SET       8.200         0.74
SET       8.300         0.80
SET       8.400         0.85
SET       8.500         0.91
SET       8.600         0.98
SET       8.700         1.05
SET       8.800         1.12
SET       8.900         1.20
SET       9.000         1.29
SET       9.100         1.41
SET       9.200         1.53
SET       9.300         1.68
SET       9.400         1.83
SET       9.500         2.00
SET       9.600         2.20
SET       9.700         2.41
SET       9.800         2.61
SET       9.900         2.84
SET      10.000         4.41
SET      11.000         8.81
SET      12.000        15.34
SET      13.000        21.58
SET      14.000        26.20
SET      15.000        30.19
SET      16.000        34.53
SET      17.000        41.50
SET      18.000        53.97
SET      19.000        67.82
SET      20.000        77.68
SET      21.000        84.69
SET      22.000        89.53
SET      23.000        92.55
SET      24.000        94.61
SET      25.000        95.94
SET      26.000        96.87
SET      27.000        97.58
SET      28.000        98.14
SET      29.000        98.58
SET      30.000        98.93
SET      31.000        99.15
SET      32.000        99.28
SET      33.000        99.39
SET      34.000        99.47
SET      35.000        99.55
SET      36.000        99.63
SET      37.000        99.71
SET      38.000        99.79
SET      39.000        99.85
SET      40.000        99.86
SET      41.000        99.89
SET      42.000        99.91
SET      43.000        99.94
SET      44.000        99.94
SET      45.000        99.95
SET      46.000        99.96
SET      47.000        99.96
SET      48.000        99.96
SET      50.000        99.96
SET      51.000        99.96
SET      52.000        99.97
SET      53.000        99.97
SET      54.000        99.97
SET      56.000        99.97
SET     220.000        99.99
SET     230.000        99.99
SET     240.000        99.99
SET     260.000        99.99
SET     270.000        99.99
SET     290.000        99.99
SET     320.000        99.99
SET     330.000       100.00
SET     340.000       100.00
---
---
