1         Threads
6         Connections per thread
70        Seconds


ALL STATS
========================================================================
Type        Ops/sec     Hits/sec   Misses/sec      Latency       KB/sec 
------------------------------------------------------------------------
Sets           0.00          ---          ---      0.00000         0.00 
Gets        2933.63      2933.63         0.00      2.03900     11882.85 
Waits          0.00          ---          ---      0.00000          --- 
Totals      2933.63      2933.63         0.00      2.03900     11882.85 


Request Latency Distribution
Type     <= msec         Percent
------------------------------------------------------------------------
---
GET       0.200         0.00
GET       0.210         0.00
GET       0.220         0.00
GET       0.230         0.01
GET       0.240         0.02
GET       0.250         0.04
GET       0.260         0.08
GET       0.270         0.13
GET       0.280         0.20
GET       0.290         0.30
GET       0.300         0.43
GET       0.310         0.62
GET       0.320         0.84
GET       0.330         1.10
GET       0.340         1.45
GET       0.350         1.86
GET       0.360         2.35
GET       0.370         2.89
GET       0.380         3.50
GET       0.390         4.15
GET       0.400         4.95
GET       0.410         5.86
GET       0.420         6.80
GET       0.430         7.88
GET       0.440         9.03
GET       0.450        10.28
GET       0.460        11.69
GET       0.470        13.15
GET       0.480        14.65
GET       0.490        16.26
GET       0.500        17.92
GET       0.510        19.60
GET       0.520        21.39
GET       0.530        23.17
GET       0.540        25.00
GET       0.550        26.82
GET       0.560        28.64
GET       0.570        30.43
GET       0.580        32.24
GET       0.590        33.99
GET       0.600        35.76
GET       0.610        37.52
GET       0.620        39.18
GET       0.630        40.85
GET       0.640        42.47
GET       0.650        43.99
GET       0.660        45.51
GET       0.670        46.99
GET       0.680        48.44
GET       0.690        49.83
GET       0.700        51.18
GET       0.710        52.51
GET       0.720        53.79
GET       0.730        55.03
GET       0.740        56.22
GET       0.750        57.38
GET       0.760        58.50
GET       0.770        59.51
GET       0.780        60.49
GET       0.790        61.41
GET       0.800        62.30
GET       0.810        63.16
GET       0.820        63.96
GET       0.830        64.73
GET       0.840        65.49
GET       0.850        66.20
GET       0.860        66.90
GET       0.870        67.55
GET       0.880        68.20
GET       0.890        68.81
GET       0.900        69.38
GET       0.910        69.93
GET       0.920        70.47
GET       0.930        70.98
GET       0.940        71.46
GET       0.950        71.89
GET       0.960        72.35
GET       0.970        72.77
GET       0.980        73.18
GET       0.990        73.56
GET       1.000        75.56
GET       1.100        78.26
GET       1.200        80.24
GET       1.300        81.55
GET       1.400        82.47
GET       1.500        83.22
GET       1.600        83.70
GET       1.700        84.05
GET       1.800        84.32
GET       1.900        84.56
GET       2.000        84.78
GET       2.100        84.98
GET       2.200        85.14
GET       2.300        85.29
GET       2.400        85.42
GET       2.500        85.51
GET       2.600        85.63
GET       2.700        85.73
GET       2.800        85.82
GET       2.900        85.90
GET       3.000        85.98
GET       3.100        86.02
GET       3.200        86.07
GET       3.300        86.13
GET       3.400        86.19
GET       3.500        86.24
GET       3.600        86.27
GET       3.700        86.32
GET       3.800        86.37
GET       3.900        86.42
GET       4.000        86.45
GET       4.100        86.51
GET       4.200        86.56
GET       4.300        86.59
GET       4.400        86.62
GET       4.500        86.66
GET       4.600        86.71
GET       4.700        86.74
GET       4.800        86.79
GET       4.900        86.81
GET       5.000        86.84
GET       5.100        86.85
GET       5.200        86.89
GET       5.300        86.92
GET       5.400        86.96
GET       5.500        86.99
GET       5.600        87.01
GET       5.700        87.04
GET       5.800        87.07
GET       5.900        87.10
GET       6.000        87.12
GET       6.100        87.14
GET       6.200        87.17
GET       6.300        87.21
GET       6.400        87.25
GET       6.500        87.28
GET       6.600        87.30
GET       6.700        87.33
GET       6.800        87.36
GET       6.900        87.40
GET       7.000        87.43
GET       7.100        87.48
GET       7.200        87.52
GET       7.300        87.57
GET       7.400        87.62
GET       7.500        87.67
GET       7.600        87.72
GET       7.700        87.77
GET       7.800        87.82
GET       7.900        87.89
GET       8.000        87.95
GET       8.100        88.01
GET       8.200        88.07
GET       8.300        88.16
GET       8.400        88.24
GET       8.500        88.34
GET       8.600        88.44
GET       8.700        88.53
GET       8.800        88.63
GET       8.900        88.75
GET       9.000        88.88
GET       9.100        89.04
GET       9.200        89.18
GET       9.300        89.33
GET       9.400        89.49
GET       9.500        89.69
GET       9.600        89.91
GET       9.700        90.17
GET       9.800        90.42
GET       9.900        90.74
GET      10.000        92.53
GET      11.000        96.85
GET      12.000        99.66
GET      13.000        99.88
GET      14.000        99.92
GET      15.000        99.95
GET      16.000        99.97
GET      17.000        99.98
GET      18.000        99.98
GET      19.000        99.99
GET      20.000        99.99
GET      21.000        99.99
GET      25.000       100.00
GET      26.000       100.00
GET      27.000       100.00
---
