second,get,set,multiget,multigetsharded,cachemisses
1,1215,0,0,0,0
2,2662,0,0,0,0
3,4095,0,0,0,0
4,5545,0,0,0,0
5,7023,0,0,0,0
6,8472,0,0,0,0
7,9914,0,0,0,0
8,11369,0,0,0,0
9,12800,0,0,0,0
10,14246,0,0,0,0
11,15695,0,0,0,0
12,17136,0,0,0,0
13,18600,0,0,0,0
14,19994,0,0,0,0
15,21416,0,0,0,0
16,22825,0,0,0,0
17,24248,0,0,0,0
18,25676,0,0,0,0
19,27112,0,0,0,0
20,28541,0,0,0,0
21,29971,0,0,0,0
22,31408,0,0,0,0
23,32841,0,0,0,0
24,34249,0,0,0,0
25,35691,0,0,0,0
26,37096,0,0,0,0
27,38537,0,0,0,0
28,39959,0,0,0,0
29,41420,0,0,0,0
30,42863,0,0,0,0
31,44321,0,0,0,0
32,45757,0,0,0,0
33,47191,0,0,0,0
34,48621,0,0,0,0
35,50060,0,0,0,0
36,51502,0,0,0,0
37,52949,0,0,0,0
38,54394,0,0,0,0
39,55816,0,0,0,0
40,57278,0,0,0,0
41,58716,0,0,0,0
42,60148,0,0,0,0
43,61543,0,0,0,0
44,63004,0,0,0,0
45,64383,0,0,0,0
46,65811,0,0,0,0
47,67255,0,0,0,0
48,68691,0,0,0,0
49,70128,0,0,0,0
50,71552,0,0,0,0
51,72981,0,0,0,0
52,74438,0,0,0,0
53,75871,0,0,0,0
54,77332,0,0,0,0
55,78748,0,0,0,0
56,80156,0,0,0,0
57,81594,0,0,0,0
58,83034,0,0,0,0
59,84493,0,0,0,0
60,85932,0,0,0,0
61,87387,0,0,0,0
62,88817,0,0,0,0
63,90262,0,0,0,0
64,91685,0,0,0,0
65,93125,0,0,0,0
66,94553,0,0,0,0
67,96000,0,0,0,0
68,97449,0,0,0,0
69,98860,0,0,0,0
70,100315,0,0,0,0
71,100734,0,0,0,0
72,100734,0,0,0,0
73,100734,0,0,0,0
74,100734,0,0,0,0
75,100734,0,0,0,0
76,100734,0,0,0,0
77,100734,0,0,0,0
78,100734,0,0,0,0
79,100734,0,0,0,0
80,100734,0,0,0,0
81,100734,0,0,0,0
82,100734,0,0,0,0
83,100734,0,0,0,0
84,100734,0,0,0,0
85,100734,0,0,0,0
86,100734,0,0,0,0
86,100734,0,0,0,0
