"Dstat 0.7.2 CSV output"
"Author:","Dag Wieers <dag@wieers.com>",,,,"URL:","http://dag.wieers.com/home-made/dstat/"
"Host:","Middleware2",,,,"User:","maki"
"Cmdline:","dstat --output dstat.csv 1 70",,,,"Date:","20 Nov 2018 07:27:32 UTC"

"total cpu usage",,,,,,"dsk/total",,"net/total",,"paging",,"system",
"usr","sys","idl","wai","hiq","siq","read","writ","recv","send","in","out","int","csw"
2.021,1.796,95.616,0.098,0.0,0.469,9200.204,191340.348,0.0,0.0,0.0,0.0,1866.500,5424.773
26.156,4.359,68.560,0.0,0.0,0.925,0.0,0.0,5492068.0,5324080.0,0.0,0.0,3319.0,8774.0
17.562,2.228,79.161,0.0,0.0,1.048,0.0,12288.0,6583121.0,6396832.0,0.0,0.0,2593.0,7270.0
6.769,2.427,90.294,0.0,0.0,0.511,0.0,0.0,6431118.0,6236724.0,0.0,0.0,2477.0,7243.0
2.771,2.645,94.207,0.0,0.0,0.378,0.0,0.0,6505898.0,6297444.0,0.0,0.0,2368.0,7223.0
10.793,2.471,86.216,0.0,0.0,0.520,0.0,0.0,6602881.0,6427453.0,0.0,0.0,2544.0,7349.0
3.405,2.522,93.443,0.0,0.0,0.631,0.0,0.0,6504376.0,6305689.0,0.0,0.0,2394.0,7309.0
1.277,1.788,96.807,0.0,0.0,0.128,0.0,4096.0,6452468.0,6262682.0,0.0,0.0,2319.0,7059.0
1.146,2.038,96.051,0.0,0.0,0.764,0.0,0.0,6515228.0,6323040.0,0.0,0.0,2364.0,7141.0
1.155,1.797,96.919,0.0,0.0,0.128,0.0,0.0,6404779.0,6218775.0,0.0,0.0,2278.0,7052.0
1.654,2.036,96.056,0.0,0.0,0.254,0.0,0.0,6474956.0,6284439.0,0.0,0.0,2420.0,7289.0
1.015,2.411,95.939,0.0,0.0,0.635,0.0,0.0,6487769.0,6297201.0,0.0,0.0,2343.0,7080.0
1.276,2.168,96.301,0.0,0.0,0.255,0.0,0.0,6458831.0,6267017.0,0.0,0.0,2348.0,7117.0
1.904,1.904,95.939,0.0,0.0,0.254,0.0,0.0,6564373.0,6371464.0,0.0,0.0,2412.0,7317.0
1.901,2.281,95.311,0.0,0.0,0.507,0.0,0.0,6241743.0,6057802.0,0.0,0.0,2382.0,6975.0
1.777,2.030,95.685,0.0,0.0,0.508,0.0,0.0,6368316.0,6171761.0,0.0,0.0,2350.0,7108.0
1.272,1.908,96.310,0.0,0.0,0.509,0.0,0.0,6318649.0,6132100.0,0.0,0.0,2286.0,6948.0
1.022,1.788,96.679,0.0,0.0,0.511,0.0,0.0,6357437.0,6171314.0,0.0,0.0,2303.0,6989.0
1.754,2.632,94.737,0.0,0.0,0.877,0.0,8192.0,6414035.0,6214983.0,0.0,0.0,2411.0,7244.0
1.271,2.033,96.442,0.0,0.0,0.254,0.0,0.0,6433948.0,6253580.0,0.0,0.0,2372.0,7076.0
1.398,1.906,96.061,0.0,0.0,0.635,0.0,0.0,6386085.0,6184576.0,0.0,0.0,2348.0,7158.0
1.643,2.402,95.449,0.0,0.0,0.506,0.0,0.0,6422025.0,6223965.0,0.0,0.0,2374.0,7244.0
1.906,2.033,95.807,0.0,0.0,0.254,0.0,0.0,6430014.0,6261896.0,0.0,0.0,2366.0,7156.0
1.392,1.772,96.076,0.0,0.0,0.759,0.0,999424.0,6400634.0,6185142.0,0.0,0.0,2368.0,7045.0
1.151,1.790,96.419,0.0,0.0,0.639,0.0,0.0,6326502.0,6152843.0,0.0,0.0,2342.0,7102.0
1.274,1.783,96.306,0.0,0.0,0.637,0.0,0.0,6453118.0,6258507.0,0.0,0.0,2395.0,7067.0
1.023,2.174,96.419,0.0,0.0,0.384,0.0,0.0,6290642.0,6084687.0,0.0,0.0,2317.0,6994.0
1.274,1.911,96.178,0.0,0.0,0.637,0.0,0.0,6458460.0,6283571.0,0.0,0.0,2391.0,7047.0
1.399,1.908,96.438,0.0,0.0,0.254,0.0,16384.0,6373449.0,6201837.0,0.0,0.0,2317.0,7059.0
0.892,2.420,96.178,0.0,0.0,0.510,0.0,0.0,6531839.0,6344763.0,0.0,0.0,2426.0,7251.0
1.899,2.152,95.190,0.253,0.0,0.506,0.0,57344.0,6467421.0,6275467.0,0.0,0.0,2333.0,7193.0
1.145,1.908,96.310,0.0,0.0,0.636,0.0,4096.0,6528739.0,6294130.0,0.0,0.0,2373.0,7189.0
1.654,1.781,96.183,0.0,0.0,0.382,0.0,0.0,6430349.0,6283491.0,0.0,0.0,2345.0,7114.0
1.662,1.662,95.908,0.0,0.0,0.767,0.0,8192.0,6444187.0,6251617.0,0.0,0.0,2472.0,7279.0
1.398,1.779,96.315,0.0,0.0,0.508,0.0,0.0,6403300.0,6172428.0,0.0,0.0,2351.0,7059.0
1.889,2.645,95.088,0.0,0.0,0.378,0.0,0.0,6438032.0,6246199.0,0.0,0.0,2461.0,7280.0
1.779,1.652,96.061,0.0,0.0,0.508,0.0,0.0,6463146.0,6288323.0,0.0,0.0,2445.0,7266.0
1.272,2.036,96.183,0.0,0.0,0.509,0.0,0.0,6484637.0,6285255.0,0.0,0.0,2473.0,7252.0
1.906,1.779,96.061,0.0,0.0,0.254,0.0,0.0,6433436.0,6275760.0,0.0,0.0,2389.0,7144.0
2.030,1.523,96.066,0.0,0.0,0.381,0.0,0.0,6365702.0,6171837.0,0.0,0.0,2427.0,7157.0
1.523,2.538,95.812,0.0,0.0,0.127,0.0,0.0,6577212.0,6353777.0,0.0,0.0,2521.0,7413.0
1.650,2.157,95.812,0.0,0.0,0.381,0.0,0.0,6423619.0,6262420.0,0.0,0.0,2472.0,7142.0
0.639,2.427,96.807,0.0,0.0,0.128,0.0,0.0,6407607.0,6214705.0,0.0,0.0,2462.0,7139.0
1.157,1.671,97.044,0.0,0.0,0.129,0.0,0.0,6248191.0,6071180.0,0.0,0.0,2382.0,6922.0
1.276,1.786,96.556,0.0,0.0,0.383,0.0,0.0,6546197.0,6344929.0,0.0,0.0,2517.0,7257.0
1.765,2.270,95.586,0.0,0.0,0.378,0.0,0.0,6151357.0,5979955.0,0.0,0.0,2396.0,6929.0
1.542,1.671,96.401,0.0,0.0,0.386,0.0,0.0,6385332.0,6197381.0,0.0,0.0,2427.0,7153.0
1.145,1.781,96.438,0.0,0.0,0.636,0.0,0.0,6501804.0,6310404.0,0.0,0.0,2464.0,7291.0
1.274,1.783,96.561,0.0,0.0,0.382,0.0,0.0,6425677.0,6236443.0,0.0,0.0,2449.0,7174.0
1.665,1.793,96.031,0.0,0.0,0.512,0.0,0.0,6428458.0,6236375.0,0.0,0.0,2483.0,7178.0
1.515,2.146,95.707,0.0,0.0,0.631,0.0,0.0,6389925.0,6201603.0,0.0,0.0,2457.0,7108.0
1.765,2.144,95.586,0.0,0.0,0.504,0.0,0.0,6398733.0,6210291.0,0.0,0.0,2451.0,7231.0
1.392,2.278,95.949,0.0,0.0,0.380,0.0,0.0,6538678.0,6340894.0,0.0,0.0,2468.0,7270.0
0.888,2.284,96.320,0.0,0.0,0.508,0.0,0.0,6406297.0,6218979.0,0.0,0.0,2430.0,7042.0
1.399,1.908,96.310,0.0,0.0,0.382,0.0,1425408.0,6542076.0,6349332.0,0.0,0.0,2508.0,7416.0
1.648,1.901,95.944,0.0,0.0,0.507,0.0,0.0,6346466.0,6158159.0,0.0,0.0,2447.0,7132.0
1.142,2.030,96.447,0.0,0.0,0.381,0.0,0.0,6301777.0,6114773.0,0.0,0.0,2393.0,6988.0
1.142,2.030,96.193,0.0,0.0,0.635,0.0,0.0,6451130.0,6262570.0,0.0,0.0,2420.0,7046.0
1.641,2.525,95.581,0.0,0.0,0.253,0.0,0.0,6450967.0,6258236.0,0.0,0.0,2445.0,7276.0
1.398,1.652,96.442,0.0,0.0,0.508,0.0,0.0,6528776.0,6336428.0,0.0,0.0,2457.0,7127.0
1.401,1.656,96.306,0.127,0.0,0.510,0.0,57344.0,6443639.0,6253955.0,0.0,0.0,2454.0,7159.0
1.145,2.163,96.183,0.0,0.0,0.509,0.0,0.0,6533118.0,6340811.0,0.0,0.0,2555.0,7422.0
1.271,1.525,96.442,0.0,0.0,0.762,0.0,0.0,6394331.0,6206021.0,0.0,0.0,2388.0,7077.0
1.267,2.535,95.944,0.0,0.0,0.253,0.0,0.0,6462927.0,6271171.0,0.0,0.0,2467.0,7212.0
1.264,2.276,95.702,0.0,0.0,0.759,0.0,73728.0,6389725.0,6201720.0,0.0,0.0,2488.0,7308.0
1.525,1.652,96.315,0.0,0.0,0.508,0.0,0.0,6440540.0,6249606.0,0.0,0.0,2398.0,7187.0
1.396,1.777,96.447,0.0,0.0,0.381,0.0,0.0,6397446.0,6210326.0,0.0,0.0,2389.0,7164.0
1.641,2.273,95.707,0.0,0.0,0.379,0.0,0.0,6485236.0,6292837.0,0.0,0.0,2437.0,7200.0
1.269,2.030,96.193,0.0,0.0,0.508,0.0,0.0,6483899.0,6292871.0,0.0,0.0,2393.0,7126.0
1.146,2.038,96.561,0.0,0.0,0.255,0.0,4096.0,6327173.0,6140843.0,0.0,0.0,2414.0,7118.0
1.652,2.287,95.934,0.0,0.0,0.127,0.0,0.0,6521494.0,6327589.0,0.0,0.0,2444.0,7300.0
