1         Threads
32        Connections per thread
70        Seconds


ALL STATS
========================================================================
Type        Ops/sec     Hits/sec   Misses/sec      Latency       KB/sec 
------------------------------------------------------------------------
Sets        1938.54          ---          ---     16.50200      7824.00 
Gets           0.00         0.00         0.00      0.00000         0.00 
Waits          0.00          ---          ---      0.00000          --- 
Totals      1938.54         0.00         0.00     16.50200      7824.00 


Request Latency Distribution
Type     <= msec         Percent
------------------------------------------------------------------------
SET       3.400         0.00
SET       3.500         0.00
SET       3.600         0.00
SET       4.000         0.00
SET       4.200         0.00
SET       4.300         0.01
SET       4.600         0.01
SET       4.700         0.01
SET       4.800         0.01
SET       4.900         0.01
SET       5.100         0.01
SET       5.900         0.01
SET       6.000         0.02
SET       6.100         0.02
SET       6.200         0.02
SET       6.300         0.02
SET       6.400         0.03
SET       6.500         0.03
SET       6.600         0.04
SET       6.700         0.04
SET       6.800         0.05
SET       6.900         0.06
SET       7.000         0.06
SET       7.100         0.07
SET       7.200         0.07
SET       7.300         0.08
SET       7.400         0.08
SET       7.500         0.09
SET       7.600         0.09
SET       7.700         0.10
SET       7.800         0.11
SET       7.900         0.12
SET       8.000         0.12
SET       8.100         0.14
SET       8.200         0.14
SET       8.300         0.15
SET       8.400         0.16
SET       8.500         0.17
SET       8.600         0.19
SET       8.700         0.19
SET       8.800         0.20
SET       8.900         0.21
SET       9.000         0.22
SET       9.100         0.24
SET       9.200         0.25
SET       9.300         0.27
SET       9.400         0.30
SET       9.500         0.32
SET       9.600         0.35
SET       9.700         0.36
SET       9.800         0.39
SET       9.900         0.43
SET      10.000         0.80
SET      11.000         3.41
SET      12.000        11.35
SET      13.000        23.24
SET      14.000        35.81
SET      15.000        46.27
SET      16.000        55.51
SET      17.000        64.24
SET      18.000        73.06
SET      19.000        80.97
SET      20.000        87.13
SET      21.000        91.63
SET      22.000        94.74
SET      23.000        96.38
SET      24.000        97.28
SET      25.000        97.94
SET      26.000        98.37
SET      27.000        98.76
SET      28.000        99.01
SET      29.000        99.19
SET      30.000        99.41
SET      31.000        99.58
SET      32.000        99.66
SET      33.000        99.72
SET      34.000        99.77
SET      35.000        99.81
SET      36.000        99.84
SET      37.000        99.86
SET      38.000        99.88
SET      39.000        99.90
SET      40.000        99.92
SET      41.000        99.93
SET      42.000        99.93
SET      43.000        99.94
SET      44.000        99.95
SET      45.000        99.95
SET      47.000        99.96
SET      48.000        99.96
SET      49.000        99.96
SET      50.000        99.96
SET      51.000        99.96
SET      52.000        99.97
SET      53.000        99.97
SET      54.000        99.97
SET      55.000        99.97
SET      56.000        99.97
SET      57.000        99.97
SET      58.000        99.97
SET      59.000        99.98
SET      60.000        99.98
SET     100.000        99.98
SET     110.000        99.98
SET     120.000        99.98
SET     130.000        99.98
SET     160.000        99.98
SET     170.000        99.99
SET     190.000        99.99
SET     200.000        99.99
SET     210.000       100.00
SET     220.000       100.00
---
---
