"Dstat 0.7.2 CSV output"
"Author:","Dag Wieers <dag@wieers.com>",,,,"URL:","http://dag.wieers.com/home-made/dstat/"
"Host:","Middleware2",,,,"User:","maki"
"Cmdline:","dstat --output dstat.csv 1 70",,,,"Date:","20 Nov 2018 07:58:07 UTC"

"total cpu usage",,,,,,"dsk/total",,"net/total",,"paging",,"system",
"usr","sys","idl","wai","hiq","siq","read","writ","recv","send","in","out","int","csw"
1.989,1.760,95.694,0.094,0.0,0.463,8669.313,182157.011,0.0,0.0,0.0,0.0,1823.090,5315.717
24.479,4.297,69.922,0.0,0.0,1.302,0.0,0.0,5175861.0,5034900.0,0.0,0.0,1829.0,5626.0
12.963,1.587,84.259,0.0,0.0,1.190,0.0,0.0,5942722.0,5894986.0,0.0,0.0,775.0,3291.0
5.364,1.788,91.699,0.0,0.0,1.149,0.0,0.0,6098490.0,5997433.0,0.0,0.0,789.0,3419.0
2.381,2.506,94.737,0.0,0.0,0.376,0.0,0.0,5877901.0,5786065.0,0.0,0.0,810.0,2973.0
9.067,1.166,88.601,0.0,0.0,1.166,0.0,0.0,6154598.0,6039687.0,0.0,0.0,1043.0,3176.0
3.405,2.270,93.443,0.0,0.0,0.883,0.0,0.0,6156188.0,6052555.0,0.0,0.0,1162.0,3351.0
1.023,1.535,96.164,0.0,0.0,1.279,0.0,0.0,6052736.0,5960471.0,0.0,0.0,809.0,3220.0
1.004,1.757,96.110,0.0,0.0,1.129,0.0,0.0,6222726.0,6122730.0,0.0,0.0,720.0,3191.0
1.015,1.015,96.827,0.0,0.0,1.142,0.0,0.0,6288280.0,6184402.0,0.0,0.0,746.0,3266.0
1.889,1.511,95.466,0.0,0.0,1.134,0.0,0.0,6239908.0,6131278.0,0.0,0.0,763.0,3300.0
1.013,1.392,96.709,0.0,0.0,0.886,0.0,0.0,6006334.0,5917677.0,0.0,0.0,738.0,3162.0
1.018,0.891,97.455,0.0,0.0,0.636,0.0,0.0,6081912.0,5984728.0,0.0,0.0,760.0,3250.0
1.627,1.752,95.745,0.0,0.0,0.876,0.0,0.0,6179326.0,6081572.0,0.0,0.0,770.0,3356.0
1.759,2.010,95.603,0.0,0.0,0.628,0.0,0.0,6386435.0,6280984.0,0.0,0.0,842.0,3504.0
1.003,1.880,95.739,0.0,0.0,1.378,0.0,0.0,6743438.0,6622900.0,0.0,0.0,738.0,3452.0
0.761,1.142,96.701,0.0,0.0,1.396,0.0,20480.0,6326847.0,6222936.0,0.0,0.0,853.0,3487.0
0.756,2.015,96.222,0.0,0.0,1.008,0.0,0.0,6118226.0,6021036.0,0.0,0.0,736.0,3275.0
1.261,1.513,95.839,0.0,0.0,1.387,0.0,0.0,6515107.0,6411688.0,0.0,0.0,831.0,3503.0
2.305,1.152,95.519,0.256,0.0,0.768,0.0,73728.0,6116237.0,6015473.0,0.0,0.0,932.0,3247.0
1.020,1.020,97.194,0.0,0.0,0.765,0.0,0.0,6170440.0,6076822.0,0.0,0.0,1033.0,3082.0
1.258,2.013,95.723,0.0,0.0,1.006,0.0,950272.0,5982176.0,5884390.0,0.0,0.0,1086.0,3230.0
1.139,1.519,96.835,0.0,0.0,0.506,0.0,0.0,6108868.0,6009560.0,0.0,0.0,888.0,3153.0
2.408,1.394,95.184,0.0,0.0,1.014,0.0,0.0,6027132.0,5936156.0,0.0,0.0,840.0,3016.0
1.509,1.635,96.226,0.0,0.0,0.629,0.0,0.0,6033134.0,5940093.0,0.0,0.0,944.0,3231.0
0.759,1.643,96.713,0.0,0.0,0.885,0.0,0.0,6070487.0,5974887.0,0.0,0.0,725.0,3223.0
0.506,1.899,95.823,0.0,0.0,1.772,0.0,0.0,5977617.0,5878447.0,0.0,0.0,811.0,3334.0
1.504,1.378,95.865,0.0,0.0,1.253,0.0,0.0,5991261.0,5900178.0,0.0,0.0,760.0,3226.0
0.761,1.650,97.081,0.0,0.0,0.508,0.0,0.0,6211965.0,6108992.0,0.0,0.0,736.0,3277.0
1.017,1.017,97.332,0.0,0.0,0.635,0.0,0.0,6134570.0,6039925.0,0.0,0.0,747.0,3330.0
0.891,1.145,96.819,0.0,0.0,1.145,0.0,0.0,6502719.0,6387005.0,0.0,0.0,781.0,3461.0
1.015,1.523,96.320,0.0,0.0,1.142,0.0,0.0,6553319.0,6438179.0,0.0,0.0,815.0,3534.0
0.886,1.392,96.582,0.0,0.0,1.139,0.0,16384.0,6295163.0,6187873.0,0.0,0.0,828.0,3342.0
1.256,1.633,95.980,0.0,0.0,1.131,0.0,0.0,6122467.0,6024415.0,0.0,0.0,666.0,3255.0
1.015,1.777,96.574,0.0,0.0,0.635,0.0,0.0,6213895.0,6098191.0,0.0,0.0,801.0,3451.0
1.391,1.517,96.460,0.0,0.0,0.632,0.0,0.0,6195937.0,6102887.0,0.0,0.0,790.0,3408.0
1.256,2.261,95.729,0.0,0.0,0.754,0.0,0.0,6094396.0,5994856.0,0.0,0.0,808.0,3356.0
1.141,1.141,96.831,0.0,0.0,0.887,0.0,0.0,5855348.0,5762896.0,0.0,0.0,784.0,3238.0
1.010,1.641,96.338,0.0,0.0,1.010,0.0,0.0,6416549.0,6310855.0,0.0,0.0,1063.0,3258.0
1.022,1.022,97.573,0.0,0.0,0.383,0.0,0.0,6022527.0,5925369.0,0.0,0.0,979.0,3049.0
0.886,1.266,96.835,0.0,0.0,1.013,0.0,0.0,6410158.0,6295773.0,0.0,0.0,770.0,2997.0
0.636,1.272,97.074,0.0,0.0,1.018,0.0,0.0,6096967.0,6002366.0,0.0,0.0,790.0,3318.0
1.136,1.515,96.717,0.0,0.0,0.631,0.0,0.0,6157932.0,6058842.0,0.0,0.0,683.0,3244.0
0.638,1.148,97.577,0.0,0.0,0.638,0.0,0.0,6222450.0,6120934.0,0.0,0.0,758.0,3303.0
0.884,1.894,96.591,0.0,0.0,0.631,0.0,0.0,6160438.0,6054034.0,0.0,0.0,727.0,3282.0
1.391,1.517,96.460,0.0,0.0,0.632,0.0,0.0,6071270.0,5973644.0,0.0,0.0,764.0,3339.0
0.884,1.768,96.591,0.0,0.0,0.758,0.0,0.0,6134527.0,6038682.0,0.0,0.0,680.0,3261.0
0.764,1.274,97.070,0.0,0.0,0.892,0.0,0.0,6318011.0,6213814.0,0.0,0.0,745.0,3381.0
0.765,0.893,97.321,0.0,0.0,1.020,0.0,0.0,6177340.0,6075655.0,0.0,0.0,700.0,3278.0
1.142,1.269,96.954,0.127,0.0,0.508,0.0,24576.0,5983497.0,5886097.0,0.0,0.0,751.0,3223.0
1.019,1.274,97.197,0.0,0.0,0.510,0.0,0.0,6352454.0,6249845.0,0.0,0.0,775.0,3451.0
1.529,1.401,95.669,0.0,0.0,1.401,0.0,0.0,6166529.0,6067727.0,0.0,0.0,808.0,3377.0
0.893,1.020,97.194,0.0,0.0,0.893,0.0,1540096.0,6157359.0,6061594.0,0.0,0.0,801.0,3368.0
1.011,0.759,96.966,0.0,0.0,1.264,0.0,0.0,6055494.0,5960297.0,0.0,0.0,718.0,3145.0
1.015,1.142,96.954,0.0,0.0,0.888,0.0,0.0,5947849.0,5857569.0,0.0,0.0,772.0,3236.0
1.264,1.138,96.713,0.0,0.0,0.885,0.0,0.0,6055389.0,5958818.0,0.0,0.0,712.0,3314.0
1.141,1.774,96.578,0.0,0.0,0.507,0.0,0.0,6198230.0,6093241.0,0.0,0.0,660.0,3311.0
0.382,1.019,97.580,0.0,0.0,1.019,0.0,0.0,5979441.0,5884689.0,0.0,0.0,714.0,3321.0
0.889,1.017,96.950,0.0,0.0,1.144,0.0,0.0,6262736.0,6159611.0,0.0,0.0,604.0,3339.0
1.142,1.904,96.320,0.0,0.0,0.635,0.0,0.0,6070425.0,5972967.0,0.0,0.0,746.0,3277.0
0.758,1.641,96.717,0.0,0.0,0.884,0.0,0.0,6138948.0,6044008.0,0.0,0.0,726.0,3212.0
1.024,1.152,97.183,0.0,0.0,0.640,0.0,0.0,6037170.0,5942515.0,0.0,0.0,796.0,3480.0
0.759,1.139,96.835,0.0,0.0,1.266,0.0,0.0,6082277.0,5985917.0,0.0,0.0,697.0,3298.0
0.504,1.513,96.469,0.0,0.0,1.513,0.0,0.0,6315105.0,6210817.0,0.0,0.0,674.0,3273.0
1.015,1.269,96.701,0.0,0.0,1.015,0.0,0.0,6170058.0,6070229.0,0.0,0.0,764.0,3348.0
0.893,1.276,97.321,0.0,0.0,0.510,0.0,0.0,6244863.0,6145063.0,0.0,0.0,823.0,3517.0
0.638,1.403,97.449,0.0,0.0,0.510,0.0,0.0,6032710.0,5936373.0,0.0,0.0,798.0,3307.0
1.373,2.247,95.131,0.0,0.0,1.248,0.0,8192.0,6495720.0,6384733.0,0.0,0.0,810.0,3500.0
0.761,1.396,96.954,0.0,0.0,0.888,0.0,0.0,6053900.0,5959859.0,0.0,0.0,746.0,3259.0
1.013,1.013,96.835,0.0,0.0,1.139,0.0,0.0,6052162.0,5955697.0,0.0,0.0,694.0,3181.0
1.010,1.389,96.465,0.0,0.0,1.136,0.0,0.0,6234879.0,6133439.0,0.0,0.0,811.0,3291.0
