1         Threads
22        Connections per thread
70        Seconds


ALL STATS
========================================================================
Type        Ops/sec     Hits/sec   Misses/sec      Latency       KB/sec 
------------------------------------------------------------------------
Sets           0.00          ---          ---      0.00000         0.00 
Gets        2934.82      2934.82         0.00      7.49100     11887.68 
Waits          0.00          ---          ---      0.00000          --- 
Totals      2934.82      2934.82         0.00      7.49100     11887.68 


Request Latency Distribution
Type     <= msec         Percent
------------------------------------------------------------------------
---
GET       0.290         0.00
GET       0.300         0.00
GET       0.360         0.00
GET       0.370         0.00
GET       0.380         0.00
GET       0.390         0.00
GET       0.410         0.01
GET       0.420         0.01
GET       0.430         0.01
GET       0.440         0.01
GET       0.450         0.02
GET       0.460         0.03
GET       0.470         0.04
GET       0.480         0.04
GET       0.490         0.06
GET       0.500         0.08
GET       0.510         0.10
GET       0.520         0.12
GET       0.530         0.15
GET       0.540         0.18
GET       0.550         0.22
GET       0.560         0.27
GET       0.570         0.32
GET       0.580         0.39
GET       0.590         0.47
GET       0.600         0.56
GET       0.610         0.65
GET       0.620         0.75
GET       0.630         0.88
GET       0.640         1.03
GET       0.650         1.17
GET       0.660         1.31
GET       0.670         1.49
GET       0.680         1.68
GET       0.690         1.88
GET       0.700         2.14
GET       0.710         2.38
GET       0.720         2.65
GET       0.730         2.93
GET       0.740         3.23
GET       0.750         3.58
GET       0.760         3.92
GET       0.770         4.27
GET       0.780         4.62
GET       0.790         5.02
GET       0.800         5.42
GET       0.810         5.85
GET       0.820         6.30
GET       0.830         6.74
GET       0.840         7.23
GET       0.850         7.73
GET       0.860         8.21
GET       0.870         8.69
GET       0.880         9.23
GET       0.890         9.77
GET       0.900        10.34
GET       0.910        10.94
GET       0.920        11.51
GET       0.930        12.11
GET       0.940        12.72
GET       0.950        13.38
GET       0.960        14.00
GET       0.970        14.65
GET       0.980        15.33
GET       0.990        15.98
GET       1.000        19.94
GET       1.100        26.90
GET       1.200        32.81
GET       1.300        37.19
GET       1.400        40.37
GET       1.500        42.77
GET       1.600        44.52
GET       1.700        45.85
GET       1.800        46.77
GET       1.900        47.43
GET       2.000        47.99
GET       2.100        48.36
GET       2.200        48.65
GET       2.300        48.89
GET       2.400        49.07
GET       2.500        49.24
GET       2.600        49.41
GET       2.700        49.54
GET       2.800        49.69
GET       2.900        49.84
GET       3.000        49.98
GET       3.100        50.09
GET       3.200        50.21
GET       3.300        50.37
GET       3.400        50.53
GET       3.500        50.65
GET       3.600        50.76
GET       3.700        50.90
GET       3.800        51.02
GET       3.900        51.11
GET       4.000        51.18
GET       4.100        51.27
GET       4.200        51.32
GET       4.300        51.37
GET       4.400        51.40
GET       4.500        51.43
GET       4.600        51.47
GET       4.700        51.52
GET       4.800        51.57
GET       4.900        51.61
GET       5.000        51.67
GET       5.100        51.72
GET       5.200        51.75
GET       5.300        51.79
GET       5.400        51.81
GET       5.500        51.84
GET       5.600        51.86
GET       5.700        51.88
GET       5.800        51.88
GET       5.900        51.89
GET       6.000        51.90
GET       6.100        51.91
GET       6.200        51.93
GET       6.300        51.95
GET       6.400        51.97
GET       6.500        51.97
GET       6.600        51.99
GET       6.700        52.00
GET       6.800        52.01
GET       6.900        52.02
GET       7.000        52.03
GET       7.100        52.04
GET       7.200        52.05
GET       7.300        52.06
GET       7.400        52.08
GET       7.500        52.08
GET       7.600        52.09
GET       7.700        52.12
GET       7.800        52.14
GET       7.900        52.16
GET       8.000        52.18
GET       8.100        52.19
GET       8.200        52.20
GET       8.300        52.22
GET       8.400        52.23
GET       8.500        52.24
GET       8.600        52.25
GET       8.700        52.26
GET       8.800        52.27
GET       8.900        52.27
GET       9.000        52.29
GET       9.100        52.31
GET       9.200        52.32
GET       9.300        52.33
GET       9.400        52.35
GET       9.500        52.37
GET       9.600        52.38
GET       9.700        52.40
GET       9.800        52.43
GET       9.900        52.45
GET      10.000        52.68
GET      11.000        53.41
GET      12.000        54.85
GET      13.000        57.92
GET      14.000        81.86
GET      15.000        98.98
GET      16.000        99.60
GET      17.000        99.77
GET      18.000        99.87
GET      19.000        99.92
GET      20.000        99.92
GET      21.000        99.93
GET      22.000        99.94
GET      24.000        99.94
GET      26.000        99.94
GET      27.000        99.96
GET      28.000        99.97
GET      29.000        99.99
GET      30.000       100.00
GET      32.000       100.00
GET      33.000       100.00
---
