2         Threads
64        Connections per thread
70        Seconds


ALL STATS
========================================================================
Type        Ops/sec     Hits/sec   Misses/sec      Latency       KB/sec 
------------------------------------------------------------------------
Sets           0.00          ---          ---      0.00000         0.00 
Gets         985.41       985.41         0.00    129.89200      3991.53 
Waits          0.00          ---          ---      0.00000          --- 
Totals       985.41       985.41         0.00    129.89200      3991.53 


Request Latency Distribution
Type     <= msec         Percent
------------------------------------------------------------------------
---
GET       1.000         0.01
GET       1.100         0.02
GET       1.200         0.03
GET       1.300         0.06
GET       1.400         0.11
GET       1.500         0.18
GET       1.600         0.24
GET       1.700         0.32
GET       1.800         0.37
GET       1.900         0.42
GET       2.000         0.46
GET       2.100         0.48
GET       2.200         0.52
GET       2.300         0.54
GET       2.400         0.56
GET       2.500         0.57
GET       2.600         0.59
GET       2.700         0.60
GET       2.800         0.61
GET       2.900         0.62
GET       3.000         0.63
GET       3.100         0.64
GET       3.200         0.65
GET       3.300         0.66
GET       3.400         0.66
GET       3.500         0.67
GET       3.600         0.67
GET       3.700         0.67
GET       3.800         0.68
GET       3.900         0.68
GET       4.100         0.69
GET       4.500         0.69
GET       4.700         0.69
GET       4.800         0.69
GET       4.900         0.70
GET       5.000         0.70
GET       5.100         0.71
GET       5.300         0.71
GET       5.400         0.71
GET       5.800         0.71
GET       5.900         0.71
GET       6.000         0.72
GET       6.200         0.72
GET       6.300         0.72
GET       6.400         0.72
GET       6.500         0.73
GET       6.600         0.73
GET       6.700         0.74
GET       6.800         0.75
GET       6.900         0.75
GET       7.000         0.75
GET       7.100         0.76
GET       7.200         0.77
GET       7.300         0.77
GET       7.400         0.78
GET       7.500         0.78
GET       7.700         0.79
GET       7.800         0.79
GET       8.000         0.79
GET       8.100         0.79
GET       8.200         0.79
GET       8.300         0.80
GET       8.400         0.80
GET       8.500         0.80
GET       8.600         0.81
GET       8.800         0.82
GET       8.900         0.82
GET       9.000         0.82
GET       9.100         0.82
GET       9.200         0.82
GET       9.300         0.83
GET       9.500         0.83
GET       9.800         0.83
GET      11.000         0.83
GET      13.000         0.84
GET      14.000         0.84
GET      16.000         0.84
GET      32.000         0.84
GET      74.000         0.85
GET      75.000         0.85
GET      77.000         0.85
GET      78.000         0.85
GET      80.000         0.86
GET      82.000         0.86
GET      83.000         0.87
GET      84.000         0.87
GET      85.000         0.87
GET      86.000         0.89
GET      87.000         0.90
GET      88.000         0.92
GET      89.000         0.93
GET      90.000         0.94
GET      91.000         0.95
GET      92.000         0.96
GET      93.000         0.97
GET      94.000         0.98
GET      95.000         0.99
GET      96.000         1.01
GET      97.000         1.03
GET      98.000         1.06
GET      99.000         1.08
GET     100.000         1.12
GET     110.000         2.33
GET     120.000         6.56
GET     130.000        72.58
GET     140.000        99.46
GET     150.000        99.80
GET     160.000        99.82
GET     270.000        99.82
GET     280.000        99.83
GET     290.000        99.84
GET     300.000        99.86
GET     310.000        99.87
GET     320.000        99.88
GET     330.000        99.89
GET     340.000        99.89
GET     350.000        99.89
GET     360.000        99.91
GET     370.000        99.92
GET     380.000        99.93
GET     390.000        99.93
GET     400.000        99.94
GET     410.000        99.94
GET     420.000        99.97
GET     430.000        99.97
GET     540.000        99.97
GET     550.000        99.98
GET     560.000        99.99
GET     570.000       100.00
GET     580.000       100.00
---
