2         Threads
8         Connections per thread
70        Seconds


ALL STATS
========================================================================
Type        Ops/sec     Hits/sec   Misses/sec      Latency       KB/sec 
------------------------------------------------------------------------
Sets           0.00          ---          ---      0.00000         0.00 
Gets         981.38       981.38         0.00     16.29400      3975.16 
Waits          0.00          ---          ---      0.00000          --- 
Totals       981.38       981.38         0.00     16.29400      3975.16 


Request Latency Distribution
Type     <= msec         Percent
------------------------------------------------------------------------
---
GET       1.300         0.00
GET       1.400         0.01
GET       1.500         0.02
GET       1.600         0.04
GET       1.700         0.06
GET       1.800         0.08
GET       1.900         0.11
GET       2.000         0.13
GET       2.100         0.16
GET       2.200         0.19
GET       2.300         0.22
GET       2.400         0.24
GET       2.500         0.27
GET       2.600         0.30
GET       2.700         0.32
GET       2.800         0.35
GET       2.900         0.37
GET       3.000         0.40
GET       3.100         0.43
GET       3.200         0.44
GET       3.300         0.46
GET       3.400         0.48
GET       3.500         0.51
GET       3.600         0.52
GET       3.700         0.53
GET       3.800         0.53
GET       3.900         0.54
GET       4.000         0.56
GET       4.100         0.58
GET       4.200         0.59
GET       4.300         0.60
GET       4.400         0.60
GET       4.500         0.61
GET       4.600         0.62
GET       4.700         0.63
GET       4.800         0.64
GET       4.900         0.64
GET       5.000         0.65
GET       5.100         0.66
GET       5.200         0.67
GET       5.300         0.67
GET       5.400         0.68
GET       5.500         0.69
GET       5.600         0.69
GET       5.700         0.70
GET       5.800         0.70
GET       5.900         0.71
GET       6.000         0.72
GET       6.100         0.72
GET       6.200         0.72
GET       6.400         0.72
GET       6.500         0.72
GET       6.600         0.73
GET       6.700         0.73
GET       6.800         0.74
GET       6.900         0.74
GET       7.000         0.74
GET       7.100         0.75
GET       7.200         0.76
GET       7.300         0.77
GET       7.400         0.78
GET       7.500         0.78
GET       7.600         0.80
GET       7.700         0.81
GET       7.800         0.83
GET       7.900         0.83
GET       8.000         0.84
GET       8.100         0.85
GET       8.200         0.86
GET       8.300         0.87
GET       8.400         0.88
GET       8.500         0.89
GET       8.600         0.90
GET       8.700         0.91
GET       8.800         0.92
GET       8.900         0.94
GET       9.000         0.96
GET       9.100         0.99
GET       9.200         1.00
GET       9.300         1.02
GET       9.400         1.03
GET       9.500         1.06
GET       9.600         1.08
GET       9.700         1.10
GET       9.800         1.12
GET       9.900         1.14
GET      10.000         1.29
GET      11.000         1.62
GET      12.000         2.20
GET      13.000         3.29
GET      14.000         6.56
GET      15.000        39.30
GET      16.000        87.48
GET      17.000        93.36
GET      18.000        94.54
GET      19.000        95.13
GET      20.000        95.51
GET      21.000        95.71
GET      22.000        95.89
GET      23.000        95.97
GET      24.000        96.02
GET      25.000        96.06
GET      26.000        96.12
GET      27.000        96.18
GET      28.000        96.26
GET      29.000        96.44
GET      30.000        97.11
GET      31.000        98.75
GET      32.000        99.20
GET      33.000        99.25
GET      34.000        99.28
GET      35.000        99.29
GET      36.000        99.30
GET      37.000        99.31
GET      38.000        99.31
GET      40.000        99.31
GET      41.000        99.32
GET      42.000        99.32
GET      43.000        99.33
GET      44.000        99.33
GET      45.000        99.38
GET      46.000        99.56
GET      47.000        99.82
GET      48.000        99.84
GET      49.000        99.84
GET      50.000        99.84
GET      51.000        99.85
GET      52.000        99.85
GET      55.000        99.85
GET      56.000        99.85
GET      59.000        99.85
GET      60.000        99.86
GET      61.000        99.87
GET      62.000        99.92
GET      63.000        99.94
GET      64.000        99.94
GET      66.000        99.94
GET      74.000        99.94
GET      76.000        99.95
GET      77.000        99.95
GET      78.000        99.97
GET      79.000        99.97
GET      91.000        99.97
GET      93.000        99.98
GET     190.000        99.98
GET     200.000        99.98
GET     210.000       100.00
GET     220.000       100.00
GET     230.000       100.00
---
