2         Threads
14        Connections per thread
70        Seconds


ALL STATS
========================================================================
Type        Ops/sec     Hits/sec   Misses/sec      Latency       KB/sec 
------------------------------------------------------------------------
Sets           0.00          ---          ---      0.00000         0.00 
Gets         962.11       962.11         0.00     28.68200      3897.10 
Waits          0.00          ---          ---      0.00000          --- 
Totals       962.11       962.11         0.00     28.68200      3897.10 


Request Latency Distribution
Type     <= msec         Percent
------------------------------------------------------------------------
---
GET       7.500         0.00
GET       7.600         0.00
GET       7.800         0.00
GET       8.500         0.01
GET       8.700         0.01
GET       8.900         0.01
GET       9.300         0.01
GET       9.400         0.01
GET       9.500         0.02
GET       9.900         0.02
GET      10.000         0.02
GET      11.000         0.05
GET      12.000         0.08
GET      13.000         0.17
GET      14.000         0.36
GET      15.000         0.63
GET      16.000         0.81
GET      17.000         0.97
GET      18.000         1.19
GET      19.000         1.84
GET      20.000         4.66
GET      21.000         8.78
GET      22.000        12.35
GET      23.000        15.15
GET      24.000        17.16
GET      25.000        18.84
GET      26.000        20.89
GET      27.000        24.26
GET      28.000        30.61
GET      29.000        44.60
GET      30.000        72.46
GET      31.000        87.84
GET      32.000        93.41
GET      33.000        95.94
GET      34.000        97.33
GET      35.000        98.12
GET      36.000        98.61
GET      37.000        98.88
GET      38.000        99.05
GET      39.000        99.17
GET      40.000        99.22
GET      41.000        99.30
GET      42.000        99.37
GET      43.000        99.44
GET      44.000        99.54
GET      45.000        99.71
GET      46.000        99.82
GET      47.000        99.87
GET      48.000        99.89
GET      49.000        99.90
GET      50.000        99.90
GET      52.000        99.90
GET      53.000        99.91
GET      54.000        99.91
GET      55.000        99.92
GET      56.000        99.93
GET      57.000        99.94
GET      60.000        99.94
GET      61.000        99.95
GET      62.000        99.95
GET      63.000        99.96
GET      65.000        99.96
GET     210.000        99.97
GET     220.000        99.98
GET     230.000        99.98
GET     240.000        99.99
GET     250.000       100.00
GET     260.000       100.00
---
