2         Threads
1         Connections per thread
70        Seconds


ALL STATS
========================================================================
Type        Ops/sec     Hits/sec   Misses/sec      Latency       KB/sec 
------------------------------------------------------------------------
Sets           0.00          ---          ---      0.00000         0.00 
Gets         976.41       976.41         0.00      2.03700      3955.00 
Waits          0.00          ---          ---      0.00000          --- 
Totals       976.41       976.41         0.00      2.03700      3955.00 


Request Latency Distribution
Type     <= msec         Percent
------------------------------------------------------------------------
---
GET       0.750         0.00
GET       0.820         0.01
GET       0.830         0.01
GET       0.840         0.02
GET       0.850         0.03
GET       0.860         0.05
GET       0.870         0.07
GET       0.880         0.08
GET       0.890         0.10
GET       0.900         0.14
GET       0.910         0.17
GET       0.920         0.20
GET       0.930         0.26
GET       0.940         0.31
GET       0.950         0.38
GET       0.960         0.43
GET       0.970         0.54
GET       0.980         0.64
GET       0.990         0.73
GET       1.000         1.63
GET       1.100         5.21
GET       1.200        11.56
GET       1.300        20.16
GET       1.400        29.91
GET       1.500        39.39
GET       1.600        47.85
GET       1.700        55.27
GET       1.800        61.49
GET       1.900        66.55
GET       2.000        70.69
GET       2.100        74.00
GET       2.200        76.86
GET       2.300        79.34
GET       2.400        81.41
GET       2.500        83.04
GET       2.600        84.65
GET       2.700        85.86
GET       2.800        87.03
GET       2.900        88.01
GET       3.000        88.82
GET       3.100        89.58
GET       3.200        90.23
GET       3.300        90.84
GET       3.400        91.39
GET       3.500        91.94
GET       3.600        92.41
GET       3.700        92.90
GET       3.800        93.29
GET       3.900        93.67
GET       4.000        94.07
GET       4.100        94.40
GET       4.200        94.72
GET       4.300        94.98
GET       4.400        95.26
GET       4.500        95.54
GET       4.600        95.78
GET       4.700        96.05
GET       4.800        96.29
GET       4.900        96.50
GET       5.000        96.69
GET       5.100        96.87
GET       5.200        97.06
GET       5.300        97.24
GET       5.400        97.43
GET       5.500        97.60
GET       5.600        97.74
GET       5.700        97.86
GET       5.800        98.03
GET       5.900        98.17
GET       6.000        98.29
GET       6.100        98.41
GET       6.200        98.53
GET       6.300        98.63
GET       6.400        98.72
GET       6.500        98.82
GET       6.600        98.91
GET       6.700        99.00
GET       6.800        99.08
GET       6.900        99.15
GET       7.000        99.21
GET       7.100        99.27
GET       7.200        99.31
GET       7.300        99.36
GET       7.400        99.40
GET       7.500        99.45
GET       7.600        99.49
GET       7.700        99.52
GET       7.800        99.56
GET       7.900        99.58
GET       8.000        99.61
GET       8.100        99.64
GET       8.200        99.65
GET       8.300        99.67
GET       8.400        99.69
GET       8.500        99.70
GET       8.600        99.71
GET       8.700        99.73
GET       8.800        99.75
GET       8.900        99.76
GET       9.000        99.76
GET       9.100        99.78
GET       9.200        99.79
GET       9.300        99.81
GET       9.400        99.82
GET       9.500        99.82
GET       9.600        99.83
GET       9.700        99.84
GET       9.800        99.86
GET       9.900        99.87
GET      10.000        99.89
GET      11.000        99.92
GET      12.000        99.95
GET      13.000        99.96
GET      14.000        99.96
GET      15.000        99.97
GET      16.000        99.97
GET      17.000        99.98
GET      18.000        99.99
GET      19.000        99.99
GET      20.000        99.99
GET      21.000        99.99
GET      22.000        99.99
GET      23.000       100.00
GET     140.000       100.00
---
