1         Threads
2         Connections per thread
70        Seconds


ALL STATS
========================================================================
Type        Ops/sec     Hits/sec   Misses/sec      Latency       KB/sec 
------------------------------------------------------------------------
Sets         414.71          ---          ---      2.34100      1673.77 
Gets         414.71      1244.12         0.00      2.46400      5031.30 
Waits          0.00          ---          ---      0.00000          --- 
Totals       829.42      1244.12         0.00      2.40300      6705.07 


Request Latency Distribution
Type     <= msec         Percent
------------------------------------------------------------------------
SET       1.100         0.08
SET       1.200         0.76
SET       1.300         3.32
SET       1.400         8.69
SET       1.500        17.22
SET       1.600        26.69
SET       1.700        36.26
SET       1.800        45.09
SET       1.900        52.64
SET       2.000        58.90
SET       2.100        64.23
SET       2.200        68.47
SET       2.300        72.04
SET       2.400        74.90
SET       2.500        77.52
SET       2.600        79.80
SET       2.700        81.64
SET       2.800        83.23
SET       2.900        84.51
SET       3.000        85.77
SET       3.100        86.82
SET       3.200        87.65
SET       3.300        88.44
SET       3.400        89.18
SET       3.500        89.82
SET       3.600        90.40
SET       3.700        90.91
SET       3.800        91.36
SET       3.900        91.83
SET       4.000        92.26
SET       4.100        92.69
SET       4.200        93.08
SET       4.300        93.42
SET       4.400        93.75
SET       4.500        94.03
SET       4.600        94.28
SET       4.700        94.53
SET       4.800        94.79
SET       4.900        95.02
SET       5.000        95.21
SET       5.100        95.45
SET       5.200        95.60
SET       5.300        95.74
SET       5.400        95.88
SET       5.500        96.02
SET       5.600        96.17
SET       5.700        96.31
SET       5.800        96.49
SET       5.900        96.64
SET       6.000        96.79
SET       6.100        96.91
SET       6.200        97.06
SET       6.300        97.15
SET       6.400        97.27
SET       6.500        97.39
SET       6.600        97.50
SET       6.700        97.60
SET       6.800        97.72
SET       6.900        97.80
SET       7.000        97.91
SET       7.100        98.00
SET       7.200        98.12
SET       7.300        98.21
SET       7.400        98.29
SET       7.500        98.37
SET       7.600        98.49
SET       7.700        98.57
SET       7.800        98.66
SET       7.900        98.75
SET       8.000        98.80
SET       8.100        98.88
SET       8.200        98.93
SET       8.300        98.99
SET       8.400        99.05
SET       8.500        99.10
SET       8.600        99.15
SET       8.700        99.20
SET       8.800        99.23
SET       8.900        99.27
SET       9.000        99.30
SET       9.100        99.33
SET       9.200        99.36
SET       9.300        99.40
SET       9.400        99.42
SET       9.500        99.46
SET       9.600        99.50
SET       9.700        99.53
SET       9.800        99.55
SET       9.900        99.57
SET      10.000        99.69
SET      11.000        99.81
SET      12.000        99.91
SET      13.000        99.94
SET      14.000        99.96
SET      15.000        99.96
SET      16.000        99.97
SET      17.000        99.98
SET      19.000        99.98
SET      20.000        99.98
SET      21.000        99.99
SET      22.000        99.99
SET      28.000       100.00
SET      33.000       100.00
---
GET       1.200         0.08
GET       1.300         0.82
GET       1.400         3.60
GET       1.500         9.29
GET       1.600        17.25
GET       1.700        26.53
GET       1.800        35.77
GET       1.900        44.47
GET       2.000        52.43
GET       2.100        58.78
GET       2.200        64.28
GET       2.300        68.60
GET       2.400        72.26
GET       2.500        75.15
GET       2.600        77.52
GET       2.700        79.65
GET       2.800        81.44
GET       2.900        82.98
GET       3.000        84.32
GET       3.100        85.55
GET       3.200        86.48
GET       3.300        87.50
GET       3.400        88.35
GET       3.500        89.13
GET       3.600        89.79
GET       3.700        90.38
GET       3.800        90.91
GET       3.900        91.36
GET       4.000        91.85
GET       4.100        92.27
GET       4.200        92.66
GET       4.300        93.02
GET       4.400        93.35
GET       4.500        93.65
GET       4.600        93.95
GET       4.700        94.26
GET       4.800        94.58
GET       4.900        94.81
GET       5.000        95.02
GET       5.100        95.20
GET       5.200        95.38
GET       5.300        95.55
GET       5.400        95.74
GET       5.500        95.88
GET       5.600        96.01
GET       5.700        96.18
GET       5.800        96.31
GET       5.900        96.45
GET       6.000        96.59
GET       6.100        96.73
GET       6.200        96.87
GET       6.300        97.00
GET       6.400        97.12
GET       6.500        97.19
GET       6.600        97.29
GET       6.700        97.44
GET       6.800        97.56
GET       6.900        97.69
GET       7.000        97.78
GET       7.100        97.86
GET       7.200        97.96
GET       7.300        98.09
GET       7.400        98.18
GET       7.500        98.26
GET       7.600        98.34
GET       7.700        98.39
GET       7.800        98.50
GET       7.900        98.57
GET       8.000        98.65
GET       8.100        98.74
GET       8.200        98.85
GET       8.300        98.92
GET       8.400        98.99
GET       8.500        99.04
GET       8.600        99.08
GET       8.700        99.12
GET       8.800        99.17
GET       8.900        99.23
GET       9.000        99.27
GET       9.100        99.32
GET       9.200        99.35
GET       9.300        99.38
GET       9.400        99.41
GET       9.500        99.44
GET       9.600        99.47
GET       9.700        99.51
GET       9.800        99.54
GET       9.900        99.56
GET      10.000        99.71
GET      11.000        99.82
GET      12.000        99.88
GET      13.000        99.92
GET      14.000        99.93
GET      15.000        99.94
GET      16.000        99.96
GET      17.000        99.97
GET      18.000        99.98
GET      22.000        99.98
GET      24.000        99.99
GET     210.000       100.00
---
