1         Threads
22        Connections per thread
70        Seconds


ALL STATS
========================================================================
Type        Ops/sec     Hits/sec   Misses/sec      Latency       KB/sec 
------------------------------------------------------------------------
Sets        1599.77          ---          ---     13.74300      6456.73 
Gets           0.00         0.00         0.00      0.00000         0.00 
Waits          0.00          ---          ---      0.00000          --- 
Totals      1599.77         0.00         0.00     13.74300      6456.73 


Request Latency Distribution
Type     <= msec         Percent
------------------------------------------------------------------------
SET       1.200         0.00
SET       1.400         0.00
SET       1.500         0.00
SET       1.600         0.00
SET       1.700         0.00
SET       1.800         0.01
SET       1.900         0.01
SET       2.000         0.01
SET       2.100         0.01
SET       2.200         0.02
SET       2.300         0.02
SET       2.400         0.02
SET       2.500         0.02
SET       2.600         0.03
SET       2.700         0.03
SET       3.000         0.03
SET       3.200         0.04
SET       3.300         0.04
SET       3.400         0.04
SET       3.600         0.04
SET       3.700         0.04
SET       3.900         0.04
SET       4.500         0.05
SET       4.600         0.05
SET       4.700         0.05
SET       4.800         0.05
SET       5.200         0.05
SET       5.300         0.05
SET       5.400         0.06
SET       5.500         0.06
SET       5.600         0.07
SET       5.700         0.07
SET       5.800         0.07
SET       5.900         0.08
SET       6.000         0.08
SET       6.100         0.08
SET       6.200         0.09
SET       6.300         0.10
SET       6.400         0.10
SET       6.500         0.11
SET       6.600         0.13
SET       6.700         0.14
SET       6.800         0.15
SET       6.900         0.16
SET       7.000         0.18
SET       7.100         0.21
SET       7.200         0.24
SET       7.300         0.27
SET       7.400         0.32
SET       7.500         0.37
SET       7.600         0.45
SET       7.700         0.53
SET       7.800         0.63
SET       7.900         0.76
SET       8.000         0.92
SET       8.100         1.13
SET       8.200         1.34
SET       8.300         1.59
SET       8.400         1.86
SET       8.500         2.16
SET       8.600         2.54
SET       8.700         2.93
SET       8.800         3.38
SET       8.900         3.83
SET       9.000         4.36
SET       9.100         4.96
SET       9.200         5.61
SET       9.300         6.28
SET       9.400         7.01
SET       9.500         7.81
SET       9.600         8.68
SET       9.700         9.59
SET       9.800        10.58
SET       9.900        11.55
SET      10.000        17.85
SET      11.000        30.47
SET      12.000        41.81
SET      13.000        51.11
SET      14.000        61.37
SET      15.000        72.88
SET      16.000        82.23
SET      17.000        88.16
SET      18.000        91.87
SET      19.000        94.16
SET      20.000        95.88
SET      21.000        97.20
SET      22.000        98.09
SET      23.000        98.65
SET      24.000        99.06
SET      25.000        99.26
SET      26.000        99.41
SET      27.000        99.52
SET      28.000        99.60
SET      29.000        99.67
SET      30.000        99.72
SET      31.000        99.78
SET      32.000        99.81
SET      33.000        99.84
SET      34.000        99.87
SET      35.000        99.90
SET      36.000        99.92
SET      37.000        99.93
SET      38.000        99.94
SET      39.000        99.94
SET      40.000        99.95
SET      41.000        99.96
SET      42.000        99.96
SET      43.000        99.97
SET      44.000        99.97
SET      45.000        99.98
SET      46.000        99.98
SET      95.000        99.98
SET     100.000        99.99
SET     110.000       100.00
SET     120.000       100.00
---
---
