2         Threads
4         Connections per thread
70        Seconds


ALL STATS
========================================================================
Type        Ops/sec     Hits/sec   Misses/sec      Latency       KB/sec 
------------------------------------------------------------------------
Sets        2322.09          ---          ---      3.44000      9372.03 
Gets           0.00         0.00         0.00      0.00000         0.00 
Waits          0.00          ---          ---      0.00000          --- 
Totals      2322.09         0.00         0.00      3.44000      9372.03 


Request Latency Distribution
Type     <= msec         Percent
------------------------------------------------------------------------
SET       1.200         0.00
SET       1.300         0.10
SET       1.400         0.71
SET       1.500         2.67
SET       1.600         6.48
SET       1.700        12.20
SET       1.800        19.21
SET       1.900        26.72
SET       2.000        34.19
SET       2.100        41.22
SET       2.200        47.53
SET       2.300        53.21
SET       2.400        57.89
SET       2.500        61.73
SET       2.600        64.96
SET       2.700        67.55
SET       2.800        69.65
SET       2.900        71.25
SET       3.000        72.68
SET       3.100        73.85
SET       3.200        74.75
SET       3.300        75.50
SET       3.400        76.20
SET       3.500        76.78
SET       3.600        77.30
SET       3.700        77.78
SET       3.800        78.20
SET       3.900        78.57
SET       4.000        78.91
SET       4.100        79.23
SET       4.200        79.53
SET       4.300        79.77
SET       4.400        80.01
SET       4.500        80.22
SET       4.600        80.43
SET       4.700        80.62
SET       4.800        80.83
SET       4.900        81.02
SET       5.000        81.19
SET       5.100        81.37
SET       5.200        81.54
SET       5.300        81.69
SET       5.400        81.85
SET       5.500        82.01
SET       5.600        82.19
SET       5.700        82.33
SET       5.800        82.47
SET       5.900        82.64
SET       6.000        82.81
SET       6.100        83.03
SET       6.200        83.26
SET       6.300        83.56
SET       6.400        83.91
SET       6.500        84.31
SET       6.600        84.79
SET       6.700        85.33
SET       6.800        85.92
SET       6.900        86.62
SET       7.000        87.35
SET       7.100        88.15
SET       7.200        88.92
SET       7.300        89.67
SET       7.400        90.51
SET       7.500        91.32
SET       7.600        92.17
SET       7.700        93.02
SET       7.800        93.75
SET       7.900        94.43
SET       8.000        95.04
SET       8.100        95.61
SET       8.200        96.10
SET       8.300        96.55
SET       8.400        96.91
SET       8.500        97.20
SET       8.600        97.46
SET       8.700        97.65
SET       8.800        97.84
SET       8.900        97.98
SET       9.000        98.11
SET       9.100        98.22
SET       9.200        98.31
SET       9.300        98.40
SET       9.400        98.47
SET       9.500        98.55
SET       9.600        98.62
SET       9.700        98.68
SET       9.800        98.75
SET       9.900        98.80
SET      10.000        99.05
SET      11.000        99.39
SET      12.000        99.58
SET      13.000        99.71
SET      14.000        99.77
SET      15.000        99.81
SET      16.000        99.84
SET      17.000        99.87
SET      18.000        99.89
SET      19.000        99.90
SET      20.000        99.91
SET      21.000        99.92
SET      22.000        99.93
SET      23.000        99.93
SET      24.000        99.93
SET      25.000        99.93
SET      26.000        99.93
SET      28.000        99.93
SET      30.000        99.94
SET      31.000        99.94
SET      35.000        99.94
SET      40.000        99.94
SET      41.000        99.94
SET      42.000        99.94
SET      46.000        99.94
SET      47.000        99.94
SET      48.000        99.94
SET      49.000        99.94
SET      55.000        99.95
SET      60.000        99.95
SET      61.000        99.95
SET      62.000        99.95
SET      81.000        99.95
SET      82.000        99.96
SET      89.000        99.96
SET      95.000        99.96
SET      96.000        99.96
SET      97.000        99.96
SET      98.000        99.97
SET     100.000        99.97
SET     140.000        99.98
SET     170.000        99.98
SET     190.000        99.98
SET     200.000        99.99
SET     550.000        99.99
SET     690.000       100.00
---
---
