2         Threads
8         Connections per thread
70        Seconds


ALL STATS
========================================================================
Type        Ops/sec     Hits/sec   Misses/sec      Latency       KB/sec 
------------------------------------------------------------------------
Sets        3122.47          ---          ---      5.11900     12602.36 
Gets           0.00         0.00         0.00      0.00000         0.00 
Waits          0.00          ---          ---      0.00000          --- 
Totals      3122.47         0.00         0.00      5.11900     12602.36 


Request Latency Distribution
Type     <= msec         Percent
------------------------------------------------------------------------
SET       1.300         0.00
SET       1.400         0.04
SET       1.500         0.21
SET       1.600         0.76
SET       1.700         1.80
SET       1.800         3.46
SET       1.900         5.70
SET       2.000         8.33
SET       2.100        11.50
SET       2.200        14.84
SET       2.300        18.53
SET       2.400        22.08
SET       2.500        25.59
SET       2.600        29.07
SET       2.700        32.37
SET       2.800        35.54
SET       2.900        38.38
SET       3.000        40.95
SET       3.100        43.31
SET       3.200        45.33
SET       3.300        47.14
SET       3.400        48.78
SET       3.500        50.27
SET       3.600        51.60
SET       3.700        52.70
SET       3.800        53.66
SET       3.900        54.44
SET       4.000        55.12
SET       4.100        55.72
SET       4.200        56.20
SET       4.300        56.62
SET       4.400        57.01
SET       4.500        57.35
SET       4.600        57.66
SET       4.700        57.94
SET       4.800        58.20
SET       4.900        58.42
SET       5.000        58.66
SET       5.100        58.88
SET       5.200        59.07
SET       5.300        59.29
SET       5.400        59.48
SET       5.500        59.66
SET       5.600        59.84
SET       5.700        60.04
SET       5.800        60.21
SET       5.900        60.39
SET       6.000        60.56
SET       6.100        60.74
SET       6.200        60.95
SET       6.300        61.16
SET       6.400        61.40
SET       6.500        61.64
SET       6.600        61.94
SET       6.700        62.30
SET       6.800        62.77
SET       6.900        63.34
SET       7.000        64.16
SET       7.100        65.06
SET       7.200        66.08
SET       7.300        67.17
SET       7.400        68.32
SET       7.500        69.51
SET       7.600        70.77
SET       7.700        72.09
SET       7.800        73.51
SET       7.900        74.94
SET       8.000        76.52
SET       8.100        78.15
SET       8.200        79.71
SET       8.300        81.26
SET       8.400        82.75
SET       8.500        84.18
SET       8.600        85.57
SET       8.700        86.89
SET       8.800        88.09
SET       8.900        89.18
SET       9.000        90.25
SET       9.100        91.20
SET       9.200        92.04
SET       9.300        92.75
SET       9.400        93.43
SET       9.500        94.05
SET       9.600        94.57
SET       9.700        95.01
SET       9.800        95.40
SET       9.900        95.77
SET      10.000        97.26
SET      11.000        98.50
SET      12.000        99.09
SET      13.000        99.42
SET      14.000        99.59
SET      15.000        99.68
SET      16.000        99.74
SET      17.000        99.81
SET      18.000        99.87
SET      19.000        99.90
SET      20.000        99.93
SET      21.000        99.94
SET      22.000        99.95
SET      23.000        99.95
SET      24.000        99.96
SET      25.000        99.96
SET      26.000        99.96
SET      27.000        99.97
SET      28.000        99.97
SET      29.000        99.97
SET      30.000        99.97
SET      32.000        99.97
SET      33.000        99.98
SET      34.000        99.98
SET      35.000        99.98
SET      37.000        99.98
SET      92.000        99.98
SET      96.000        99.98
SET      97.000        99.98
SET      98.000        99.98
SET      99.000        99.98
SET     100.000        99.99
SET     110.000        99.99
SET     150.000        99.99
SET     160.000       100.00
SET     170.000       100.00
---
---
