2         Threads
2         Connections per thread
70        Seconds


ALL STATS
========================================================================
Type        Ops/sec     Hits/sec   Misses/sec      Latency       KB/sec 
------------------------------------------------------------------------
Sets        1646.13          ---          ---      2.42500      6643.83 
Gets           0.00         0.00         0.00      0.00000         0.00 
Waits          0.00          ---          ---      0.00000          --- 
Totals      1646.13         0.00         0.00      2.42500      6643.83 


Request Latency Distribution
Type     <= msec         Percent
------------------------------------------------------------------------
SET       1.200         0.00
SET       1.300         0.28
SET       1.400         2.02
SET       1.500         6.82
SET       1.600        14.84
SET       1.700        24.90
SET       1.800        35.43
SET       1.900        45.31
SET       2.000        53.98
SET       2.100        61.51
SET       2.200        67.80
SET       2.300        72.87
SET       2.400        76.75
SET       2.500        79.81
SET       2.600        82.27
SET       2.700        84.26
SET       2.800        85.86
SET       2.900        87.10
SET       3.000        88.11
SET       3.100        89.07
SET       3.200        89.89
SET       3.300        90.56
SET       3.400        91.14
SET       3.500        91.64
SET       3.600        92.11
SET       3.700        92.49
SET       3.800        92.86
SET       3.900        93.21
SET       4.000        93.53
SET       4.100        93.83
SET       4.200        94.11
SET       4.300        94.43
SET       4.400        94.70
SET       4.500        94.93
SET       4.600        95.13
SET       4.700        95.36
SET       4.800        95.56
SET       4.900        95.73
SET       5.000        95.90
SET       5.100        96.07
SET       5.200        96.22
SET       5.300        96.35
SET       5.400        96.49
SET       5.500        96.61
SET       5.600        96.72
SET       5.700        96.84
SET       5.800        96.94
SET       5.900        97.04
SET       6.000        97.14
SET       6.100        97.22
SET       6.200        97.31
SET       6.300        97.40
SET       6.400        97.50
SET       6.500        97.60
SET       6.600        97.68
SET       6.700        97.75
SET       6.800        97.84
SET       6.900        97.98
SET       7.000        98.08
SET       7.100        98.17
SET       7.200        98.26
SET       7.300        98.37
SET       7.400        98.47
SET       7.500        98.55
SET       7.600        98.66
SET       7.700        98.74
SET       7.800        98.82
SET       7.900        98.89
SET       8.000        98.97
SET       8.100        99.03
SET       8.200        99.07
SET       8.300        99.11
SET       8.400        99.15
SET       8.500        99.19
SET       8.600        99.23
SET       8.700        99.26
SET       8.800        99.29
SET       8.900        99.32
SET       9.000        99.34
SET       9.100        99.38
SET       9.200        99.41
SET       9.300        99.45
SET       9.400        99.47
SET       9.500        99.50
SET       9.600        99.52
SET       9.700        99.54
SET       9.800        99.56
SET       9.900        99.57
SET      10.000        99.68
SET      11.000        99.80
SET      12.000        99.86
SET      13.000        99.90
SET      14.000        99.91
SET      15.000        99.91
SET      16.000        99.93
SET      17.000        99.94
SET      18.000        99.94
SET      19.000        99.95
SET      20.000        99.95
SET      22.000        99.95
SET      29.000        99.95
SET      31.000        99.95
SET      33.000        99.95
SET      37.000        99.96
SET      48.000        99.96
SET      70.000        99.96
SET      71.000        99.96
SET      92.000        99.97
SET      93.000        99.97
SET      95.000        99.97
SET      96.000        99.97
SET      97.000        99.97
SET     100.000        99.98
SET     130.000        99.98
SET     160.000        99.98
SET     170.000        99.99
SET     180.000        99.99
SET     210.000        99.99
SET     220.000        99.99
SET     260.000       100.00
SET     540.000       100.00
SET     550.000       100.00
---
---
