2         Threads
42        Connections per thread
70        Seconds


ALL STATS
========================================================================
Type        Ops/sec     Hits/sec   Misses/sec      Latency       KB/sec 
------------------------------------------------------------------------
Sets        4088.60          ---          ---     20.53900     16501.68 
Gets           0.00         0.00         0.00      0.00000         0.00 
Waits          0.00          ---          ---      0.00000          --- 
Totals      4088.60         0.00         0.00     20.53900     16501.68 


Request Latency Distribution
Type     <= msec         Percent
------------------------------------------------------------------------
SET       2.600         0.00
SET       2.900         0.00
SET       3.200         0.00
SET       3.300         0.00
SET       3.600         0.00
SET       3.900         0.00
SET       4.000         0.00
SET       4.200         0.00
SET       4.300         0.00
SET       4.400         0.00
SET       4.500         0.01
SET       4.700         0.01
SET       4.800         0.01
SET       4.900         0.01
SET       5.000         0.01
SET       5.100         0.01
SET       5.200         0.01
SET       5.300         0.01
SET       5.400         0.01
SET       5.500         0.01
SET       5.600         0.02
SET       5.700         0.02
SET       5.800         0.02
SET       5.900         0.02
SET       6.000         0.02
SET       6.100         0.02
SET       6.200         0.02
SET       6.300         0.02
SET       6.400         0.02
SET       6.500         0.02
SET       6.600         0.03
SET       6.700         0.03
SET       6.800         0.03
SET       6.900         0.03
SET       7.000         0.03
SET       7.100         0.03
SET       7.200         0.03
SET       7.300         0.04
SET       7.400         0.04
SET       7.500         0.05
SET       7.600         0.05
SET       7.700         0.05
SET       7.800         0.05
SET       7.900         0.06
SET       8.000         0.06
SET       8.100         0.07
SET       8.200         0.07
SET       8.300         0.07
SET       8.400         0.08
SET       8.500         0.08
SET       8.600         0.09
SET       8.700         0.09
SET       8.800         0.10
SET       8.900         0.10
SET       9.000         0.11
SET       9.100         0.12
SET       9.200         0.13
SET       9.300         0.13
SET       9.400         0.14
SET       9.500         0.15
SET       9.600         0.16
SET       9.700         0.18
SET       9.800         0.19
SET       9.900         0.20
SET      10.000         0.30
SET      11.000         0.51
SET      12.000         0.88
SET      13.000         3.07
SET      14.000         7.38
SET      15.000        12.45
SET      16.000        17.51
SET      17.000        22.66
SET      18.000        28.45
SET      19.000        37.36
SET      20.000        49.10
SET      21.000        61.36
SET      22.000        72.53
SET      23.000        81.57
SET      24.000        87.88
SET      25.000        91.88
SET      26.000        94.39
SET      27.000        95.91
SET      28.000        96.87
SET      29.000        97.56
SET      30.000        98.15
SET      31.000        98.61
SET      32.000        98.95
SET      33.000        99.15
SET      34.000        99.30
SET      35.000        99.42
SET      36.000        99.50
SET      37.000        99.55
SET      38.000        99.61
SET      39.000        99.68
SET      40.000        99.73
SET      41.000        99.77
SET      42.000        99.81
SET      43.000        99.83
SET      44.000        99.85
SET      45.000        99.85
SET      46.000        99.86
SET      47.000        99.88
SET      48.000        99.89
SET      49.000        99.90
SET      50.000        99.91
SET      51.000        99.92
SET      52.000        99.92
SET      53.000        99.92
SET      54.000        99.93
SET      55.000        99.94
SET      56.000        99.94
SET      57.000        99.94
SET      58.000        99.94
SET      59.000        99.94
SET      60.000        99.94
SET      64.000        99.95
SET      66.000        99.95
SET      78.000        99.95
SET      88.000        99.95
SET      89.000        99.95
SET      94.000        99.95
SET      95.000        99.95
SET      96.000        99.95
SET      97.000        99.95
SET      98.000        99.96
SET      99.000        99.96
SET     100.000        99.97
SET     110.000        99.98
SET     120.000        99.98
SET     130.000        99.98
SET     140.000        99.98
SET     150.000        99.98
SET     160.000        99.99
SET     170.000        99.99
SET     180.000        99.99
SET     190.000       100.00
SET     200.000       100.00
SET     210.000       100.00
SET     220.000       100.00
---
---
