second,get,set,multiget,multigetsharded,cachemisses
1,1272,0,0,0,0
2,2669,0,0,0,0
3,4117,0,0,0,0
4,5630,0,0,0,0
5,7067,0,0,0,0
6,8506,0,0,0,0
7,9994,0,0,0,0
8,11468,0,0,0,0
9,12924,0,0,0,0
10,14416,0,0,0,0
11,15908,0,0,0,0
12,17395,0,0,0,0
13,18820,0,0,0,0
14,20272,0,0,0,0
15,21746,0,0,0,0
16,23214,0,0,0,0
17,24673,0,0,0,0
18,26181,0,0,0,0
19,27658,0,0,0,0
20,29145,0,0,0,0
21,30584,0,0,0,0
22,32050,0,0,0,0
23,33508,0,0,0,0
24,34995,0,0,0,0
25,36474,0,0,0,0
26,37973,0,0,0,0
27,39438,0,0,0,0
28,40858,0,0,0,0
29,42299,0,0,0,0
30,43757,0,0,0,0
31,45225,0,0,0,0
32,46706,0,0,0,0
33,48188,0,0,0,0
34,49648,0,0,0,0
35,51109,0,0,0,0
36,52533,0,0,0,0
37,53978,0,0,0,0
38,55452,0,0,0,0
39,56936,0,0,0,0
40,58372,0,0,0,0
41,59874,0,0,0,0
42,61303,0,0,0,0
43,62768,0,0,0,0
44,64234,0,0,0,0
45,65693,0,0,0,0
46,67174,0,0,0,0
47,68672,0,0,0,0
48,70140,0,0,0,0
49,71561,0,0,0,0
50,72997,0,0,0,0
51,74487,0,0,0,0
52,75946,0,0,0,0
53,77416,0,0,0,0
54,78837,0,0,0,0
55,80304,0,0,0,0
56,81773,0,0,0,0
57,83242,0,0,0,0
58,84709,0,0,0,0
59,86168,0,0,0,0
60,87650,0,0,0,0
61,89129,0,0,0,0
62,90572,0,0,0,0
63,92036,0,0,0,0
64,93487,0,0,0,0
65,94937,0,0,0,0
66,96426,0,0,0,0
67,97861,0,0,0,0
68,99338,0,0,0,0
69,100788,0,0,0,0
70,102236,0,0,0,0
71,102368,0,0,0,0
72,102368,0,0,0,0
73,102368,0,0,0,0
74,102368,0,0,0,0
75,102368,0,0,0,0
76,102368,0,0,0,0
77,102368,0,0,0,0
78,102368,0,0,0,0
79,102368,0,0,0,0
80,102368,0,0,0,0
81,102368,0,0,0,0
82,102368,0,0,0,0
83,102368,0,0,0,0
84,102368,0,0,0,0
85,102368,0,0,0,0
86,102368,0,0,0,0
86,102368,0,0,0,0
