second,availableProcessors,totalMemory,freeMemory,usedMemory,queueCapacity,queueSize,expectedArrivalRate,systemRequests
1,8,221249536,174564280,46685256,2147483647,0,0.984000,2
2,8,221249536,171103904,50145632,2147483647,0,1.297000,1
3,8,221249536,164183176,57066360,2147483647,0,1.439000,1
4,8,221249536,194694392,26555144,2147483647,0,1.580000,1
5,8,221249536,174235568,47013968,2147483647,0,1.288000,2
6,8,221249536,157866336,63383200,2147483647,0,1.419000,0
7,8,221249536,192999192,28250344,2147483647,0,1.462000,1
8,8,221249536,175545168,45704368,2147483647,0,1.488000,3
9,8,221249536,160692224,60557312,2147483647,0,1.492000,3
10,8,221249536,205940208,15309328,2147483647,0,1.481000,0
11,8,221249536,192182960,29066576,2147483646,1,1.497000,3
12,8,221249536,177403968,43845568,2147483647,0,1.521000,2
13,8,221249536,160217016,61032520,2147483647,0,1.484000,1
14,8,221249536,202189264,19060272,2147483647,0,1.516000,2
15,8,221249536,189082208,32167328,2147483647,0,1.532000,2
16,8,221249536,173795192,47454344,2147483647,0,1.483000,3
17,8,221249536,159448032,61801504,2147483647,0,1.435000,0
18,8,217579520,197704872,19874648,2147483646,1,1.439000,3
19,8,217579520,183548976,34030544,2147483647,0,1.495000,2
20,8,217579520,168644592,48934928,2147483647,0,1.456000,3
21,8,215482368,207674728,7807640,2147483647,0,1.447000,2
22,8,215482368,193590192,21892176,2147483647,0,1.395000,3
23,8,215482368,179162160,36320208,2147483647,0,1.434000,3
24,8,215482368,164718944,50763424,2147483646,1,1.478000,3
25,8,209190912,197751880,11439032,2147483647,0,1.511000,1
26,8,209190912,183091928,26098984,2147483647,0,1.530000,3
27,8,209190912,168395472,40795440,2147483646,1,1.507000,2
28,8,209190912,152917440,56273472,2147483647,0,1.541000,3
29,8,216006656,198875080,17131576,2147483647,0,1.501000,2
30,8,216006656,184156088,31850568,2147483647,0,1.483000,3
31,8,216006656,169558152,46448504,2147483647,0,1.506000,3
32,8,207093760,198883760,8210000,2147483646,1,1.482000,3
33,8,207093760,183377848,23715912,2147483647,0,1.543000,3
34,8,207093760,167674832,39418928,2147483647,0,1.582000,2
35,8,207093760,152866016,54227744,2147483647,0,1.493000,2
36,8,214958080,197532840,17425240,2147483647,0,1.512000,1
37,8,214958080,182493248,32464832,2147483646,1,1.509000,2
38,8,214958080,167572792,47385288,2147483647,0,1.509000,1
39,8,204996608,193636456,11360152,2147483647,0,1.525000,1
40,8,204996608,178875584,26121024,2147483647,0,1.496000,2
41,8,204996608,163648088,41348520,2147483647,0,1.537000,3
42,8,204996608,148536568,56460040,2147483647,0,1.536000,3
43,8,212336640,190871488,21465152,2147483647,0,1.489000,3
44,8,212336640,176037928,36298712,2147483647,0,1.496000,3
45,8,212336640,161068072,51268568,2147483647,0,1.525000,3
46,8,202899456,185074256,17825200,2147483647,0,1.552000,3
47,8,202899456,170777552,32121904,2147483647,0,1.437000,1
48,8,202899456,155721248,47178208,2147483647,0,1.528000,1
49,8,209190912,194668912,14522000,2147483647,0,1.520000,1
50,8,209190912,179376096,29814816,2147483647,0,1.484000,1
51,8,209190912,164830136,44360776,2147483647,0,1.482000,3
52,8,200802304,188463560,12338744,2147483647,0,1.477000,3
53,8,200802304,174046808,26755496,2147483647,0,1.467000,3
54,8,200802304,159821288,40981016,2147483647,0,1.439000,2
55,8,207618048,198126456,9491592,2147483647,0,1.438000,2
56,8,207618048,183360792,24257256,2147483647,0,1.502000,3
57,8,207618048,168777056,38840992,2147483647,0,1.478000,3
58,8,199753728,191380272,8373456,2147483647,0,1.465000,3
59,8,199753728,176904280,22849448,2147483647,0,1.471000,3
60,8,199753728,162843104,36910624,2147483647,0,1.428000,3
61,8,199753728,148276344,51477384,2147483647,0,1.471000,3
62,8,206045184,184859600,21185584,2147483647,0,1.418000,3
63,8,206045184,170790088,35255096,2147483647,0,1.428000,3
64,8,206045184,156681696,49363488,2147483647,0,1.415000,3
65,8,198705152,180118616,18586536,2147483647,0,1.372000,1
66,8,198705152,166095144,32610008,2147483647,0,1.435000,3
67,8,198705152,151797584,46907568,2147483647,0,1.439000,0
68,8,204996608,187042464,17954144,2147483647,0,1.495000,3
69,8,204996608,172393440,32603168,2147483647,0,1.470000,3
70,8,204996608,157356944,47639664,2147483647,0,1.522000,1
71,8,204996608,157058664,47937944,2147483647,0,0.001000,0
72,8,204996608,157041824,47954784,2147483647,0,0.000000,0
73,8,204996608,157041824,47954784,2147483647,0,0.000000,0
74,8,204996608,157025024,47971584,2147483647,0,0.000000,0
75,8,204996608,157008248,47988360,2147483647,0,0.000000,0
76,8,204996608,156991440,48005168,2147483647,0,0.000000,0
77,8,204996608,156991440,48005168,2147483647,0,0.000000,0
78,8,204996608,156974648,48021960,2147483647,0,0.000000,0
79,8,204996608,156957872,48038736,2147483647,0,0.000000,0
80,8,204996608,156957872,48038736,2147483647,0,0.000000,0
81,8,204996608,156941120,48055488,2147483647,0,0.000000,0
82,8,204996608,156924336,48072272,2147483647,0,0.000000,0
83,8,204996608,156907560,48089048,2147483647,0,0.000000,0
84,8,204996608,156907560,48089048,2147483647,0,0.000000,0
85,8,204996608,156890784,48105824,2147483647,0,0.000000,0
