2         Threads
32        Connections per thread
70        Seconds


ALL STATS
========================================================================
Type        Ops/sec     Hits/sec   Misses/sec      Latency       KB/sec 
------------------------------------------------------------------------
Sets           0.00          ---          ---      0.00000         0.00 
Gets         995.54       995.54         0.00     64.27900      4032.51 
Waits          0.00          ---          ---      0.00000          --- 
Totals       995.54       995.54         0.00     64.27900      4032.51 


Request Latency Distribution
Type     <= msec         Percent
------------------------------------------------------------------------
---
GET       0.290         0.00
GET       0.360         0.00
GET       0.400         0.00
GET       0.440         0.01
GET       0.450         0.01
GET       0.460         0.01
GET       0.500         0.01
GET       0.530         0.01
GET       0.570         0.01
GET       0.580         0.01
GET       0.810         0.02
GET       0.850         0.02
GET       0.870         0.02
GET       0.900         0.02
GET       0.970         0.03
GET       0.990         0.03
GET       1.000         0.03
GET       1.100         0.03
GET       1.300         0.04
GET       1.500         0.04
GET       6.700         0.04
GET       6.800         0.05
GET       6.900         0.06
GET       8.900         0.07
GET       9.100         0.07
GET       9.300         0.07
GET       9.400         0.08
GET       9.500         0.08
GET      11.000         0.13
GET      12.000         0.17
GET      13.000         0.25
GET      14.000         0.33
GET      15.000         8.62
GET      16.000        31.73
GET      17.000        31.91
GET      18.000        32.02
GET      19.000        32.09
GET      20.000        32.10
GET      21.000        32.14
GET      22.000        32.16
GET      26.000        32.17
GET      27.000        32.19
GET      28.000        32.24
GET      29.000        32.27
GET      30.000        32.56
GET      31.000        46.81
GET      32.000        49.94
GET      33.000        49.96
GET      34.000        50.00
GET      35.000        50.04
GET      36.000        50.09
GET      37.000        50.10
GET      38.000        50.10
GET      41.000        50.10
GET      42.000        50.12
GET      43.000        50.19
GET      44.000        50.20
GET      45.000        50.32
GET      46.000        51.41
GET      47.000        63.14
GET      48.000        63.39
GET      49.000        63.42
GET      50.000        63.42
GET      51.000        63.44
GET      52.000        63.45
GET      53.000        63.45
GET      56.000        63.45
GET      58.000        63.48
GET      59.000        63.48
GET      60.000        63.51
GET      61.000        63.57
GET      62.000        67.68
GET      63.000        71.79
GET      64.000        71.84
GET      65.000        71.86
GET      66.000        71.87
GET      67.000        71.89
GET      68.000        71.90
GET      69.000        71.91
GET      73.000        71.92
GET      74.000        71.92
GET      75.000        71.93
GET      76.000        71.94
GET      77.000        72.15
GET      78.000        77.47
GET      79.000        78.08
GET      80.000        78.10
GET      81.000        78.11
GET      82.000        78.11
GET      83.000        78.13
GET      84.000        78.13
GET      87.000        78.14
GET      89.000        78.16
GET      90.000        78.17
GET      91.000        78.17
GET      92.000        78.21
GET      93.000        78.89
GET      94.000        82.08
GET      95.000        82.14
GET      96.000        82.14
GET      97.000        82.15
GET     100.000        82.18
GET     110.000        85.58
GET     120.000        86.73
GET     130.000        87.94
GET     140.000        89.88
GET     150.000        89.90
GET     160.000        91.44
GET     170.000        92.97
GET     180.000        92.98
GET     190.000        94.18
GET     200.000        95.35
GET     210.000        95.37
GET     220.000        96.34
GET     230.000        97.05
GET     240.000        97.07
GET     250.000        97.67
GET     260.000        97.69
GET     270.000        98.02
GET     280.000        98.27
GET     290.000        98.27
GET     300.000        98.50
GET     310.000        98.67
GET     320.000        98.67
GET     330.000        98.84
GET     340.000        98.95
GET     350.000        98.96
GET     360.000        99.04
GET     370.000        99.12
GET     380.000        99.16
GET     390.000        99.23
GET     400.000        99.23
GET     410.000        99.29
GET     420.000        99.38
GET     440.000        99.43
GET     450.000        99.49
GET     470.000        99.56
GET     480.000        99.62
GET     490.000        99.62
GET     500.000        99.69
GET     510.000        99.69
GET     520.000        99.72
GET     530.000        99.75
GET     540.000        99.75
GET     550.000        99.79
GET     560.000        99.81
GET     580.000        99.83
GET     590.000        99.88
GET     600.000        99.88
GET     610.000        99.91
GET     620.000        99.91
GET     630.000        99.91
GET     640.000        99.92
GET     660.000        99.93
GET     670.000        99.93
GET     690.000        99.93
GET     700.000        99.94
GET     720.000        99.94
GET     770.000        99.95
GET     800.000        99.95
GET     810.000        99.95
GET     830.000        99.95
GET     860.000        99.96
GET     890.000        99.96
GET     910.000        99.97
GET     920.000        99.97
GET     940.000        99.97
GET     950.000        99.98
GET     970.000        99.98
GET     980.000        99.99
GET    1200.000        99.99
GET    1400.000        99.99
GET    1500.000        99.99
GET    1700.000       100.00
GET    2000.000       100.00
---
