1         Threads
4         Connections per thread
70        Seconds


ALL STATS
========================================================================
Type        Ops/sec     Hits/sec   Misses/sec      Latency       KB/sec 
------------------------------------------------------------------------
Sets           0.00          ---          ---      0.00000         0.00 
Gets         513.14       513.14         0.00      7.78600      2078.50 
Waits          0.00          ---          ---      0.00000          --- 
Totals       513.14       513.14         0.00      7.78600      2078.50 


Request Latency Distribution
Type     <= msec         Percent
------------------------------------------------------------------------
---
GET       0.900         0.00
GET       0.940         0.01
GET       0.970         0.01
GET       1.000         0.02
GET       1.100         0.14
GET       1.200         0.51
GET       1.300         1.29
GET       1.400         2.73
GET       1.500         5.07
GET       1.600         8.17
GET       1.700        12.07
GET       1.800        16.25
GET       1.900        20.54
GET       2.000        24.74
GET       2.100        28.65
GET       2.200        32.07
GET       2.300        35.25
GET       2.400        38.09
GET       2.500        40.25
GET       2.600        41.94
GET       2.700        43.23
GET       2.800        44.38
GET       2.900        45.27
GET       3.000        46.05
GET       3.100        46.74
GET       3.200        47.25
GET       3.300        47.73
GET       3.400        48.12
GET       3.500        48.46
GET       3.600        48.78
GET       3.700        49.02
GET       3.800        49.18
GET       3.900        49.33
GET       4.000        49.50
GET       4.100        49.64
GET       4.200        49.80
GET       4.300        49.94
GET       4.400        50.08
GET       4.500        50.22
GET       4.600        50.30
GET       4.700        50.41
GET       4.800        50.49
GET       4.900        50.59
GET       5.000        50.68
GET       5.100        50.74
GET       5.200        50.86
GET       5.300        50.96
GET       5.400        51.03
GET       5.500        51.11
GET       5.600        51.15
GET       5.700        51.19
GET       5.800        51.25
GET       5.900        51.29
GET       6.000        51.34
GET       6.100        51.38
GET       6.200        51.45
GET       6.300        51.49
GET       6.400        51.54
GET       6.500        51.58
GET       6.600        51.62
GET       6.700        51.67
GET       6.800        51.75
GET       6.900        51.81
GET       7.000        51.89
GET       7.100        51.92
GET       7.200        51.97
GET       7.300        52.02
GET       7.400        52.05
GET       7.500        52.12
GET       7.600        52.17
GET       7.700        52.26
GET       7.800        52.33
GET       7.900        52.35
GET       8.000        52.40
GET       8.100        52.46
GET       8.200        52.49
GET       8.300        52.58
GET       8.400        52.64
GET       8.500        52.70
GET       8.600        52.75
GET       8.700        52.85
GET       8.800        52.92
GET       8.900        53.00
GET       9.000        53.07
GET       9.100        53.14
GET       9.200        53.21
GET       9.300        53.29
GET       9.400        53.35
GET       9.500        53.42
GET       9.600        53.48
GET       9.700        53.57
GET       9.800        53.68
GET       9.900        53.77
GET      10.000        54.39
GET      11.000        56.29
GET      12.000        61.26
GET      13.000        78.40
GET      14.000        96.11
GET      15.000        98.07
GET      16.000        98.89
GET      17.000        99.06
GET      18.000        99.22
GET      19.000        99.29
GET      20.000        99.33
GET      21.000        99.38
GET      22.000        99.41
GET      23.000        99.44
GET      24.000        99.48
GET      25.000        99.50
GET      26.000        99.59
GET      27.000        99.67
GET      28.000        99.76
GET      29.000        99.84
GET      30.000        99.84
GET      31.000        99.85
GET      32.000        99.85
GET      33.000        99.86
GET      36.000        99.86
GET      46.000        99.86
GET      47.000        99.88
GET      48.000        99.89
GET      49.000        99.89
GET      50.000        99.90
GET      54.000        99.90
GET      57.000        99.90
GET      61.000        99.91
GET      63.000        99.91
GET      78.000        99.92
GET      85.000        99.92
GET     110.000        99.92
GET     120.000        99.92
GET     130.000        99.94
GET     140.000        99.95
GET     170.000        99.95
GET     230.000        99.96
GET     250.000        99.96
GET     260.000        99.96
GET     270.000        99.97
GET     280.000        99.97
GET     290.000        99.98
GET     300.000        99.98
GET     310.000        99.99
GET     330.000        99.99
GET     430.000       100.00
GET     440.000       100.00
---
