1         Threads
64        Connections per thread
70        Seconds


ALL STATS
========================================================================
Type        Ops/sec     Hits/sec   Misses/sec      Latency       KB/sec 
------------------------------------------------------------------------
Sets           0.00          ---          ---      0.00000         0.00 
Gets         503.25       503.25         0.00    127.16300      2038.48 
Waits          0.00          ---          ---      0.00000          --- 
Totals       503.25       503.25         0.00    127.16300      2038.48 


Request Latency Distribution
Type     <= msec         Percent
------------------------------------------------------------------------
---
GET      62.000         0.01
GET      63.000         0.01
GET      64.000         0.05
GET      65.000         0.06
GET      66.000         0.07
GET      67.000         0.11
GET      68.000         0.14
GET      69.000         0.16
GET      70.000         0.16
GET      71.000         0.18
GET      72.000         0.18
GET      73.000         0.18
GET      83.000         0.18
GET      88.000         0.19
GET      90.000         0.19
GET      91.000         0.21
GET      92.000         0.22
GET      93.000         0.23
GET      94.000         0.23
GET      95.000         0.24
GET      96.000         0.27
GET      97.000         0.30
GET      98.000         0.31
GET      99.000         0.31
GET     100.000         0.37
GET     110.000         2.95
GET     120.000        29.59
GET     130.000        84.57
GET     140.000        99.76
GET     150.000        99.80
GET     160.000        99.82
GET     240.000        99.83
GET     250.000        99.93
GET     260.000        99.99
GET     270.000       100.00
---
