1         Threads
64        Connections per thread
70        Seconds


ALL STATS
========================================================================
Type        Ops/sec     Hits/sec   Misses/sec      Latency       KB/sec 
------------------------------------------------------------------------
Sets           0.00          ---          ---      0.00000         0.00 
Gets         519.57       519.57         0.00    123.17000      2104.57 
Waits          0.00          ---          ---      0.00000          --- 
Totals       519.57       519.57         0.00    123.17000      2104.57 


Request Latency Distribution
Type     <= msec         Percent
------------------------------------------------------------------------
---
GET      15.000         0.02
GET      16.000         0.07
GET      17.000         0.09
GET      31.000         0.17
GET      32.000         0.18
GET      41.000         0.19
GET      43.000         0.20
GET      46.000         0.26
GET      47.000         0.43
GET      48.000         0.46
GET      50.000         0.47
GET      51.000         0.47
GET      52.000         0.48
GET      55.000         0.48
GET      56.000         0.49
GET      57.000         0.49
GET      58.000         0.50
GET      59.000         0.50
GET      61.000         0.51
GET      62.000         0.71
GET      63.000         0.86
GET      64.000         0.87
GET      65.000         0.87
GET      67.000         0.88
GET      68.000         0.88
GET      69.000         0.89
GET      74.000         0.90
GET      75.000         0.90
GET      76.000         0.92
GET      77.000         1.20
GET      78.000         4.90
GET      79.000         6.50
GET      80.000         6.61
GET      81.000         6.64
GET      82.000         6.65
GET      83.000         6.68
GET      84.000         6.69
GET      85.000         6.70
GET      86.000         6.70
GET      88.000         6.75
GET      89.000         6.80
GET      90.000         6.86
GET      91.000         6.91
GET      92.000         7.17
GET      93.000        13.25
GET      94.000        31.13
GET      95.000        33.09
GET      96.000        33.32
GET      97.000        33.41
GET      98.000        33.46
GET      99.000        33.47
GET     100.000        33.58
GET     110.000        57.39
GET     120.000        65.92
GET     130.000        73.35
GET     140.000        82.73
GET     150.000        82.95
GET     160.000        88.17
GET     170.000        91.52
GET     180.000        91.55
GET     190.000        93.89
GET     200.000        95.40
GET     210.000        95.42
GET     220.000        96.65
GET     230.000        97.53
GET     240.000        97.63
GET     250.000        98.22
GET     260.000        98.30
GET     270.000        98.66
GET     280.000        99.00
GET     290.000        99.05
GET     300.000        99.26
GET     310.000        99.45
GET     330.000        99.64
GET     340.000        99.74
GET     350.000        99.74
GET     360.000        99.83
GET     370.000        99.84
GET     380.000        99.86
GET     390.000        99.89
GET     400.000        99.89
GET     410.000        99.90
GET     420.000        99.91
GET     440.000        99.94
GET     450.000        99.94
GET     470.000        99.95
GET     480.000        99.95
GET     490.000        99.96
GET     500.000        99.97
GET     510.000        99.97
GET     530.000        99.98
GET     550.000        99.98
GET     560.000        99.99
GET     590.000        99.99
GET     610.000       100.00
---
