1         Threads
2         Connections per thread
70        Seconds


ALL STATS
========================================================================
Type        Ops/sec     Hits/sec   Misses/sec      Latency       KB/sec 
------------------------------------------------------------------------
Sets         246.02          ---          ---      3.58500       992.95 
Gets         246.02      1476.13         0.00      4.52100      5967.12 
Waits          0.00          ---          ---      0.00000          --- 
Totals       492.04      1476.13         0.00      4.05300      6960.07 


Request Latency Distribution
Type     <= msec         Percent
------------------------------------------------------------------------
SET       1.100         0.01
SET       1.200         0.06
SET       1.300         0.47
SET       1.400         1.57
SET       1.500         4.12
SET       1.600         8.34
SET       1.700        14.37
SET       1.800        21.15
SET       1.900        28.37
SET       2.000        35.44
SET       2.100        41.59
SET       2.200        46.92
SET       2.300        51.33
SET       2.400        55.10
SET       2.500        57.91
SET       2.600        60.42
SET       2.700        62.39
SET       2.800        63.77
SET       2.900        65.09
SET       3.000        66.32
SET       3.100        67.31
SET       3.200        68.17
SET       3.300        68.96
SET       3.400        69.77
SET       3.500        70.52
SET       3.600        71.23
SET       3.700        71.87
SET       3.800        72.44
SET       3.900        73.13
SET       4.000        73.69
SET       4.100        74.18
SET       4.200        74.71
SET       4.300        75.23
SET       4.400        75.65
SET       4.500        76.05
SET       4.600        76.45
SET       4.700        76.98
SET       4.800        77.35
SET       4.900        77.88
SET       5.000        78.19
SET       5.100        78.54
SET       5.200        78.89
SET       5.300        79.22
SET       5.400        79.55
SET       5.500        79.90
SET       5.600        80.30
SET       5.700        80.72
SET       5.800        81.19
SET       5.900        81.66
SET       6.000        82.25
SET       6.100        82.89
SET       6.200        83.37
SET       6.300        83.85
SET       6.400        84.24
SET       6.500        84.63
SET       6.600        84.93
SET       6.700        85.30
SET       6.800        85.73
SET       6.900        86.12
SET       7.000        86.60
SET       7.100        86.93
SET       7.200        87.27
SET       7.300        87.60
SET       7.400        87.99
SET       7.500        88.40
SET       7.600        88.66
SET       7.700        88.97
SET       7.800        89.33
SET       7.900        89.60
SET       8.000        89.87
SET       8.100        90.21
SET       8.200        90.58
SET       8.300        90.95
SET       8.400        91.35
SET       8.500        91.75
SET       8.600        92.15
SET       8.700        92.61
SET       8.800        93.06
SET       8.900        93.44
SET       9.000        93.80
SET       9.100        94.17
SET       9.200        94.58
SET       9.300        95.01
SET       9.400        95.34
SET       9.500        95.55
SET       9.600        95.89
SET       9.700        96.09
SET       9.800        96.28
SET       9.900        96.49
SET      10.000        97.68
SET      11.000        99.36
SET      12.000        99.61
SET      13.000        99.72
SET      14.000        99.76
SET      15.000        99.79
SET      16.000        99.80
SET      17.000        99.81
SET      18.000        99.85
SET      19.000        99.87
SET      20.000        99.90
SET      21.000        99.93
SET      22.000        99.95
SET      24.000        99.97
SET      25.000        99.97
SET      31.000        99.98
SET      40.000       100.00
---
GET       1.300         0.01
GET       1.400         0.03
GET       1.500         0.35
GET       1.600         1.06
GET       1.700         3.03
GET       1.800         5.98
GET       1.900        10.39
GET       2.000        16.07
GET       2.100        22.04
GET       2.200        27.81
GET       2.300        33.32
GET       2.400        38.12
GET       2.500        42.07
GET       2.600        45.19
GET       2.700        47.71
GET       2.800        49.84
GET       2.900        51.42
GET       3.000        52.69
GET       3.100        53.99
GET       3.200        54.95
GET       3.300        55.88
GET       3.400        56.68
GET       3.500        57.48
GET       3.600        58.27
GET       3.700        58.84
GET       3.800        59.52
GET       3.900        60.19
GET       4.000        60.81
GET       4.100        61.44
GET       4.200        61.99
GET       4.300        62.61
GET       4.400        63.24
GET       4.500        63.72
GET       4.600        64.17
GET       4.700        64.66
GET       4.800        65.13
GET       4.900        65.55
GET       5.000        66.07
GET       5.100        66.58
GET       5.200        67.05
GET       5.300        67.43
GET       5.400        67.88
GET       5.500        68.22
GET       5.600        68.62
GET       5.700        69.02
GET       5.800        69.53
GET       5.900        69.89
GET       6.000        70.39
GET       6.100        70.84
GET       6.200        71.33
GET       6.300        71.89
GET       6.400        72.47
GET       6.500        73.01
GET       6.600        73.57
GET       6.700        74.21
GET       6.800        74.89
GET       6.900        75.54
GET       7.000        76.11
GET       7.100        76.64
GET       7.200        77.23
GET       7.300        77.95
GET       7.400        78.71
GET       7.500        79.45
GET       7.600        80.19
GET       7.700        80.76
GET       7.800        81.41
GET       7.900        81.98
GET       8.000        82.56
GET       8.100        83.14
GET       8.200        83.64
GET       8.300        84.51
GET       8.400        85.17
GET       8.500        85.75
GET       8.600        86.35
GET       8.700        87.14
GET       8.800        87.84
GET       8.900        88.55
GET       9.000        89.32
GET       9.100        89.98
GET       9.200        90.86
GET       9.300        91.58
GET       9.400        92.38
GET       9.500        93.13
GET       9.600        93.79
GET       9.700        94.51
GET       9.800        95.00
GET       9.900        95.56
GET      10.000        97.44
GET      11.000        98.91
GET      12.000        99.31
GET      13.000        99.54
GET      14.000        99.61
GET      15.000        99.65
GET      16.000        99.68
GET      17.000        99.70
GET      18.000        99.72
GET      19.000        99.76
GET      20.000        99.80
GET      21.000        99.81
GET      22.000        99.87
GET      23.000        99.92
GET      24.000        99.95
GET      25.000        99.96
GET      28.000        99.97
GET      29.000        99.98
GET      45.000        99.98
GET      46.000        99.99
GET     190.000        99.99
GET     200.000       100.00
---
