1         Threads
1         Connections per thread
70        Seconds


ALL STATS
========================================================================
Type        Ops/sec     Hits/sec   Misses/sec      Latency       KB/sec 
------------------------------------------------------------------------
Sets         546.66          ---          ---      1.82300      2206.32 
Gets           0.00         0.00         0.00      0.00000         0.00 
Waits          0.00          ---          ---      0.00000          --- 
Totals       546.66         0.00         0.00      1.82300      2206.32 


Request Latency Distribution
Type     <= msec         Percent
------------------------------------------------------------------------
SET       0.750         0.00
SET       0.770         0.01
SET       0.830         0.01
SET       0.840         0.02
SET       0.850         0.02
SET       0.860         0.03
SET       0.870         0.05
SET       0.880         0.09
SET       0.890         0.13
SET       0.900         0.18
SET       0.910         0.22
SET       0.920         0.27
SET       0.930         0.34
SET       0.940         0.43
SET       0.950         0.55
SET       0.960         0.67
SET       0.970         0.86
SET       0.980         1.03
SET       0.990         1.25
SET       1.000         3.07
SET       1.100         9.00
SET       1.200        18.07
SET       1.300        28.59
SET       1.400        39.11
SET       1.500        48.80
SET       1.600        57.08
SET       1.700        63.97
SET       1.800        69.51
SET       1.900        74.17
SET       2.000        78.04
SET       2.100        81.21
SET       2.200        83.92
SET       2.300        86.00
SET       2.400        87.70
SET       2.500        89.05
SET       2.600        90.17
SET       2.700        91.32
SET       2.800        92.12
SET       2.900        92.85
SET       3.000        93.47
SET       3.100        94.07
SET       3.200        94.57
SET       3.300        95.04
SET       3.400        95.44
SET       3.500        95.71
SET       3.600        96.04
SET       3.700        96.30
SET       3.800        96.54
SET       3.900        96.78
SET       4.000        96.96
SET       4.100        97.13
SET       4.200        97.28
SET       4.300        97.43
SET       4.400        97.55
SET       4.500        97.68
SET       4.600        97.78
SET       4.700        97.88
SET       4.800        97.99
SET       4.900        98.06
SET       5.000        98.14
SET       5.100        98.22
SET       5.200        98.29
SET       5.300        98.35
SET       5.400        98.44
SET       5.500        98.50
SET       5.600        98.55
SET       5.700        98.61
SET       5.800        98.67
SET       5.900        98.73
SET       6.000        98.79
SET       6.100        98.85
SET       6.200        98.92
SET       6.300        98.98
SET       6.400        99.04
SET       6.500        99.10
SET       6.600        99.15
SET       6.700        99.20
SET       6.800        99.23
SET       6.900        99.28
SET       7.000        99.31
SET       7.100        99.35
SET       7.200        99.38
SET       7.300        99.43
SET       7.400        99.46
SET       7.500        99.49
SET       7.600        99.52
SET       7.700        99.53
SET       7.800        99.57
SET       7.900        99.59
SET       8.000        99.61
SET       8.100        99.62
SET       8.200        99.64
SET       8.300        99.65
SET       8.400        99.68
SET       8.500        99.70
SET       8.600        99.72
SET       8.700        99.74
SET       8.800        99.75
SET       8.900        99.76
SET       9.000        99.78
SET       9.100        99.79
SET       9.200        99.80
SET       9.300        99.81
SET       9.400        99.82
SET       9.500        99.84
SET       9.600        99.85
SET       9.700        99.86
SET       9.800        99.87
SET       9.900        99.88
SET      10.000        99.91
SET      11.000        99.94
SET      12.000        99.96
SET      13.000        99.98
SET      14.000        99.98
SET      15.000        99.98
SET      16.000        99.99
SET      18.000       100.00
SET      24.000       100.00
---
---
