1         Threads
4         Connections per thread
70        Seconds


ALL STATS
========================================================================
Type        Ops/sec     Hits/sec   Misses/sec      Latency       KB/sec 
------------------------------------------------------------------------
Sets        1484.38          ---          ---      2.68900      5991.00 
Gets           0.00         0.00         0.00      0.00000         0.00 
Waits          0.00          ---          ---      0.00000          --- 
Totals      1484.38         0.00         0.00      2.68900      5991.00 


Request Latency Distribution
Type     <= msec         Percent
------------------------------------------------------------------------
SET       0.840         0.00
SET       0.850         0.00
SET       0.870         0.01
SET       0.880         0.01
SET       0.890         0.01
SET       0.900         0.02
SET       0.910         0.02
SET       0.920         0.04
SET       0.930         0.05
SET       0.940         0.06
SET       0.950         0.07
SET       0.960         0.09
SET       0.970         0.11
SET       0.980         0.12
SET       0.990         0.15
SET       1.000         0.41
SET       1.100         1.56
SET       1.200         4.17
SET       1.300         8.34
SET       1.400        13.81
SET       1.500        20.24
SET       1.600        27.08
SET       1.700        34.09
SET       1.800        40.83
SET       1.900        47.24
SET       2.000        52.91
SET       2.100        57.99
SET       2.200        62.27
SET       2.300        65.93
SET       2.400        69.00
SET       2.500        71.57
SET       2.600        73.92
SET       2.700        75.78
SET       2.800        77.37
SET       2.900        78.71
SET       3.000        79.91
SET       3.100        80.95
SET       3.200        81.92
SET       3.300        82.68
SET       3.400        83.36
SET       3.500        83.98
SET       3.600        84.51
SET       3.700        85.03
SET       3.800        85.50
SET       3.900        85.90
SET       4.000        86.30
SET       4.100        86.65
SET       4.200        86.98
SET       4.300        87.25
SET       4.400        87.50
SET       4.500        87.75
SET       4.600        87.99
SET       4.700        88.17
SET       4.800        88.39
SET       4.900        88.57
SET       5.000        88.76
SET       5.100        88.98
SET       5.200        89.22
SET       5.300        89.38
SET       5.400        89.56
SET       5.500        89.71
SET       5.600        89.86
SET       5.700        90.02
SET       5.800        90.18
SET       5.900        90.33
SET       6.000        90.47
SET       6.100        90.66
SET       6.200        90.89
SET       6.300        91.14
SET       6.400        91.42
SET       6.500        91.71
SET       6.600        92.04
SET       6.700        92.39
SET       6.800        92.81
SET       6.900        93.26
SET       7.000        93.74
SET       7.100        94.22
SET       7.200        94.75
SET       7.300        95.23
SET       7.400        95.67
SET       7.500        96.09
SET       7.600        96.48
SET       7.700        96.85
SET       7.800        97.12
SET       7.900        97.39
SET       8.000        97.62
SET       8.100        97.81
SET       8.200        98.00
SET       8.300        98.13
SET       8.400        98.28
SET       8.500        98.44
SET       8.600        98.54
SET       8.700        98.67
SET       8.800        98.76
SET       8.900        98.85
SET       9.000        98.93
SET       9.100        99.01
SET       9.200        99.07
SET       9.300        99.13
SET       9.400        99.18
SET       9.500        99.23
SET       9.600        99.27
SET       9.700        99.32
SET       9.800        99.36
SET       9.900        99.39
SET      10.000        99.55
SET      11.000        99.73
SET      12.000        99.82
SET      13.000        99.88
SET      14.000        99.91
SET      15.000        99.93
SET      16.000        99.95
SET      17.000        99.96
SET      18.000        99.97
SET      19.000        99.97
SET      20.000        99.98
SET      21.000        99.98
SET      22.000        99.98
SET      29.000        99.99
SET      32.000        99.99
SET      35.000        99.99
SET      49.000        99.99
SET      50.000        99.99
SET      52.000        99.99
SET      54.000        99.99
SET      55.000        99.99
SET      59.000       100.00
SET      89.000       100.00
SET     270.000       100.00
SET     290.000       100.00
SET     330.000       100.00
SET     350.000       100.00
---
---
