1         Threads
64        Connections per thread
70        Seconds


ALL STATS
========================================================================
Type        Ops/sec     Hits/sec   Misses/sec      Latency       KB/sec 
------------------------------------------------------------------------
Sets        1608.92          ---          ---     39.77300      6493.63 
Gets           0.00         0.00         0.00      0.00000         0.00 
Waits          0.00          ---          ---      0.00000          --- 
Totals      1608.92         0.00         0.00     39.77300      6493.63 


Request Latency Distribution
Type     <= msec         Percent
------------------------------------------------------------------------
SET       4.600         0.00
SET       9.600         0.00
SET      11.000         0.00
SET      15.000         0.00
SET      16.000         0.01
SET      17.000         0.01
SET      18.000         0.01
SET      19.000         0.02
SET      20.000         0.02
SET      21.000         0.02
SET      22.000         0.02
SET      23.000         0.02
SET      24.000         0.03
SET      25.000         0.06
SET      26.000         0.14
SET      27.000         0.31
SET      28.000         0.75
SET      29.000         1.68
SET      30.000         3.22
SET      31.000         5.46
SET      32.000         8.67
SET      33.000        13.00
SET      34.000        18.38
SET      35.000        24.72
SET      36.000        31.44
SET      37.000        38.25
SET      38.000        45.38
SET      39.000        52.79
SET      40.000        59.86
SET      41.000        66.67
SET      42.000        72.98
SET      43.000        78.41
SET      44.000        83.05
SET      45.000        86.83
SET      46.000        89.79
SET      47.000        92.04
SET      48.000        93.68
SET      49.000        94.85
SET      50.000        95.83
SET      51.000        96.50
SET      52.000        97.04
SET      53.000        97.44
SET      54.000        97.76
SET      55.000        98.09
SET      56.000        98.34
SET      57.000        98.53
SET      58.000        98.68
SET      59.000        98.83
SET      60.000        98.97
SET      61.000        99.11
SET      62.000        99.22
SET      63.000        99.34
SET      64.000        99.43
SET      65.000        99.55
SET      66.000        99.64
SET      67.000        99.70
SET      68.000        99.73
SET      69.000        99.75
SET      70.000        99.78
SET      71.000        99.80
SET      72.000        99.83
SET      73.000        99.84
SET      74.000        99.84
SET      75.000        99.84
SET      77.000        99.84
SET      78.000        99.84
SET      79.000        99.85
SET      92.000        99.85
SET      93.000        99.85
SET      98.000        99.85
SET      99.000        99.85
SET     100.000        99.85
SET     110.000        99.85
SET     120.000        99.87
SET     130.000        99.91
SET     140.000        99.93
SET     150.000        99.94
SET     160.000        99.98
SET     170.000       100.00
---
---
