"Dstat 0.7.2 CSV output"
"Author:","Dag Wieers <dag@wieers.com>",,,,"URL:","http://dag.wieers.com/home-made/dstat/"
"Host:","Server2",,,,"User:","maki"
"Cmdline:","dstat --output server2_set_1_14.csv 1 60",,,,"Date:","15 Nov 2018 08:59:28 UTC"

"total cpu usage",,,,,,"dsk/total",,"net/total",,"paging",,"system",
"usr","sys","idl","wai","hiq","siq","read","writ","recv","send","in","out","int","csw"
2.526,3.240,88.074,5.794,0.0,0.367,203511.677,744859.404,0.0,0.0,0.0,0.0,21.390,892.730
1.053,2.105,96.842,0.0,0.0,0.0,0.0,0.0,12604330.0,408872.0,0.0,0.0,18.0,956.0
1.020,3.061,95.918,0.0,0.0,0.0,0.0,0.0,12262620.0,397838.0,0.0,0.0,19.0,991.0
2.083,2.083,95.833,0.0,0.0,0.0,0.0,0.0,12210597.0,400497.0,0.0,0.0,18.0,926.0
2.083,2.083,95.833,0.0,0.0,0.0,0.0,0.0,12474800.0,404818.0,0.0,0.0,18.0,979.0
2.083,3.125,94.792,0.0,0.0,0.0,0.0,0.0,11993224.0,389408.0,0.0,0.0,18.0,943.0
2.020,3.030,93.939,0.0,0.0,1.010,0.0,0.0,12356449.0,400598.0,0.0,0.0,19.0,889.0
2.083,3.125,94.792,0.0,0.0,0.0,0.0,0.0,12360583.0,405681.0,0.0,0.0,18.0,1027.0
2.020,3.030,93.939,0.0,0.0,1.010,0.0,0.0,12032141.0,390340.0,0.0,0.0,18.0,907.0
2.062,2.062,95.876,0.0,0.0,0.0,0.0,0.0,12198005.0,396316.0,0.0,0.0,18.0,935.0
1.042,4.167,94.792,0.0,0.0,0.0,0.0,0.0,11450084.0,375961.0,0.0,0.0,18.0,928.0
1.042,2.083,96.875,0.0,0.0,0.0,0.0,0.0,11883712.0,385190.0,0.0,0.0,19.0,919.0
1.020,4.082,94.898,0.0,0.0,0.0,0.0,0.0,12001885.0,389516.0,0.0,0.0,18.0,839.0
2.062,2.062,94.845,0.0,0.0,1.031,0.0,0.0,12160426.0,399261.0,0.0,0.0,18.0,974.0
3.030,4.040,92.929,0.0,0.0,0.0,0.0,0.0,12484112.0,405466.0,0.0,0.0,18.0,1015.0
2.041,3.061,93.878,0.0,0.0,1.020,0.0,0.0,11449761.0,371612.0,0.0,0.0,18.0,910.0
1.053,2.105,96.842,0.0,0.0,0.0,0.0,0.0,12340623.0,404411.0,0.0,0.0,19.0,942.0
3.093,5.155,91.753,0.0,0.0,0.0,0.0,0.0,12144153.0,399212.0,0.0,0.0,18.0,1079.0
1.020,4.082,94.898,0.0,0.0,0.0,0.0,0.0,11573739.0,375878.0,0.0,0.0,18.0,934.0
1.053,1.053,96.842,0.0,0.0,1.053,0.0,16384.0,11868750.0,389923.0,0.0,0.0,18.0,922.0
1.0,7.0,92.0,0.0,0.0,0.0,0.0,0.0,12866413.0,417450.0,0.0,0.0,18.0,1037.0
1.020,4.082,94.898,0.0,0.0,0.0,0.0,0.0,11939919.0,387244.0,0.0,0.0,19.0,929.0
2.062,2.062,94.845,0.0,0.0,1.031,0.0,0.0,11374861.0,373679.0,0.0,0.0,18.0,924.0
2.020,4.040,93.939,0.0,0.0,0.0,0.0,0.0,11291515.0,366950.0,0.0,0.0,18.0,904.0
2.062,2.062,92.784,3.093,0.0,0.0,0.0,122880.0,12761223.0,413610.0,0.0,0.0,18.0,1036.0
3.030,3.030,91.919,0.0,0.0,2.020,0.0,0.0,11747437.0,386115.0,0.0,0.0,19.0,1026.0
2.062,2.062,95.876,0.0,0.0,0.0,0.0,0.0,12510096.0,405830.0,0.0,0.0,18.0,972.0
0.0,2.083,96.875,0.0,0.0,1.042,0.0,0.0,11944178.0,387688.0,0.0,0.0,18.0,808.0
2.083,1.042,96.875,0.0,0.0,0.0,0.0,0.0,11387843.0,374669.0,0.0,0.0,18.0,903.0
1.042,2.083,96.875,0.0,0.0,0.0,0.0,0.0,12548061.0,406988.0,0.0,0.0,18.0,952.0
3.061,3.061,92.857,0.0,0.0,1.020,0.0,0.0,12094655.0,389932.0,0.0,0.0,19.0,910.0
1.042,3.125,95.833,0.0,0.0,0.0,0.0,0.0,12208995.0,402449.0,0.0,0.0,18.0,1041.0
2.041,4.082,93.878,0.0,0.0,0.0,0.0,0.0,12350525.0,400716.0,0.0,0.0,18.0,932.0
2.041,3.061,94.898,0.0,0.0,0.0,0.0,0.0,12414298.0,403726.0,0.0,0.0,18.0,949.0
4.082,3.061,92.857,0.0,0.0,0.0,0.0,4096.0,12157897.0,399647.0,0.0,0.0,18.0,995.0
1.020,2.041,95.918,0.0,0.0,1.020,0.0,0.0,12053810.0,391196.0,0.0,0.0,19.0,977.0
2.041,6.122,90.816,0.0,0.0,1.020,0.0,0.0,12832295.0,417380.0,0.0,0.0,18.0,1022.0
4.0,4.0,92.0,0.0,0.0,0.0,0.0,0.0,12471270.0,408349.0,0.0,0.0,18.0,1021.0
2.083,2.083,95.833,0.0,0.0,0.0,0.0,0.0,12432482.0,403220.0,0.0,0.0,18.0,943.0
2.020,3.030,93.939,0.0,0.0,1.010,0.0,0.0,12314472.0,399272.0,0.0,0.0,18.0,955.0
2.020,4.040,92.929,0.0,0.0,1.010,0.0,0.0,12048041.0,395453.0,0.0,0.0,19.0,983.0
1.031,4.124,94.845,0.0,0.0,0.0,0.0,0.0,11890952.0,385474.0,0.0,0.0,18.0,923.0
1.042,3.125,95.833,0.0,0.0,0.0,0.0,0.0,12944194.0,419556.0,0.0,0.0,18.0,992.0
1.053,2.105,96.842,0.0,0.0,0.0,0.0,0.0,11560963.0,379391.0,0.0,0.0,18.0,990.0
2.062,2.062,95.876,0.0,0.0,0.0,0.0,0.0,12729531.0,412790.0,0.0,0.0,18.0,994.0
3.030,4.040,92.929,0.0,0.0,0.0,0.0,0.0,12641647.0,410002.0,0.0,0.0,19.0,984.0
3.061,4.082,92.857,0.0,0.0,0.0,0.0,0.0,11813266.0,387413.0,0.0,0.0,18.0,957.0
1.042,2.083,96.875,0.0,0.0,0.0,0.0,0.0,12194843.0,395668.0,0.0,0.0,18.0,882.0
1.0,6.0,93.0,0.0,0.0,0.0,0.0,0.0,12700736.0,411978.0,0.0,0.0,18.0,949.0
2.041,4.082,93.878,0.0,0.0,0.0,0.0,0.0,12695052.0,416231.0,0.0,0.0,18.0,987.0
4.040,1.010,93.939,0.0,0.0,1.010,0.0,0.0,12679151.0,410950.0,0.0,0.0,19.0,1020.0
2.041,4.082,93.878,0.0,0.0,0.0,0.0,0.0,11913982.0,386248.0,0.0,0.0,18.0,936.0
4.082,3.061,92.857,0.0,0.0,0.0,0.0,0.0,11350810.0,373085.0,0.0,0.0,18.0,894.0
2.020,4.040,93.939,0.0,0.0,0.0,0.0,0.0,12735330.0,412926.0,0.0,0.0,18.0,946.0
1.042,2.083,96.875,0.0,0.0,0.0,0.0,0.0,12634423.0,409566.0,0.0,0.0,19.0,920.0
3.0,4.0,90.0,2.0,0.0,1.0,0.0,20480.0,12398309.0,406805.0,0.0,0.0,18.0,1063.0
1.042,4.167,94.792,0.0,0.0,0.0,0.0,0.0,12363012.0,401540.0,0.0,0.0,18.0,1024.0
1.042,3.125,95.833,0.0,0.0,0.0,0.0,0.0,13439967.0,435590.0,0.0,0.0,18.0,959.0
2.041,4.082,93.878,0.0,0.0,0.0,0.0,0.0,13468692.0,440811.0,0.0,0.0,18.0,1042.0
1.042,2.083,95.833,0.0,0.0,1.042,0.0,0.0,13341928.0,432382.0,0.0,0.0,19.0,1095.0
2.041,3.061,94.898,0.0,0.0,0.0,0.0,0.0,12634329.0,409932.0,0.0,0.0,18.0,1028.0
