"Dstat 0.7.2 CSV output"
"Author:","Dag Wieers <dag@wieers.com>",,,,"URL:","http://dag.wieers.com/home-made/dstat/"
"Host:","Server2",,,,"User:","maki"
"Cmdline:","dstat --output server2_get_1_14.csv 1 60",,,,"Date:","15 Nov 2018 09:31:45 UTC"

"total cpu usage",,,,,,"dsk/total",,"net/total",,"paging",,"system",
"usr","sys","idl","wai","hiq","siq","read","writ","recv","send","in","out","int","csw"
2.398,3.586,91.393,2.261,0.0,0.361,75579.971,278023.337,0.0,0.0,0.0,0.0,19.391,1321.677
1.053,3.158,95.789,0.0,0.0,0.0,0.0,0.0,457510.0,12772982.0,0.0,0.0,19.0,1023.0
1.031,5.155,92.784,0.0,0.0,1.031,0.0,0.0,439681.0,12501752.0,0.0,0.0,18.0,1010.0
1.020,5.102,93.878,0.0,0.0,0.0,0.0,0.0,439873.0,12500323.0,0.0,0.0,18.0,1032.0
2.083,6.250,91.667,0.0,0.0,0.0,0.0,0.0,447929.0,12500290.0,0.0,0.0,18.0,1107.0
0.0,4.167,95.833,0.0,0.0,0.0,0.0,0.0,439577.0,12498717.0,0.0,0.0,18.0,970.0
1.042,1.042,96.875,0.0,0.0,1.042,0.0,0.0,439706.0,12500312.0,0.0,0.0,19.0,1031.0
3.061,5.102,90.816,0.0,0.0,1.020,0.0,0.0,445395.0,12500350.0,0.0,0.0,18.0,1030.0
0.0,0.0,100.0,0.0,0.0,0.0,0.0,0.0,439748.0,12498928.0,0.0,0.0,18.0,1028.0
1.031,3.093,95.876,0.0,0.0,0.0,0.0,0.0,439799.0,12500325.0,0.0,0.0,18.0,939.0
3.093,3.093,93.814,0.0,0.0,0.0,0.0,0.0,445391.0,12500434.0,0.0,0.0,18.0,1070.0
0.0,4.124,94.845,0.0,0.0,1.031,0.0,0.0,439740.0,12500337.0,0.0,0.0,19.0,1018.0
1.020,5.102,89.796,4.082,0.0,0.0,0.0,106496.0,439727.0,12500255.0,0.0,0.0,18.0,1109.0
2.041,5.102,92.857,0.0,0.0,0.0,0.0,0.0,445469.0,12500348.0,0.0,0.0,18.0,1042.0
0.0,2.128,97.872,0.0,0.0,0.0,0.0,0.0,439669.0,12498654.0,0.0,0.0,18.0,1058.0
1.042,3.125,95.833,0.0,0.0,0.0,0.0,0.0,439833.0,12500282.0,0.0,0.0,18.0,988.0
1.020,4.082,93.878,0.0,0.0,1.020,0.0,0.0,445110.0,12500256.0,0.0,0.0,19.0,1045.0
3.125,3.125,93.750,0.0,0.0,0.0,0.0,0.0,440305.0,12500409.0,0.0,0.0,18.0,992.0
0.0,4.167,95.833,0.0,0.0,0.0,0.0,0.0,439752.0,12500355.0,0.0,0.0,18.0,984.0
1.020,3.061,94.898,0.0,0.0,1.020,0.0,0.0,439754.0,12498895.0,0.0,0.0,18.0,1011.0
1.010,6.061,91.919,0.0,0.0,1.010,0.0,0.0,445489.0,12500445.0,0.0,0.0,19.0,1044.0
1.010,6.061,92.929,0.0,0.0,0.0,0.0,0.0,439694.0,12500220.0,0.0,0.0,18.0,992.0
2.062,3.093,94.845,0.0,0.0,0.0,0.0,0.0,439496.0,12497456.0,0.0,0.0,18.0,988.0
1.031,5.155,93.814,0.0,0.0,0.0,0.0,0.0,445411.0,12501913.0,0.0,0.0,18.0,1046.0
0.0,4.082,94.898,0.0,0.0,1.020,0.0,0.0,439798.0,12500184.0,0.0,0.0,18.0,1021.0
1.042,3.125,95.833,0.0,0.0,0.0,0.0,0.0,439699.0,12500228.0,0.0,0.0,18.0,955.0
1.042,2.083,95.833,0.0,0.0,1.042,0.0,0.0,445331.0,12500365.0,0.0,0.0,19.0,1016.0
1.031,4.124,94.845,0.0,0.0,0.0,0.0,0.0,439728.0,12498864.0,0.0,0.0,18.0,993.0
1.042,3.125,95.833,0.0,0.0,0.0,0.0,0.0,439705.0,12500308.0,0.0,0.0,18.0,902.0
1.010,6.061,92.929,0.0,0.0,0.0,0.0,0.0,445302.0,12500340.0,0.0,0.0,18.0,1042.0
1.031,3.093,94.845,0.0,0.0,1.031,0.0,0.0,439702.0,12500296.0,0.0,0.0,18.0,984.0
1.020,5.102,93.878,0.0,0.0,0.0,0.0,0.0,439685.0,12498820.0,0.0,0.0,19.0,984.0
1.053,4.211,94.737,0.0,0.0,0.0,0.0,0.0,445440.0,12500400.0,0.0,0.0,18.0,1065.0
2.0,4.0,93.0,0.0,0.0,1.0,0.0,0.0,439829.0,12500359.0,0.0,0.0,18.0,1002.0
0.0,6.122,93.878,0.0,0.0,0.0,0.0,0.0,439798.0,12500397.0,0.0,0.0,18.0,995.0
1.064,2.128,96.809,0.0,0.0,0.0,0.0,0.0,445417.0,12500455.0,0.0,0.0,18.0,1022.0
1.064,1.064,97.872,0.0,0.0,0.0,0.0,0.0,439831.0,12498813.0,0.0,0.0,19.0,931.0
2.062,4.124,93.814,0.0,0.0,0.0,0.0,0.0,439603.0,12500206.0,0.0,0.0,18.0,1009.0
2.062,4.124,92.784,0.0,0.0,1.031,0.0,0.0,445383.0,12500344.0,0.0,0.0,19.0,1055.0
0.0,2.105,97.895,0.0,0.0,0.0,0.0,0.0,439717.0,12500322.0,0.0,0.0,18.0,1027.0
0.0,2.083,96.875,0.0,0.0,1.042,0.0,0.0,438584.0,12483149.0,0.0,0.0,19.0,1004.0
2.041,4.082,93.878,0.0,0.0,0.0,0.0,0.0,446432.0,12514684.0,0.0,0.0,18.0,1071.0
0.0,6.186,93.814,0.0,0.0,0.0,0.0,0.0,439711.0,12501781.0,0.0,0.0,18.0,1061.0
2.041,3.061,91.837,3.061,0.0,0.0,0.0,24576.0,439652.0,12500257.0,0.0,0.0,18.0,1048.0
2.041,4.082,92.857,0.0,0.0,1.020,0.0,0.0,445366.0,12498939.0,0.0,0.0,18.0,1102.0
1.0,5.0,93.0,0.0,0.0,1.0,0.0,0.0,439733.0,12500335.0,0.0,0.0,19.0,997.0
1.031,4.124,94.845,0.0,0.0,0.0,0.0,0.0,439674.0,12500276.0,0.0,0.0,18.0,960.0
2.083,4.167,93.750,0.0,0.0,0.0,0.0,0.0,445476.0,12500435.0,0.0,0.0,18.0,1086.0
2.062,2.062,95.876,0.0,0.0,0.0,0.0,0.0,439796.0,12498858.0,0.0,0.0,18.0,990.0
1.031,4.124,94.845,0.0,0.0,0.0,0.0,0.0,439717.0,12500322.0,0.0,0.0,18.0,980.0
1.031,4.124,93.814,0.0,0.0,1.031,0.0,0.0,445709.0,12499859.0,0.0,0.0,19.0,1046.0
1.010,4.040,93.939,0.0,0.0,1.010,0.0,0.0,440821.0,12499860.0,0.0,0.0,18.0,1001.0
2.105,2.105,95.789,0.0,0.0,0.0,0.0,0.0,439844.0,12500074.0,0.0,0.0,18.0,899.0
2.062,2.062,94.845,0.0,0.0,1.031,0.0,0.0,445388.0,12498934.0,0.0,0.0,18.0,979.0
1.020,4.082,94.898,0.0,0.0,0.0,0.0,0.0,439988.0,12501617.0,0.0,0.0,19.0,1022.0
1.020,3.061,93.878,0.0,0.0,2.041,0.0,0.0,439691.0,12497572.0,0.0,0.0,18.0,1019.0
1.042,2.083,95.833,0.0,0.0,1.042,0.0,0.0,445504.0,12501840.0,0.0,0.0,18.0,1094.0
2.062,4.124,93.814,0.0,0.0,0.0,0.0,0.0,439716.0,12500319.0,0.0,0.0,18.0,986.0
0.0,3.125,96.875,0.0,0.0,0.0,0.0,0.0,439647.0,12500274.0,0.0,0.0,18.0,958.0
2.083,3.125,94.792,0.0,0.0,0.0,0.0,0.0,445548.0,12500366.0,0.0,0.0,19.0,1068.0
2.041,3.061,94.898,0.0,0.0,0.0,0.0,0.0,439525.0,12497484.0,0.0,0.0,18.0,975.0
