"Dstat 0.7.2 CSV output"
"Author:","Dag Wieers <dag@wieers.com>",,,,"URL:","http://dag.wieers.com/home-made/dstat/"
"Host:","Server2",,,,"User:","maki"
"Cmdline:","dstat --output server2_set_1_8.csv 1 60",,,,"Date:","15 Nov 2018 08:57:04 UTC"

"total cpu usage",,,,,,"dsk/total",,"net/total",,"paging",,"system",
"usr","sys","idl","wai","hiq","siq","read","writ","recv","send","in","out","int","csw"
2.583,3.233,87.182,6.623,0.0,0.379,232882.524,852050.423,0.0,0.0,0.0,0.0,21.850,868.618
2.105,3.158,93.684,0.0,0.0,1.053,0.0,0.0,14161461.0,464501.0,0.0,0.0,18.0,1388.0
1.020,4.082,94.898,0.0,0.0,0.0,0.0,0.0,11961539.0,387274.0,0.0,0.0,18.0,1126.0
1.031,2.062,95.876,0.0,0.0,1.031,0.0,0.0,11617810.0,375952.0,0.0,0.0,19.0,1049.0
2.105,3.158,94.737,0.0,0.0,0.0,0.0,8192.0,11688335.0,383709.0,0.0,0.0,18.0,1137.0
2.062,3.093,93.814,0.0,0.0,1.031,0.0,0.0,13838843.0,448626.0,0.0,0.0,18.0,1412.0
0.0,4.255,95.745,0.0,0.0,0.0,0.0,0.0,16171862.0,523440.0,0.0,0.0,18.0,1507.0
3.093,2.062,94.845,0.0,0.0,0.0,0.0,0.0,11543453.0,379409.0,0.0,0.0,18.0,1135.0
1.031,3.093,94.845,0.0,0.0,1.031,0.0,0.0,12197485.0,394352.0,0.0,0.0,19.0,1127.0
2.062,3.093,94.845,0.0,0.0,0.0,0.0,0.0,11722990.0,380254.0,0.0,0.0,18.0,1111.0
2.062,3.093,91.753,2.062,0.0,1.031,0.0,49152.0,11446677.0,375139.0,0.0,0.0,18.0,1079.0
2.062,3.093,94.845,0.0,0.0,0.0,0.0,0.0,11582650.0,374978.0,0.0,0.0,18.0,1041.0
2.041,4.082,93.878,0.0,0.0,0.0,0.0,0.0,12608199.0,409504.0,0.0,0.0,18.0,1238.0
2.041,3.061,94.898,0.0,0.0,0.0,0.0,0.0,12724863.0,411538.0,0.0,0.0,19.0,1194.0
2.105,3.158,94.737,0.0,0.0,0.0,0.0,4096.0,12145714.0,398947.0,0.0,0.0,18.0,1156.0
2.041,3.061,93.878,0.0,0.0,1.020,0.0,0.0,12477259.0,403172.0,0.0,0.0,18.0,1228.0
0.0,1.075,98.925,0.0,0.0,0.0,0.0,0.0,12360603.0,401632.0,0.0,0.0,18.0,1128.0
3.158,2.105,94.737,0.0,0.0,0.0,0.0,0.0,12801419.0,418189.0,0.0,0.0,19.0,1280.0
2.020,4.040,92.929,0.0,0.0,1.010,0.0,0.0,12759634.0,413330.0,0.0,0.0,18.0,1229.0
1.020,6.122,92.857,0.0,0.0,0.0,0.0,0.0,11768390.0,381892.0,0.0,0.0,18.0,1129.0
4.167,1.042,94.792,0.0,0.0,0.0,0.0,0.0,11660463.0,381621.0,0.0,0.0,18.0,1131.0
2.041,4.082,93.878,0.0,0.0,0.0,0.0,0.0,12629621.0,410018.0,0.0,0.0,18.0,1202.0
2.020,4.040,93.939,0.0,0.0,0.0,0.0,0.0,12202966.0,394778.0,0.0,0.0,19.0,1152.0
2.062,4.124,93.814,0.0,0.0,0.0,0.0,0.0,12089732.0,395773.0,0.0,0.0,18.0,1101.0
2.041,6.122,91.837,0.0,0.0,0.0,0.0,0.0,11978446.0,389092.0,0.0,0.0,18.0,1199.0
1.031,4.124,93.814,0.0,0.0,1.031,0.0,0.0,13991304.0,453558.0,0.0,0.0,18.0,1320.0
2.083,4.167,93.750,0.0,0.0,0.0,0.0,0.0,12449182.0,406867.0,0.0,0.0,18.0,1296.0
3.093,2.062,93.814,0.0,0.0,1.031,0.0,0.0,12319766.0,399126.0,0.0,0.0,19.0,1290.0
2.041,4.082,93.878,0.0,0.0,0.0,0.0,0.0,12266138.0,398866.0,0.0,0.0,18.0,1214.0
2.128,2.128,94.681,0.0,0.0,1.064,0.0,0.0,12285587.0,402475.0,0.0,0.0,18.0,1338.0
2.041,4.082,93.878,0.0,0.0,0.0,0.0,0.0,12910621.0,417446.0,0.0,0.0,18.0,1275.0
2.062,2.062,94.845,0.0,0.0,1.031,0.0,0.0,11173174.0,362102.0,0.0,0.0,18.0,1093.0
1.053,3.158,95.789,0.0,0.0,0.0,0.0,0.0,11269795.0,369391.0,0.0,0.0,19.0,1066.0
1.031,3.093,95.876,0.0,0.0,0.0,0.0,0.0,12530603.0,406330.0,0.0,0.0,18.0,1239.0
3.061,3.061,92.857,0.0,0.0,1.020,0.0,0.0,11645404.0,377072.0,0.0,0.0,18.0,1139.0
1.042,2.083,96.875,0.0,0.0,0.0,0.0,4096.0,11235183.0,368691.0,0.0,0.0,18.0,1079.0
1.031,3.093,95.876,0.0,0.0,0.0,0.0,0.0,12098244.0,391630.0,0.0,0.0,18.0,1122.0
2.083,2.083,95.833,0.0,0.0,0.0,0.0,0.0,12081613.0,391944.0,0.0,0.0,18.0,1226.0
3.030,4.040,91.919,0.0,0.0,1.010,0.0,0.0,12789298.0,420291.0,0.0,0.0,19.0,1292.0
1.042,4.167,94.792,0.0,0.0,0.0,0.0,0.0,12575182.0,406288.0,0.0,0.0,18.0,1169.0
3.030,3.030,93.939,0.0,0.0,0.0,0.0,28672.0,11656780.0,377512.0,0.0,0.0,18.0,1074.0
3.158,3.158,90.526,2.105,0.0,1.053,0.0,24576.0,12196448.0,406551.0,0.0,0.0,18.0,1330.0
2.083,3.125,94.792,0.0,0.0,0.0,0.0,0.0,12736707.0,412758.0,0.0,0.0,19.0,1288.0
1.042,2.083,96.875,0.0,0.0,0.0,0.0,0.0,12287556.0,397560.0,0.0,0.0,18.0,1270.0
2.083,3.125,93.750,0.0,0.0,1.042,0.0,0.0,11216513.0,367851.0,0.0,0.0,18.0,1165.0
1.053,3.158,95.789,0.0,0.0,0.0,0.0,0.0,12381818.0,401894.0,0.0,0.0,18.0,1298.0
1.042,4.167,94.792,0.0,0.0,0.0,0.0,0.0,12655710.0,409722.0,0.0,0.0,19.0,1317.0
1.042,2.083,95.833,0.0,0.0,1.042,0.0,0.0,10964043.0,360537.0,0.0,0.0,18.0,1112.0
2.041,3.061,94.898,0.0,0.0,0.0,0.0,0.0,11550619.0,373854.0,0.0,0.0,18.0,1077.0
1.053,3.158,95.789,0.0,0.0,0.0,0.0,0.0,11689164.0,379228.0,0.0,0.0,18.0,1149.0
2.020,5.051,92.929,0.0,0.0,0.0,0.0,0.0,12282711.0,402093.0,0.0,0.0,18.0,1162.0
0.0,2.083,96.875,0.0,0.0,1.042,0.0,0.0,12005925.0,388706.0,0.0,0.0,18.0,1176.0
2.062,2.062,95.876,0.0,0.0,0.0,0.0,0.0,11598369.0,376494.0,0.0,0.0,19.0,1092.0
2.062,4.124,93.814,0.0,0.0,0.0,0.0,0.0,12207260.0,398751.0,0.0,0.0,18.0,1202.0
1.042,4.167,94.792,0.0,0.0,0.0,0.0,0.0,11989848.0,388524.0,0.0,0.0,18.0,1170.0
1.020,5.102,93.878,0.0,0.0,0.0,0.0,0.0,11403846.0,370194.0,0.0,0.0,18.0,1075.0
2.105,1.053,95.789,0.0,0.0,1.053,0.0,0.0,11579185.0,380611.0,0.0,0.0,19.0,1212.0
2.020,4.040,93.939,0.0,0.0,0.0,0.0,0.0,11423770.0,370588.0,0.0,0.0,18.0,1127.0
1.031,4.124,93.814,0.0,0.0,1.031,0.0,0.0,12449631.0,403994.0,0.0,0.0,18.0,1224.0
2.128,3.191,94.681,0.0,0.0,0.0,0.0,0.0,11887230.0,388403.0,0.0,0.0,18.0,1270.0
1.042,3.125,95.833,0.0,0.0,0.0,0.0,0.0,11644362.0,377564.0,0.0,0.0,18.0,1142.0
