"Dstat 0.7.2 CSV output"
"Author:","Dag Wieers <dag@wieers.com>",,,,"URL:","http://dag.wieers.com/home-made/dstat/"
"Host:","Server2",,,,"User:","maki"
"Cmdline:","dstat --output server2_set_1_32.csv 1 60",,,,"Date:","15 Nov 2018 09:01:51 UTC"

"total cpu usage",,,,,,"dsk/total",,"net/total",,"paging",,"system",
"usr","sys","idl","wai","hiq","siq","read","writ","recv","send","in","out","int","csw"
2.477,3.233,88.767,5.154,0.0,0.369,180879.595,662251.151,0.0,0.0,0.0,0.0,21.038,891.524
2.041,3.061,94.898,0.0,0.0,0.0,0.0,0.0,12202482.0,401103.0,0.0,0.0,18.0,645.0
0.0,2.083,96.875,0.0,0.0,1.042,0.0,0.0,12910068.0,419810.0,0.0,0.0,18.0,592.0
1.020,4.082,94.898,0.0,0.0,0.0,0.0,0.0,11935926.0,389886.0,0.0,0.0,18.0,570.0
2.041,3.061,94.898,0.0,0.0,0.0,0.0,0.0,12150813.0,400149.0,0.0,0.0,18.0,607.0
3.0,3.0,90.0,3.0,0.0,1.0,0.0,49152.0,12608084.0,411544.0,0.0,0.0,19.0,623.0
1.020,4.082,94.898,0.0,0.0,0.0,0.0,0.0,12209685.0,397208.0,0.0,0.0,18.0,646.0
3.061,2.041,93.878,0.0,0.0,1.020,0.0,0.0,13519502.0,444251.0,0.0,0.0,18.0,677.0
2.083,3.125,94.792,0.0,0.0,0.0,0.0,0.0,13020784.0,423176.0,0.0,0.0,18.0,689.0
1.031,3.093,95.876,0.0,0.0,0.0,0.0,36864.0,12532289.0,407142.0,0.0,0.0,19.0,691.0
2.020,4.040,92.929,0.0,0.0,1.010,0.0,0.0,13363654.0,438325.0,0.0,0.0,18.0,678.0
1.031,3.093,95.876,0.0,0.0,0.0,0.0,0.0,12509045.0,406508.0,0.0,0.0,18.0,620.0
1.031,3.093,95.876,0.0,0.0,0.0,0.0,0.0,12437528.0,406092.0,0.0,0.0,18.0,653.0
3.0,5.0,91.0,0.0,0.0,1.0,0.0,0.0,12368982.0,408335.0,0.0,0.0,18.0,677.0
2.083,1.042,96.875,0.0,0.0,0.0,0.0,0.0,13334912.0,432472.0,0.0,0.0,19.0,560.0
2.020,3.030,94.949,0.0,0.0,0.0,0.0,0.0,12854908.0,417822.0,0.0,0.0,18.0,646.0
2.062,3.093,94.845,0.0,0.0,0.0,0.0,0.0,12289783.0,402524.0,0.0,0.0,18.0,634.0
1.010,3.030,94.949,0.0,0.0,1.010,0.0,0.0,12185531.0,397691.0,0.0,0.0,18.0,586.0
1.042,3.125,94.792,0.0,0.0,1.042,0.0,0.0,12290321.0,399568.0,0.0,0.0,18.0,584.0
1.980,3.960,93.069,0.0,0.0,0.990,0.0,8192.0,12542557.0,409176.0,0.0,0.0,19.0,615.0
1.042,3.125,95.833,0.0,0.0,0.0,0.0,0.0,12011402.0,397425.0,0.0,0.0,18.0,596.0
1.031,2.062,95.876,0.0,0.0,1.031,0.0,0.0,12848373.0,419162.0,0.0,0.0,18.0,609.0
2.020,2.020,94.949,0.0,0.0,1.010,0.0,0.0,12320752.0,401356.0,0.0,0.0,18.0,556.0
4.0,5.0,91.0,0.0,0.0,0.0,0.0,0.0,12697060.0,419431.0,0.0,0.0,18.0,676.0
2.062,2.062,95.876,0.0,0.0,0.0,0.0,0.0,12424585.0,405944.0,0.0,0.0,19.0,561.0
0.0,3.061,95.918,0.0,0.0,1.020,0.0,0.0,12440337.0,405826.0,0.0,0.0,18.0,593.0
3.093,2.062,94.845,0.0,0.0,0.0,0.0,0.0,12507771.0,410289.0,0.0,0.0,18.0,597.0
2.020,3.030,94.949,0.0,0.0,0.0,0.0,0.0,12363658.0,401436.0,0.0,0.0,18.0,534.0
3.0,4.0,92.0,0.0,0.0,1.0,0.0,0.0,13778583.0,447474.0,0.0,0.0,18.0,743.0
2.062,3.093,93.814,0.0,0.0,1.031,0.0,0.0,13380541.0,441865.0,0.0,0.0,19.0,639.0
1.020,2.041,95.918,0.0,0.0,1.020,0.0,0.0,12327561.0,401124.0,0.0,0.0,18.0,610.0
3.030,3.030,93.939,0.0,0.0,0.0,0.0,0.0,13076977.0,425204.0,0.0,0.0,18.0,661.0
3.030,2.020,93.939,0.0,0.0,1.010,0.0,0.0,12434429.0,409099.0,0.0,0.0,18.0,621.0
1.0,5.0,93.0,0.0,0.0,1.0,0.0,0.0,12132848.0,394808.0,0.0,0.0,18.0,605.0
2.041,3.061,94.898,0.0,0.0,0.0,0.0,4096.0,12865454.0,419418.0,0.0,0.0,19.0,624.0
3.061,2.041,93.878,0.0,0.0,1.020,0.0,0.0,12983201.0,425595.0,0.0,0.0,18.0,663.0
1.010,2.020,91.919,3.030,0.0,2.020,0.0,20480.0,12609912.0,409334.0,0.0,0.0,18.0,633.0
2.083,2.083,95.833,0.0,0.0,0.0,0.0,0.0,12584331.0,409224.0,0.0,0.0,18.0,583.0
2.083,2.083,94.792,0.0,0.0,1.042,0.0,0.0,12934275.0,424485.0,0.0,0.0,19.0,673.0
2.062,3.093,94.845,0.0,0.0,0.0,0.0,0.0,12977868.0,423888.0,0.0,0.0,18.0,650.0
2.020,4.040,93.939,0.0,0.0,0.0,0.0,0.0,12732482.0,413098.0,0.0,0.0,18.0,620.0
1.042,2.083,95.833,0.0,0.0,1.042,0.0,0.0,12248300.0,401717.0,0.0,0.0,18.0,570.0
1.010,5.051,93.939,0.0,0.0,0.0,0.0,0.0,12596116.0,410882.0,0.0,0.0,18.0,565.0
2.083,2.083,94.792,0.0,0.0,1.042,0.0,0.0,11965941.0,389426.0,0.0,0.0,19.0,601.0
3.960,5.941,90.099,0.0,0.0,0.0,0.0,0.0,12830884.0,422179.0,0.0,0.0,18.0,660.0
0.0,4.040,93.939,0.0,0.0,2.020,0.0,0.0,12621587.0,409364.0,0.0,0.0,18.0,655.0
2.062,3.093,94.845,0.0,0.0,0.0,0.0,0.0,12703669.0,413820.0,0.0,0.0,18.0,726.0
2.083,1.042,95.833,0.0,0.0,1.042,0.0,0.0,12999463.0,428333.0,0.0,0.0,18.0,755.0
2.062,4.124,93.814,0.0,0.0,0.0,0.0,0.0,13028120.0,423676.0,0.0,0.0,19.0,693.0
3.030,2.020,94.949,0.0,0.0,0.0,0.0,0.0,12873641.0,418030.0,0.0,0.0,18.0,609.0
3.030,3.030,92.929,0.0,0.0,1.010,0.0,0.0,11914109.0,391125.0,0.0,0.0,18.0,583.0
0.0,3.093,96.907,0.0,0.0,0.0,0.0,0.0,12343375.0,401762.0,0.0,0.0,18.0,585.0
2.020,3.030,94.949,0.0,0.0,0.0,0.0,0.0,12624427.0,410316.0,0.0,0.0,18.0,587.0
2.083,2.083,93.750,0.0,0.0,2.083,0.0,0.0,12961605.0,425601.0,0.0,0.0,19.0,734.0
2.083,5.208,92.708,0.0,0.0,0.0,0.0,0.0,12409944.0,410304.0,0.0,0.0,18.0,599.0
3.061,2.041,94.898,0.0,0.0,0.0,0.0,0.0,12607138.0,409756.0,0.0,0.0,18.0,618.0
2.0,4.0,92.0,0.0,0.0,2.0,0.0,0.0,12738398.0,418895.0,0.0,0.0,18.0,664.0
1.020,4.082,94.898,0.0,0.0,0.0,0.0,0.0,12535151.0,407130.0,0.0,0.0,18.0,615.0
2.041,5.102,92.857,0.0,0.0,0.0,0.0,0.0,12752560.0,414278.0,0.0,0.0,19.0,624.0
2.062,3.093,94.845,0.0,0.0,0.0,0.0,0.0,13235593.0,435463.0,0.0,0.0,18.0,644.0
2.041,2.041,95.918,0.0,0.0,0.0,0.0,0.0,12428431.0,403470.0,0.0,0.0,18.0,638.0
