2         Threads
32        Connections per thread
70        Seconds


ALL STATS
========================================================================
Type        Ops/sec     Hits/sec   Misses/sec      Latency       KB/sec 
------------------------------------------------------------------------
Sets           0.00          ---          ---      0.00000         0.00 
Gets         977.69       977.69         0.00     65.60800      3960.20 
Waits          0.00          ---          ---      0.00000          --- 
Totals       977.69       977.69         0.00     65.60800      3960.20 


Request Latency Distribution
Type     <= msec         Percent
------------------------------------------------------------------------
---
GET       0.540         0.00
GET       0.550         0.00
GET       0.560         0.01
GET       0.570         0.01
GET       0.610         0.01
GET       0.800         0.01
GET       0.840         0.01
GET       0.850         0.01
GET       1.000         0.02
GET       1.100         0.02
GET       1.200         0.04
GET       1.300         0.06
GET       1.400         0.07
GET       1.500         0.08
GET       1.600         0.08
GET       1.700         0.09
GET       2.100         0.09
GET       2.200         0.10
GET       2.300         0.11
GET       2.400         0.12
GET       2.500         0.13
GET       2.600         0.14
GET       2.900         0.14
GET       3.200         0.15
GET       3.300         0.15
GET       5.100         0.15
GET       5.200         0.15
GET       5.600         0.16
GET       5.700         0.16
GET       6.100         0.17
GET       6.200         0.17
GET       6.700         0.19
GET       6.800         0.19
GET       7.900         0.20
GET       8.000         0.21
GET       8.100         0.21
GET       8.300         0.22
GET       8.400         0.23
GET       8.500         0.23
GET       8.600         0.24
GET       8.700         0.24
GET       8.800         0.26
GET       8.900         0.26
GET       9.300         0.27
GET       9.400         0.28
GET       9.900         0.28
GET      10.000         0.31
GET      11.000         0.33
GET      12.000         0.39
GET      13.000         0.46
GET      14.000         0.51
GET      15.000         8.01
GET      16.000        31.81
GET      17.000        31.95
GET      18.000        32.02
GET      19.000        32.07
GET      20.000        32.12
GET      21.000        32.12
GET      22.000        32.13
GET      26.000        32.17
GET      27.000        32.18
GET      28.000        32.25
GET      29.000        32.29
GET      30.000        32.55
GET      31.000        47.62
GET      32.000        50.45
GET      33.000        50.47
GET      34.000        50.49
GET      35.000        50.53
GET      36.000        50.54
GET      40.000        50.56
GET      42.000        50.56
GET      43.000        50.58
GET      44.000        50.60
GET      45.000        50.62
GET      46.000        51.81
GET      47.000        62.82
GET      48.000        63.04
GET      49.000        63.07
GET      50.000        63.11
GET      51.000        63.13
GET      55.000        63.14
GET      56.000        63.14
GET      58.000        63.15
GET      59.000        63.17
GET      61.000        63.22
GET      62.000        67.44
GET      63.000        71.67
GET      64.000        71.76
GET      65.000        71.77
GET      66.000        71.78
GET      68.000        71.78
GET      74.000        71.78
GET      76.000        71.82
GET      77.000        71.94
GET      78.000        77.14
GET      79.000        77.75
GET      80.000        77.76
GET      81.000        77.80
GET      84.000        77.80
GET      85.000        77.83
GET      87.000        77.83
GET      90.000        77.85
GET      91.000        77.86
GET      92.000        77.88
GET      93.000        78.59
GET      94.000        82.38
GET      95.000        82.40
GET     110.000        85.35
GET     120.000        86.47
GET     130.000        87.50
GET     140.000        89.33
GET     150.000        89.34
GET     160.000        90.72
GET     170.000        92.42
GET     180.000        92.43
GET     190.000        93.70
GET     200.000        94.75
GET     220.000        95.66
GET     230.000        96.40
GET     240.000        96.41
GET     250.000        96.96
GET     260.000        96.99
GET     270.000        97.50
GET     280.000        97.87
GET     290.000        97.87
GET     300.000        98.12
GET     310.000        98.38
GET     330.000        98.55
GET     340.000        98.71
GET     360.000        98.87
GET     370.000        98.93
GET     380.000        98.95
GET     390.000        99.05
GET     410.000        99.19
GET     420.000        99.31
GET     440.000        99.38
GET     450.000        99.49
GET     470.000        99.57
GET     480.000        99.61
GET     500.000        99.66
GET     520.000        99.67
GET     530.000        99.72
GET     550.000        99.75
GET     560.000        99.80
GET     580.000        99.85
GET     590.000        99.88
GET     610.000        99.89
GET     620.000        99.90
GET     640.000        99.90
GET     660.000        99.91
GET     670.000        99.92
GET     690.000        99.92
GET     700.000        99.93
GET     720.000        99.94
GET     740.000        99.94
GET     750.000        99.94
GET     770.000        99.95
GET     780.000        99.95
GET     810.000        99.96
GET     830.000        99.96
GET     840.000        99.97
GET     910.000        99.97
GET     920.000        99.98
GET     940.000        99.98
GET     950.000        99.98
GET     970.000        99.98
GET    1000.000        99.99
GET    1100.000        99.99
GET    1200.000       100.00
GET    1700.000       100.00
GET    1800.000       100.00
GET    2300.000       100.00
---
