2         Threads
14        Connections per thread
70        Seconds


ALL STATS
========================================================================
Type        Ops/sec     Hits/sec   Misses/sec      Latency       KB/sec 
------------------------------------------------------------------------
Sets           0.00          ---          ---      0.00000         0.00 
Gets         951.57       951.57         0.00     29.41900      3854.39 
Waits          0.00          ---          ---      0.00000          --- 
Totals       951.57       951.57         0.00     29.41900      3854.39 


Request Latency Distribution
Type     <= msec         Percent
------------------------------------------------------------------------
---
GET       0.340         0.00
GET       0.450         0.00
GET       0.460         0.00
GET       0.480         0.01
GET       0.520         0.01
GET       0.540         0.01
GET       0.550         0.01
GET       0.560         0.01
GET       0.580         0.02
GET       0.640         0.02
GET       0.650         0.02
GET       0.660         0.03
GET       0.680         0.03
GET       0.710         0.03
GET       0.720         0.04
GET       0.730         0.04
GET       0.740         0.04
GET       0.750         0.04
GET       0.760         0.04
GET       0.770         0.05
GET       0.780         0.05
GET       0.840         0.05
GET       0.850         0.05
GET       0.880         0.06
GET       0.900         0.06
GET       0.910         0.06
GET       0.920         0.07
GET       0.930         0.07
GET       0.940         0.07
GET       0.950         0.07
GET       0.960         0.08
GET       0.970         0.08
GET       0.980         0.08
GET       1.100         0.08
GET       1.200         0.09
GET       1.300         0.09
GET       1.400         0.10
GET       1.500         0.11
GET       1.900         0.11
GET       2.200         0.11
GET       2.300         0.12
GET       2.400         0.12
GET       5.900         0.12
GET       6.100         0.12
GET       8.800         0.13
GET       8.900         0.15
GET       9.000         0.16
GET       9.600         0.16
GET       9.900         0.16
GET      10.000         0.17
GET      11.000         0.21
GET      12.000         0.30
GET      13.000         0.35
GET      14.000         0.54
GET      15.000        12.81
GET      16.000        47.49
GET      17.000        47.72
GET      18.000        47.79
GET      19.000        47.90
GET      20.000        48.01
GET      21.000        48.04
GET      22.000        48.05
GET      23.000        48.06
GET      24.000        48.08
GET      25.000        48.10
GET      26.000        48.11
GET      27.000        48.19
GET      28.000        48.28
GET      29.000        48.41
GET      30.000        48.70
GET      31.000        76.37
GET      32.000        79.68
GET      33.000        79.77
GET      34.000        79.88
GET      35.000        79.92
GET      36.000        79.94
GET      37.000        79.95
GET      42.000        79.96
GET      43.000        79.97
GET      44.000        80.00
GET      45.000        80.01
GET      46.000        80.96
GET      47.000        91.34
GET      48.000        91.48
GET      49.000        91.49
GET      50.000        91.51
GET      51.000        91.52
GET      52.000        91.52
GET      54.000        91.54
GET      61.000        91.55
GET      62.000        93.82
GET      63.000        95.80
GET      64.000        95.80
GET      66.000        95.80
GET      68.000        95.81
GET      69.000        95.81
GET      72.000        95.82
GET      73.000        95.82
GET      76.000        95.83
GET      77.000        95.85
GET      78.000        97.95
GET      79.000        98.04
GET      88.000        98.05
GET      90.000        98.05
GET      91.000        98.06
GET      93.000        98.20
GET      94.000        99.02
GET      95.000        99.03
GET     100.000        99.03
GET     110.000        99.50
GET     120.000        99.64
GET     130.000        99.74
GET     140.000        99.94
GET     160.000        99.95
GET     170.000        99.98
GET     190.000       100.00
---
