,client,mw_thread,run,c_rt,c_th,mw_rt,mw_th,c_misses,mw_misses,mw_queueLength,mw_arrivalRate,mw_recv,mw_send,mw_idl,server_recv,server_send,server_idl,r_internalQueueTimer,r_processingTimer,r_serviceTimer,r_waitingServiceTimer,r_returningResponseTimer
0,1,8,1,1.4495,4141.62,0.9734062855630409,4145.328571428571,0,0,0.0,2.0,9357950.163934426,9081506.6147541,95.87333606557375,18126441.295081966,588205.9016393443,84.74747540983606,0.06010227873356541,0.0010535897358196367,0.021652102400419263,0.8730968265463402,0.016932650889142514
1,1,8,2,1.7083333333333335,3631.1,1.424120393967733,3631.1714285714284,0,0,0.0,1.0,8189562.278688525,7948701.8852459015,96.17886885245902,15868425.295081967,515217.5737704918,85.48270491803281,0.06245484170563581,0.0011813822657289253,0.02206228109079026,1.3205063909066785,0.017337624228431787
2,1,8,3,1.416,4248.1900000000005,0.9128959193483881,4251.728571428572,0,0,0.0,2.0,9581921.737704918,9298971.122950818,95.81790983606555,18556540.18032787,602173.0491803279,84.72129508196724,0.05865923964787002,0.0011460402268667002,0.021490440324019033,0.8136686454519972,0.01727796301608727
3,1,16,1,1.438,4202.960000000001,2.286512435928791,4203.028571428571,0,0,0.0,2.0,9404723.540983606,9127657.762295082,95.91247540983605,18227485.86885246,591504.3278688524,83.64945901639348,0.05570263780128862,0.001212723344167296,0.0219937346928191,2.1900649657765334,0.01688292827503862
4,1,16,2,1.4228333333333332,4233.950000000001,1.3157028200455518,4233.971428571429,0,0,0.0,2.0,9441567.860655736,9163323.155737706,95.87259836065573,18295027.86885246,593679.4426229508,84.23306557377047,0.058855709784812874,0.0012450278130309207,0.022874858858944018,1.2147755545898211,0.017392761943880418
5,1,16,3,1.4495,4172.76,2.0207354734843994,4172.8,0,0,0.0,2.0,9325627.786885247,9050835.368852459,95.86652459016392,18072623.655737706,586492.4590163934,85.10524590163934,0.054184856030832645,0.001322687566009995,0.021565694504277616,1.9262529869513707,0.016817091030719034
6,1,32,1,1.5136666666666665,4072.56,4.22618830388508,4072.5857142857144,0,0,0.0,2.0,9091710.032786885,8826729.770491803,95.58791803278687,17626022.75409836,571890.0327868853,83.64319672131145,0.05715506480049008,0.0014775193741622418,0.02325928234696773,4.127019919405402,0.01671113822820705
7,1,32,2,1.599,3926.6499999999996,5.263676539161016,3926.714285714286,0,0,0.0,2.0,9139542.43442623,8872510.3852459,95.18185245901641,17708589.01639344,574597.2786885246,83.22191803278687,0.06701243786620845,0.0012910173591361824,0.02284272238744449,5.153644553208431,0.018249292078669026
8,1,32,3,1.5176666666666665,4038.04,4.306010991311,4038.0857142857144,0,0,0.0,2.0,9043573.983606558,8779861.975409836,95.55725409836064,17535178.344262294,568932.4918032787,84.25504918032787,0.06398254136543324,0.0013680539061261521,0.023559954860302535,4.197925730503641,0.018460494119265723
9,1,64,1,1.5790000000000002,3934.08,3.1667626747778024,3934.114285714286,0,0,0.0,2.0,9165713.87704918,8929090.016393442,94.68954098360652,17823528.786885247,576385.7704918033,79.66208196721315,0.07154019473179063,0.0017812792997565713,0.02547096899691078,3.0495511980604775,0.01768278414456042
10,1,64,2,1.486,4114.73,7.2638011642826275,4114.771428571428,0,0,0.0,2.0,9200446.614754098,8961094.1147541,94.8351475409836,17880581.442622952,578252.4590163934,78.78916393442626,0.067413861664057,0.0016057305292677213,0.026189883597842092,7.151781079161852,0.016193920539552147
11,1,64,3,1.4358333333333333,4215.8099999999995,1.584646205119418,4227.285714285715,0,0,0.0,2.0,9591042.139344262,9340519.639344262,94.74114754098359,18645257.639344264,602834.4918032787,78.6207213114754,0.060744353876305376,0.001380878827815321,0.025467870466193095,1.4798938981288035,0.016488057823702877
12,2,8,1,1.843,6597.1,1.7461564257461748,6597.185714285714,0,0,0.0,3.0,14704746.450819671,14270069.803278688,93.47536065573772,28478988.229508195,923611.0819672131,68.5449344262295,0.09014823114789944,0.0008205497087215533,0.022282736373026614,1.6144423296332056,0.01781462763083713
13,2,8,2,1.887,6474.72,1.3236421986413647,6474.857142857143,0,0,0.0,3.0,14795352.516393442,14358579.62295082,93.63358196721313,28610175.721311476,927857.0819672131,66.04296721311476,0.07472269794592995,0.0008823378849078486,0.021592044996267226,1.2081208824481036,0.017682099189518588
14,2,8,3,1.8518333333333334,6587.76,1.450593399501663,6583.914285714286,0,0,0.0,3.0,14845279.43442623,14406688.00819672,93.67778688524591,28755953.278688524,932511.1803278689,67.35347540983607,0.07409649299681081,0.0009675461153733911,0.021577461303749122,1.336318817566285,0.017000071518198243
15,2,16,1,1.8936666666666668,6446.14,1.9134880923206214,6456.314285714286,0,0,0.0,3.0,14587828.8852459,14158407.868852459,93.54317213114754,28258958.95081967,916440.7868852459,66.66688524590163,0.07307681673552416,0.0009244114557756614,0.022872122734331465,1.797871330143433,0.01817533694553091
16,2,16,2,1.8980000000000001,6456.039999999999,1.7107818713555711,6460.214285714285,0,0,0.0,3.0,14528915.967213115,14100658.844262294,93.59018032786886,28156920.918032788,913156.393442623,67.50349180327866,0.07839048542546025,0.0010973039664076546,0.02201800814963644,1.5914334106088028,0.01722894676365093
17,2,16,3,1.8588333333333331,6555.389999999999,1.3456576786710581,6555.7,0,0,0.0,3.0,14628289.016393442,14197197.147540983,93.67447540983605,28351416.95081967,919431.4426229508,66.46821311475409,0.08070612948294825,0.0008867303242907199,0.02164055373782206,1.2243685724355022,0.01750251049294342
18,2,32,1,1.9965000000000002,6221.6,2.8920983212353755,6221.728571428572,0,0,0.0,3.0,14162362.06557377,13747437.221311476,93.24574590163937,27408948.360655736,888936.3278688524,68.75868852459017,0.08365230480863567,0.001042726317972999,0.02333837540072453,2.7647946527977116,0.018647648413091068
19,2,32,2,1.959833333333333,6330.93,3.629089191734757,6331.028571428571,0,0,0.0,3.0,14262104.229508197,13844064.704918034,93.17918032786886,27635539.8852459,896307.8032786886,68.57209836065573,0.08148550986810506,0.0012422609321261853,0.023661791174630804,3.50341529089195,0.01855471009693865
20,2,32,3,1.9685000000000001,6277.469999999999,3.5044106069414966,6277.557142857143,0,0,0.0,3.0,14026149.959016394,13615431.827868853,93.24090163934426,27164067.75409836,881030.4590163934,67.64757377049179,0.08050625561268945,0.0010780236767837764,0.023539861848001692,3.3798522972162313,0.01879338653174068
21,2,64,1,1.9611666666666667,6336.88,4.911822802962706,6336.971428571429,0,0,0.0,3.0,14146653.0,13746800.213114753,92.11931967213118,27429036.98360656,888694.5081967213,63.86247540983606,0.08799095817698813,0.0013219347195329294,0.024937121527122793,4.778205715223558,0.01861850029846691
22,2,64,2,1.975166666666667,6332.93,3.256750094108166,6333.0,0,0,0.0,3.0,14280147.31967213,13876045.286885247,91.92039344262295,27670217.278688524,896490.8852459016,63.724590163934444,0.09141079611840956,0.0013951782631337417,0.026131519855217,3.1172008670773614,0.019882532925221266
23,2,64,3,1.8809999999999998,6576.88,2.574227595690811,6577.128571428571,0,0,0.0,3.0,14641337.024590164,14227017.926229509,91.5949098360656,28406615.540983606,920285.5737704918,64.32024590163932,0.0927287043885529,0.0012018731823661968,0.025490502069043852,2.4349869177560484,0.01918421773038438
24,4,8,1,2.99,8232.65,2.2967146679325348,8227.485714285714,0,0,2.0,3.0,18363262.909836065,17820187.344262294,92.66786065573773,35575952.04918033,1153549.9016393442,45.030819672131145,0.47663971454956255,0.0007836597212469063,0.020710479961073246,1.7792003936451186,0.01882623996028772
25,4,8,2,2.9528333333333334,8259.47,2.2715429061828973,8259.6,0,0,2.0,3.0,18449155.426229507,17903114.48360656,92.58178688524592,35729981.36065574,1158430.7540983607,46.04834426229508,0.4749717912083087,0.0007628972754170345,0.02073240964749419,1.7557343702889245,0.01869261738329995
26,4,8,3,2.9178333333333333,8305.84,2.146257819836038,8306.214285714286,0,0,2.0,3.0,18618707.18852459,18067825.344262294,92.27082786885248,36071847.344262294,1169412.2950819673,44.803442622950826,0.4837912707162016,0.0008053826123825194,0.021168274540947614,1.621225885108084,0.01860606021140335
27,4,16,1,3.054333333333333,8165.540000000001,2.479452618888036,8165.628571428571,0,0,0.0,3.0,18523748.081967212,17981126.786885247,91.63836885245902,35883961.81967213,1163460.1311475409,46.0087868852459,0.12569682005664518,0.0008909188383441858,0.02287636715420005,2.310288315102005,0.019130439272032236
28,4,16,2,2.888666666666667,8488.92,2.2924307127695402,8489.114285714286,0,0,0.0,3.0,18994437.278688524,18434298.606557377,91.45019672131147,36791711.18032787,1192864.8852459015,43.313114754098365,0.11833799182037802,0.0008015668133489434,0.0229048433891485,2.130389549482844,0.019418163295184213
29,4,16,3,2.9868333333333332,8322.91,2.581759810385475,8323.1,0,0,0.0,3.0,18750295.45081967,18197298.204918034,91.65722131147538,36330997.2295082,1177951.6393442622,45.41177049180327,0.12364483455401683,0.0009321954046091548,0.02294809768781738,2.414628666167918,0.01898800778452074
30,4,32,1,2.947166666666667,8391.27,2.3735386235126037,8391.385714285714,0,0,0.0,3.0,18821648.155737706,18269201.614754096,91.0927131147541,36464965.983606555,1182252.3278688525,43.50547540983605,0.12415220217505739,0.001069743677538309,0.024171334010223026,2.203282563171424,0.020282968063971424
31,4,32,2,3.089,8088.860000000001,2.866251364023058,8089.171428571429,0,0,0.0,3.0,18031147.155737706,17505989.491803277,91.2761475409836,34943872.44262295,1133326.6557377048,45.5325737704918,0.12452237145752233,0.001054975508032159,0.02493668143806431,2.6943291005831935,0.020739613221478437
32,4,32,3,3.052833333333333,8187.0,3.0844730255439012,8187.314285714286,0,0,0.0,3.0,18277868.336065575,17743741.262295082,91.25377049180327,35419577.295081966,1148602.7213114754,45.44522950819671,0.1320386374956106,0.0010984949624317556,0.02451829932523685,2.9052987306431817,0.020874443425506428
33,4,64,1,3.0646666666666667,8256.73,5.090586008386917,8263.757142857143,0,0,0.0,3.0,18494622.93442623,17964304.68032787,90.10825409836066,35862709.36065574,1162144.2950819673,40.8465737704918,0.1314049447648518,0.0013075526708070545,0.02501729648917455,4.911430700039277,0.02075331582945273
34,4,64,2,3.182166666666667,7983.76,3.9104264308204457,7984.185714285714,0,0,0.0,3.0,18042639.30327869,17525643.54918033,89.90195081967212,34982399.54098361,1133726.7704918033,44.41326229508198,0.13511387958320276,0.0011578753432926739,0.025694828278540235,3.7269293278737483,0.020649922594510484
35,4,64,3,3.1371666666666664,7932.32,5.444263183516026,7932.585714285714,0,0,0.0,3.0,17798488.770491805,17288535.024590164,89.61854098360656,34556322.344262294,1119873.3770491802,44.291622950819686,0.1415291530676202,0.001188724369422098,0.026096770298310385,5.253364739000672,0.02145199395703044
36,8,8,1,5.193333333333333,9340.82,4.317648432619292,9341.114285714286,0,0,10.0,4.0,20900436.606557377,20280347.852459013,93.25282786885246,40461996.39344262,1311731.8688524591,42.3207049180328,2.544201753293596,0.0005706805529321309,0.017652812088020328,1.7352354046687137,0.01942036985078331
37,8,8,2,5.211666666666667,9360.380000000001,4.437488907049111,9360.728571428572,0,0,10.0,4.0,20946896.51639344,20323954.581967212,93.14334426229509,40567873.03278688,1315073.0163934426,36.875409836065586,2.5781347925071074,0.0007246102684607686,0.017863071603987195,1.8204769214554126,0.019752663843663427
38,8,8,3,5.206833333333333,9368.61,4.331006723669225,9369.128571428571,0,0,9.0,4.0,20973397.86065574,20349924.418032788,93.00503278688527,40628339.06557377,1317016.4918032787,40.297442622950825,2.551804580822152,0.0005847390896493524,0.017603191973694803,1.7407059204963666,0.019687025657355327
39,8,16,1,4.438,11049.6,3.6518060456081516,11050.414285714285,0,0,4.0,5.0,24727593.54918033,23997972.18032787,89.9958032786885,47906989.19672131,1552912.3278688525,29.826819672131155,0.8372365434225519,0.0006899189590785768,0.02267586824626732,2.769434333627893,0.02111589982139421
40,8,16,2,4.4655000000000005,10992.97,3.7608958560723353,10993.542857142857,0,0,4.0,5.0,24602356.959016394,23875772.245901637,89.95352459016392,47657127.31147541,1544907.9016393442,30.313360655737704,0.8427434885037461,0.0007066513134146962,0.02179050735910771,2.8745912079282796,0.020471292829896376
41,8,16,3,4.419833333333333,11044.97,3.6652393069042315,11045.314285714287,0,0,4.0,4.0,24762201.50819672,24031196.19672131,90.09438524590165,47960793.19672131,1554634.4918032787,29.961327868852457,0.864333263704954,0.0007201425361852897,0.022268772943109104,2.7562575168749324,0.02102587210124727
42,8,32,1,4.41,11113.2,3.656107645635416,11113.714285714286,0,0,1.0,5.0,24945522.827868853,24210051.352459013,87.71014754098363,48327573.42622951,1566487.4426229508,28.906442622950816,0.22510702889801334,0.0009375319414145324,0.026089270078112944,3.380886313179647,0.022359995752275742
43,8,32,2,4.7093333333333325,10712.900000000001,4.520740830805701,10713.257142857143,0,0,1.0,4.0,23907571.852459013,23212033.68852459,88.44397540983607,46328835.90163934,1502340.9180327868,31.80337704918033,0.21164393467863357,0.0010212356456780088,0.025954541085913843,4.258850071246748,0.022569726345243603
44,8,32,3,4.541333333333333,11030.84,4.031809530829886,11031.385714285714,0,0,0.0,4.0,24674102.172131147,23949796.622950822,88.30660655737705,47799251.42622951,1549842.3770491802,29.309868852459008,0.20397238127037487,0.0008959812764332341,0.02555110084751385,3.7784049974949756,0.02232657384980778
45,8,64,1,4.707666666666666,10828.32,4.790592103838323,10828.871428571429,0,0,1.0,4.0,24265730.352459017,23560242.877049178,87.48996721311474,47028629.37704918,1524728.4918032787,29.43659016393442,0.2279036924958855,0.0011113233674822384,0.026493183840042782,4.511416804136425,0.022920316165373947
46,8,64,2,4.664833333333333,10902.78,5.013373740564637,10903.128571428571,0,0,0.0,4.0,24611396.286885247,23898237.2295082,87.35382786885245,47701054.885245904,1546226.8852459015,27.21662295081968,0.21852977255310535,0.0011346274996850193,0.027145509907632343,4.741590003679731,0.02390579766845659
47,8,64,3,4.654166666666667,10873.95,4.738421587040349,10874.542857142857,0,0,1.0,4.0,24234227.00819672,23562023.30327869,87.35069672131146,46949264.7704918,1522097.0327868853,30.462983606557387,0.2228915170095073,0.0010545999985109192,0.02705062976009054,4.463976969902452,0.02262969911379656
48,14,8,1,9.054833333333331,9268.33,7.968337586880586,9401.185714285713,0,0,24.0,4.0,21082182.614754096,20443736.18032787,92.96565573770494,40808887.016393445,1322908.0,41.53998360655738,6.206745646251137,0.000529016236711697,0.017421689934387065,1.7232464735250246,0.01981116594000861
49,14,8,2,9.232499999999998,9257.98,8.197405673218608,9258.6,0,0,23.0,4.0,20825593.483606555,20200588.073770493,93.194,40320465.09836066,1307109.7049180327,43.32724590163933,6.34293792986353,0.0006628200877848616,0.01771957267195884,1.81551038233893,0.019965878218369065
50,14,8,3,9.152333333333333,9323.41,7.977792762758895,9323.871428571429,0,0,24.0,4.0,21017935.852459017,20374925.475409836,92.98504918032788,40686505.32786885,1318950.7540983607,43.073999999999984,6.185480111128809,0.0005900404807860179,0.017661826395318648,1.7533193794043842,0.020174503580809036
51,14,16,1,7.706666666666667,11202.579999999998,6.746767111026811,11203.314285714287,0,0,15.0,5.0,25271238.795081966,24519059.09016393,91.0937786885246,48930526.75409836,1586256.0983606558,31.04185245901639,3.476025008216191,0.00072752599814155,0.020263577204315972,3.2274564194990627,0.021567372651916314
52,14,16,2,7.547166666666666,11452.08,6.504169023169416,11349.728571428572,0,0,17.0,5.0,25537065.090163935,24778130.278688524,91.15613934426227,49451590.44262295,1602996.524590164,30.33454098360655,3.5474386857811027,0.0006945134257305963,0.019713788419643403,2.914678987865955,0.020974844323010243
53,14,16,3,7.506166666666666,11368.57,6.516573719191701,11369.285714285714,0,0,16.0,5.0,25412529.54918033,24655972.663934425,91.09808196721309,49215817.86885246,1595449.6393442622,31.44827868852459,3.5718195978690663,0.0007615080806567231,0.01987153483391773,2.901629571358823,0.021889603519292346
54,14,32,1,6.605666666666666,13306.7,5.5383810751573925,13116.971428571429,0,0,5.0,5.0,29380280.532786883,28513639.36885246,87.0654836065574,56923996.68852459,1845272.6229508198,17.38954098360656,0.9853779416258364,0.0008672381465484748,0.02430898076170839,4.503441752536882,0.023697252328700916
55,14,32,2,6.691166666666667,13176.21,5.791141437559239,13176.828571428572,0,0,5.0,5.0,29504604.75409836,28635216.024590164,87.09708196721311,57156654.655737706,1852921.8032786886,16.61237704918033,0.981217749713635,0.0008218775111922731,0.02524129579125588,4.7591980416601505,0.02396895910319942
56,14,32,3,6.772500000000001,13038.48,6.535306004538607,13039.1,0,0,5.0,5.0,29127008.032786883,28271189.754098363,86.7588114754098,56434018.73770492,1829732.5901639345,17.450098360655737,0.965272220452919,0.0009131100071890455,0.025440805961001317,5.518905909391043,0.024093468053834718
57,14,64,1,6.748333333333333,13320.61,6.016158374112454,13130.714285714286,0,0,1.0,5.0,29445533.86885246,28594221.344262294,85.26470491803278,57053749.09836066,1849623.8360655739,16.274114754098356,0.34014651383321204,0.001060633573455809,0.02719232218097633,5.622424916553012,0.024564831935385997
58,14,64,2,6.949166666666667,12972.91,7.20233866909362,12973.414285714285,0,0,1.0,5.0,29518894.254098363,28665356.352459013,85.2378770491803,57329193.26229508,1858434.1967213114,14.73696721311475,0.33763229473781575,0.001127273663691372,0.031143166662335044,6.802818885812467,0.028915623650090476
59,14,64,3,6.926833333333333,12993.740000000002,6.3897545162338405,12994.342857142858,0,0,2.0,5.0,29043026.147540983,28343823.491803277,85.39460655737707,56291858.62295082,1825443.2786885246,17.24837704918033,0.3531863994333928,0.001214348192360156,0.029688520707840223,5.9800767151444685,0.02485835532253715
60,22,8,1,14.061333333333334,9493.18,12.980983683856838,9494.028571428571,0,0,42.0,4.0,21137501.336065575,20501003.524590164,93.0107540983607,40931536.24590164,1326833.5737704919,41.11344262295081,11.201443983686337,0.0006941694486984271,0.017993654555927125,1.7393939587902103,0.020886823001246037
61,22,8,2,14.2295,9384.599999999999,13.044218488371968,9385.371428571429,0,0,42.0,4.0,20978404.385245904,20345726.7295082,92.99777868852459,40601465.2295082,1316154.4918032787,42.30190163934426,11.275866659365175,0.0006811830918301504,0.017378262814479906,1.7299210351628744,0.019729724011551604
62,22,8,3,15.056666666666668,9157.21,13.175785482932866,9157.8,0,0,41.0,4.0,20789278.647540983,20153626.31967213,93.1507786885246,40211637.27868853,1303756.0327868853,41.947967213114744,11.135360305536302,0.0006474814036942165,0.018368715233626834,1.9998845800701175,0.020917547361679827
63,22,16,1,11.930166666666665,11313.52,10.87789115636518,11314.328571428572,0,0,33.0,5.0,25433128.80327869,24667312.959016394,91.16921311475409,49239918.09836066,1596227.1475409835,31.991721311475402,7.674432188985932,0.0007183311927094377,0.020487931681712302,3.1590968152511305,0.02253684489389851
64,22,16,2,11.761333333333333,11389.34,10.62003954667884,11392.342857142858,0,0,35.0,5.0,25530120.024590164,24766376.672131147,91.20922131147543,49446520.44262295,1602815.9672131147,30.905557377049185,7.668151550866503,0.0006280898433658074,0.019668019399408154,2.9093287202782965,0.021643082770435397
65,22,16,3,11.732000000000001,11522.009999999998,10.529662535665224,11421.014285714286,0,0,35.0,5.0,25535588.540983606,24770014.327868853,91.01938524590165,49444002.59016393,1602847.8360655739,30.229622950819678,7.628432775798849,0.0006843132281114115,0.01973403206744031,2.8587079677531673,0.02150222829511452
66,22,32,1,9.908166666666666,13618.01,8.7594585804823,13618.714285714286,0,0,22.0,6.0,30491029.737704918,29587866.778688524,88.36969672131147,59038735.73770492,1914077.0163934426,16.10201639344262,3.774657917657363,0.0007942154029209474,0.022470844373449685,4.937287304566816,0.023557538655718746
67,22,32,2,9.8655,13683.039999999999,8.639673984827407,13683.957142857143,0,0,19.0,6.0,30601531.50819672,29697874.573770493,88.24773770491802,59258655.475409836,1920990.8688524591,15.334131147540985,3.7519205740545654,0.0008269825797926403,0.02340799356672752,4.838387104005488,0.0245241869511356
68,22,32,3,10.1955,13511.6,9.28507935439923,13512.657142857142,0,0,20.0,6.0,30230667.827868853,29335377.12295082,88.13153278688526,58543900.81967213,1898412.1311475409,16.148377049180333,3.6685196841485137,0.0008460874474249372,0.023854867625456563,5.56601321769066,0.02514123286183096
69,22,64,1,9.3545,14624.72,8.402354319429824,14625.685714285713,0,0,3.0,6.0,32832636.016393445,32136178.729508195,83.8322049180328,63619859.57377049,2062667.7704918033,9.332213114754099,0.5912282540391867,0.001074877555868324,0.03062512913114586,7.752977255577752,0.02567634166982969
70,22,64,2,9.398166666666667,14652.41,9.94664347775197,14653.328571428572,0,0,4.0,6.0,32888880.442622952,32173757.918032788,83.76977049180329,63729066.016393445,2066433.3442622952,10.111901639344264,0.6126551430548807,0.0011074011248772724,0.03064552242196797,9.275712986376675,0.0255502359434462
71,22,64,3,9.633833333333333,14327.67,8.750473089019788,14533.314285714287,0,0,3.0,6.0,32608577.754098363,31917185.647540983,84.01172950819671,63152562.73770492,2048466.8524590165,10.460327868852456,0.6216287655755888,0.0009893590888704646,0.031053453057019426,8.070629694995805,0.025379629589299846
72,42,8,1,27.896499999999996,9202.329999999998,26.022258106015183,9203.714285714286,0,0,88.0,4.0,20759066.393442623,20128228.475409836,93.12733606557376,40173517.63934426,1302392.9836065574,42.64695081967214,24.149214380732694,0.0006068279139964859,0.01825874461651711,1.8338905478595302,0.019750725767274546
73,42,8,2,26.96516666666667,9452.39,25.498536548950852,9453.542857142857,0,0,91.0,4.0,21172792.532786883,20525919.95081967,92.88785245901643,40973692.2295082,1328212.2295081967,41.94759016393442,23.735798596503365,0.0005998578027770991,0.017837839437053422,1.7238563889053862,0.019829096046660492
74,42,8,3,27.429333333333332,9332.08,25.746980277436627,9333.228571428572,0,0,89.0,4.0,21041192.590163935,20394204.590163935,92.88067213114755,40701049.32786885,1319386.4918032787,39.96073770491802,23.940764011001995,0.0005948779875360973,0.01794455357530696,1.7675375369289736,0.01960494855950557
75,42,16,1,22.692,11330.220000000001,20.77206630704392,11334.442857142858,0,0,82.0,5.0,25527101.68852459,24755860.0,90.92817213114753,49394189.36065574,1601256.524590164,32.297262295081964,17.774400611753247,0.0006824695480674584,0.020130706403630468,2.9544271438327963,0.021790888487814113
76,42,16,2,22.184666666666665,11504.06,21.329251894643967,11505.542857142857,0,0,83.0,5.0,25712277.352459017,24932345.13934426,90.99164754098362,49764230.73770492,1613130.1639344261,30.269901639344255,18.198479205393287,0.0006249062325873911,0.019945028703831844,3.088191371104564,0.02132752021207527
77,42,16,3,22.869,11310.97,20.87785951831512,11313.885714285714,0,0,80.0,5.0,25498838.204918034,24716203.74590164,90.98290983606557,49358111.21311475,1600151.1147540985,32.15354098360655,17.84065543079008,0.0006763345606153766,0.019926957595591776,2.994324193063638,0.02156563367938149
78,42,32,1,18.888333333333335,13649.2,17.410639579860273,13650.557142857142,0,0,67.0,6.0,30569857.114754096,29655133.991803277,88.56516393442622,59208239.524590164,1919451.9344262294,16.354180327868853,12.347893549240844,0.0007794694843894319,0.02197243989213188,5.01568859475433,0.023592173277381112
79,42,32,2,18.83616666666667,13669.29,17.100296856125397,13671.271428571428,0,0,66.0,6.0,30631550.352459013,29715626.95081967,88.29684426229505,59304512.60655738,1922635.0163934426,15.939622950819675,12.15751496109485,0.000799233518854474,0.02239172523691907,4.894319418075272,0.024577654359638244
80,42,32,3,19.008499999999998,13620.54,17.426586933604593,13622.485714285714,0,0,64.0,6.0,30465826.95081967,29554328.18032787,88.0175655737705,58978420.91803279,1912164.950819672,16.69895081967213,12.219463263552367,0.0007812240441756354,0.022862604186482664,5.158146295094156,0.024628253513030413
81,42,64,1,17.083166666666667,15285.379999999997,15.686352499098794,15286.957142857143,0,0,40.0,6.0,34259736.39344262,33598571.35245901,86.45264754098365,66336940.55737705,2151265.950819672,5.278393442622951,6.40934938451778,0.0007876193975383814,0.028595092860176106,9.222464405599661,0.024449374642872737
82,42,64,2,16.784,15475.85,15.15060183541721,15477.5,0,0,40.0,6.0,34658664.7295082,33989305.42622951,85.9882213114754,67109300.6557377,2176224.3606557376,5.556655737704917,6.31908618312993,0.0008134714517524772,0.02878749937528797,8.7764118809151,0.024717416734328153
83,42,64,3,16.92,15477.18,15.489140207126713,15478.671428571428,0,0,39.0,6.0,34939310.86885246,34275509.54918033,86.00695081967211,67638760.44262294,2193379.3114754097,5.763852459016393,6.1982165094378825,0.0008513585728337805,0.02984188664123772,9.231564258248797,0.027596416229607935
84,64,8,1,40.89566666666667,9502.08,39.31438004898897,9504.042857142857,0,0,142.0,4.0,21128844.01639344,20469301.81147541,92.2494180327869,40864617.295081966,1324696.0655737706,41.53408196721311,37.575105483235944,0.0006324079141809731,0.017741706607242298,1.7002160420295778,0.02015447077673364
85,64,8,2,41.04133333333333,9480.289999999999,39.50495039310535,9482.742857142857,0,0,144.0,4.0,21065674.426229507,20411738.6147541,92.32432786885246,40745770.90163934,1320886.4918032787,42.165163934426225,37.730141440281216,0.000695960157641712,0.01775494206060779,1.7354575350276868,0.020380001773418234
86,64,8,3,41.090666666666664,9443.789999999999,40.42346771444767,9445.585714285715,0,0,144.0,4.0,21162669.0,20509635.147540987,92.40865573770492,40938859.016393445,1327054.7540983607,40.89931147540983,38.61430408093277,0.000641772601936568,0.018630024286088624,1.7687545491411016,0.020531076635536584
87,64,16,1,33.863166666666665,11527.15,32.05745821669958,11529.2,0,0,135.0,5.0,25672195.090163935,24881818.00819672,90.60043442622953,49671764.80327869,1610213.0819672132,31.318934426229497,29.06610422454853,0.0007343204628769294,0.020224547638258088,2.9479331309403554,0.021866553995629007
88,64,16,2,34.449666666666666,11444.230000000001,32.214796667499854,11446.07142857143,0,0,131.0,5.0,25533207.573770493,24744493.877049178,90.86813114754099,49433588.90163934,1602556.524590164,30.708803278688517,29.12369548469848,0.0006735252232546683,0.020828890429129783,3.046559307920445,0.02238440081144024
89,64,16,3,33.528166666666664,11568.94,32.21927806349723,11571.328571428572,0,0,137.0,5.0,25714655.7704918,24929542.393442623,90.70541803278687,49757888.59016393,1612806.1311475409,31.197196721311478,29.350737326903587,0.0007134692050263389,0.020534219147843327,2.8248902117154207,0.021697208410042686
90,64,32,1,28.40833333333333,13784.220000000001,26.64896266634044,13786.485714285714,0,0,120.0,6.0,30792229.245901637,29860644.51639344,88.43117213114752,59570769.19672131,1931178.1967213114,16.318540983606557,21.649206599898104,0.0007742498589534035,0.02194414040768767,4.952503056958756,0.023856672485944676
91,64,32,2,28.237666666666662,13945.990000000002,26.19572269647726,13948.0,0,0,117.0,6.0,31040861.93442623,30097976.155737706,88.3933442622951,60083074.344262294,1947326.8688524591,16.516590163934428,21.25178440928366,0.000714746441979373,0.022771268856738372,4.896008843532945,0.023704656260585245
92,64,32,3,28.511166666666668,13785.01,26.727898613270305,13787.5,0,0,119.0,6.0,30651133.737704918,29724217.934426226,88.55455737704918,59334723.91803279,1923518.5901639345,16.11613114754098,21.637144767258533,0.0008421002532790331,0.022613181484488036,5.041638642749167,0.024956525446278112
93,64,64,1,25.806,15567.85,23.400963720100336,15571.128571428571,0,0,87.0,6.0,34779194.795081966,34077957.08196721,86.49058196721313,67304157.96721311,2183005.180327869,5.934442622950822,14.152141450974419,0.0009032204089794449,0.028560948479700535,9.194015508094008,0.024631071882696594
94,64,64,2,25.21033333333333,15706.77,23.323612965188445,15709.128571428571,0,0,88.0,6.0,34930225.0,34246391.704918034,86.50130327868854,67632846.01639344,2193286.393442623,5.641983606557379,14.48994629020396,0.0008969521370679158,0.028720956029955676,8.778968453110327,0.024208959020013406
95,64,64,3,25.57183333333333,15550.16,23.80390335163284,15554.257142857143,0,0,88.0,6.0,34763282.03278689,34086043.28688525,85.800762295082,67271363.14754099,2181679.1639344264,5.631344262295083,14.562232374164331,0.0008924046189783578,0.02915408745014166,9.186495770222107,0.024410988231946422
