,client,mw_thread,run,c_rt,c_th,mw_rt,mw_th,c_misses,mw_misses,mw_queueLength,mw_arrivalRate,mw_recv,mw_send,mw_idl,server_recv,server_send,server_idl,r_internalQueueTimer,r_processingTimer,r_serviceTimer,r_waitingServiceTimer,r_returningResponseTimer
0,1,8,1,2.0505,2909.28,1.3109363747847278,2909.3,0.0,0.0,0.0,1.0,6579507.637254901,6385289.617647059,96.92254901960786,442440.98039215687,12523116.098039215,87.98699999999997,0.09543016256524084,0.002322528624044783,0.0236100802586291,1.1705965064521635,0.0182254550034775
1,1,8,2,2.0515,2907.7,1.3356972799372437,2907.7571428571428,0.0,0.0,0.0,1.0,6574688.823529412,6380555.225490196,96.88275490196081,442105.07843137253,12514824.80392157,88.89943137254902,0.09700242378631904,0.0023471626056207036,0.024209346377702626,1.193422266475278,0.018015571765697805
2,1,8,3,2.048,2912.87,1.3352781885038802,2912.9142857142856,0.0,0.0,0.0,1.0,6572376.803921569,6378257.088235294,96.73652941176474,441933.3137254902,12508630.588235294,87.72286274509804,0.09406720895242868,0.002255377387477273,0.023990477996189887,1.1952650339279969,0.018937379506041678
3,1,16,1,2.045,2917.5299999999997,1.320439804516716,2917.6,0.0,0.0,0.0,1.0,6571467.803921569,6377437.019607844,96.92042156862746,441990.09803921566,12510383.019607844,86.81517647058821,0.09505926253436811,0.002427086256902757,0.024260340535469046,1.1788933607072,0.018944206695622023
4,1,16,2,2.042666666666667,2920.66,1.3349235040014704,2920.714285714286,0.0,0.0,0.0,1.0,6571118.529411765,6377209.147058824,96.95700000000002,441939.6274509804,12507495.235294119,87.68817647058823,0.10058423269826144,0.00230850968563791,0.023297985704407113,1.188942224149472,0.019013367817985412
5,1,16,3,2.0473333333333334,2913.95,1.3392043799898612,2914.0,0.0,0.0,0.0,1.0,6577752.0,6383593.029411765,96.84624509803922,442083.76470588235,12516178.019607844,87.09276470588236,0.09522458580418988,0.002552484563728863,0.023852845295655227,1.198442427881283,0.01836065397853435
6,1,32,1,2.054333333333333,2904.09,1.3453978337401105,2904.1428571428573,0.0,0.0,0.0,1.0,6571770.098039215,6377732.696078431,96.70753921568628,441838.7843137255,12506863.88235294,85.71433333333333,0.09640892473587677,0.002795517518510972,0.024318619177560542,1.2021069881283526,0.018998820219221692
7,1,32,2,2.054,2904.09,1.3451729935896262,2904.2714285714287,0.0,0.0,0.0,1.0,6579366.774509804,6385222.37254902,96.61520588235297,442104.07843137253,12514708.450980391,85.98474509803921,0.09422742538811113,0.004286649738419664,0.02395555296772301,1.2032114756551744,0.01872524130685426
8,1,32,3,2.0513333333333335,2909.27,1.3362465945161393,2909.3285714285716,0.0,0.0,0.0,1.0,6575582.2450980395,6381455.607843137,96.72979411764706,442166.3725490196,12516903.666666666,85.81266666666669,0.0964760466757876,0.002587697705633946,0.02364983566270893,1.193842437584086,0.01896555873808687
9,1,64,1,2.044,2918.68,1.3207975462766515,2918.7285714285713,0.0,0.0,0.0,1.0,6579744.715686275,6385467.470588235,96.44088235294119,442420.07843137253,12523523.098039215,85.51750980392157,0.09969508501950407,0.0030160270214845044,0.024990163860027913,1.1730844928680884,0.019101657453595426
10,1,64,2,2.3248333333333333,2568.57,1.8052504643536338,2568.6428571428573,0.0,0.0,0.0,1.0,5718425.205882354,5549576.676470589,96.79667647058824,386380.76470588235,10930060.74509804,63.900607843137244,0.1008672366922237,0.0033243096083030313,0.02655981241234008,1.654194966924305,0.019456671251036665
11,1,64,3,2.0583333333333336,2899.58,1.327392685408784,2899.6285714285714,0.0,0.0,0.0,1.0,6574644.735294118,6380513.656862745,96.35938235294118,441997.7254901961,12512527.19607843,83.43468627450982,0.09792560186629862,0.003172868404595558,0.02586367323532046,1.179294877067699,0.020166439617724248
12,2,8,1,4.0763333333333325,2936.7200000000003,3.2275723414345734,2936.7571428571428,0.0,0.0,0.0,1.0,6589392.274509804,6394748.607843137,96.71461764705884,443213.07843137253,12542095.588235294,89.76143137254901,0.17171590945569953,0.0026704612952523237,0.026214790694229127,3.005830881269224,0.02019852165531852
13,2,8,2,4.0793333333333335,2934.3999999999996,3.2226132463891917,2934.6,0.0,0.0,0.0,1.0,6587643.352941176,6393166.392156863,96.66991176470586,443040.8431372549,12538291.294117646,90.42099999999999,0.1755795091499136,0.002268015443390315,0.025496517033201743,2.997581342016896,0.020894381379459995
14,2,8,3,4.083833333333334,2932.37,3.254539843174345,2932.4714285714285,0.0,0.0,0.0,1.0,6578896.735294118,6384830.921568627,96.61978431372549,442480.39215686277,12523909.294117646,90.11241176470587,0.18026281372052477,0.002624763707798083,0.025720054667962726,3.024816320345443,0.020250599420717906
15,2,16,1,4.072000000000001,2939.12,3.271555425629866,2939.214285714286,0.0,0.0,0.0,1.0,6591181.039215686,6396354.411764706,96.52873529411764,443299.39215686277,12545930.588235294,88.33758823529408,0.17574353868824297,0.006992227818024799,0.025595412170911526,3.0415557291839495,0.020750270985832063
16,2,16,2,4.079833333333334,2933.17,3.2473359967372666,2933.2571428571428,0.0,0.0,0.0,1.0,6582908.725490196,6388513.990196079,96.52692156862747,442675.2745098039,12528208.294117646,88.7581176470588,0.17088914508903974,0.002362567737025214,0.026084278546404795,3.0261775756812295,0.020885251074076815
17,2,16,3,4.074999999999999,2937.29,3.2407208857069083,2937.4,0.0,0.0,0.0,1.0,6599401.137254902,6404049.117647059,96.60835294117646,444309.3725490196,12561265.74509804,88.81898039215685,0.1845721681638683,0.009575107759340758,0.026461963936730146,2.9985238142980863,0.020820332749287213
18,2,32,1,4.0825,2932.04,3.2442677266455116,2932.1285714285714,0.0,0.0,0.0,1.0,6578101.784313725,6383773.715686275,96.4915,442379.0,12522956.509803921,87.04127450980391,0.18891829442941244,0.01378856603432205,0.026978936479621518,2.9924582611847104,0.021416580048788665
19,2,32,2,4.064166666666667,2945.21,3.2299672767100454,2945.285714285714,0.0,0.0,0.0,1.0,6597229.568627451,6402308.401960785,96.32513725490196,443635.1568627451,12556591.274509804,87.4786862745098,0.1757179759650826,0.004071600424712071,0.02694962182161519,3.0013248242332997,0.021147661654711714
20,2,32,3,4.074833333333333,2938.6800000000003,3.2731070438518666,2938.785714285714,0.0,0.0,0.0,1.0,6587870.343137255,6393268.470588235,96.58143137254905,442929.8039215686,12537078.80392157,87.73062745098035,0.16535415863166794,0.003973585651330081,0.025583164546260986,3.0564811599133903,0.02073957551619686
21,2,64,1,4.077500000000001,2934.79,3.251032109181415,2934.8571428571427,0.0,0.0,0.0,1.0,6579551.715686275,6385281.235294118,96.14191176470588,442474.0,12525493.470588235,87.22698039215686,0.17508763549337103,0.009926012066332809,0.026206963401427075,3.0175383967467573,0.021400914001163326
22,2,64,2,4.0728333333333335,2939.17,3.2416817370562496,2939.2714285714287,0.0,0.0,0.0,1.0,6586985.960784314,6392444.803921569,96.08195098039215,443027.90196078434,12538233.88235294,87.8596470588235,0.1739953951012278,0.005354465320011409,0.0268228390442187,3.0132973102661493,0.02125302952862753
23,2,64,3,4.088166666666666,2928.91,3.254830460446467,2928.9285714285716,0.0,0.0,0.0,1.0,6571072.460784314,6376495.431372549,96.30242156862747,442002.6666666667,12507663.333333334,86.83896078431373,0.16577208973259344,0.0049980481673499635,0.02628447432371022,3.035608118488632,0.021410509528867583
24,4,8,1,8.177499999999998,2932.7,7.274795084443028,2932.9714285714285,0.0,0.0,2.0,1.0,6579440.470588235,6385171.490196078,96.64728431372549,442488.90196078434,12522962.74509804,90.77707843137254,2.1899139298602925,0.003281886128468475,0.019988299977485375,5.039017707447824,0.021798570959335163
25,4,8,2,8.188166666666666,2930.49,7.260182697419974,2930.6714285714284,0.0,0.0,2.0,1.0,6574490.049019608,6380228.647058824,96.60940196078431,442041.82352941175,12512260.25490196,90.51149019607841,2.182007623481301,0.0024248223897298787,0.020469317766661076,5.0320917116973565,0.022298435877082606
26,4,8,3,8.164666666666667,2937.54,7.273797044207868,2937.8285714285716,0.0,0.0,2.0,1.0,6590647.715686275,6396116.480392156,96.80359803921569,443323.43137254904,12546000.94117647,91.01158823529411,2.1888467874330955,0.0038041803307602975,0.020109200636030364,5.0392033617739855,0.020931087082249947
27,4,16,1,8.162333333333333,2938.21,7.222830416323617,2938.342857142857,0.0,0.0,1.0,1.0,6589927.901960785,6395057.107843136,96.0974705882353,443118.2745098039,12542115.980392156,90.22039215686273,0.33024007864605115,0.011890948582114282,0.026273621999837512,6.829154864333134,0.024273319326392744
28,4,16,2,8.1655,2936.38,7.173695329915972,2936.5285714285715,0.0,0.0,0.0,1.0,6591699.156862745,6396689.2352941185,96.33912745098036,443321.29411764705,12545949.470588235,90.51705882352937,0.2871693059815892,0.013672258743978427,0.026014483493091427,6.8241455284540775,0.021871774266649976
29,4,16,3,8.167333333333334,2937.32,7.203958149436074,2937.5142857142855,0.0,0.0,0.0,1.0,6591812.284313725,6396820.68627451,96.17422549019606,443373.5294117647,12545944.68627451,90.43399999999997,0.36270951719661815,0.014301346809971307,0.026924716264969745,6.776266203544768,0.022930883550029625
30,4,32,1,8.150833333333333,2942.5200000000004,7.25499846207577,2942.714285714286,0.0,0.0,1.0,1.0,6578754.656862745,6384228.303921569,96.14342156862743,442329.862745098,12517676.490196079,89.58960784313722,0.3011591195076563,0.015178819603996346,0.027129236269591454,6.887664356202816,0.02292837989266294
31,4,32,2,8.163499999999999,2938.85,7.217240050278212,2939.0142857142855,0.0,0.0,0.0,1.0,6581202.05882353,6386758.901960785,96.18113725490196,442563.90196078434,12526124.607843136,89.23454901960784,0.3378525447506894,0.015057836820416103,0.027027049257283244,6.812930949207368,0.023489748040523332
32,4,32,3,8.205666666666668,2926.73,6.976348359480402,2926.9285714285716,0.0,0.0,0.0,1.0,6562037.196078431,6373503.392156863,96.24723529411764,441302.8039215686,12490689.764705881,88.87311764705879,0.2893974534567346,0.016222362433997124,0.026925932404821287,6.6204796284653185,0.0223851665287
33,4,64,1,8.181666666666667,2933.76,7.199874594251966,2933.957142857143,0.0,0.0,0.0,1.0,6586124.107843137,6391638.088235294,95.9387843137255,442864.8823529412,12533905.215686275,87.43556862745096,0.33324073013422584,0.024265792322266826,0.027792784571108863,6.789271150093448,0.02435453231268688
34,4,64,2,8.166833333333333,2938.14,7.215222554577929,2938.2714285714287,0.0,0.0,0.0,1.0,6589545.7450980395,6394749.9215686275,95.99401960784314,443124.56862745096,12542545.235294119,88.69962745098037,0.34273440579260483,0.02367863905678076,0.028700566752385505,6.795780922523311,0.023417566899808125
35,4,64,3,8.162833333333333,2939.7000000000003,7.230304761968002,2939.9,0.0,0.0,1.0,1.0,6581218.156862745,6386095.37254902,96.02411764705883,442598.64705882355,12526812.823529411,88.0094901960784,0.3213284922569465,0.011008771953842622,0.027454253450351795,6.845415616934194,0.023981871912439365
36,14,8,1,28.632333333333335,2934.3,27.6950061342298,2934.8714285714286,0.0,0.0,27.0,1.0,6586553.735294118,6392898.549019608,96.51413725490198,442968.6862745098,12539213.666666666,90.67392156862745,22.2787574167423,0.0036310454003465288,0.014162678852653343,5.375863511964189,0.0218318193929996
37,14,8,2,28.628,2934.18,27.671784222937553,2934.542857142857,0.0,0.0,27.0,1.0,6582203.911764706,6387785.029411765,96.39410784313725,443248.96078431373,12526786.11764706,91.03092156862743,22.25483912969886,0.0021631020968960334,0.015069773223420164,5.375846146185538,0.02300589231460121
38,14,8,3,28.601499999999998,2978.9300000000003,27.637839565368527,2936.785714285714,0.0,0.0,27.0,1.0,6583251.843137255,6390186.333333334,96.57519607843138,442791.1568627451,12530591.764705881,91.4003137254902,22.225688920323,0.003227822239317567,0.015165088317345242,5.3705742967901635,0.022492334503142385
39,14,16,1,28.625333333333334,2935.25,27.51597401305262,2935.9,0.0,0.0,20.0,1.0,6588350.970588235,6404325.490196079,96.77044117647057,443005.4705882353,12538271.274509804,91.47876470588238,16.65350089125687,0.017138367596042342,0.01550161799217318,10.806127585986083,0.022885378268675816
40,14,16,2,28.64483333333333,2891.48,27.519105659195212,2933.2285714285713,0.0,0.0,20.0,1.0,6578088.901960785,6393591.411764706,96.78058823529412,442464.3725490196,12519110.823529411,91.2937450980392,16.642072246597028,0.019243106365973334,0.015696821928841392,10.817712937864886,0.023434983872620056
41,14,16,3,28.625,2934.4,27.579760088330417,2934.8571428571427,0.0,0.0,21.0,1.0,6583754.892156863,6398953.637254902,96.58367647058822,442710.3137254902,12528014.784313725,91.99962745098043,16.68907655841454,0.01658599474173894,0.016298072070379664,10.832894155192633,0.024016793517104403
42,14,32,1,28.627833333333335,2899.94,27.345110423645124,2941.9,0.0,0.0,7.0,1.0,6597044.901960785,6423093.931372549,96.41363725490197,444251.3725490196,12557454.235294119,90.32278431372548,6.324411373155806,0.04802221862027989,0.02348187050721315,20.924756881117233,0.02344349826692075
43,14,32,2,28.592666666666666,2944.6800000000003,26.946934165057584,2945.3142857142857,0.0,0.0,8.0,1.0,6589133.617647059,6427261.460784314,96.41045098039218,443635.54901960783,12539656.274509804,90.7749019607843,6.117229612093075,0.04799004281483466,0.024723941223190563,20.73135746651111,0.024586023727144607
44,14,32,3,28.7395,2971.58,26.479149889678787,2929.7285714285713,0.0,0.0,7.0,1.0,6567203.009803922,6416930.37254902,96.38395098039217,442170.49019607843,12497602.11764706,90.1296862745098,5.919466416245799,0.0652161022750432,0.024259472380392645,20.445523625341902,0.02385104970104235
45,14,64,1,28.58616666666667,2939.01,27.30052909088221,2939.5714285714284,0.0,0.0,1.0,1.0,6597500.44117647,6436263.960784314,95.88480392156862,444254.96078431373,12557450.529411765,88.45537254901963,0.7687667975781136,0.08882298329917993,0.028927497509984183,26.386340862109712,0.02657827912031345
46,14,64,2,28.488999999999997,2992.41,27.300016774537404,2950.1714285714284,0.0,0.0,0.0,1.0,6596070.7549019605,6435172.44117647,95.89603921568629,444030.64705882355,12550426.039215686,89.35694117647058,0.7241992734312446,0.035460910098837714,0.02876103001538266,26.48660807395756,0.02407652370633776
47,14,64,3,28.571999999999996,2940.5699999999997,27.341583710568152,2941.0857142857144,0.0,0.0,0.0,1.0,6590529.803921569,6428937.362745098,95.81100980392155,443888.4117647059,12546052.0,88.67007843137253,0.7440317157959964,0.08221822876471424,0.028388223395265373,26.459644333128292,0.02634040668549706
48,22,8,1,44.94716666666666,2938.0699999999997,44.069486137961064,2938.8571428571427,0.0,0.0,47.0,1.0,6578880.637254901,6480461.960784314,96.2104117647059,442388.43137254904,12520664.56862745,91.23403921568628,38.6483378364712,0.0023077608758847175,0.015174131899001284,5.379496950151559,0.023409553855019843
49,22,8,2,45.00766666666667,2933.08,44.01749944288147,2933.785714285714,0.0,0.0,47.0,1.0,6583766.568627451,6484677.166666666,96.29536274509803,442773.92156862747,12530624.274509804,91.3800588235294,38.59941007934712,0.003622849421036771,0.015327836458645924,5.374773931491521,0.023458718418675348
50,22,8,3,45.012,2931.9,44.05535428705323,2932.6285714285714,0.0,0.0,48.0,1.0,6580110.137254902,6481062.637254901,96.16358823529414,442425.1960784314,12521618.862745099,91.71505882352939,38.639154797392145,0.0023815959156513375,0.016209793211074887,5.372561338256386,0.0240745939516622
51,22,16,1,44.991,2936.71,43.86960550236225,2937.542857142857,0.0,0.0,40.0,1.0,6585338.294117646,6485315.666666667,96.63055882352944,442991.2156862745,12534342.74509804,91.97394117647063,33.002897758831935,0.018787760668000076,0.015323758858680783,10.808992682045082,0.022664213668649097
52,22,16,2,45.03,2933.46,43.77513425173153,2934.385714285714,0.0,0.0,41.0,1.0,6585239.019607843,6484667.333333333,96.68711764705881,442933.43137254904,12534485.352941176,90.7688431372549,32.8937970451432,0.020095890611386197,0.015131448605722988,10.822661288026737,0.022639143265455526
53,22,16,3,45.004666666666665,2933.41,43.934938639487456,2934.2285714285713,0.0,0.0,41.0,1.0,6582951.450980392,6483300.401960785,96.32092156862747,442738.29411764705,12529375.274509804,91.66058823529413,33.04852544432099,0.015902847856282605,0.01762087284777562,10.826976891816708,0.024867492474927297
54,22,32,1,45.06633333333333,2934.3700000000003,43.75575227340233,2935.0142857142855,0.0,0.0,27.0,1.0,6586357.225490196,6473219.431372549,96.88039215686274,443856.43137254904,12535374.980392156,90.70025490196083,21.951812933762714,0.0732885776536881,0.016064454217259026,21.69045163937335,0.023278804063347855
55,22,32,2,45.114000000000004,2978.67,43.74593521407,2937.0285714285715,0.0,0.0,27.0,1.0,6593318.382352941,6479695.068627451,96.77956862745098,444064.7450980392,12549750.62745098,91.20390196078428,21.9064834320368,0.06107269126335334,0.015540351423757887,21.73882410638046,0.023085532938054112
56,22,32,3,45.1345,2935.2799999999997,43.824386495062015,2935.885714285714,0.0,0.0,28.0,1.0,6584023.696078431,6470800.44117647,96.93302941176472,443664.2549019608,12536023.647058824,91.3385882352941,21.978589377076784,0.05805135212464933,0.015875778050482146,21.74772350060502,0.023281497635317595
57,22,64,1,44.91466666666666,2983.48,43.64396727121631,2941.657142857143,0.0,0.0,2.0,1.0,6576106.901960785,6446149.980392157,95.73053921568628,452387.1176470588,12762217.137254901,88.96052941176467,1.8021349593785636,0.08490383742560714,0.029519833630506295,41.697528553295385,0.028988872155967134
58,22,64,2,44.89533333333333,2942.11,43.738844557857014,2942.942857142857,0.0,0.0,2.0,1.0,6587110.68627451,6454631.843137255,95.84158823529413,452247.90196078434,12745516.235294119,89.17347058823529,1.83748947013046,0.15776987805306272,0.02781576228893002,41.684498966681176,0.030217682463038888
59,22,64,3,45.093666666666664,2931.51,43.79061813657381,2931.3714285714286,0.0,0.0,2.0,1.0,6584303.735294118,6453025.176470589,95.85589215686274,450790.4117647059,12726086.647058824,88.56082352941175,1.8236593996865857,0.17112266558370198,0.028678336576034275,41.73794467730772,0.028120724715991505
60,42,8,1,85.79233333333333,2938.48,84.82109437074453,2939.9714285714285,0.0,0.0,96.0,1.0,6588139.019607844,6490361.2450980395,96.1252843137255,443167.96078431373,12539542.411764706,91.15637254901964,79.41025280788833,0.002343724845996417,0.01483584105695839,5.368011175520756,0.024816420055626478
61,42,8,2,85.874,2935.37,84.8606235184802,2936.9285714285716,0.0,0.0,96.0,1.0,6581561.029411765,6484083.382352941,96.242568627451,442587.2549019608,12524365.450980391,91.65862745098043,79.44394012995818,0.002273988650683902,0.015230459421083666,5.37528009209375,0.023131653958681622
62,42,8,3,85.967,2932.65,84.948240452878,2934.385714285714,0.0,0.0,98.0,1.0,6581423.323529411,6483669.460784314,96.22361764705886,442687.64705882355,12526802.019607844,91.50570588235293,79.53061444911083,0.0023691929657747458,0.015345765264570859,5.376063406400358,0.022965988014499096
63,42,16,1,86.01083333333335,2934.34,84.8545903848713,2936.0285714285715,0.0,0.0,89.0,1.0,6579205.794117647,6482246.862745098,96.14904901960783,442524.82352941175,12522922.764705881,91.42347058823529,73.95916748174513,0.02577101079672558,0.015269905624221716,10.829151783754412,0.024334480546749374
64,42,16,2,86.0245,2933.57,84.83543694591341,2935.1857142857143,0.0,0.0,89.0,1.0,6583259.107843136,6485754.519607844,96.62891176470589,442656.6862745098,12529812.94117647,91.8086862745098,73.94056218782438,0.01710089448281769,0.015417284252746875,10.838757625545242,0.02275464677444916
65,42,16,3,85.88416666666666,2938.9399999999996,84.72452207690085,2940.4857142857145,0.0,0.0,89.0,1.0,6591866.0,6494255.647058824,96.47680392156863,443423.5294117647,12545935.098039215,91.17364705882352,73.8532050494897,0.020160727887470517,0.01638869896110121,10.81028195299735,0.023524826020194206
66,42,32,1,86.02533333333335,2932.71,84.66491657121767,2934.2285714285713,0.0,0.0,77.0,1.0,6581152.705882353,6480336.117647059,96.84362745098039,443506.03921568627,12527426.647058824,91.02882352941175,62.840167880671665,0.06741908179509576,0.016492090774436044,21.715670561899515,0.024297914230608626
67,42,32,2,86.05066666666667,2933.69,84.77927436962186,2935.0,0.0,0.0,76.0,1.0,6579111.107843137,6479111.833333334,96.94994117647059,443174.2745098039,12522953.94117647,91.42109803921565,62.934567161430785,0.0631359680249232,0.01695271202274623,21.736618446682485,0.027208804228931297
68,42,32,3,85.83766666666668,2898.16,84.51525929815209,2940.7285714285713,0.0,0.0,77.0,1.0,6589577.990196079,6490061.676470588,96.90457843137256,444023.1960784314,12542107.843137255,90.89003921568626,62.7089404050883,0.06703199024184697,0.015847204383834124,21.699209370391067,0.023414632478626546
69,42,64,1,85.8515,2937.25,84.63512628982599,2938.9714285714285,0.0,0.0,48.0,1.0,6592446.411764706,6496611.343137255,96.87659803921571,455979.862745098,12848388.392156864,90.52954901960786,41.00131510316183,0.1794869934998562,0.016672617673908957,43.40881751080305,0.02778915631622908
70,42,64,2,86.12466666666666,2929.23,84.95607333297144,2931.2571428571428,0.0,0.0,50.0,1.0,6578815.12745098,6483529.117647059,96.87412745098041,454524.54901960783,12824999.235294119,90.56743137254901,41.18375362294205,0.16255437428523695,0.016665284251426306,43.56779415689549,0.02445180941171448
71,42,64,3,86.27216666666666,2932.37,85.0568943242134,2933.1857142857143,0.0,0.0,47.0,1.0,6581877.666666667,6486959.588235294,96.66586274509802,456131.54901960783,12865599.333333334,90.12929411764704,41.23377773712575,0.15584861519879623,0.01804793804156926,43.62069377838639,0.027514311148590143
72,64,8,1,130.92133333333334,2932.81,129.8141472204295,2935.5142857142855,0.0,0.0,152.0,1.0,6579777.2647058815,6482353.431372549,96.08663725490197,442528.82352941175,12522965.078431373,91.2896274509804,124.39631494850946,0.0035582260551072146,0.01573332616634128,5.3732463047194585,0.0243647830741578
73,64,8,2,129.47833333333332,2971.21,129.65520360342754,2973.9,0.0,0.0,151.0,1.0,6589724.343137255,6492132.323529411,96.17198039215688,443076.3333333333,12540759.862745099,91.47790196078432,124.24327857408146,0.003684832359998439,0.014693033404571952,5.368846773821341,0.023805840019719745
74,64,8,3,130.99099999999999,2933.49,129.8925874016647,2936.042857142857,0.0,0.0,152.0,1.0,6577886.950980392,6480658.137254902,96.13555882352944,442426.862745098,12519150.705882354,91.07301960784314,124.4692048239962,0.005179388272625986,0.015642727839660683,5.377152660567271,0.02452001901299658
75,64,16,1,131.35016666666667,2937.45,130.21665554123402,2939.9285714285716,0.0,0.0,140.0,1.0,6588318.94117647,6491127.637254901,96.47148039215686,443191.98039215687,12539316.37254902,91.59554901960783,119.29929022613938,0.02162838020471375,0.01621886175127376,10.854730357207098,0.023982841181759175
76,64,16,2,129.411,2972.0200000000004,129.61258824619648,2974.614285714286,0.0,0.0,146.0,1.0,6580980.94117647,6483846.049019609,96.62257843137257,442658.6862745098,12526787.588235294,91.55621568627453,118.73137501368697,0.019449569099017884,0.015731382637194903,10.821332295997586,0.02392854160155789
77,64,16,3,130.8795,2938.32,129.70977953088683,2941.0714285714284,0.0,0.0,143.0,1.0,6591131.31372549,6493618.9215686275,96.48842156862742,443436.49019607843,12544841.215686275,91.48201960784314,118.83225391443818,0.01989066890424191,0.015312354716341351,10.817818951941362,0.023643674285077396
78,64,32,1,130.33683333333335,2948.6499999999996,129.04514880611538,2950.7571428571428,0.0,0.0,125.0,1.0,6599968.225490196,6498647.529411765,96.73299999999999,444742.03921568627,12561231.901960785,91.44111764705883,107.28807751637005,0.06209491350087813,0.016951309369072895,21.651645802446335,0.025409360449936073
79,64,32,2,131.01,2935.1899999999996,129.68301746681362,2937.7,0.0,0.0,131.0,1.0,6576348.637254902,6475818.294117646,96.81689215686274,443121.82352941175,12519147.411764706,91.76343137254902,107.87272713298358,0.058121556253805606,0.016513788860334416,21.711100607445562,0.02360518377147531
80,64,32,3,130.93733333333333,2937.61,129.60473141901858,2939.9714285714285,0.0,0.0,130.0,1.0,6587711.31372549,6487925.450980392,96.99813725490199,443576.29411764705,12534517.647058824,90.95194117647058,107.78100876662495,0.06718924992893775,0.01596365538636421,21.715750238949965,0.023944357169192146
81,64,64,1,130.71316666666667,2939.1800000000003,129.50989884035275,2941.5285714285715,0.0,0.0,96.0,1.0,6593560.294117646,6497811.176470588,96.79238235294117,455783.64705882355,12847263.980392156,90.33392156862745,85.8943669977417,0.16315342013500334,0.016072714472909765,43.39618135180325,0.039213349351685675
82,64,64,2,131.19516666666667,2930.1000000000004,129.99902677865018,2931.9,0.0,0.0,103.0,1.0,6571384.0784313725,6475915.607843137,96.76260784313725,454236.8039215686,12805722.19607843,90.62050980392156,86.21651567508816,0.17128731643105508,0.01657155093657762,43.56088684168992,0.03286554230483792
83,64,64,3,131.07266666666666,2936.63,130.02564334088635,2938.9142857142856,0.0,0.0,103.0,1.0,6580096.068627451,6485796.81372549,96.7189411764706,455843.1960784314,12861620.666666666,90.62078431372547,86.20032618812905,0.18988270595319617,0.01646554938211675,43.59350041662492,0.024655000936120254
