1         Threads
4         Connections per thread
70        Seconds


ALL STATS
========================================================================
Type        Ops/sec     Hits/sec   Misses/sec      Latency       KB/sec 
------------------------------------------------------------------------
Sets           0.00          ---          ---      0.00000         0.00 
Gets         497.50       497.50         0.00      8.02600      2015.18 
Waits          0.00          ---          ---      0.00000          --- 
Totals       497.50       497.50         0.00      8.02600      2015.18 


Request Latency Distribution
Type     <= msec         Percent
------------------------------------------------------------------------
---
GET       0.990         0.00
GET       1.000         0.01
GET       1.100         0.04
GET       1.200         0.17
GET       1.300         0.53
GET       1.400         1.29
GET       1.500         2.54
GET       1.600         4.22
GET       1.700         6.23
GET       1.800         9.06
GET       1.900        12.06
GET       2.000        15.22
GET       2.100        18.52
GET       2.200        21.59
GET       2.300        24.88
GET       2.400        27.96
GET       2.500        30.86
GET       2.600        33.26
GET       2.700        35.44
GET       2.800        37.36
GET       2.900        38.94
GET       3.000        40.23
GET       3.100        41.40
GET       3.200        42.35
GET       3.300        43.15
GET       3.400        43.76
GET       3.500        44.29
GET       3.600        44.67
GET       3.700        45.01
GET       3.800        45.30
GET       3.900        45.56
GET       4.000        45.79
GET       4.100        46.03
GET       4.200        46.20
GET       4.300        46.38
GET       4.400        46.56
GET       4.500        46.67
GET       4.600        46.80
GET       4.700        46.94
GET       4.800        47.05
GET       4.900        47.18
GET       5.000        47.32
GET       5.100        47.43
GET       5.200        47.52
GET       5.300        47.59
GET       5.400        47.65
GET       5.500        47.74
GET       5.600        47.85
GET       5.700        47.93
GET       5.800        48.00
GET       5.900        48.07
GET       6.000        48.13
GET       6.100        48.21
GET       6.200        48.29
GET       6.300        48.38
GET       6.400        48.44
GET       6.500        48.52
GET       6.600        48.58
GET       6.700        48.64
GET       6.800        48.73
GET       6.900        48.78
GET       7.000        48.84
GET       7.100        48.89
GET       7.200        48.94
GET       7.300        49.01
GET       7.400        49.08
GET       7.500        49.12
GET       7.600        49.17
GET       7.700        49.22
GET       7.800        49.26
GET       7.900        49.32
GET       8.000        49.38
GET       8.100        49.47
GET       8.200        49.53
GET       8.300        49.61
GET       8.400        49.69
GET       8.500        49.72
GET       8.600        49.79
GET       8.700        49.83
GET       8.800        49.90
GET       8.900        49.96
GET       9.000        50.06
GET       9.100        50.11
GET       9.200        50.24
GET       9.300        50.36
GET       9.400        50.44
GET       9.500        50.53
GET       9.600        50.62
GET       9.700        50.71
GET       9.800        50.80
GET       9.900        50.92
GET      10.000        51.51
GET      11.000        53.30
GET      12.000        59.40
GET      13.000        80.41
GET      14.000        94.41
GET      15.000        97.48
GET      16.000        99.15
GET      17.000        99.37
GET      18.000        99.46
GET      19.000        99.53
GET      20.000        99.56
GET      21.000        99.57
GET      22.000        99.58
GET      23.000        99.58
GET      24.000        99.62
GET      25.000        99.66
GET      26.000        99.74
GET      27.000        99.81
GET      28.000        99.94
GET      29.000        99.98
GET      30.000        99.99
GET      37.000        99.99
GET     160.000       100.00
GET     170.000       100.00
---
