1         Threads
4         Connections per thread
70        Seconds


ALL STATS
========================================================================
Type        Ops/sec     Hits/sec   Misses/sec      Latency       KB/sec 
------------------------------------------------------------------------
Sets           0.00          ---          ---      0.00000         0.00 
Gets         475.70       475.70         0.00      8.39600      1926.86 
Waits          0.00          ---          ---      0.00000          --- 
Totals       475.70       475.70         0.00      8.39600      1926.86 


Request Latency Distribution
Type     <= msec         Percent
------------------------------------------------------------------------
---
GET       1.100         0.02
GET       1.200         0.05
GET       1.300         0.16
GET       1.400         0.42
GET       1.500         0.91
GET       1.600         1.73
GET       1.700         3.03
GET       1.800         4.75
GET       1.900         6.89
GET       2.000         9.56
GET       2.100        12.59
GET       2.200        15.96
GET       2.300        19.62
GET       2.400        22.98
GET       2.500        26.32
GET       2.600        29.63
GET       2.700        32.30
GET       2.800        34.45
GET       2.900        36.23
GET       3.000        37.69
GET       3.100        38.86
GET       3.200        39.85
GET       3.300        40.61
GET       3.400        41.36
GET       3.500        41.91
GET       3.600        42.35
GET       3.700        42.76
GET       3.800        43.05
GET       3.900        43.30
GET       4.000        43.50
GET       4.100        43.68
GET       4.200        43.85
GET       4.300        44.03
GET       4.400        44.19
GET       4.500        44.33
GET       4.600        44.45
GET       4.700        44.58
GET       4.800        44.72
GET       4.900        44.81
GET       5.000        44.93
GET       5.100        45.02
GET       5.200        45.11
GET       5.300        45.20
GET       5.400        45.33
GET       5.500        45.41
GET       5.600        45.47
GET       5.700        45.51
GET       5.800        45.55
GET       5.900        45.59
GET       6.000        45.65
GET       6.100        45.71
GET       6.200        45.78
GET       6.300        45.83
GET       6.400        45.87
GET       6.500        45.90
GET       6.600        45.95
GET       6.700        45.96
GET       6.800        46.02
GET       6.900        46.07
GET       7.000        46.13
GET       7.100        46.22
GET       7.200        46.28
GET       7.300        46.36
GET       7.400        46.43
GET       7.500        46.51
GET       7.600        46.60
GET       7.700        46.66
GET       7.800        46.72
GET       7.900        46.78
GET       8.000        46.86
GET       8.100        46.93
GET       8.200        46.99
GET       8.300        47.02
GET       8.400        47.06
GET       8.500        47.12
GET       8.600        47.19
GET       8.700        47.24
GET       8.800        47.29
GET       8.900        47.35
GET       9.000        47.41
GET       9.100        47.45
GET       9.200        47.50
GET       9.300        47.56
GET       9.400        47.60
GET       9.500        47.63
GET       9.600        47.69
GET       9.700        47.78
GET       9.800        47.85
GET       9.900        47.96
GET      10.000        48.41
GET      11.000        50.11
GET      12.000        56.05
GET      13.000        80.20
GET      14.000        91.68
GET      15.000        96.41
GET      16.000        99.26
GET      17.000        99.53
GET      18.000        99.70
GET      19.000        99.74
GET      20.000        99.77
GET      21.000        99.79
GET      22.000        99.80
GET      23.000        99.81
GET      24.000        99.81
GET      26.000        99.83
GET      27.000        99.87
GET      28.000        99.95
GET      29.000        99.97
GET      30.000        99.98
GET      37.000        99.98
GET      38.000        99.99
GET     210.000        99.99
GET     220.000       100.00
---
