2         Threads
22        Connections per thread
70        Seconds


ALL STATS
========================================================================
Type        Ops/sec     Hits/sec   Misses/sec      Latency       KB/sec 
------------------------------------------------------------------------
Sets        5788.36          ---          ---      7.59800     23361.96 
Gets           0.00         0.00         0.00      0.00000         0.00 
Waits          0.00          ---          ---      0.00000          --- 
Totals      5788.36         0.00         0.00      7.59800     23361.96 


Request Latency Distribution
Type     <= msec         Percent
------------------------------------------------------------------------
SET       0.490         0.00
SET       0.510         0.00
SET       0.540         0.00
SET       0.550         0.00
SET       0.560         0.00
SET       0.570         0.00
SET       0.580         0.00
SET       0.600         0.00
SET       0.610         0.01
SET       0.620         0.01
SET       0.630         0.01
SET       0.640         0.01
SET       0.660         0.01
SET       0.670         0.01
SET       0.680         0.02
SET       0.690         0.02
SET       0.700         0.02
SET       0.710         0.02
SET       0.720         0.02
SET       0.730         0.03
SET       0.740         0.03
SET       0.750         0.04
SET       0.760         0.04
SET       0.770         0.04
SET       0.780         0.05
SET       0.790         0.05
SET       0.800         0.06
SET       0.810         0.06
SET       0.820         0.06
SET       0.830         0.07
SET       0.840         0.07
SET       0.850         0.08
SET       0.860         0.08
SET       0.870         0.09
SET       0.880         0.09
SET       0.890         0.10
SET       0.900         0.11
SET       0.910         0.11
SET       0.920         0.12
SET       0.930         0.13
SET       0.940         0.14
SET       0.950         0.15
SET       0.960         0.16
SET       0.970         0.17
SET       0.980         0.18
SET       0.990         0.19
SET       1.000         0.29
SET       1.100         0.60
SET       1.200         1.07
SET       1.300         1.73
SET       1.400         2.53
SET       1.500         3.57
SET       1.600         4.78
SET       1.700         6.25
SET       1.800         8.10
SET       1.900        10.01
SET       2.000        11.57
SET       2.100        12.72
SET       2.200        13.51
SET       2.300        14.16
SET       2.400        14.59
SET       2.500        14.94
SET       2.600        15.22
SET       2.700        15.48
SET       2.800        15.69
SET       2.900        15.89
SET       3.000        16.09
SET       3.100        16.30
SET       3.200        16.50
SET       3.300        16.71
SET       3.400        16.97
SET       3.500        17.27
SET       3.600        17.57
SET       3.700        17.83
SET       3.800        18.07
SET       3.900        18.26
SET       4.000        18.40
SET       4.100        18.52
SET       4.200        18.65
SET       4.300        18.76
SET       4.400        18.88
SET       4.500        19.00
SET       4.600        19.14
SET       4.700        19.26
SET       4.800        19.39
SET       4.900        19.53
SET       5.000        19.65
SET       5.100        19.80
SET       5.200        19.97
SET       5.300        20.14
SET       5.400        20.33
SET       5.500        20.52
SET       5.600        20.72
SET       5.700        20.92
SET       5.800        21.13
SET       5.900        21.38
SET       6.000        21.64
SET       6.100        21.95
SET       6.200        22.26
SET       6.300        22.60
SET       6.400        22.98
SET       6.500        23.39
SET       6.600        23.90
SET       6.700        24.49
SET       6.800        25.16
SET       6.900        25.96
SET       7.000        26.91
SET       7.100        27.96
SET       7.200        29.15
SET       7.300        30.41
SET       7.400        31.76
SET       7.500        33.20
SET       7.600        34.67
SET       7.700        36.28
SET       7.800        37.98
SET       7.900        39.91
SET       8.000        41.98
SET       8.100        44.37
SET       8.200        46.96
SET       8.300        49.90
SET       8.400        53.06
SET       8.500        56.47
SET       8.600        59.95
SET       8.700        63.48
SET       8.800        67.04
SET       8.900        70.41
SET       9.000        73.63
SET       9.100        76.64
SET       9.200        79.25
SET       9.300        81.61
SET       9.400        83.75
SET       9.500        85.48
SET       9.600        87.03
SET       9.700        88.29
SET       9.800        89.34
SET       9.900        90.21
SET      10.000        92.97
SET      11.000        94.83
SET      12.000        95.66
SET      13.000        96.26
SET      14.000        96.85
SET      15.000        97.61
SET      16.000        98.53
SET      17.000        99.30
SET      18.000        99.71
SET      19.000        99.83
SET      20.000        99.85
SET      21.000        99.86
SET      22.000        99.87
SET      23.000        99.88
SET      24.000        99.91
SET      25.000        99.94
SET      26.000        99.95
SET      27.000        99.96
SET      28.000        99.97
SET      29.000        99.97
SET      30.000        99.97
SET      31.000        99.97
SET      32.000        99.97
SET      33.000        99.98
SET      34.000        99.98
SET      36.000        99.98
SET      38.000        99.98
SET      40.000        99.98
SET      41.000        99.99
SET      42.000        99.99
SET      43.000        99.99
SET      44.000        99.99
SET      45.000        99.99
SET      51.000        99.99
SET      53.000       100.00
SET      57.000       100.00
SET      58.000       100.00
---
---
