2         Threads
10        Connections per thread
70        Seconds


ALL STATS
========================================================================
Type        Ops/sec     Hits/sec   Misses/sec      Latency       KB/sec 
------------------------------------------------------------------------
Sets        5939.93          ---          ---      3.36400     23973.73 
Gets           0.00         0.00         0.00      0.00000         0.00 
Waits          0.00          ---          ---      0.00000          --- 
Totals      5939.93         0.00         0.00      3.36400     23973.73 


Request Latency Distribution
Type     <= msec         Percent
------------------------------------------------------------------------
SET       0.250         0.00
SET       0.270         0.00
SET       0.280         0.00
SET       0.290         0.00
SET       0.300         0.00
SET       0.310         0.00
SET       0.320         0.00
SET       0.330         0.00
SET       0.340         0.01
SET       0.350         0.01
SET       0.360         0.01
SET       0.370         0.01
SET       0.380         0.02
SET       0.390         0.02
SET       0.400         0.03
SET       0.410         0.03
SET       0.420         0.04
SET       0.430         0.06
SET       0.440         0.07
SET       0.450         0.09
SET       0.460         0.11
SET       0.470         0.13
SET       0.480         0.15
SET       0.490         0.18
SET       0.500         0.21
SET       0.510         0.25
SET       0.520         0.29
SET       0.530         0.33
SET       0.540         0.38
SET       0.550         0.45
SET       0.560         0.52
SET       0.570         0.58
SET       0.580         0.65
SET       0.590         0.72
SET       0.600         0.81
SET       0.610         0.91
SET       0.620         1.01
SET       0.630         1.12
SET       0.640         1.23
SET       0.650         1.35
SET       0.660         1.51
SET       0.670         1.67
SET       0.680         1.85
SET       0.690         2.05
SET       0.700         2.27
SET       0.710         2.51
SET       0.720         2.77
SET       0.730         3.05
SET       0.740         3.34
SET       0.750         3.67
SET       0.760         4.01
SET       0.770         4.42
SET       0.780         4.83
SET       0.790         5.28
SET       0.800         5.75
SET       0.810         6.21
SET       0.820         6.70
SET       0.830         7.23
SET       0.840         7.78
SET       0.850         8.33
SET       0.860         8.88
SET       0.870         9.42
SET       0.880         9.98
SET       0.890        10.54
SET       0.900        11.09
SET       0.910        11.61
SET       0.920        12.13
SET       0.930        12.64
SET       0.940        13.13
SET       0.950        13.58
SET       0.960        14.04
SET       0.970        14.48
SET       0.980        14.92
SET       0.990        15.32
SET       1.000        17.37
SET       1.100        20.84
SET       1.200        24.87
SET       1.300        29.59
SET       1.400        34.26
SET       1.500        38.43
SET       1.600        41.77
SET       1.700        44.58
SET       1.800        47.10
SET       1.900        49.40
SET       2.000        51.56
SET       2.100        53.59
SET       2.200        55.34
SET       2.300        56.71
SET       2.400        57.81
SET       2.500        58.62
SET       2.600        59.22
SET       2.700        59.70
SET       2.800        60.07
SET       2.900        60.38
SET       3.000        60.67
SET       3.100        60.89
SET       3.200        61.10
SET       3.300        61.35
SET       3.400        61.56
SET       3.500        61.78
SET       3.600        62.01
SET       3.700        62.25
SET       3.800        62.49
SET       3.900        62.76
SET       4.000        63.02
SET       4.100        63.31
SET       4.200        63.55
SET       4.300        63.85
SET       4.400        64.17
SET       4.500        64.54
SET       4.600        64.91
SET       4.700        65.37
SET       4.800        65.86
SET       4.900        66.40
SET       5.000        66.97
SET       5.100        67.61
SET       5.200        68.31
SET       5.300        69.08
SET       5.400        69.97
SET       5.500        70.92
SET       5.600        71.92
SET       5.700        72.96
SET       5.800        74.08
SET       5.900        75.27
SET       6.000        76.52
SET       6.100        77.86
SET       6.200        79.26
SET       6.300        80.71
SET       6.400        82.19
SET       6.500        83.62
SET       6.600        85.06
SET       6.700        86.46
SET       6.800        87.84
SET       6.900        89.22
SET       7.000        90.48
SET       7.100        91.69
SET       7.200        92.73
SET       7.300        93.60
SET       7.400        94.34
SET       7.500        95.00
SET       7.600        95.58
SET       7.700        96.06
SET       7.800        96.45
SET       7.900        96.78
SET       8.000        97.07
SET       8.100        97.33
SET       8.200        97.56
SET       8.300        97.76
SET       8.400        97.96
SET       8.500        98.13
SET       8.600        98.28
SET       8.700        98.43
SET       8.800        98.57
SET       8.900        98.67
SET       9.000        98.77
SET       9.100        98.87
SET       9.200        98.94
SET       9.300        99.00
SET       9.400        99.06
SET       9.500        99.11
SET       9.600        99.16
SET       9.700        99.21
SET       9.800        99.26
SET       9.900        99.29
SET      10.000        99.40
SET      11.000        99.55
SET      12.000        99.67
SET      13.000        99.74
SET      14.000        99.77
SET      15.000        99.83
SET      16.000        99.92
SET      17.000        99.96
SET      18.000        99.98
SET      19.000        99.99
SET      24.000        99.99
SET      30.000        99.99
SET      36.000        99.99
SET      37.000       100.00
SET      38.000       100.00
---
---
