1         Threads
4         Connections per thread
70        Seconds


ALL STATS
========================================================================
Type        Ops/sec     Hits/sec   Misses/sec      Latency       KB/sec 
------------------------------------------------------------------------
Sets        1436.27          ---          ---      2.77800      5796.84 
Gets           0.00         0.00         0.00      0.00000         0.00 
Waits          0.00          ---          ---      0.00000          --- 
Totals      1436.27         0.00         0.00      2.77800      5796.84 


Request Latency Distribution
Type     <= msec         Percent
------------------------------------------------------------------------
SET       0.790         0.00
SET       0.800         0.00
SET       0.810         0.00
SET       0.820         0.00
SET       0.830         0.01
SET       0.840         0.01
SET       0.850         0.01
SET       0.860         0.01
SET       0.870         0.02
SET       0.880         0.02
SET       0.890         0.04
SET       0.900         0.05
SET       0.910         0.06
SET       0.920         0.07
SET       0.930         0.08
SET       0.940         0.11
SET       0.950         0.13
SET       0.960         0.16
SET       0.970         0.20
SET       0.980         0.24
SET       0.990         0.29
SET       1.000         0.68
SET       1.100         2.11
SET       1.200         5.00
SET       1.300         9.24
SET       1.400        14.62
SET       1.500        21.24
SET       1.600        27.97
SET       1.700        35.13
SET       1.800        41.94
SET       1.900        48.07
SET       2.000        53.83
SET       2.100        58.69
SET       2.200        62.89
SET       2.300        66.49
SET       2.400        69.50
SET       2.500        72.04
SET       2.600        74.17
SET       2.700        75.96
SET       2.800        77.49
SET       2.900        78.79
SET       3.000        79.89
SET       3.100        80.93
SET       3.200        81.79
SET       3.300        82.49
SET       3.400        83.09
SET       3.500        83.61
SET       3.600        84.10
SET       3.700        84.55
SET       3.800        84.94
SET       3.900        85.34
SET       4.000        85.73
SET       4.100        86.02
SET       4.200        86.27
SET       4.300        86.53
SET       4.400        86.78
SET       4.500        87.01
SET       4.600        87.24
SET       4.700        87.44
SET       4.800        87.63
SET       4.900        87.80
SET       5.000        87.96
SET       5.100        88.14
SET       5.200        88.29
SET       5.300        88.44
SET       5.400        88.62
SET       5.500        88.76
SET       5.600        88.89
SET       5.700        89.03
SET       5.800        89.20
SET       5.900        89.37
SET       6.000        89.55
SET       6.100        89.75
SET       6.200        90.02
SET       6.300        90.34
SET       6.400        90.70
SET       6.500        91.10
SET       6.600        91.47
SET       6.700        91.93
SET       6.800        92.42
SET       6.900        92.89
SET       7.000        93.36
SET       7.100        93.87
SET       7.200        94.36
SET       7.300        94.90
SET       7.400        95.47
SET       7.500        95.95
SET       7.600        96.43
SET       7.700        96.87
SET       7.800        97.21
SET       7.900        97.49
SET       8.000        97.74
SET       8.100        97.97
SET       8.200        98.16
SET       8.300        98.33
SET       8.400        98.50
SET       8.500        98.60
SET       8.600        98.74
SET       8.700        98.82
SET       8.800        98.91
SET       8.900        98.99
SET       9.000        99.06
SET       9.100        99.12
SET       9.200        99.19
SET       9.300        99.22
SET       9.400        99.28
SET       9.500        99.32
SET       9.600        99.36
SET       9.700        99.39
SET       9.800        99.42
SET       9.900        99.45
SET      10.000        99.58
SET      11.000        99.74
SET      12.000        99.80
SET      13.000        99.83
SET      14.000        99.86
SET      15.000        99.88
SET      16.000        99.90
SET      17.000        99.91
SET      18.000        99.92
SET      19.000        99.92
SET      20.000        99.92
SET      21.000        99.93
SET      22.000        99.93
SET      23.000        99.93
SET      24.000        99.94
SET      25.000        99.94
SET      26.000        99.94
SET      27.000        99.95
SET      29.000        99.95
SET      33.000        99.95
SET      35.000        99.95
SET      37.000        99.95
SET      38.000        99.96
SET      39.000        99.96
SET      42.000        99.96
SET      45.000        99.96
SET      48.000        99.96
SET      49.000        99.97
SET      53.000        99.97
SET      83.000        99.97
SET      94.000        99.97
SET      99.000        99.98
SET     140.000        99.98
SET     190.000        99.98
SET     270.000        99.98
SET     320.000        99.98
SET     330.000        99.99
SET     350.000       100.00
SET     360.000       100.00
SET     420.000       100.00
SET     510.000       100.00
---
---
