second,get,set,multiget,multigetsharded,cachemisses
1,10170,1155,0,1130,10165
2,28953,3253,0,3217,28755
3,52605,5871,0,5845,52151
4,77274,8618,0,8586,76238
5,105264,11732,0,11696,103916
6,133497,14864,0,14833,131729
7,160974,17922,0,17886,158360
8,188928,21031,0,20992,185609
9,214137,23826,0,23793,209704
10,240903,26797,0,26767,235423
11,268371,29848,0,29819,261813
12,294372,32734,0,32708,286380
13,321354,35740,0,35706,311811
14,348642,38775,0,38738,337611
15,375147,41707,0,41683,362409
16,402669,44775,0,44741,387702
17,430533,47861,0,47837,413261
18,456633,50770,0,50737,437442
19,483534,53758,0,53726,462041
20,511092,56821,0,56788,486857
21,536949,59693,0,59661,510247
22,563031,62598,0,62559,533978
23,589374,65515,0,65486,557988
24,614862,68348,0,68318,581012
25,640746,71221,0,71194,604105
26,667503,74192,0,74167,627876
27,691965,76919,0,76885,649516
28,718047,79816,0,79783,672430
29,744201,82728,0,82689,695275
30,769833,85568,0,85537,717414
31,795501,88417,0,88389,739562
32,820026,91154,0,91114,760718
33,844092,93817,0,93788,781386
34,870741,96773,0,96749,804235
35,895329,99517,0,99481,825147
36,920529,102314,0,102281,846417
37,945837,105119,0,105093,867553
38,968796,107674,0,107644,886592
39,990900,110137,0,110100,904813
40,1013580,112657,0,112620,923265
41,1036665,115220,0,115185,942118
42,1058634,117663,0,117626,960117
43,1082628,120323,0,120292,979888
44,1105767,122899,0,122863,999111
45,1126962,125249,0,125218,1016436
46,1147923,127576,0,127547,1033337
47,1167885,129796,0,129765,1049281
48,1188162,132051,0,132018,1065399
49,1207890,134245,0,134210,1080999
50,1227591,136439,0,136399,1096619
51,1246806,138563,0,138534,1111804
52,1266255,140720,0,140695,1127083
53,1284354,142734,0,142706,1141310
54,1302867,144797,0,144763,1155832
55,1321317,146851,0,146813,1170115
56,1339893,148913,0,148877,1184482
57,1357290,150841,0,150810,1197899
58,1375731,152889,0,152859,1212211
59,1393983,154919,0,154887,1226263
60,1412163,156934,0,156907,1240389
61,1430694,159001,0,158966,1254829
62,1449000,161039,0,161000,1269162
63,1467945,163146,0,163105,1283868
64,1486377,165184,0,165153,1298238
65,1503468,167088,0,167052,1311386
66,1521243,169060,0,169027,1324993
67,1538811,171012,0,170979,1338353
68,1555308,172844,0,172812,1350851
69,1571643,174665,0,174627,1363104
70,1587105,176387,0,176345,1374607
71,1602225,178046,0,178025,1385840
72,1617741,179773,0,179749,1397314
73,1633149,181490,0,181461,1408626
74,1648719,183226,0,183191,1420015
75,1663956,184922,0,184884,1431252
76,1679364,186629,0,186596,1442454
77,1694898,188355,0,188322,1453753
78,1710918,190135,0,190102,1465417
79,1725615,191778,0,191735,1476136
80,1740330,193401,0,193370,1486790
81,1755216,195049,0,195024,1497620
82,1769562,196655,0,196618,1507948
83,1784304,198290,0,198256,1518590
84,1799343,199961,0,199927,1529364
85,1813950,201587,0,201550,1539809
86,1828611,203217,0,203179,1550253
87,1842480,204749,0,204720,1560066
88,1856745,206343,0,206305,1570134
89,1870830,207896,0,207870,1580018
90,1884231,209397,0,209359,1589356
91,1897389,210856,0,210821,1598473
92,1910826,212350,0,212314,1607785
93,1924506,213871,0,213834,1617160
94,1937493,215314,0,215277,1626149
95,1951119,216821,0,216791,1635498
96,1964340,218294,0,218260,1644584
97,1977750,219781,0,219750,1653794
98,1991367,221299,0,221263,1663159
99,2004822,222792,0,222758,1672307
100,2017782,224238,0,224198,1681121
101,2031741,225785,0,225749,1690670
102,2044908,227246,0,227212,1699683
103,2058156,228726,0,228684,1708667
104,2071278,230174,0,230142,1717631
105,2084175,231600,0,231575,1726377
106,2096703,233006,0,232967,1734908
107,2109726,234454,0,234414,1743724
108,2122722,235903,0,235858,1752499
109,2136249,237389,0,237361,1761640
110,2149182,238833,0,238798,1770313
111,2161764,240236,0,240196,1778739
112,2175228,241713,0,241692,1787717
113,2188152,243163,0,243128,1796366
114,2200671,244562,0,244519,1804751
115,2213487,245986,0,245943,1813295
116,2226078,247375,0,247342,1821752
117,2238885,248807,0,248765,1830266
118,2251368,250183,0,250152,1838512
119,2264112,251591,0,251568,1846994
120,2276550,252989,0,252950,1855178
121,2289240,254397,0,254360,1863639
122,2302695,255898,0,255855,1872596
123,2315043,257267,0,257227,1880745
124,2327499,258651,0,258611,1888962
125,2339703,260011,0,259967,1896855
126,2352078,261377,0,261342,1904923
127,2364615,262768,0,262735,1913213
128,2376360,264077,0,264040,1920921
129,2388447,265417,0,265383,1928677
130,2400696,266776,0,266744,1936625
131,2412648,268113,0,268072,1944332
132,2424681,269449,0,269409,1952217
133,2436759,270787,0,270751,1960043
134,2448630,272109,0,272070,1967536
135,2460483,273424,0,273387,1975120
136,2472057,274707,0,274673,1982565
137,2484153,276049,0,276017,1990242
138,2495988,277371,0,277332,1997759
139,2507643,278660,0,278627,2005109
140,2519415,279970,0,279935,2012557
141,2530809,281234,0,281201,2019761
142,2542437,282535,0,282493,2027197
143,2553363,283747,0,283707,2034008
144,2564685,285001,0,284965,2041072
145,2576286,286286,0,286254,2048401
146,2587779,287571,0,287531,2055576
147,2599470,288853,0,288830,2062880
148,2610324,290063,0,290036,2069524
149,2621880,291357,0,291320,2076690
150,2633382,292636,0,292598,2083778
151,2644353,293854,0,293817,2090597
152,2655306,295068,0,295034,2097419
153,2666493,296315,0,296277,2104334
154,2677527,297530,0,297503,2111127
155,2688363,298749,0,298707,2117697
156,2699127,299938,0,299903,2124227
157,2710674,301231,0,301186,2131309
158,2721663,302436,0,302407,2137927
159,2732265,303628,0,303585,2144342
160,2742984,304815,0,304776,2150846
161,2754036,306038,0,306004,2157624
162,2764854,307247,0,307206,2164216
163,2775726,308455,0,308414,2170792
164,2786742,309672,0,309638,2177535
165,2797497,310876,0,310833,2183990
166,2808369,312076,0,312041,2190521
167,2819088,313270,0,313232,2196892
168,2829438,314432,0,314382,2203074
169,2839752,315558,0,315528,2209236
170,2850534,316768,0,316726,2215735
171,2861127,317939,0,317903,2222121
172,2871378,319080,0,319042,2228141
173,2881899,320257,0,320211,2234521
174,2892564,321438,0,321396,2240820
175,2903310,322622,0,322590,2247206
176,2914353,323863,0,323817,2253934
177,2924802,325011,0,324978,2260174
178,2935269,326180,0,326141,2266363
179,2945808,327341,0,327312,2272534
180,2956059,328497,0,328451,2278569
181,2966058,329601,0,329562,2284336
182,2976498,330755,0,330722,2290492
183,2986740,331894,0,331860,2296491
184,2996838,333013,0,332982,2302325
185,3006756,334118,0,334084,2308198
186,3016890,335255,0,335210,2313974
187,3026817,336350,0,336313,2319744
188,3036393,337409,0,337377,2325294
189,3046851,338572,0,338539,2331309
190,3056436,339638,0,339604,2336763
191,3066102,340702,0,340678,2342289
192,3075759,341784,0,341751,2347736
193,3085569,342884,0,342841,2353278
194,3095622,343987,0,343958,2359050
195,3104964,345031,0,344996,2364318
196,3114603,346102,0,346067,2369758
197,3124791,347229,0,347199,2375540
198,3134853,348356,0,348317,2381272
199,3144303,349403,0,349367,2386492
200,3153969,350488,0,350441,2391928
201,3163842,351583,0,351538,2397512
202,3173643,352669,0,352627,2403038
203,3183165,353734,0,353685,2408337
204,3192867,354800,0,354763,2413724
205,3202173,355840,0,355797,2418890
206,3211803,356904,0,356867,2424287
207,3221208,357938,0,357912,2429383
208,3230757,359017,0,358973,2434684
209,3240594,360110,0,360066,2440146
210,3250575,361205,0,361175,2445649
211,3259962,362267,0,362218,2450735
212,3269745,363349,0,363305,2456168
213,3279150,364390,0,364350,2461318
214,3288411,365416,0,365379,2466332
215,3297735,366446,0,366415,2471435
216,3307284,367510,0,367476,2476657
217,3317337,368629,0,368593,2482148
218,3326634,369647,0,369626,2487139
219,3335499,370645,0,370611,2491944
220,3344769,371682,0,371641,2496942
221,3354075,372724,0,372675,2501952
222,3363408,373751,0,373712,2506918
223,3372642,374778,0,374738,2511908
224,3381570,375763,0,375730,2516678
225,3390984,376816,0,376776,2521745
226,3400002,377816,0,377778,2526569
227,3409254,378839,0,378806,2531504
228,3418344,379861,0,379816,2536353
229,3427749,380899,0,380861,2541312
230,3437100,381928,0,381900,2546194
231,3445740,382903,0,382860,2550715
232,3454938,383914,0,383882,2555623
233,3463884,384909,0,384876,2560346
234,3472614,385890,0,385846,2564972
235,3482154,386932,0,386906,2569986
236,3491244,387959,0,387916,2574733
237,3500487,388982,0,388943,2579497
238,3509505,389977,0,389945,2584189
239,3518766,391010,0,390974,2588960
240,3527478,391983,0,391942,2593471
241,3536082,392947,0,392898,2597950
242,3545604,393996,0,393956,2602875
243,3554109,394938,0,394901,2607285
244,3562371,395862,0,395819,2611481
245,3571686,396890,0,396854,2616326
246,3580884,397917,0,397876,2621098
247,3589776,398894,0,398864,2625658
248,3598488,399865,0,399832,2630094
249,3607047,400822,0,400783,2634448
250,3616218,401846,0,401802,2639146
251,3625128,402828,0,402792,2643720
252,3633705,403775,0,403745,2648101
253,3642714,404788,0,404746,2652581
254,3651543,405773,0,405727,2657206
255,3660039,406704,0,406671,2661410
256,3668679,407677,0,407631,2665708
257,3677355,408630,0,408595,2670043
258,3686022,409597,0,409558,2674453
259,3694743,410555,0,410527,2678768
260,3703851,411579,0,411539,2683387
261,3713112,412614,0,412568,2688004
262,3721887,413596,0,413543,2692395
263,3730734,414559,0,414526,2696729
264,3738717,415456,0,415413,2700666
265,3747375,416411,0,416375,2704939
266,3756312,417405,0,417368,2709299
267,3764673,418341,0,418297,2713335
268,3772548,419206,0,419172,2717168
269,3781179,420176,0,420131,2721381
270,3789639,421104,0,421071,2725578
271,3797955,422025,0,421995,2729566
272,3806496,422984,0,422944,2733728
273,3814965,423923,0,423885,2737868
274,3823695,424888,0,424855,2742115
275,3831930,425822,0,425770,2745976
276,3840201,426727,0,426689,2749976
277,3848823,427679,0,427647,2754144
278,3857040,428597,0,428560,2758102
279,3865788,429566,0,429532,2762249
280,3874068,430492,0,430452,2766191
281,3882222,431391,0,431358,2770157
282,3890286,432295,0,432254,2773974
283,3898107,433159,0,433123,2777770
284,3906261,434051,0,434029,2781687
285,3914469,434981,0,434941,2785553
286,3922461,435850,0,435829,2789337
287,3930714,436788,0,436746,2793247
288,3939354,437743,0,437706,2797476
289,3947625,438663,0,438625,2801425
290,3956319,439632,0,439591,2805617
291,3964770,440568,0,440530,2809574
292,3973212,441512,0,441468,2813675
293,3981267,442394,0,442363,2817374
294,3989493,443322,0,443277,2821291
295,3998097,444273,0,444233,2825347
296,4006215,445173,0,445135,2829171
297,4014594,446099,0,446066,2833071
298,4022883,447014,0,446987,2837026
299,4030776,447918,0,447864,2840690
300,4038984,448804,0,448776,2844560
301,4047255,449734,0,449695,2848520
302,4055472,450630,0,450608,2852347
303,4063365,451524,0,451485,2856066
304,4071276,452409,0,452364,2859846
305,4079394,453298,0,453266,2863641
306,4087530,454213,0,454170,2867417
307,4095729,455131,0,455081,2871257
308,4103586,455995,0,455954,2874887
309,4111758,456898,0,456862,2878776
310,4119894,457794,0,457766,2882509
311,4128084,458718,0,458676,2886308
312,4136085,459609,0,459565,2890043
313,4143789,460470,0,460421,2893757
314,4151592,461342,0,461288,2897375
315,4159656,462223,0,462184,2901060
316,4167657,463103,0,463073,2904738
317,4175901,464027,0,463989,2908609
318,4184010,464924,0,464890,2912305
319,4191642,465773,0,465738,2915800
320,4200138,466734,0,466682,2919844
321,4208076,467604,0,467564,2923555
322,4216122,468499,0,468458,2927287
323,4223916,469372,0,469324,2930882
324,4232169,470279,0,470241,2934699
325,4240557,471211,0,471173,2938552
326,4248495,472087,0,472055,2942178
327,4256316,472964,0,472924,2945819
328,4264236,473835,0,473804,2949418
329,4272408,474759,0,474712,2953165
330,4280166,475610,0,475574,2956640
331,4288095,476493,0,476455,2960326
332,4296069,477377,0,477341,2963992
333,4303989,478258,0,478221,2967603
334,4311648,479119,0,479072,2971102
335,4320153,480043,0,480017,2975082
336,4328496,480976,0,480944,2978910
337,4336551,481879,0,481839,2982547
338,4344714,482784,0,482746,2986261
339,4352769,483680,0,483641,2989880
340,4361139,484609,0,484571,2993636
341,4369122,485500,0,485458,2997172
342,4377888,486456,0,486432,3001087
343,4385916,487355,0,487324,3004684
344,4393890,488249,0,488210,3008270
345,4401756,489131,0,489084,3011830
346,4410261,490058,0,490029,3015668
347,4418415,490981,0,490935,3019311
348,4426173,491830,0,491797,3022738
349,4433994,492705,0,492666,3026269
350,4441743,493561,0,493527,3029717
351,4449411,494412,0,494379,3033154
352,4457547,495328,0,495283,3036776
353,4466088,496278,0,496232,3040596
354,4473963,497152,0,497107,3043995
355,4481685,498004,0,497965,3047410
356,4489731,498899,0,498859,3050967
357,4497624,499772,0,499736,3054445
358,4505346,500630,0,500594,3057749
359,4513212,501516,0,501468,3061211
360,4520970,502373,0,502330,3064561
361,4528818,503249,0,503202,3068001
362,4536720,504119,0,504080,3071486
363,4544253,504945,0,504917,3074755
364,4552056,505815,0,505784,3078150
365,4560030,506706,0,506670,3081667
366,4568076,507603,0,507564,3085110
367,4575942,508488,0,508438,3088489
368,4583862,509350,0,509318,3091849
369,4591548,510210,0,510172,3095142
370,4599036,511033,0,511004,3098345
371,4606830,511915,0,511870,3101667
372,4614507,512760,0,512723,3104955
373,4621941,513589,0,513549,3108109
374,4629348,514411,0,514372,3111297
375,4636584,515217,0,515176,3114362
376,4644063,516037,0,516007,3117611
377,4651866,516903,0,516874,3120936
378,4659354,517734,0,517706,3124120
379,4666491,518531,0,518499,3127198
380,4674051,519368,0,519339,3130416
381,4681494,520212,0,520166,3133480
382,4688631,520991,0,520959,3136443
383,4696065,521820,0,521785,3139600
384,4703337,522626,0,522593,3142594
385,4710861,523462,0,523429,3145760
386,4718358,524295,0,524262,3148940
387,4727007,525275,0,525223,3152587
388,4735008,526155,0,526112,3155916
389,4742739,526997,0,526971,3159135
390,4749894,527813,0,527766,3162113
391,4757517,528642,0,528613,3165266
392,4764897,529475,0,529433,3168290
393,4772376,530289,0,530264,3171392
394,4779864,531130,0,531096,3174493
395,4787487,531979,0,531943,3177622
396,4795182,532828,0,532798,3180782
397,4802985,533701,0,533665,3183989
398,4810608,534547,0,534512,3187163
399,4818249,535397,0,535361,3190224
400,4825107,536152,0,536123,3193071
401,4832721,537006,0,536969,3196227
402,4840245,537836,0,537805,3199334
403,4847526,538663,0,538614,3202306
404,4855194,539521,0,539466,3205424
405,4862403,540305,0,540267,3208375
406,4869918,541152,0,541102,3211386
407,4877469,541970,0,541941,3214400
408,4884633,542790,0,542737,3217352
409,4892157,543618,0,543573,3220396
410,4899798,544457,0,544422,3223512
411,4907385,545295,0,545265,3226568
412,4915008,546154,0,546112,3229709
413,4922775,547010,0,546975,3232827
414,4930056,547828,0,547784,3235712
415,4937490,548641,0,548610,3238650
416,4945194,549513,0,549466,3241792
417,4953555,550430,0,550395,3245154
418,4961007,551259,0,551223,3248095
419,4968684,552110,0,552076,3251213
420,4976091,552948,0,552899,3254238
421,4983516,553760,0,553724,3257160
422,4990995,554596,0,554555,3260175
423,4998069,555379,0,555341,3263005
424,5005620,556205,0,556180,3266004
425,5013009,557046,0,557001,3268908
426,5020812,557906,0,557868,3272032
427,5027787,558683,0,558643,3274757
428,5035572,559553,0,559508,3277853
429,5043672,560447,0,560408,3281037
430,5051385,561299,0,561265,3284126
431,5058765,562130,0,562085,3287027
432,5066217,562961,0,562913,3289935
433,5073660,563777,0,563740,3292830
434,5081148,564605,0,564572,3295789
435,5088528,565441,0,565392,3298745
436,5096448,566312,0,566272,3301821
437,5103819,567131,0,567091,3304740
438,5111325,567978,0,567925,3307674
439,5118228,568749,0,568692,3310309
440,5125851,569577,0,569539,3313268
441,5133627,570446,0,570403,3316367
442,5141223,571274,0,571247,3319342
443,5148585,572105,0,572065,3322219
444,5156262,572951,0,572918,3325245
445,5163849,573798,0,573761,3328192
446,5170833,574573,0,574537,3330929
447,5178807,575473,0,575423,3334131
448,5186592,576316,0,576288,3337212
449,5193756,577117,0,577084,3339909
450,5201613,577990,0,577957,3342927
451,5209101,578829,0,578789,3345828
452,5216301,579619,0,579589,3348513
453,5223987,580471,0,580443,3351449
454,5231556,581323,0,581284,3354334
455,5239062,582167,0,582118,3357346
456,5246370,582962,0,582930,3360090
457,5253651,583780,0,583739,3362867
458,5261148,584608,0,584572,3365696
459,5268591,585436,0,585399,3368568
460,5275845,586249,0,586205,3371325
461,5282793,587019,0,586977,3373994
462,5290020,587825,0,587780,3376714
463,5297094,588609,0,588566,3379309
464,5304411,589420,0,589379,3382120
465,5311503,590205,0,590167,3384775
466,5319378,591069,0,591042,3387759
467,5326452,591864,0,591828,3390406
468,5333796,592688,0,592644,3393207
469,5341293,593516,0,593477,3396022
470,5348430,594307,0,594270,3398682
471,5355819,595130,0,595091,3401510
472,5363469,595970,0,595941,3404444
473,5370390,596753,0,596710,3407057
474,5377851,597583,0,597539,3409959
475,5385078,598380,0,598342,3412699
476,5392476,599200,0,599164,3415450
477,5399919,600024,0,599991,3418261
478,5407038,600820,0,600782,3420887
479,5414778,601677,0,601642,3423758
480,5422167,602510,0,602463,3426650
481,5429628,603339,0,603292,3429441
482,5436918,604146,0,604102,3432136
483,5444271,604973,0,604919,3434882
484,5451498,605762,0,605722,3437532
485,5459517,606658,0,606613,3440568
486,5466816,607475,0,607424,3443328
487,5474016,608273,0,608224,3445973
488,5480883,609015,0,608987,3448537
489,5488344,609855,0,609816,3451348
490,5495337,610645,0,610593,3453995
491,5502321,611415,0,611369,3456540
492,5509539,612218,0,612171,3459222
493,5516937,613036,0,612993,3462058
494,5524065,613824,0,613785,3464674
495,5531193,614629,0,614577,3467346
496,5538429,615429,0,615381,3469990
497,5545530,616218,0,616170,3472656
498,5553135,617049,0,617015,3475488
499,5560290,617858,0,617810,3478152
500,5567967,618694,0,618663,3480925
501,5575041,619486,0,619449,3483500
502,5582196,620282,0,620244,3486112
503,5589549,621116,0,621061,3488798
504,5597253,621972,0,621917,3491676
505,5604471,622753,0,622719,3494261
506,5611536,623545,0,623504,3496856
507,5618844,624356,0,624316,3499609
508,5626116,625159,0,625124,3502401
509,5633451,625979,0,625939,3505040
510,5640606,626787,0,626734,3507639
511,5647716,627566,0,627524,3510250
512,5654943,628361,0,628327,3512904
513,5661954,629149,0,629106,3515499
514,5668974,629921,0,629886,3518000
515,5675688,630666,0,630632,3520398
516,5682879,631474,0,631431,3523039
517,5689485,632207,0,632165,3525439
518,5696685,633000,0,632965,3528099
519,5703345,633749,0,633705,3530462
520,5709879,634462,0,634431,3532798
521,5716512,635213,0,635168,3535216
522,5723532,635988,0,635948,3537827
523,5730534,636750,0,636726,3540386
524,5737401,637535,0,637489,3542840
525,5744106,638284,0,638234,3545275
526,5751117,639050,0,639013,3547847
527,5758083,639816,0,639787,3550322
528,5764932,640594,0,640548,3552798
529,5771646,641344,0,641294,3555153
530,5778603,642093,0,642067,3557612
531,5785173,642816,0,642797,3560018
532,5791959,643598,0,643551,3562519
533,5798700,644342,0,644300,3564935
534,5805288,645069,0,645032,3567303
535,5812236,645852,0,645804,3569697
536,5818905,646589,0,646545,3572092
537,5825880,647357,0,647320,3574553
538,5832414,648081,0,648046,3576893
539,5838966,648808,0,648774,3579203
540,5845617,649551,0,649513,3581524
541,5852133,650263,0,650237,3583818
542,5858973,651039,0,650997,3586187
543,5865363,651747,0,651707,3588433
544,5871996,652480,0,652444,3590786
545,5878881,653249,0,653209,3593122
546,5885856,654012,0,653984,3595524
547,5892120,654723,0,654680,3597766
548,5898366,655406,0,655374,3599973
549,5905017,656150,0,656113,3602299
550,5912109,656931,0,656901,3604839
551,5918724,657676,0,657636,3607193
552,5925168,658382,0,658352,3609400
553,5932125,659170,0,659125,3611863
554,5938830,659914,0,659870,3614189
555,5945373,660648,0,660597,3616436
556,5951979,661371,0,661331,3618695
557,5958414,662105,0,662046,3620940
558,5964966,662812,0,662774,3623163
559,5971572,663544,0,663508,3625414
560,5978196,664280,0,664244,3627697
561,5984856,665021,0,664984,3629983
562,5991381,665759,0,665709,3632225
563,5998068,666501,0,666452,3634482
564,6005088,667272,0,667232,3636919
565,6012189,668062,0,668021,3639402
566,6018966,668823,0,668774,3641729
567,6025770,669571,0,669530,3644066
568,6032376,670308,0,670264,3646341
569,6038694,670995,0,670966,3648447
570,6045408,671730,0,671712,3650715
571,6052014,672475,0,672446,3652961
572,6058701,673233,0,673189,3655239
573,6065523,673987,0,673947,3657644
574,6071994,674707,0,674666,3659838
575,6078708,675448,0,675412,3662066
576,6085233,676159,0,676137,3664249
577,6092109,676940,0,676901,3666606
578,6098832,677690,0,677648,3668865
579,6105645,678437,0,678405,3671123
580,6112287,679186,0,679143,3673426
581,6118704,679907,0,679856,3675578
582,6125265,680632,0,680585,3677877
583,6131853,681367,0,681317,3680043
584,6138360,682088,0,682040,3682224
585,6145020,682811,0,682780,3684418
586,6151725,683562,0,683525,3686655
587,6158079,684272,0,684231,3688688
588,6164325,684972,0,684925,3690772
589,6170913,685706,0,685657,3692958
590,6177132,686404,0,686348,3695039
591,6183567,687100,0,687063,3697113
592,6190389,687868,0,687821,3699377
593,6196860,688579,0,688540,3701515
594,6203178,689296,0,689242,3703625
595,6209406,689974,0,689934,3705626
596,6215796,690683,0,690644,3707720
597,6222438,691430,0,691382,3709897
598,6228900,692139,0,692100,3712055
599,6235470,692873,0,692830,3714220
600,6241770,693548,0,693530,3716314
601,6241770,693549,0,693530,3716314
602,6241770,693549,0,693530,3716314
603,6241770,693549,0,693530,3716314
604,6241770,693549,0,693530,3716314
605,6241770,693549,0,693530,3716314
606,6241770,693549,0,693530,3716314
607,6241770,693549,0,693530,3716314
608,6241770,693549,0,693530,3716314
609,6241770,693549,0,693530,3716314
610,6241770,693549,0,693530,3716314
611,6241770,693549,0,693530,3716314
612,6241770,693549,0,693530,3716314
613,6241770,693549,0,693530,3716314
614,6241770,693549,0,693530,3716314
615,6241770,693549,0,693530,3716314
615,6241770,693549,0,693530,3716314
