second,get,set,multiget,multigetsharded,cachemisses
1,949,0,0,0,0
2,2101,0,0,0,0
3,3467,0,0,0,0
4,4910,0,0,0,0
5,6232,0,0,0,0
6,7722,0,0,0,0
7,9193,0,0,0,0
8,10645,0,0,0,0
9,12080,0,0,0,0
10,13511,0,0,0,0
11,14955,0,0,0,0
12,16377,0,0,0,0
13,17813,0,0,0,0
14,19256,0,0,0,0
15,20653,0,0,0,0
16,22101,0,0,0,0
17,23588,0,0,0,0
18,25074,0,0,0,0
19,26531,0,0,0,0
20,27957,0,0,0,0
21,29478,0,0,0,0
22,31035,0,0,0,0
23,32535,0,0,0,0
24,33972,0,0,0,0
25,35408,0,0,0,0
26,36803,0,0,0,0
27,38235,0,0,0,0
28,39627,0,0,0,0
29,41056,0,0,0,0
30,42515,0,0,0,0
31,43943,0,0,0,0
32,45381,0,0,0,0
33,46784,0,0,0,0
34,48133,0,0,0,0
35,49562,0,0,0,0
36,50969,0,0,0,0
37,52407,0,0,0,0
38,53834,0,0,0,0
39,55279,0,0,0,0
40,56731,0,0,0,0
41,58171,0,0,0,0
42,59567,0,0,0,0
43,61011,0,0,0,0
44,62387,0,0,0,0
45,63844,0,0,0,0
46,65235,0,0,0,0
47,66702,0,0,0,0
48,68134,0,0,0,0
49,69596,0,0,0,0
50,71022,0,0,0,0
51,72491,0,0,0,0
52,73955,0,0,0,0
53,75415,0,0,0,0
54,76898,0,0,0,0
55,78374,0,0,0,0
56,79813,0,0,0,0
57,81290,0,0,0,0
58,82789,0,0,0,0
59,84257,0,0,0,0
60,85768,0,0,0,0
61,87280,0,0,0,0
62,88727,0,0,0,0
63,90247,0,0,0,0
64,91767,0,0,0,0
65,93300,0,0,0,0
66,94821,0,0,0,0
67,96333,0,0,0,0
68,97772,0,0,0,0
69,99196,0,0,0,0
70,100634,0,0,0,0
71,100665,0,0,0,0
72,100665,0,0,0,0
73,100665,0,0,0,0
74,100665,0,0,0,0
75,100665,0,0,0,0
76,100665,0,0,0,0
77,100665,0,0,0,0
78,100665,0,0,0,0
79,100665,0,0,0,0
80,100665,0,0,0,0
81,100665,0,0,0,0
82,100665,0,0,0,0
83,100665,0,0,0,0
84,100665,0,0,0,0
84,100665,0,0,0,0
