2         Threads
1         Connections per thread
70        Seconds


ALL STATS
========================================================================
Type        Ops/sec     Hits/sec   Misses/sec      Latency       KB/sec 
------------------------------------------------------------------------
Sets         899.66          ---          ---      2.21600      3631.04 
Gets           0.00         0.00         0.00      0.00000         0.00 
Waits          0.00          ---          ---      0.00000          --- 
Totals       899.66         0.00         0.00      2.21600      3631.04 


Request Latency Distribution
Type     <= msec         Percent
------------------------------------------------------------------------
SET       1.300         0.15
SET       1.400         1.65
SET       1.500         6.88
SET       1.600        17.39
SET       1.700        30.86
SET       1.800        44.33
SET       1.900        55.67
SET       2.000        64.77
SET       2.100        71.86
SET       2.200        77.15
SET       2.300        81.26
SET       2.400        84.22
SET       2.500        86.47
SET       2.600        88.23
SET       2.700        89.67
SET       2.800        90.87
SET       2.900        91.73
SET       3.000        92.53
SET       3.100        93.23
SET       3.200        93.83
SET       3.300        94.30
SET       3.400        94.73
SET       3.500        95.09
SET       3.600        95.42
SET       3.700        95.70
SET       3.800        95.98
SET       3.900        96.25
SET       4.000        96.46
SET       4.100        96.67
SET       4.200        96.83
SET       4.300        96.98
SET       4.400        97.13
SET       4.500        97.27
SET       4.600        97.38
SET       4.700        97.50
SET       4.800        97.64
SET       4.900        97.76
SET       5.000        97.86
SET       5.100        97.96
SET       5.200        98.05
SET       5.300        98.14
SET       5.400        98.23
SET       5.500        98.31
SET       5.600        98.40
SET       5.700        98.48
SET       5.800        98.57
SET       5.900        98.64
SET       6.000        98.70
SET       6.100        98.77
SET       6.200        98.83
SET       6.300        98.91
SET       6.400        98.95
SET       6.500        99.00
SET       6.600        99.05
SET       6.700        99.09
SET       6.800        99.14
SET       6.900        99.20
SET       7.000        99.24
SET       7.100        99.29
SET       7.200        99.32
SET       7.300        99.35
SET       7.400        99.40
SET       7.500        99.44
SET       7.600        99.47
SET       7.700        99.50
SET       7.800        99.55
SET       7.900        99.58
SET       8.000        99.60
SET       8.100        99.63
SET       8.200        99.66
SET       8.300        99.67
SET       8.400        99.69
SET       8.500        99.71
SET       8.600        99.72
SET       8.700        99.74
SET       8.800        99.75
SET       8.900        99.76
SET       9.000        99.77
SET       9.100        99.77
SET       9.200        99.78
SET       9.300        99.79
SET       9.400        99.80
SET       9.500        99.81
SET       9.600        99.82
SET       9.700        99.83
SET       9.800        99.84
SET       9.900        99.84
SET      10.000        99.88
SET      11.000        99.92
SET      12.000        99.94
SET      13.000        99.95
SET      14.000        99.95
SET      16.000        99.95
SET      17.000        99.96
SET      48.000        99.96
SET      84.000        99.96
SET      85.000        99.97
SET      87.000        99.97
SET      90.000        99.97
SET      92.000        99.98
SET      93.000        99.98
SET      94.000        99.98
SET     150.000        99.99
SET     180.000        99.99
SET     210.000        99.99
SET     430.000       100.00
SET     930.000       100.00
---
---
