2         Threads
1         Connections per thread
70        Seconds


ALL STATS
========================================================================
Type        Ops/sec     Hits/sec   Misses/sec      Latency       KB/sec 
------------------------------------------------------------------------
Sets         903.05          ---          ---      2.20800      3644.73 
Gets           0.00         0.00         0.00      0.00000         0.00 
Waits          0.00          ---          ---      0.00000          --- 
Totals       903.05         0.00         0.00      2.20800      3644.73 


Request Latency Distribution
Type     <= msec         Percent
------------------------------------------------------------------------
SET       1.200         0.00
SET       1.300         0.17
SET       1.400         1.72
SET       1.500         7.25
SET       1.600        16.96
SET       1.700        29.43
SET       1.800        41.69
SET       1.900        52.23
SET       2.000        60.85
SET       2.100        68.00
SET       2.200        73.29
SET       2.300        77.56
SET       2.400        80.82
SET       2.500        83.47
SET       2.600        85.51
SET       2.700        87.18
SET       2.800        88.65
SET       2.900        89.85
SET       3.000        90.78
SET       3.100        91.57
SET       3.200        92.29
SET       3.300        92.98
SET       3.400        93.54
SET       3.500        93.93
SET       3.600        94.37
SET       3.700        94.71
SET       3.800        95.10
SET       3.900        95.45
SET       4.000        95.73
SET       4.100        95.94
SET       4.200        96.16
SET       4.300        96.41
SET       4.400        96.58
SET       4.500        96.77
SET       4.600        96.93
SET       4.700        97.12
SET       4.800        97.25
SET       4.900        97.40
SET       5.000        97.53
SET       5.100        97.71
SET       5.200        97.80
SET       5.300        97.92
SET       5.400        98.00
SET       5.500        98.09
SET       5.600        98.18
SET       5.700        98.27
SET       5.800        98.37
SET       5.900        98.45
SET       6.000        98.52
SET       6.100        98.60
SET       6.200        98.68
SET       6.300        98.76
SET       6.400        98.83
SET       6.500        98.90
SET       6.600        98.95
SET       6.700        99.02
SET       6.800        99.07
SET       6.900        99.12
SET       7.000        99.17
SET       7.100        99.20
SET       7.200        99.25
SET       7.300        99.32
SET       7.400        99.36
SET       7.500        99.40
SET       7.600        99.44
SET       7.700        99.49
SET       7.800        99.52
SET       7.900        99.56
SET       8.000        99.58
SET       8.100        99.61
SET       8.200        99.62
SET       8.300        99.65
SET       8.400        99.66
SET       8.500        99.67
SET       8.600        99.69
SET       8.700        99.71
SET       8.800        99.73
SET       8.900        99.75
SET       9.000        99.75
SET       9.100        99.77
SET       9.200        99.78
SET       9.300        99.79
SET       9.400        99.80
SET       9.500        99.81
SET       9.600        99.82
SET       9.700        99.82
SET       9.800        99.83
SET       9.900        99.84
SET      10.000        99.88
SET      11.000        99.92
SET      12.000        99.96
SET      13.000        99.97
SET      14.000        99.97
SET      15.000        99.97
SET      16.000        99.98
SET      17.000        99.99
SET      18.000        99.99
SET      93.000        99.99
SET      98.000       100.00
SET      99.000       100.00
SET     110.000       100.00
---
---
