2         Threads
2         Connections per thread
70        Seconds


ALL STATS
========================================================================
Type        Ops/sec     Hits/sec   Misses/sec      Latency       KB/sec 
------------------------------------------------------------------------
Sets        1686.20          ---          ---      2.36700      6805.53 
Gets           0.00         0.00         0.00      0.00000         0.00 
Waits          0.00          ---          ---      0.00000          --- 
Totals      1686.20         0.00         0.00      2.36700      6805.53 


Request Latency Distribution
Type     <= msec         Percent
------------------------------------------------------------------------
SET       1.200         0.01
SET       1.300         0.30
SET       1.400         2.33
SET       1.500         7.94
SET       1.600        17.02
SET       1.700        27.89
SET       1.800        38.75
SET       1.900        48.92
SET       2.000        57.47
SET       2.100        64.76
SET       2.200        70.74
SET       2.300        75.52
SET       2.400        79.18
SET       2.500        82.07
SET       2.600        84.24
SET       2.700        86.01
SET       2.800        87.37
SET       2.900        88.53
SET       3.000        89.42
SET       3.100        90.19
SET       3.200        90.85
SET       3.300        91.46
SET       3.400        92.01
SET       3.500        92.45
SET       3.600        92.84
SET       3.700        93.18
SET       3.800        93.52
SET       3.900        93.85
SET       4.000        94.12
SET       4.100        94.40
SET       4.200        94.64
SET       4.300        94.85
SET       4.400        95.07
SET       4.500        95.24
SET       4.600        95.43
SET       4.700        95.62
SET       4.800        95.79
SET       4.900        95.96
SET       5.000        96.14
SET       5.100        96.29
SET       5.200        96.41
SET       5.300        96.53
SET       5.400        96.65
SET       5.500        96.76
SET       5.600        96.86
SET       5.700        96.95
SET       5.800        97.05
SET       5.900        97.15
SET       6.000        97.22
SET       6.100        97.31
SET       6.200        97.39
SET       6.300        97.47
SET       6.400        97.55
SET       6.500        97.65
SET       6.600        97.75
SET       6.700        97.82
SET       6.800        97.91
SET       6.900        98.02
SET       7.000        98.13
SET       7.100        98.22
SET       7.200        98.32
SET       7.300        98.44
SET       7.400        98.54
SET       7.500        98.65
SET       7.600        98.74
SET       7.700        98.83
SET       7.800        98.89
SET       7.900        98.96
SET       8.000        99.04
SET       8.100        99.10
SET       8.200        99.17
SET       8.300        99.21
SET       8.400        99.27
SET       8.500        99.30
SET       8.600        99.32
SET       8.700        99.35
SET       8.800        99.37
SET       8.900        99.40
SET       9.000        99.43
SET       9.100        99.45
SET       9.200        99.47
SET       9.300        99.50
SET       9.400        99.52
SET       9.500        99.54
SET       9.600        99.56
SET       9.700        99.57
SET       9.800        99.58
SET       9.900        99.61
SET      10.000        99.70
SET      11.000        99.80
SET      12.000        99.87
SET      13.000        99.90
SET      14.000        99.91
SET      15.000        99.92
SET      16.000        99.93
SET      17.000        99.94
SET      18.000        99.95
SET      19.000        99.95
SET      23.000        99.95
SET      28.000        99.95
SET      29.000        99.96
SET      37.000        99.96
SET      38.000        99.96
SET      45.000        99.96
SET      68.000        99.96
SET      69.000        99.97
SET      91.000        99.97
SET      93.000        99.97
SET      94.000        99.97
SET      95.000        99.97
SET      96.000        99.97
SET      97.000        99.97
SET     100.000        99.98
SET     130.000        99.98
SET     160.000        99.98
SET     170.000        99.99
SET     180.000        99.99
SET     210.000        99.99
SET     220.000        99.99
SET     260.000       100.00
SET     550.000       100.00
---
---
