2         Threads
42        Connections per thread
70        Seconds


ALL STATS
========================================================================
Type        Ops/sec     Hits/sec   Misses/sec      Latency       KB/sec 
------------------------------------------------------------------------
Sets        3519.72          ---          ---     23.85900     14205.67 
Gets           0.00         0.00         0.00      0.00000         0.00 
Waits          0.00          ---          ---      0.00000          --- 
Totals      3519.72         0.00         0.00     23.85900     14205.67 


Request Latency Distribution
Type     <= msec         Percent
------------------------------------------------------------------------
SET       2.500         0.00
SET       2.800         0.00
SET       3.700         0.00
SET       3.800         0.00
SET       3.900         0.00
SET       4.100         0.00
SET       4.600         0.00
SET       4.900         0.00
SET       5.000         0.00
SET       5.800         0.00
SET       6.400         0.00
SET       6.700         0.00
SET       6.800         0.01
SET       6.900         0.01
SET       7.300         0.01
SET       7.400         0.01
SET       7.500         0.01
SET       7.600         0.01
SET       7.700         0.01
SET       7.800         0.02
SET       7.900         0.02
SET       8.100         0.02
SET       8.200         0.02
SET       8.400         0.02
SET       8.500         0.03
SET       8.600         0.03
SET       8.700         0.03
SET       8.800         0.03
SET       8.900         0.03
SET       9.000         0.03
SET       9.100         0.03
SET       9.200         0.04
SET       9.300         0.04
SET       9.400         0.04
SET       9.500         0.04
SET       9.600         0.04
SET       9.700         0.05
SET       9.800         0.05
SET       9.900         0.05
SET      10.000         0.08
SET      11.000         0.18
SET      12.000         0.42
SET      13.000         0.91
SET      14.000         1.67
SET      15.000         2.64
SET      16.000         4.16
SET      17.000         6.49
SET      18.000         9.65
SET      19.000        13.65
SET      20.000        18.32
SET      21.000        24.26
SET      22.000        33.00
SET      23.000        44.97
SET      24.000        58.18
SET      25.000        70.58
SET      26.000        80.69
SET      27.000        87.36
SET      28.000        91.37
SET      29.000        93.92
SET      30.000        95.61
SET      31.000        96.71
SET      32.000        97.49
SET      33.000        98.01
SET      34.000        98.40
SET      35.000        98.67
SET      36.000        98.86
SET      37.000        99.01
SET      38.000        99.14
SET      39.000        99.24
SET      40.000        99.33
SET      41.000        99.42
SET      42.000        99.52
SET      43.000        99.58
SET      44.000        99.65
SET      45.000        99.69
SET      46.000        99.71
SET      47.000        99.75
SET      48.000        99.78
SET      49.000        99.81
SET      50.000        99.82
SET      51.000        99.83
SET      52.000        99.84
SET      53.000        99.86
SET      54.000        99.86
SET      55.000        99.87
SET      56.000        99.88
SET      57.000        99.88
SET      58.000        99.89
SET      59.000        99.90
SET      60.000        99.91
SET      61.000        99.93
SET      62.000        99.94
SET      63.000        99.95
SET      64.000        99.96
SET      65.000        99.96
SET      66.000        99.97
SET      67.000        99.97
SET      68.000        99.97
SET      69.000        99.97
SET      71.000        99.97
SET      72.000        99.97
SET      73.000        99.97
SET      75.000        99.97
SET      76.000        99.98
SET      85.000        99.98
SET      86.000        99.98
SET      87.000        99.98
SET      89.000        99.98
SET     100.000        99.98
SET     130.000        99.98
SET     140.000        99.98
SET     150.000        99.98
SET     200.000        99.98
SET     210.000        99.99
SET     220.000        99.99
SET     260.000        99.99
SET     280.000        99.99
SET     290.000        99.99
SET     330.000        99.99
SET     340.000       100.00
SET     350.000       100.00
SET     360.000       100.00
SET     370.000       100.00
---
---
