2         Threads
64        Connections per thread
70        Seconds


ALL STATS
========================================================================
Type        Ops/sec     Hits/sec   Misses/sec      Latency       KB/sec 
------------------------------------------------------------------------
Sets           0.00          ---          ---     42.75600         0.00 
Gets           0.00         0.00         0.00      0.00000         0.00 
Waits          0.00          ---          ---      0.00000          --- 
Totals         0.00         0.00         0.00     42.75600         0.00 


Request Latency Distribution
Type     <= msec         Percent
------------------------------------------------------------------------
SET       1.500         0.00
SET       1.600         0.01
SET       1.700         0.01
SET       1.800         0.02
SET       1.900         0.04
SET       2.000         0.05
SET       2.100         0.06
SET       2.200         0.07
SET       2.300         0.09
SET       2.400         0.12
SET       2.500         0.15
SET       2.600         0.19
SET       2.700         0.24
SET       2.800         0.32
SET       2.900         0.39
SET       3.000         0.46
SET       3.100         0.54
SET       3.200         0.61
SET       3.300         0.67
SET       3.400         0.73
SET       3.500         0.80
SET       3.600         0.86
SET       3.700         0.91
SET       3.800         0.95
SET       3.900         0.98
SET       4.000         1.02
SET       4.100         1.06
SET       4.200         1.10
SET       4.300         1.12
SET       4.400         1.14
SET       4.500         1.17
SET       4.600         1.19
SET       4.700         1.21
SET       4.800         1.22
SET       4.900         1.23
SET       5.000         1.25
SET       5.100         1.27
SET       5.200         1.28
SET       5.300         1.29
SET       5.400         1.30
SET       5.500         1.31
SET       5.600         1.32
SET       5.700         1.32
SET       5.800         1.33
SET       5.900         1.33
SET       6.000         1.34
SET       6.100         1.34
SET       6.200         1.35
SET       6.300         1.35
SET       6.400         1.36
SET       6.500         1.36
SET       6.600         1.36
SET       6.700         1.36
SET       6.800         1.37
SET       6.900         1.37
SET       7.000         1.37
SET       7.100         1.38
SET       7.200         1.38
SET       7.300         1.39
SET       7.400         1.39
SET       7.500         1.39
SET       7.600         1.39
SET       7.700         1.40
SET       7.800         1.40
SET       7.900         1.40
SET       8.000         1.41
SET       8.100         1.41
SET       8.200         1.41
SET       8.300         1.42
SET       8.400         1.42
SET       8.500         1.42
SET       8.600         1.43
SET       8.700         1.43
SET       8.800         1.44
SET       8.900         1.44
SET       9.000         1.44
SET       9.100         1.45
SET       9.200         1.45
SET       9.300         1.45
SET       9.400         1.45
SET       9.500         1.46
SET       9.600         1.46
SET       9.700         1.47
SET       9.800         1.47
SET       9.900         1.47
SET      10.000         1.48
SET      11.000         1.50
SET      12.000         1.51
SET      13.000         1.52
SET      14.000         1.52
SET      15.000         1.52
SET      16.000         1.52
SET      17.000         1.53
SET      18.000         1.53
SET      19.000         1.54
SET      20.000         1.54
SET      21.000         1.54
SET      24.000         1.54
SET      25.000         1.54
SET      26.000         1.54
SET      27.000         1.55
SET      28.000         1.55
SET      30.000         1.56
SET      31.000         1.57
SET      32.000         1.71
SET      33.000         2.57
SET      34.000         4.74
SET      35.000         8.85
SET      36.000        14.60
SET      37.000        22.05
SET      38.000        30.35
SET      39.000        38.99
SET      40.000        47.39
SET      41.000        55.02
SET      42.000        61.41
SET      43.000        67.29
SET      44.000        71.94
SET      45.000        76.01
SET      46.000        79.60
SET      47.000        82.38
SET      48.000        84.56
SET      49.000        86.30
SET      50.000        87.62
SET      51.000        88.83
SET      52.000        89.94
SET      53.000        90.80
SET      54.000        91.55
SET      55.000        92.21
SET      56.000        92.85
SET      57.000        93.36
SET      58.000        93.84
SET      59.000        94.41
SET      60.000        94.90
SET      61.000        95.32
SET      62.000        95.69
SET      63.000        95.98
SET      64.000        96.29
SET      65.000        96.65
SET      66.000        96.98
SET      67.000        97.27
SET      68.000        97.54
SET      69.000        97.78
SET      70.000        97.96
SET      71.000        98.11
SET      72.000        98.23
SET      73.000        98.34
SET      74.000        98.44
SET      75.000        98.54
SET      76.000        98.65
SET      77.000        98.75
SET      78.000        98.88
SET      79.000        98.98
SET      80.000        99.10
SET      81.000        99.21
SET      82.000        99.30
SET      83.000        99.40
SET      84.000        99.47
SET      85.000        99.53
SET      86.000        99.58
SET      87.000        99.61
SET      88.000        99.65
SET      89.000        99.67
SET      90.000        99.71
SET      91.000        99.73
SET      92.000        99.77
SET      93.000        99.80
SET      94.000        99.82
SET      95.000        99.84
SET      96.000        99.86
SET      97.000        99.89
SET      98.000        99.90
SET      99.000        99.91
SET     100.000        99.94
SET     110.000        99.95
SET     130.000        99.95
SET     140.000        99.95
SET     200.000        99.95
SET     210.000        99.95
SET     220.000        99.96
SET     230.000        99.96
SET     240.000        99.96
SET     250.000        99.96
SET     260.000        99.96
SET     270.000        99.97
SET     280.000        99.97
SET     300.000        99.97
SET     310.000        99.97
SET     320.000        99.97
SET     330.000        99.98
SET     340.000        99.98
SET     370.000        99.98
SET     380.000        99.98
SET     390.000        99.99
SET     400.000        99.99
SET     410.000       100.00
---
---
