,client,mw_thread,run,c_rt,c_th,mw_rt,mw_th,c_misses,mw_misses,mw_queueLength,mw_arrivalRate,mw_usedMemory,mw_systemRequests,mw_recv,mw_send,idl,server_recv,server_send,server_idl,r_internalQueueTimer,r_processingTimer,r_serviceTimer,r_waitingServiceTimer,r_returningResponseTimer
0,1,8,1,1.9066666666666665,3135.7,1.220299677782339,3135.7571428571428,0,0,0.22666666666666666,2.754066666666667,22067829.76,3.026666666666667,14212630.50819672,13792163.196721312,94.20018032786892,13757828.081967212,447137.47540983604,88.22321311475407,0.10183173878219084,0.0008436088575040894,0.022842837652822655,1.0765998982768217,0.017535272477770526
1,1,8,2,2.0029999999999997,2984.3500000000004,1.2484683141872057,2984.4142857142856,0,0,0.08,2.6318399999999995,19654070.72,2.986666666666667,13542437.016393442,13141808.409836065,94.01868852459009,13121861.590163935,426558.0,88.18770491803278,0.1089593871318103,0.0008267832774526646,0.02421921373188783,1.0953581474914176,0.018448336757405655
2,1,8,3,1.898,3149.7200000000003,1.2069720874505392,3149.7428571428572,0,0,0.32,2.766266666666667,18162360.96,3.2,14228221.967213115,13806996.950819673,94.01516393442621,13790000.573770491,448194.95081967214,87.92570491803278,0.09385322511804106,0.0009211988578300957,0.02243387914766294,1.0712872271406124,0.017843731811060585
3,1,16,1,1.9176666666666666,3117.9,1.220903212562647,3117.957142857143,0,0,0.14666666666666667,2.7441333333333335,20136001.493333332,2.8266666666666667,14129124.950819673,13711315.409836065,93.69609836065574,13688020.131147541,444815.0,88.2916229508197,0.10035898210548691,0.0009767850287922333,0.024431331882744288,1.0761279536263317,0.01836458989736611
4,1,16,2,1.9280000000000002,3100.09,1.2277495399342968,3100.1714285714284,0,0,0.25333333333333335,2.7163066666666666,20698059.2,3.2,14008300.737704918,13593469.131147541,93.90686885245898,13562333.032786885,440815.2786885246,87.04591803278687,0.09824044541016479,0.0011143091738990691,0.022549883913616908,1.0871865185111163,0.018147007064147205
5,1,16,3,1.8926666666666667,3158.2799999999997,1.206648683333972,3158.3285714285716,0,0,0.30666666666666664,2.7783466666666654,22113158.72,3.4,14323950.409836065,13900144.032786885,93.90895081967216,13865542.032786885,450617.9344262295,87.2825737704918,0.10282089028274395,0.000997510025118491,0.023454611213128113,1.060235852292883,0.01856154448774161
6,1,32,1,1.998,2992.2000000000003,1.2520520949637606,2992.2571428571428,0,0,0.22666666666666666,2.6293333333333337,21022491.946666665,3.36,13487443.131147541,13088721.06557377,93.29165573770491,13064031.163934426,424664.88524590165,87.98952459016392,0.09247036092401244,0.0010351195428832806,0.023832137960090028,1.1158544083434037,0.018293455841206147
7,1,32,2,1.9260000000000002,3103.54,1.226478200647164,3103.6285714285714,0,0,0.37333333333333335,2.7356133333333332,21312434.56,2.84,14056177.68852459,13640446.836065574,93.45295081967207,13624243.639344262,442808.0,88.13926229508198,0.09491532382130731,0.0010724176047690011,0.02374663965107577,1.0878713998843184,0.018312931808506214
8,1,32,3,2.077,2878.65,1.2377104452018293,2878.7428571428572,0,0,0.24324324324324326,2.583364864864864,27910088.972972974,3.175675675675676,12986772.06557377,12603484.590163935,93.74918032786887,12580326.278688524,408956.2950819672,88.79362295081967,0.09857242391772067,0.0011342400106181692,0.023278598535462592,1.0945684862588965,0.01943984160196223
9,1,64,1,1.9949999999999999,2996.89,1.2420280158772008,2996.9714285714285,0,0,0.1891891891891892,2.6620135135135135,49478148.64864865,3.175675675675676,13499822.836065574,13110400.44262295,92.55252459016396,13100581.68852459,425512.5573770492,87.88499999999996,0.09390797882957419,0.0011770303822167952,0.024011383639446937,1.1038435298749867,0.018456188419402175
10,1,64,2,1.9113333333333333,3128.6800000000003,1.2185521228469114,3128.714285714286,0,0,0.2,2.7660533333333333,32377152.64,3.6,14186063.44262295,13773718.081967212,92.59522950819671,13751991.44262295,446728.98360655736,86.84449180327863,0.09269450204824131,0.0014821805669984346,0.025176625168491364,1.0792482832649388,0.01912233961793177
11,1,64,3,1.928,3101.1899999999996,1.2201867731193636,3101.2714285714287,0,0,0.28378378378378377,2.753702702702703,87332980.32432432,2.864864864864865,13934909.901639344,13530778.819672132,92.16898360655736,13510125.737704918,438854.3278688525,87.64301639344261,0.09143624025387821,0.0012889664461329766,0.02405419205053426,1.0837922136629066,0.019004471714239593
12,2,8,1,2.032666666666667,5890.67,1.308983420410092,5890.742857142857,0,0,1.36,5.169693333333335,18023720.0,6.32,26544945.655737706,25759963.032786883,90.07457377049178,25713181.426229507,834311.6721311476,79.00057377049178,0.2529208558861819,0.0005526005451852686,0.020418858953138608,1.0163703761467968,0.018111761995695905
13,2,8,2,2.1950000000000003,5455.48,1.3843361000142527,5455.5142857142855,0,0,1.32,4.808013333333332,20229072.426666666,6.506666666666667,24759407.31147541,24027009.508196723,90.43650819672132,23982696.86885246,778274.7213114754,80.76116393442624,0.26877171921800813,0.0005163905993423929,0.020189688115506668,1.0758338881311358,0.018289591770682737
14,2,8,3,2.0549999999999997,5830.72,1.3092335533034936,5830.785714285715,0,0,0.9066666666666666,5.107346666666669,22666711.466666665,6.16,26318480.770491805,25539628.04918033,89.85919672131148,25485633.344262294,826953.6721311476,79.04073770491804,0.25338641574499954,0.0005807260630075718,0.019985032815887028,1.0170715624710316,0.017622668377737842
15,2,16,1,1.9783333333333333,6051.62,1.2430108835285496,6051.7,0,0,0.76,5.313093333333332,20953582.186666667,6.253333333333333,27391894.278688524,26581811.639344264,88.72798360655736,26542165.04918033,861101.7540983607,78.6832131147541,0.1206078533436223,0.0007156183832877115,0.022469475446931283,1.0805871172843797,0.018086980417384307
16,2,16,2,2.1893333333333334,5465.83,1.2957602374498236,5465.928571428572,0,0,0.5066666666666667,4.811053333333334,25601975.466666665,5.573333333333333,24604954.31147541,23876936.491803277,88.6763278688525,23832223.262295082,773407.5081967213,80.23937704918033,0.13221116329782456,0.000755388124714699,0.022952121326896557,1.1199088103193324,0.019281689571636437
17,2,16,3,1.931,6195.1900000000005,1.1860842596192853,6195.328571428571,0,0,0.9736842105263158,5.367026315789472,18676027.36842105,7.315789473684211,28021670.639344264,27193479.426229507,88.36560655737705,27135853.540983606,880409.7049180327,78.58677049180326,0.10521663738943292,0.0007229274257877879,0.022021554466788607,1.0398420589264252,0.017788006512544037
18,2,32,1,2.1063333333333336,5688.28,1.286486538672045,5688.314285714286,0,0,0.4864864864864865,5.066351351351352,23824516.756756756,6.54054054054054,25692907.540983606,24932609.918032788,88.04339344262294,24900144.836065575,807983.6721311476,79.73124590163937,0.1284446794545307,0.0007570221589202319,0.02237177172543812,1.1157376135287727,0.018542746249041703
19,2,32,2,1.9826666666666668,6036.6,1.2486096498754444,6036.7,0,0,0.33783783783783783,5.373216216216216,24965498.486486487,6.148648648648648,27231753.213114753,26426286.1147541,88.4705245901639,26386633.704918034,856083.4918032787,78.03818032786884,0.10425780921680458,0.0008909040968263858,0.02250283489275066,1.1017690238446105,0.018543932096005498
20,2,32,3,2.074333333333333,5776.5,1.2307526491680332,5776.585714285714,0,0,0.52,5.136733333333335,22494856.426666666,6.426666666666667,26055466.852459017,25284949.86885246,88.51565573770492,25323013.13114754,821663.8032786886,78.69793442622948,0.12479104724554413,0.0007752775311575417,0.022698808664708556,1.0626856665290951,0.019191352660514374
21,2,64,1,1.9879999999999998,6023.18,1.255966870460352,6023.3,0,0,0.5263157894736842,5.231328947368421,27955510.0,5.894736842105263,27367666.360655736,26559892.475409836,86.74304918032789,26503556.770491805,859855.5737704918,78.42260655737704,0.12368666929918999,0.0009981806140048368,0.023533741491906835,1.0880465384881315,0.019063909698917223
22,2,64,2,2.022666666666667,5918.610000000001,1.2497234636349777,5918.728571428572,0,0,0.6133333333333333,5.225746666666666,154653088.53333333,6.426666666666667,26823465.704918034,26031335.327868853,87.0294098360656,25977371.01639344,842831.1147540984,77.96500000000002,0.12410094236648761,0.0009086097226984888,0.022770310136662475,1.0817861505651907,0.01949578566020027
23,2,64,3,1.9293333333333333,6205.56,1.1872712350392747,6205.671428571429,0,0,0.4533333333333333,5.456213333333336,154887651.30666667,6.746666666666667,28038310.409836065,27211548.393442623,86.7277868852459,27158871.967213117,881066.8524590164,77.16983606557376,0.10417463865066501,0.0007792337839623916,0.022792539587575072,1.0408483225106684,0.018092378697720905
24,4,8,1,3.9643333333333337,6045.98,3.2169782218631133,6046.142857142857,0,0,10.513513513513514,5.38141891891892,18824565.72972973,17.37837837837838,27343610.852459017,26535036.606557377,91.6903606557377,26483487.770491805,859329.5081967213,80.4531639344262,1.9057248144125543,0.0005131532898724519,0.016518693857357165,1.2753821698257335,0.018329210796078448
25,4,8,2,3.906,6134.960000000001,3.122148388028734,6135.085714285714,0,0,9.546666666666667,5.371573333333332,20372881.493333332,16.413333333333334,27497844.31147541,26684091.704918034,91.41803278688528,26634293.770491805,864149.9672131147,79.60250819672129,1.8303488255476859,0.00044319318276135145,0.0164534096897319,1.2554958987156475,0.018782629822006836
26,4,8,3,3.9073333333333338,6133.41,3.1222480765671605,6133.571428571428,0,0,10.297297297297296,5.439040540540541,18664538.81081081,17.18918918918919,27508177.95081967,26694230.032786883,91.32501639344265,26655127.1147541,864828.3606557377,79.15698360655738,1.835814136888592,0.00047242457396289266,0.0162864544409681,1.2507439806114913,0.01840846221452669
27,4,16,1,2.7566666666666664,8694.79,1.8848857859021535,8694.942857142858,0,0,3.891891891891892,7.7363513513513515,37109946.37837838,15.391891891891891,39269439.24590164,38108837.49180328,84.63175409836066,38031372.08196721,1233209.4426229508,63.192918032786906,0.4048868286680358,0.0005286379161309432,0.021560674777487663,1.4370374900397342,0.020277070096669535
28,4,16,2,2.7580000000000005,8692.68,1.812486388030425,8692.92857142857,0,0,3.175675675675676,7.732918918918918,119181563.67567568,13.635135135135135,39217496.68852459,38058246.475409836,84.25811475409836,37997497.49180328,1232161.1475409835,62.887622950819654,0.37973488000659994,0.0005418724955301183,0.021910570449564522,1.3900044802862597,0.01977370008648913
29,4,16,3,2.8350000000000004,8450.39,1.828230978987196,8450.542857142857,0,0,2.64,7.426026666666668,34566097.06666667,13.12,38237954.86885246,37106911.836065575,84.27065573770494,37021321.39344262,1200539.8360655739,66.33131147540983,0.38204640228677106,0.0005525337523215328,0.022628184664252107,1.4021985174738167,0.02022629853283682
30,4,32,1,2.829,8473.01,1.7830124869938224,8473.228571428572,0,0,1.1733333333333333,7.452466666666667,56774188.586666666,12.706666666666667,38358261.295081966,37225350.37704918,81.86888524590164,37170386.983606555,1205321.8032786886,64.71859016393444,0.22037176318637963,0.0007263868444298464,0.025916004564224836,1.5142126295392586,0.02123437683775029
31,4,32,2,2.7793333333333337,8637.56,1.7825457587952764,8637.8,0,0,1.527027027027027,7.717202702702701,131398914.91891892,13.58108108108108,39153414.93442623,37997084.04918033,82.14675409836067,37928364.62295082,1229855.5409836066,63.744737704918045,0.2100221784949315,0.0007600106097605115,0.02464080510802034,1.5256964021990123,0.020876062532161704
32,4,32,3,2.7846666666666664,8613.560000000001,1.7938579175178146,8613.871428571429,0,0,1.1333333333333333,7.567773333333333,56211165.54666667,13.72,38984661.57377049,37835656.016393445,81.74632786885248,37767884.06557377,1224619.1639344261,63.91265573770491,0.2290492298022995,0.0007973441901078326,0.02472938378585477,1.517635181216898,0.020985816890311433
33,4,64,1,3.1406666666666667,7639.73,1.819046338913385,7639.9,0,0,1.2702702702702702,6.806162162162161,47932066.48648649,11.972972972972974,34557741.78688525,33535364.524590164,80.06580327868856,33476327.06557377,1085661.5901639345,71.05101639344264,0.2612362126521341,0.00084260590380227,0.026015411849862495,1.5077776828563012,0.022538992059372556
34,4,64,2,3.075333333333333,7796.9,1.845084732077219,7797.0,0,0,1.7567567567567568,6.941810810810813,150098791.8918919,11.594594594594595,35259167.163934425,34218567.14754099,80.4553770491803,34160316.49180328,1107898.7540983607,69.11395081967214,0.25624782973803545,0.0009343418141770837,0.02538414384297605,1.540635008974262,0.021173015981679574
35,4,64,3,3.125,7669.320000000001,1.8116537343764614,7669.457142857143,0,0,1.2666666666666666,6.73184,166068123.30666667,11.2,34610281.54098361,33586998.163934425,81.03455737704915,33529137.327868853,1087438.4590163934,68.38886885245901,0.2432542733685686,0.0008046739535261914,0.02542271121128136,1.519749123040268,0.021727552532483627
36,8,8,1,7.519333333333333,6378.53,6.793282314363809,6378.742857142857,0,0,29.706666666666667,5.570906666666668,28073239.36,36.61333333333334,28573445.01639344,27727867.508196723,91.20165573770488,27679303.75409836,898003.1803278689,77.715,5.546459849155038,0.00038091600634474615,0.01613152194871201,1.2111463874467663,0.0187037711697335
37,8,8,2,7.668666666666667,6254.66,6.901079173407134,6254.871428571429,0,0,30.905405405405407,5.5355675675675675,21886708.864864863,37.810810810810814,27974810.262295082,27147415.278688524,91.22822950819672,27116122.0,879756.5901639344,79.9062950819672,5.6280873403300635,0.00041720800244843096,0.016488048268380486,1.23693056336788,0.018562497611300605
38,8,8,3,7.808333333333334,6142.549999999999,7.023195812498618,6143.1,0,0,30.2972972972973,5.430432432432432,18731607.891891893,37.16216216216216,27411622.31147541,26601608.31147541,91.69042622950823,26544306.1147541,861143.262295082,79.97095081967213,5.731072119466152,0.0004478857214026731,0.016379141048714182,1.2558071621362379,0.018949597196169655
39,8,16,1,5.151666666666666,9310.86,4.057404070629392,9311.128571428571,0,0,18.66216216216216,8.26191891891892,36787980.432432435,31.864864864864863,41934966.44262295,40693856.73770492,85.11031147540984,40630241.95081967,1317386.3278688525,63.488819672131164,2.3964968789167673,0.0005133786284511,0.01960989732638143,1.6183207047760257,0.02187269554233679
40,8,16,2,5.136,9339.41,3.895627732001932,9339.885714285714,0,0,17.373333333333335,8.17272,53879023.68,30.8,42037482.95081967,40793781.81967213,85.08180327868853,40719017.63934426,1320247.9344262294,61.62621311475409,2.2609272458871708,0.0008322094317771815,0.01948610769993031,1.5925996911757672,0.021216735182535758
41,8,16,3,5.045999999999999,9505.52,4.089701680726444,9505.8,0,0,20.28,8.322879999999998,135054153.70666668,33.82666666666667,42891029.983606555,41621858.37704918,85.54534426229506,41526597.55737705,1346465.4098360655,61.22275409836067,2.435801481256841,0.0004725414266256939,0.018434271788477993,1.6137716695435398,0.020727999622014298
42,8,32,1,4.7683333333333335,10062.75,3.513532626213277,10063.028571428571,0,0,7.133333333333334,8.83736,105297244.8,29.68,45426976.91803279,44086879.295081966,80.37578688524594,43997644.49180328,1426403.8196721312,43.31832786885246,0.8616898718298996,0.0006607467865916943,0.025484843616634556,2.6009063595210753,0.024040452930056678
43,8,32,2,5.168333333333333,9313.99,3.604797324328031,9295.671428571428,0,0,5.72,8.120493333333332,122872424.96,26.48,43517164.59016393,42229834.59016393,80.48390163934428,41813190.2295082,1355956.0983606558,46.30206557377049,0.8176621744453741,0.0007002604877270804,0.02554776413140396,2.736243430820846,0.024006256533557365
44,8,32,3,4.812666666666666,9974.76,3.4997446837308184,9975.171428571428,0,0,7.973333333333334,8.754279999999996,115609205.22666667,31.786666666666665,45087837.836065575,43758506.85245901,79.7073606557377,43675223.983606555,1416036.6229508198,43.61193442622952,0.8509660887006015,0.0007326180042883151,0.02594924009232688,2.596348110631774,0.02504846116280505
45,8,64,1,4.864333333333334,9873.93,3.357008871629463,9874.3,0,0,3.8666666666666667,8.669493333333335,141858747.41333333,28.69333333333333,44644586.40983607,43354174.885245904,76.62199999999999,43245896.655737706,1402171.0819672132,43.96096721311476,0.46193487090042346,0.0009011502675712693,0.02778408791200125,2.8406390998694238,0.024944730279700567
46,8,64,2,4.8709999999999996,9854.8,3.392378339482044,9855.2,0,0,3.8666666666666667,8.663533333333332,109338146.13333334,26.253333333333334,44582931.80327869,43303462.73770492,75.89095081967211,43186486.475409836,1400177.4426229508,43.818245901639344,0.4575904369772769,0.0008628330462066566,0.028687484683754885,2.879342657923778,0.02515973324468511
47,8,64,3,4.882666666666666,9837.64,3.3776191324117377,9838.128571428571,0,0,3.5866666666666664,8.641986666666666,127748449.81333333,32.24,44506494.55737705,43223663.24590164,76.27439344262297,43115224.63934426,1397778.2459016393,43.886278688524584,0.46586033210195554,0.000967325850532488,0.028057490002638505,2.85692859488843,0.024998718499144156
48,14,8,1,13.327,6300.379999999999,12.591395251639108,6301.114285714286,0,0,62.013513513513516,5.586608108108109,21618284.43243243,68.83783783783784,28363899.81967213,27524617.524590164,91.00531147540983,27457103.62295082,890806.9508196721,78.99359016393444,11.331526198204555,0.0004546269085126027,0.01718184546197078,1.2218205364454435,0.019908557228867058
49,14,8,2,13.360999999999999,6284.23,12.598318703647147,6284.6,0,0,62.63513513513514,5.572864864864866,24044513.72972973,69.64864864864865,28204906.491803277,27370550.19672131,91.14437704918035,27334795.0,886837.868852459,80.31740983606556,11.33434123731871,0.00043535961390574126,0.016439314219197414,1.2272772648559997,0.019252399902934855
50,14,8,3,13.275333333333334,6324.92,12.505757761532365,6325.5,0,0,61.21621621621622,5.595243243243245,27956778.054054055,68.25675675675676,28422376.606557377,27581141.098360654,91.44095081967212,27554321.0,893963.3114754099,79.24109836065571,11.249373081898291,0.0004262830799110216,0.01650044107233008,1.2199487403578289,0.01896472860083481
51,14,16,1,9.034333333333334,9167.14,7.106393015242618,9298.585714285715,0,0,47.97014925373134,9.080552238805966,49668185.07462686,62.46268656716418,41789867.59016393,40545302.93442623,85.78321311475408,40473064.295081966,1312353.5573770492,62.65022950819672,5.473171502650829,0.000448760872016113,0.019311822285186343,1.5920246806737617,0.020889479213717685
52,14,16,2,8.667333333333334,9685.119999999999,7.663092251341043,9685.457142857143,0,0,51.14666666666667,8.461720000000001,52342284.586666666,64.97333333333333,43621583.78688525,42329907.49180328,85.47063934426232,42250266.21311475,1369886.0327868853,61.19409836065573,6.025697673614573,0.0005123372116590148,0.01885493311433126,1.5961395687880156,0.021285085841669736
53,14,16,3,8.784666666666666,9556.82,7.729842798654353,9557.385714285714,0,0,51.026666666666664,8.367733333333335,54360363.84,64.68,43078682.75409836,41804733.59016393,84.80639344262293,41733672.93442623,1353118.0,62.45567213114753,6.072789979399665,0.00047264390736024284,0.019144499306484736,1.6158744297731553,0.020992638056976584
54,14,32,1,7.885666666666666,10647.79,6.460058347991413,10648.128571428571,0,0,36.16216216216216,9.461202702702703,98783917.83783785,63.770270270270274,48051588.81967213,46641585.39344262,80.70504918032786,46550330.80327869,1509150.7540983607,40.15750819672132,3.5554078400562257,0.0006398317245665697,0.02377947575694202,2.854039156716224,0.025514183186543676
55,14,32,2,7.9433333333333325,10571.76,6.407914570709412,10572.228571428572,0,0,28.733333333333334,9.268360000000003,103591378.02666667,55.38666666666666,47633900.19672131,46229100.68852459,80.19024590163937,46144297.885245904,1495997.8360655739,40.2655737704918,3.4999765410513626,0.000689444843740878,0.02509556320526901,2.8544349105142732,0.02708584354711174
56,14,32,3,7.885333333333333,10650.46,6.540669832691548,10651.371428571429,0,0,33.626666666666665,9.332266666666664,118461835.41333333,60.25333333333333,48098893.40983607,46684167.983606555,81.76955737704917,46612276.54098361,1511118.3606557378,39.510065573770476,3.6224452681128,0.0007434907346197092,0.022999361004176308,2.869233371372015,0.02458681501150515
57,14,64,1,7.2860000000000005,11537.02,5.27588718963817,11537.642857142857,0,0,11.631578947368421,10.004710526315792,107063247.4736842,53.473684210526315,52173750.26229508,51022612.49180328,73.55747540983607,50550476.62295082,1638614.3442622952,31.35745901639346,1.0947225554737916,0.0008083835396966707,0.03232256596689967,4.1189459393377215,0.028311325255455513
58,14,64,2,7.287,11538.07,5.28344363298329,11538.628571428571,0,0,11.743243243243244,10.26445945945946,67759960.64864865,50.78378378378378,52287114.81967213,51104497.95081967,73.33865573770493,50630664.21311475,1641289.8360655739,30.868426229508195,1.11769187700193,0.0007820522715453822,0.03227032882141177,4.10374697378892,0.02817901409162295
59,14,64,3,7.271666666666666,11554.77,5.353856294183576,11555.657142857142,0,0,12.805194805194805,9.893766233766236,91087124.57142857,54.883116883116884,52196412.57377049,51067918.32786885,73.90231147540982,50606594.62295082,1640538.3606557378,30.634885245901632,1.123086944948923,0.0008555416860446857,0.032177714515568036,4.169036518166117,0.02782165695138593
60,22,8,1,20.489333333333335,6440.41,19.755398827015345,6441.2,0,0,103.68,5.619386666666667,22644719.466666665,110.58666666666667,28917221.491803277,28061636.86885246,91.10083606557377,28012998.262295082,908810.393442623,79.98540983606557,18.521871732665215,0.0004320022516431177,0.01688759693047253,1.1962416070919129,0.01945396571599537
61,22,8,2,21.221666666666664,6218.3,20.448479052740197,6219.328571428571,0,0,104.20270270270271,5.4993243243243235,24437404.324324325,111.12162162162163,27930828.672131147,27103274.0,91.04101639344263,27045841.80327869,877499.0819672131,79.84224590163934,19.171521975765287,0.00040989447878483226,0.016635292927678975,1.2404087127523848,0.018920536240459196
62,22,8,3,21.282333333333334,6113.39,20.51552647191244,6201.4,0,0,104.06756756756756,5.50285135135135,18283767.45945946,110.87837837837837,27959131.278688524,27132140.8852459,91.37359016393442,27082128.704918034,878576.9344262296,80.53247540983607,19.236091130233504,0.00042363421065332426,0.017068448102842502,1.24161798431907,0.019829799008478866
63,22,16,1,13.845666666666668,9668.199999999999,11.832194463828623,9530.7,0,0,83.38666666666667,8.32344,121587568.0,96.89333333333333,42899405.39344262,41622178.36065574,85.3088360655738,41546073.13114754,1347058.4098360655,64.19798360655736,10.19576036833615,0.0004846666406268773,0.019147496588201005,1.5954639375427704,0.02073275912091278
64,22,16,2,13.516,9761.93,12.500465374206271,9762.671428571428,0,0,88.72,8.550066666666668,106435877.33333333,102.53333333333333,44024817.50819672,42723328.42622951,84.86654098360657,42632394.09836066,1382258.524590164,59.80483606557378,10.868068436379238,0.0005604016054399034,0.01938215326530689,1.590167641793038,0.02170146360369313
65,22,16,3,13.59666666666667,9704.54,12.565124056517286,9705.314285714287,0,0,91.94594594594595,8.609891891891888,114941661.08108108,106.14864864864865,43699427.836065575,42406317.85245901,84.87516393442624,42315929.524590164,1371989.3606557378,62.13950819672132,10.923962681818415,0.00043662555887132335,0.019032579121838724,1.599979690882397,0.021111663241936827
66,22,32,1,12.243666666666668,10777.24,10.659664339775174,10777.785714285714,0,0,73.9054054054054,9.557689189189189,69690343.02702703,101.98648648648648,48586611.57377049,47152160.55737705,81.3231639344262,47055725.885245904,1525571.3606557378,39.73560655737705,7.732909859006223,0.0006113706861141555,0.024060032901245438,2.8764363203155208,0.02482057140020976
67,22,32,2,12.258000000000001,10612.91,10.789512229897893,10765.42857142857,0,0,73.94594594594595,9.534662162162164,111300164.1081081,101.95945945945945,48492584.80327869,47063677.62295082,80.9893770491803,46977202.59016393,1522917.950819672,38.37367213114754,7.85290347734087,0.0006005923380615686,0.023167586860351717,2.8875185063185453,0.02468056046208848
68,22,32,3,12.244,10777.23,10.781765623241629,10778.042857142857,0,0,73.63513513513513,9.552148648648648,229911544.64864865,101.21621621621621,48524155.78688525,47095470.03278688,81.37057377049176,47016512.75409836,1524246.4262295081,40.22563934426229,7.849000311955391,0.0006227611753764198,0.022592511155013865,2.8846852061125965,0.024214865403068945
69,22,64,1,10.595,12458.66,8.44451912633356,12459.114285714286,0,0,39.973333333333336,10.930293333333337,206711697.92,92.4,56409844.68852459,55438765.90163934,75.70301639344261,54625004.49180328,1770544.2786885246,22.483868852459015,3.618806048396333,0.000660204817798476,0.03153361892877756,4.766051003509143,0.026806806531990236
70,22,64,2,10.746,12110.89,8.392457584399464,12284.857142857143,0,0,36.432432432432435,10.943554054054053,117918774.91891892,90.39189189189189,55525216.60655738,54543646.68852459,74.65619672131146,53769803.86885246,1742969.68852459,24.248098360655742,3.5652714317238265,0.0007570532101993546,0.03421617986833059,4.763219584354304,0.028161851189986067
71,22,64,3,10.793666666666667,12237.369999999999,8.320715290446786,12237.92857142857,0,0,37.586666666666666,10.729693333333335,116937950.93333334,90.53333333333333,55376067.36065574,54393074.24590164,75.44908196721312,53608363.24590164,1737557.7213114754,24.882868852459016,3.4978090324736706,0.0008682215244076117,0.03287720705447224,4.760766093779129,0.02768028861642011
72,42,8,1,39.27133333333333,6416.84,38.837509469966875,6418.242857142857,0,0,210.2027027027027,5.690864864864865,34996117.2972973,217.21621621621622,28688101.37704918,27839376.163934425,90.4445737704918,27791662.540983606,901631.2786885246,79.97336065573772,37.58460652366529,0.0005156923895569443,0.016824165403800106,1.2161375264905976,0.018875191247971542
73,42,8,2,38.96966666666666,6498.99,38.59528428729397,6467.971428571429,0,0,208.49333333333334,5.652773333333332,25112073.066666666,215.48,28715293.409836065,27866305.786885247,90.17790163934428,27803976.360655736,902070.868852459,79.16665573770493,37.350729360861706,0.0005120284297667399,0.017022010975815592,1.207230495382318,0.019273432735227913
74,42,8,3,39.39966666666667,6395.620000000001,39.00392009818038,6396.842857142857,0,0,209.36486486486487,5.6823108108108125,28243051.027027026,216.52702702702703,28404149.80327869,27563746.491803277,90.39919672131148,27514770.229508195,892654.0327868853,80.28872131147538,37.7441077280312,0.00048306789568593845,0.016930083646982036,1.222363050124722,0.019569357550242344
75,42,16,1,25.852,9745.33,24.409284708258436,9746.942857142858,0,0,193.6,8.534306666666666,127109335.14666666,207.32,43547025.24590164,42255462.26229508,85.38181967213117,42149227.96721312,1366586.8196721312,64.0717868852459,22.771830857071784,0.0005473454617193447,0.01948342142107991,1.5946404751697634,0.02221664314511962
76,42,16,2,25.399,9920.89,24.44504423612953,9922.171428571428,0,0,195.85333333333332,8.687546666666666,122431530.34666666,209.90666666666667,44164148.655737706,42857077.983606555,85.30821311475412,42776209.04918033,1386902.9180327868,61.61608196721311,22.827025295039174,0.0005472100643497393,0.01894597813318762,1.5771706905087117,0.02071312491141965
77,42,16,3,25.94633333333333,9710.61,23.840800443882426,9712.028571428571,0,0,183.32,8.51534666666667,120657379.30666667,196.84,43715793.80327869,42417767.75409836,83.96593442622951,42341799.45901639,1372846.3606557378,62.45757377049179,22.206693386339822,0.0004263827346281665,0.020132691458716528,1.5906958223201557,0.022277749317276076
78,42,32,1,22.919666666666668,10992.439999999999,21.277499740805016,10994.742857142857,0,0,173.4,9.61353333333333,137250352.42666668,201.16,49389036.91803279,47921938.67213115,80.3992786885246,47838440.163934425,1550831.7213114754,39.47775409836066,18.38219845969585,0.0007422853171389365,0.023246220437947485,2.845395278084942,0.02521748105174929
79,42,32,2,24.54733333333333,10317.24,17.83706115188185,10300.242857142857,0,0,129.01351351351352,9.111918918918919,116819775.8918919,153.74324324324326,46273906.44262295,44873398.27868853,81.11996721311479,44729343.31147541,1450121.4918032787,44.64203278688525,14.96558970348406,0.0006410084810583184,0.023743449714691767,2.8209556895391086,0.02538967191849678
80,42,32,3,23.194,10913.689999999999,21.673297999113725,10863.185714285713,0,0,178.01351351351352,9.646121621621619,227093089.94594595,206.4189189189189,48563050.06557377,47133037.21311475,80.93316393442623,47029597.06557377,1524657.3442622952,40.40621311475409,18.714207252142963,0.0006383371698559227,0.02293951246718849,2.910247725109953,0.024550619167469062
81,42,64,1,19.839,12700.12,17.143802108663053,12701.328571428572,0,0,136.77027027027026,11.269905405405401,222951759.7837838,193.02702702702703,56729135.67213115,55756004.95081967,74.76752459016393,54925778.26229508,1780353.9672131147,21.052000000000003,12.152057467983976,0.0006827974778236896,0.03362986649948489,4.928266887341195,0.028309479790823915
83,42,64,3,19.894333333333332,12665.68,16.991977186892083,12667.185714285713,0,0,138.06666666666666,11.112840000000002,206578439.68,193.13333333333333,57069113.03278688,56092326.67213115,74.76537704918033,55253707.55737705,1790981.8688524591,21.15318032786885,12.01829498862028,0.0007298368652457603,0.033406732128759685,4.911316708148931,0.027519388229635858
84,64,8,1,63.29333333333333,6066.66,61.69900953241957,6068.371428571429,0,0,323.68918918918916,5.382797297297295,26228049.08108108,330.6081081081081,26942449.606557377,26142665.081967212,89.25904918032785,26101048.37704918,846880.7868852459,81.61404918032784,60.37913850736402,0.0006014067545414682,0.017551343491100657,1.2806177247153987,0.02039242210570819
85,64,8,2,59.46733333333333,6428.839999999999,59.740805876582634,6462.457142857143,0,0,328.27027027027026,5.749972972972972,27465925.945945945,335.4189189189189,28215720.967213117,27381135.901639346,89.84083606557377,27340490.606557377,887025.344262295,81.14039344262297,58.47332401719763,0.00047530783963087606,0.016720582123109742,1.2301025371330756,0.019628659649980142
86,64,8,3,47.09233333333333,2795.94,46.62124182837797,6489.628571428571,0,0,252.90666666666667,5.676893333333333,35247042.346666664,259.8,28711998.590163935,27863218.770491805,89.64811475409837,27822804.68852459,902638.655737705,79.66413114754097,45.382875602403494,0.00044704090465450013,0.017326051533737705,1.199961289033246,0.020068240062808
88,64,16,2,38.678333333333335,9926.68,37.73352854388837,9928.214285714286,0,0,307.84,8.709893333333333,129729559.57333334,321.82666666666665,44246390.60655738,42937041.14754099,83.83296721311473,42862165.03278688,1389764.9016393442,61.835213114754104,36.10805452253413,0.00048799562670837597,0.018535043761103993,1.5846189841700398,0.02123239185420849
90,64,32,1,34.95766666666666,10982.630000000001,33.110474847432066,10984.628571428571,0,0,285.2133333333333,9.605533333333334,131853221.33333333,312.76,49003887.08196721,47552077.73770492,80.21740983606558,47450760.836065575,1538294.950819672,39.979901639344256,30.201454819013218,0.0008280922841583918,0.024095202277136307,2.856991958186741,0.02626116177015501
91,64,32,2,35.452999999999996,10883.73,31.784206473391077,10832.614285714286,0,0,293.22972972972974,9.641513513513514,249464894.5945946,321.47297297297297,48429506.13114754,46975711.19672131,80.34165573770494,46886555.85245901,1519986.1147540985,40.55999999999998,28.867156571788975,0.000786468092538756,0.024783536591617732,2.865544560768509,0.02515896799824769
92,64,32,3,34.67933333333333,11124.82,33.00981993672372,11072.942857142858,0,0,290.3333333333333,9.69562666666667,150469621.44,318.4,49186108.36065574,47729997.42622951,80.11311475409833,47646745.836065575,1544676.524590164,39.79678688524589,30.10498197234371,0.0006807915407542166,0.02355428418249766,2.8547462517012647,0.025216594247853656
93,64,64,1,24.398,5277.49,21.309058209548216,12711.328571428572,0,0,183.55405405405406,11.284918918918919,448584664.1081081,239.55405405405406,57066209.49180328,56032398.344262294,74.64045901639344,55174819.983606555,1788527.8360655739,21.29455737704918,16.326865968266368,0.0007939213968365039,0.03408178702829582,4.919220122043805,0.02745340250182248
94,64,64,2,30.051333333333332,8441.74,26.601753744619693,12745.157142857142,0,0,244.78666666666666,11.194226666666664,211607877.33333334,300.38666666666666,57222448.983606555,56182806.57377049,74.31160655737705,55377280.60655738,1795064.0983606558,22.294426229508193,21.616258209285466,0.0007801486612461212,0.0346064382285088,4.921071199658442,0.028274191792873122
95,64,64,3,28.895,4472.42,25.886802099705168,12877.1,0,0,244.64864864864865,11.440905405405406,204084041.83783785,300.9054054054054,57570700.704918034,56554574.55737705,74.30175409836066,55677606.40983607,1804756.5573770492,21.675967213114752,20.942321573596892,0.000818887388154909,0.033719031481140437,4.880764114618773,0.028478323989069652
