second,get,set,multiget,multigetsharded,cachemisses
1,949,0,0,0,0
2,2200,0,0,0,0
3,3444,0,0,0,0
4,4941,0,0,0,0
5,6308,0,0,0,0
6,7892,0,0,0,0
7,9443,0,0,0,0
8,10952,0,0,0,0
9,12490,0,0,0,0
10,14006,0,0,0,0
11,15541,0,0,0,0
12,17068,0,0,0,0
13,18574,0,0,0,0
14,20112,0,0,0,0
15,21644,0,0,0,0
16,23209,0,0,0,0
17,24765,0,0,0,0
18,26220,0,0,0,0
19,27671,0,0,0,0
20,29174,0,0,0,0
21,30683,0,0,0,0
22,32120,0,0,0,0
23,33548,0,0,0,0
24,34922,0,0,0,0
25,36392,0,0,0,0
26,37848,0,0,0,0
27,39338,0,0,0,0
28,40840,0,0,0,0
29,42281,0,0,0,0
30,43737,0,0,0,0
31,45200,0,0,0,0
32,46678,0,0,0,0
33,48101,0,0,0,0
34,49584,0,0,0,0
35,51046,0,0,0,0
36,52522,0,0,0,0
37,54007,0,0,0,0
38,55426,0,0,0,0
39,56899,0,0,0,0
40,58402,0,0,0,0
41,59833,0,0,0,0
42,61300,0,0,0,0
43,62790,0,0,0,0
44,64242,0,0,0,0
45,65684,0,0,0,0
46,67121,0,0,0,0
47,68599,0,0,0,0
48,70047,0,0,0,0
49,71468,0,0,0,0
50,72960,0,0,0,0
51,74405,0,0,0,0
52,75855,0,0,0,0
53,77338,0,0,0,0
54,78807,0,0,0,0
55,80267,0,0,0,0
56,81705,0,0,0,0
57,83182,0,0,0,0
58,84648,0,0,0,0
59,86146,0,0,0,0
60,87630,0,0,0,0
61,89080,0,0,0,0
62,90556,0,0,0,0
63,92002,0,0,0,0
64,93436,0,0,0,0
65,94904,0,0,0,0
66,96376,0,0,0,0
67,97819,0,0,0,0
68,99282,0,0,0,0
69,100753,0,0,0,0
70,102192,0,0,0,0
71,102202,0,0,0,0
72,102202,0,0,0,0
73,102202,0,0,0,0
74,102202,0,0,0,0
75,102202,0,0,0,0
76,102202,0,0,0,0
77,102202,0,0,0,0
78,102202,0,0,0,0
79,102202,0,0,0,0
80,102202,0,0,0,0
81,102202,0,0,0,0
82,102202,0,0,0,0
83,102202,0,0,0,0
84,102202,0,0,0,0
85,102202,0,0,0,0
85,102202,0,0,0,0
