"Dstat 0.7.2 CSV output"
"Author:","Dag Wieers <dag@wieers.com>",,,,"URL:","http://dag.wieers.com/home-made/dstat/"
"Host:","Middleware1",,,,"User:","maki"
"Cmdline:","dstat --output dstat.csv 1 70",,,,"Date:","20 Nov 2018 07:31:18 UTC"

"total cpu usage",,,,,,"dsk/total",,"net/total",,"paging",,"system",
"usr","sys","idl","wai","hiq","siq","read","writ","recv","send","in","out","int","csw"
1.852,1.598,96.045,0.103,0.0,0.403,9164.286,193349.921,0.0,0.0,0.0,0.0,2041.972,5851.831
26.790,3.050,68.435,0.0,0.0,1.724,0.0,0.0,5708318.0,5578752.0,0.0,0.0,2091.0,6210.0
12.451,1.038,85.344,0.0,0.0,1.167,0.0,0.0,6956356.0,6821076.0,0.0,0.0,786.0,3721.0
4.447,2.033,92.503,0.0,0.0,1.017,0.0,0.0,6911864.0,6781653.0,0.0,0.0,780.0,3750.0
6.675,1.284,91.528,0.0,0.0,0.513,0.0,0.0,6679281.0,6565635.0,0.0,0.0,950.0,3408.0
5.740,1.531,91.709,0.0,0.0,1.020,0.0,12288.0,6981940.0,6852844.0,0.0,0.0,1103.0,3650.0
1.269,1.015,97.208,0.0,0.0,0.508,0.0,0.0,6974828.0,6851087.0,0.0,0.0,1030.0,3462.0
0.256,0.769,98.590,0.0,0.0,0.385,0.0,0.0,7007295.0,6868922.0,0.0,0.0,1029.0,3408.0
1.005,1.508,96.859,0.0,0.0,0.628,0.0,0.0,6743081.0,6619561.0,0.0,0.0,901.0,3163.0
1.763,1.385,96.599,0.0,0.0,0.252,0.0,0.0,7035805.0,6909576.0,0.0,0.0,978.0,3574.0
1.134,1.008,96.725,0.0,0.0,1.134,0.0,4096.0,6570479.0,6459433.0,0.0,0.0,720.0,3498.0
1.006,1.384,96.604,0.0,0.0,1.006,0.0,0.0,7024190.0,6903026.0,0.0,0.0,845.0,3695.0
1.271,1.017,96.569,0.0,0.0,1.144,0.0,0.0,6888992.0,6760208.0,0.0,0.0,735.0,3558.0
0.506,1.139,97.342,0.0,0.0,1.013,0.0,0.0,7037491.0,6906365.0,0.0,0.0,736.0,3585.0
1.247,1.372,96.135,0.0,0.0,1.247,0.0,0.0,6698301.0,6577086.0,0.0,0.0,653.0,3296.0
1.500,2.0,96.0,0.0,0.0,0.500,0.0,0.0,7025884.0,6918482.0,0.0,0.0,704.0,3587.0
0.759,1.138,97.092,0.0,0.0,1.011,0.0,0.0,7053271.0,6920141.0,0.0,0.0,790.0,3594.0
0.884,1.389,97.222,0.0,0.0,0.505,0.0,0.0,6905449.0,6775737.0,0.0,0.0,700.0,3447.0
0.757,1.639,97.226,0.0,0.0,0.378,0.0,0.0,6767372.0,6648190.0,0.0,0.0,665.0,3350.0
0.631,1.387,96.974,0.252,0.0,0.757,0.0,69632.0,6662678.0,6551188.0,0.0,0.0,695.0,3427.0
1.013,1.139,97.215,0.0,0.0,0.633,0.0,65536.0,6946446.0,6825354.0,0.0,0.0,704.0,3467.0
1.139,0.759,97.595,0.0,0.0,0.506,0.0,0.0,6870455.0,6750274.0,0.0,0.0,728.0,3440.0
0.632,1.391,97.472,0.0,0.0,0.506,0.0,0.0,6747182.0,6617654.0,0.0,0.0,645.0,3326.0
1.625,1.500,96.125,0.0,0.0,0.750,0.0,0.0,6999013.0,6873985.0,0.0,0.0,702.0,3488.0
0.508,0.508,97.589,0.0,0.0,1.396,0.0,0.0,7201716.0,7063772.0,0.0,0.0,689.0,3447.0
1.014,1.394,97.338,0.0,0.0,0.253,0.0,1269760.0,7143166.0,7008454.0,0.0,0.0,732.0,3587.0
0.882,1.134,97.103,0.0,0.0,0.882,0.0,0.0,6827105.0,6703156.0,0.0,0.0,696.0,3384.0
0.761,0.888,97.716,0.0,0.0,0.635,0.0,0.0,6825540.0,6707737.0,0.0,0.0,717.0,3434.0
1.508,1.256,96.608,0.0,0.0,0.628,0.0,0.0,6833011.0,6711369.0,0.0,0.0,690.0,3479.0
1.380,1.506,96.738,0.0,0.0,0.376,0.0,0.0,6989692.0,6863913.0,0.0,0.0,633.0,3356.0
1.010,1.136,96.970,0.0,0.0,0.884,0.0,0.0,6928621.0,6805572.0,0.0,0.0,704.0,3601.0
0.889,0.762,97.586,0.0,0.0,0.762,0.0,0.0,7186628.0,7052294.0,0.0,0.0,677.0,3558.0
1.013,1.013,97.468,0.0,0.0,0.506,0.0,0.0,7058076.0,6929154.0,0.0,0.0,701.0,3493.0
0.635,1.398,97.967,0.0,0.0,0.0,0.0,0.0,6898961.0,6776897.0,0.0,0.0,683.0,3435.0
0.755,1.887,96.730,0.0,0.0,0.629,0.0,0.0,6736070.0,6620323.0,0.0,0.0,735.0,3503.0
0.894,0.766,97.446,0.0,0.0,0.894,0.0,0.0,7063920.0,6933840.0,0.0,0.0,769.0,3665.0
1.380,1.255,96.738,0.0,0.0,0.627,0.0,12288.0,6875444.0,6738545.0,0.0,0.0,707.0,3529.0
1.005,0.879,96.482,0.0,0.0,1.633,0.0,0.0,7067263.0,6939419.0,0.0,0.0,710.0,3637.0
0.757,1.387,97.100,0.0,0.0,0.757,0.0,0.0,6811502.0,6687524.0,0.0,0.0,741.0,3473.0
0.759,1.011,97.472,0.0,0.0,0.759,0.0,0.0,7086398.0,6949695.0,0.0,0.0,614.0,3491.0
1.020,0.765,97.704,0.0,0.0,0.510,0.0,0.0,7063699.0,6934483.0,0.0,0.0,740.0,3667.0
0.885,0.759,97.345,0.0,0.0,1.011,0.0,0.0,7031282.0,6899840.0,0.0,0.0,663.0,3518.0
0.508,0.761,97.843,0.0,0.0,0.888,0.0,0.0,6931090.0,6804055.0,0.0,0.0,716.0,3505.0
1.141,0.887,97.465,0.0,0.0,0.507,0.0,0.0,6941822.0,6816090.0,0.0,0.0,701.0,3607.0
0.632,1.264,97.345,0.0,0.0,0.759,0.0,0.0,7077857.0,6951556.0,0.0,0.0,692.0,3469.0
1.529,1.019,97.197,0.0,0.0,0.255,0.0,0.0,6950886.0,6829401.0,0.0,0.0,633.0,3490.0
1.013,1.139,97.342,0.0,0.0,0.506,0.0,0.0,6681668.0,6558033.0,0.0,0.0,743.0,3537.0
1.017,0.762,97.967,0.0,0.0,0.254,0.0,0.0,7010412.0,6877616.0,0.0,0.0,624.0,3467.0
0.632,1.391,97.472,0.0,0.0,0.506,0.0,0.0,6991398.0,6869852.0,0.0,0.0,612.0,3404.0
1.271,1.144,96.442,0.508,0.0,0.635,0.0,69632.0,6593920.0,6470429.0,0.0,0.0,796.0,3521.0
0.760,1.014,97.465,0.0,0.0,0.760,0.0,0.0,7027166.0,6897723.0,0.0,0.0,670.0,3560.0
1.138,1.011,97.345,0.0,0.0,0.506,0.0,0.0,7095807.0,6966106.0,0.0,0.0,770.0,3648.0
1.132,1.635,96.604,0.0,0.0,0.629,0.0,0.0,6873236.0,6750863.0,0.0,0.0,774.0,3526.0
0.505,1.263,97.348,0.0,0.0,0.884,0.0,0.0,6741781.0,6622710.0,0.0,0.0,953.0,3241.0
0.886,1.013,97.342,0.0,0.0,0.759,0.0,0.0,7306665.0,7151807.0,0.0,0.0,997.0,3406.0
0.633,1.266,96.962,0.0,0.0,1.139,0.0,0.0,7196915.0,7057395.0,0.0,0.0,1096.0,3832.0
1.135,1.261,97.100,0.0,0.0,0.504,0.0,1671168.0,7103196.0,6973966.0,0.0,0.0,724.0,3596.0
0.884,0.884,97.348,0.0,0.0,0.884,0.0,0.0,6882109.0,6758559.0,0.0,0.0,679.0,3533.0
1.377,1.752,96.120,0.0,0.0,0.751,0.0,0.0,7043077.0,6910330.0,0.0,0.0,648.0,3619.0
0.629,1.006,96.981,0.0,0.0,1.384,0.0,0.0,7121057.0,6991874.0,0.0,0.0,588.0,3571.0
1.131,1.633,96.608,0.0,0.0,0.628,0.0,0.0,7003031.0,6873227.0,0.0,0.0,644.0,3542.0
1.882,1.506,96.110,0.0,0.0,0.502,0.0,0.0,7106950.0,6969857.0,0.0,0.0,724.0,3686.0
1.139,0.886,97.468,0.0,0.0,0.506,0.0,0.0,6913538.0,6786855.0,0.0,0.0,671.0,3545.0
0.507,1.014,97.592,0.0,0.0,0.887,0.0,0.0,7027156.0,6882889.0,0.0,0.0,732.0,3591.0
1.135,1.135,96.974,0.0,0.0,0.757,0.0,0.0,7240326.0,7101813.0,0.0,0.0,702.0,3746.0
0.754,1.382,96.608,0.0,0.0,1.256,0.0,0.0,6784601.0,6657871.0,0.0,0.0,684.0,3587.0
2.160,1.144,96.188,0.0,0.0,0.508,0.0,8192.0,7095647.0,6964651.0,0.0,0.0,685.0,3615.0
1.145,0.891,97.583,0.0,0.0,0.382,0.0,0.0,7164485.0,7033608.0,0.0,0.0,830.0,3785.0
0.756,1.008,97.103,0.0,0.0,1.134,0.0,0.0,6879151.0,6755596.0,0.0,0.0,627.0,3427.0
1.011,1.011,97.345,0.0,0.0,0.632,0.0,0.0,6836219.0,6721601.0,0.0,0.0,717.0,3544.0
1.387,1.513,96.847,0.0,0.0,0.252,0.0,0.0,6941554.0,6816125.0,0.0,0.0,698.0,3548.0
