1         Threads
14        Connections per thread
70        Seconds


ALL STATS
========================================================================
Type        Ops/sec     Hits/sec   Misses/sec      Latency       KB/sec 
------------------------------------------------------------------------
Sets        1915.44          ---          ---      7.30400      7730.77 
Gets           0.00         0.00         0.00      0.00000         0.00 
Waits          0.00          ---          ---      0.00000          --- 
Totals      1915.44         0.00         0.00      7.30400      7730.77 


Request Latency Distribution
Type     <= msec         Percent
------------------------------------------------------------------------
SET       1.400         0.00
SET       1.500         0.00
SET       1.600         0.01
SET       1.700         0.03
SET       1.800         0.04
SET       1.900         0.08
SET       2.000         0.12
SET       2.100         0.21
SET       2.200         0.32
SET       2.300         0.52
SET       2.400         0.80
SET       2.500         1.18
SET       2.600         1.70
SET       2.700         2.38
SET       2.800         3.19
SET       2.900         4.12
SET       3.000         5.23
SET       3.100         6.48
SET       3.200         7.83
SET       3.300         9.28
SET       3.400        10.82
SET       3.500        12.49
SET       3.600        14.19
SET       3.700        15.95
SET       3.800        17.68
SET       3.900        19.48
SET       4.000        21.26
SET       4.100        22.91
SET       4.200        24.56
SET       4.300        26.13
SET       4.400        27.67
SET       4.500        29.10
SET       4.600        30.45
SET       4.700        31.71
SET       4.800        32.94
SET       4.900        34.14
SET       5.000        35.22
SET       5.100        36.23
SET       5.200        37.24
SET       5.300        38.16
SET       5.400        38.95
SET       5.500        39.75
SET       5.600        40.44
SET       5.700        41.09
SET       5.800        41.71
SET       5.900        42.27
SET       6.000        42.78
SET       6.100        43.27
SET       6.200        43.74
SET       6.300        44.23
SET       6.400        44.67
SET       6.500        45.05
SET       6.600        45.47
SET       6.700        45.86
SET       6.800        46.23
SET       6.900        46.56
SET       7.000        46.86
SET       7.100        47.13
SET       7.200        47.42
SET       7.300        47.74
SET       7.400        48.05
SET       7.500        48.38
SET       7.600        48.74
SET       7.700        49.13
SET       7.800        49.58
SET       7.900        50.08
SET       8.000        50.67
SET       8.100        51.34
SET       8.200        52.11
SET       8.300        53.04
SET       8.400        54.10
SET       8.500        55.25
SET       8.600        56.54
SET       8.700        57.92
SET       8.800        59.44
SET       8.900        61.08
SET       9.000        62.74
SET       9.100        64.46
SET       9.200        66.20
SET       9.300        67.97
SET       9.400        69.80
SET       9.500        71.64
SET       9.600        73.45
SET       9.700        75.24
SET       9.800        76.95
SET       9.900        78.58
SET      10.000        86.04
SET      11.000        93.83
SET      12.000        96.99
SET      13.000        98.25
SET      14.000        98.81
SET      15.000        99.14
SET      16.000        99.37
SET      17.000        99.51
SET      18.000        99.64
SET      19.000        99.77
SET      20.000        99.85
SET      21.000        99.89
SET      22.000        99.91
SET      23.000        99.93
SET      24.000        99.94
SET      25.000        99.95
SET      26.000        99.96
SET      27.000        99.97
SET      28.000        99.98
SET      29.000        99.99
SET      32.000        99.99
SET      33.000       100.00
SET      35.000       100.00
SET      37.000       100.00
SET      49.000       100.00
SET      54.000       100.00
SET      57.000       100.00
SET      66.000       100.00
---
---
