2         Threads
2         Connections per thread
70        Seconds


ALL STATS
========================================================================
Type        Ops/sec     Hits/sec   Misses/sec      Latency       KB/sec 
------------------------------------------------------------------------
Sets        1864.54          ---          ---      2.14000      7525.34 
Gets           0.00         0.00         0.00      0.00000         0.00 
Waits          0.00          ---          ---      0.00000          --- 
Totals      1864.54         0.00         0.00      2.14000      7525.34 


Request Latency Distribution
Type     <= msec         Percent
------------------------------------------------------------------------
SET       1.200         0.01
SET       1.300         0.46
SET       1.400         3.68
SET       1.500        11.92
SET       1.600        24.09
SET       1.700        37.69
SET       1.800        50.17
SET       1.900        60.12
SET       2.000        68.31
SET       2.100        74.30
SET       2.200        78.80
SET       2.300        82.38
SET       2.400        85.03
SET       2.500        87.12
SET       2.600        88.71
SET       2.700        89.97
SET       2.800        90.98
SET       2.900        91.77
SET       3.000        92.44
SET       3.100        93.02
SET       3.200        93.51
SET       3.300        93.95
SET       3.400        94.34
SET       3.500        94.67
SET       3.600        94.96
SET       3.700        95.25
SET       3.800        95.50
SET       3.900        95.72
SET       4.000        95.92
SET       4.100        96.10
SET       4.200        96.28
SET       4.300        96.47
SET       4.400        96.63
SET       4.500        96.76
SET       4.600        96.88
SET       4.700        96.98
SET       4.800        97.11
SET       4.900        97.23
SET       5.000        97.35
SET       5.100        97.46
SET       5.200        97.56
SET       5.300        97.66
SET       5.400        97.75
SET       5.500        97.84
SET       5.600        97.93
SET       5.700        98.00
SET       5.800        98.08
SET       5.900        98.18
SET       6.000        98.25
SET       6.100        98.33
SET       6.200        98.39
SET       6.300        98.46
SET       6.400        98.53
SET       6.500        98.59
SET       6.600        98.67
SET       6.700        98.74
SET       6.800        98.81
SET       6.900        98.87
SET       7.000        98.93
SET       7.100        98.99
SET       7.200        99.04
SET       7.300        99.10
SET       7.400        99.15
SET       7.500        99.21
SET       7.600        99.27
SET       7.700        99.32
SET       7.800        99.37
SET       7.900        99.41
SET       8.000        99.44
SET       8.100        99.47
SET       8.200        99.50
SET       8.300        99.52
SET       8.400        99.55
SET       8.500        99.57
SET       8.600        99.59
SET       8.700        99.61
SET       8.800        99.63
SET       8.900        99.65
SET       9.000        99.66
SET       9.100        99.67
SET       9.200        99.69
SET       9.300        99.70
SET       9.400        99.72
SET       9.500        99.74
SET       9.600        99.75
SET       9.700        99.76
SET       9.800        99.78
SET       9.900        99.79
SET      10.000        99.85
SET      11.000        99.90
SET      12.000        99.93
SET      13.000        99.95
SET      14.000        99.96
SET      15.000        99.96
SET      16.000        99.96
SET      17.000        99.97
SET      18.000        99.97
SET      19.000        99.97
SET      20.000        99.97
SET      21.000        99.98
SET      25.000        99.98
SET      32.000        99.98
SET      48.000        99.98
SET      79.000        99.98
SET      80.000        99.98
SET      94.000        99.99
SET      95.000        99.99
SET      99.000        99.99
SET     100.000       100.00
SET     200.000       100.00
---
---
