2         Threads
22        Connections per thread
70        Seconds


ALL STATS
========================================================================
Type        Ops/sec     Hits/sec   Misses/sec      Latency       KB/sec 
------------------------------------------------------------------------
Sets        3385.08          ---          ---     12.99300     13662.27 
Gets           0.00         0.00         0.00      0.00000         0.00 
Waits          0.00          ---          ---      0.00000          --- 
Totals      3385.08         0.00         0.00     12.99300     13662.27 


Request Latency Distribution
Type     <= msec         Percent
------------------------------------------------------------------------
SET       2.100         0.00
SET       2.400         0.00
SET       2.500         0.00
SET       2.700         0.00
SET       2.800         0.00
SET       3.000         0.01
SET       3.100         0.01
SET       3.200         0.01
SET       3.300         0.01
SET       3.400         0.01
SET       3.500         0.02
SET       3.600         0.03
SET       3.700         0.03
SET       3.800         0.04
SET       3.900         0.04
SET       4.000         0.05
SET       4.100         0.07
SET       4.200         0.08
SET       4.300         0.10
SET       4.400         0.13
SET       4.500         0.15
SET       4.600         0.18
SET       4.700         0.20
SET       4.800         0.24
SET       4.900         0.28
SET       5.000         0.34
SET       5.100         0.39
SET       5.200         0.47
SET       5.300         0.54
SET       5.400         0.61
SET       5.500         0.69
SET       5.600         0.80
SET       5.700         0.92
SET       5.800         1.04
SET       5.900         1.16
SET       6.000         1.29
SET       6.100         1.44
SET       6.200         1.57
SET       6.300         1.73
SET       6.400         1.90
SET       6.500         2.05
SET       6.600         2.23
SET       6.700         2.42
SET       6.800         2.60
SET       6.900         2.77
SET       7.000         2.96
SET       7.100         3.16
SET       7.200         3.35
SET       7.300         3.53
SET       7.400         3.72
SET       7.500         3.93
SET       7.600         4.16
SET       7.700         4.38
SET       7.800         4.62
SET       7.900         4.87
SET       8.000         5.11
SET       8.100         5.33
SET       8.200         5.56
SET       8.300         5.80
SET       8.400         6.03
SET       8.500         6.26
SET       8.600         6.47
SET       8.700         6.69
SET       8.800         6.90
SET       8.900         7.11
SET       9.000         7.32
SET       9.100         7.52
SET       9.200         7.72
SET       9.300         7.91
SET       9.400         8.12
SET       9.500         8.35
SET       9.600         8.64
SET       9.700         8.92
SET       9.800         9.23
SET       9.900         9.57
SET      10.000        12.94
SET      11.000        29.82
SET      12.000        53.88
SET      13.000        72.26
SET      14.000        84.03
SET      15.000        90.02
SET      16.000        92.74
SET      17.000        94.65
SET      18.000        96.21
SET      19.000        97.35
SET      20.000        98.09
SET      21.000        98.56
SET      22.000        98.89
SET      23.000        99.08
SET      24.000        99.22
SET      25.000        99.32
SET      26.000        99.39
SET      27.000        99.44
SET      28.000        99.54
SET      29.000        99.60
SET      30.000        99.65
SET      31.000        99.68
SET      32.000        99.72
SET      33.000        99.75
SET      34.000        99.78
SET      35.000        99.79
SET      36.000        99.80
SET      37.000        99.81
SET      38.000        99.81
SET      39.000        99.82
SET      40.000        99.82
SET      41.000        99.82
SET      42.000        99.82
SET      43.000        99.83
SET      44.000        99.83
SET      45.000        99.83
SET      46.000        99.83
SET      47.000        99.83
SET      48.000        99.83
SET      52.000        99.83
SET      53.000        99.83
SET      58.000        99.84
SET      59.000        99.85
SET      60.000        99.85
SET      65.000        99.85
SET      66.000        99.85
SET      94.000        99.85
SET      95.000        99.85
SET      96.000        99.85
SET      97.000        99.86
SET      98.000        99.86
SET      99.000        99.86
SET     100.000        99.87
SET     110.000        99.91
SET     120.000        99.92
SET     130.000        99.92
SET     150.000        99.92
SET     170.000        99.92
SET     190.000        99.92
SET     200.000        99.94
SET     210.000        99.94
SET     220.000        99.94
SET     250.000        99.94
SET     260.000        99.94
SET     280.000        99.94
SET     290.000        99.94
SET     300.000        99.94
SET     360.000        99.95
SET     370.000        99.96
SET     470.000        99.97
SET     480.000        99.98
SET     540.000        99.99
SET     550.000       100.00
---
---
