2         Threads
2         Connections per thread
70        Seconds


ALL STATS
========================================================================
Type        Ops/sec     Hits/sec   Misses/sec      Latency       KB/sec 
------------------------------------------------------------------------
Sets           0.00          ---          ---      0.00000         0.00 
Gets         869.95       869.95         0.00      4.59100      3523.79 
Waits          0.00          ---          ---      0.00000          --- 
Totals       869.95       869.95         0.00      4.59100      3523.79 


Request Latency Distribution
Type     <= msec         Percent
------------------------------------------------------------------------
---
GET       0.200         0.00
GET       0.210         0.00
GET       0.230         0.02
GET       0.240         0.03
GET       0.250         0.05
GET       0.260         0.11
GET       0.270         0.15
GET       0.280         0.26
GET       0.290         0.39
GET       0.300         0.53
GET       0.310         0.73
GET       0.320         0.98
GET       0.330         1.29
GET       0.340         1.68
GET       0.350         2.02
GET       0.360         2.49
GET       0.370         3.01
GET       0.380         3.64
GET       0.390         4.36
GET       0.400         5.05
GET       0.410         5.86
GET       0.420         6.67
GET       0.430         7.60
GET       0.440         8.62
GET       0.450         9.65
GET       0.460        10.75
GET       0.470        11.83
GET       0.480        13.04
GET       0.490        14.18
GET       0.500        15.45
GET       0.510        16.77
GET       0.520        18.08
GET       0.530        19.40
GET       0.540        20.76
GET       0.550        22.20
GET       0.560        23.68
GET       0.570        25.18
GET       0.580        26.68
GET       0.590        28.20
GET       0.600        29.64
GET       0.610        31.27
GET       0.620        32.83
GET       0.630        34.39
GET       0.640        35.91
GET       0.650        37.37
GET       0.660        38.87
GET       0.670        40.42
GET       0.680        41.99
GET       0.690        43.48
GET       0.700        44.88
GET       0.710        46.21
GET       0.720        47.53
GET       0.730        48.83
GET       0.740        49.94
GET       0.750        51.06
GET       0.760        52.05
GET       0.770        53.04
GET       0.780        54.00
GET       0.790        54.83
GET       0.800        55.66
GET       0.810        56.38
GET       0.820        57.06
GET       0.830        57.69
GET       0.840        58.30
GET       0.850        58.88
GET       0.860        59.45
GET       0.870        59.95
GET       0.880        60.40
GET       0.890        60.86
GET       0.900        61.34
GET       0.910        61.80
GET       0.920        62.13
GET       0.930        62.49
GET       0.940        62.80
GET       0.950        63.10
GET       0.960        63.41
GET       0.970        63.68
GET       0.980        63.94
GET       0.990        64.17
GET       1.000        65.22
GET       1.100        66.42
GET       1.200        67.06
GET       1.300        67.64
GET       1.400        68.03
GET       1.500        68.33
GET       1.600        68.60
GET       1.700        68.83
GET       1.800        68.99
GET       1.900        69.16
GET       2.000        69.33
GET       2.100        69.44
GET       2.200        69.60
GET       2.300        69.70
GET       2.400        69.78
GET       2.500        69.85
GET       2.600        69.92
GET       2.700        70.01
GET       2.800        70.08
GET       2.900        70.17
GET       3.000        70.24
GET       3.100        70.26
GET       3.200        70.31
GET       3.300        70.33
GET       3.400        70.39
GET       3.500        70.48
GET       3.600        70.53
GET       3.700        70.57
GET       3.800        70.60
GET       3.900        70.65
GET       4.000        70.69
GET       4.100        70.71
GET       4.200        70.78
GET       4.300        70.89
GET       4.400        70.94
GET       4.500        71.01
GET       4.600        71.13
GET       4.700        71.21
GET       4.800        71.29
GET       4.900        71.33
GET       5.000        71.38
GET       5.100        71.39
GET       5.200        71.41
GET       5.300        71.44
GET       5.400        71.45
GET       5.500        71.47
GET       5.600        71.49
GET       5.700        71.51
GET       5.800        71.53
GET       5.900        71.55
GET       6.000        71.56
GET       6.100        71.56
GET       6.200        71.58
GET       6.300        71.58
GET       6.400        71.60
GET       6.500        71.62
GET       6.600        71.63
GET       6.700        71.65
GET       6.800        71.66
GET       6.900        71.68
GET       7.000        71.69
GET       7.100        71.70
GET       7.200        71.71
GET       7.300        71.72
GET       7.400        71.75
GET       7.500        71.79
GET       7.600        71.81
GET       7.700        71.82
GET       7.800        71.82
GET       7.900        71.83
GET       8.000        71.84
GET       8.200        71.85
GET       8.300        71.88
GET       8.400        71.90
GET       8.500        71.90
GET       8.600        71.91
GET       8.700        71.93
GET       8.800        71.95
GET       8.900        71.97
GET       9.000        72.01
GET       9.100        72.02
GET       9.200        72.08
GET       9.300        72.12
GET       9.400        72.15
GET       9.500        72.19
GET       9.600        72.23
GET       9.700        72.24
GET       9.800        72.32
GET       9.900        72.40
GET      10.000        72.73
GET      11.000        73.24
GET      12.000        74.20
GET      13.000        78.12
GET      14.000        98.48
GET      15.000        99.56
GET      16.000        99.69
GET      17.000        99.78
GET      18.000        99.80
GET      19.000        99.80
GET      20.000        99.80
GET      24.000        99.81
GET      25.000        99.82
GET      26.000        99.83
GET      27.000        99.85
GET      28.000        99.87
GET      29.000        99.89
GET      30.000        99.89
GET      31.000        99.90
GET      39.000        99.90
GET      45.000        99.90
GET      46.000        99.90
GET      48.000        99.91
GET      52.000        99.91
GET      57.000        99.92
GET      61.000        99.93
GET      62.000        99.93
GET      63.000        99.94
GET      64.000        99.94
GET      67.000        99.95
GET      96.000        99.95
GET      97.000        99.95
GET     110.000        99.95
GET     120.000        99.96
GET     130.000        99.97
GET     160.000        99.97
GET     170.000        99.97
GET     180.000        99.97
GET     190.000        99.97
GET     200.000        99.98
GET     260.000        99.98
GET     270.000        99.98
GET     290.000        99.99
GET     360.000        99.99
GET     410.000        99.99
GET     440.000        99.99
GET     450.000        99.99
GET     550.000       100.00
GET     560.000       100.00
GET     710.000       100.00
GET     740.000       100.00
---
