"Dstat 0.7.2 CSV output"
"Author:","Dag Wieers <dag@wieers.com>",,,,"URL:","http://dag.wieers.com/home-made/dstat/"
"Host:","Middleware2",,,,"User:","maki"
"Cmdline:","dstat --output dstat.csv 1 70",,,,"Date:","20 Nov 2018 07:54:18 UTC"

"total cpu usage",,,,,,"dsk/total",,"net/total",,"paging",,"system",
"usr","sys","idl","wai","hiq","siq","read","writ","recv","send","in","out","int","csw"
1.992,1.763,95.688,0.095,0.0,0.463,8732.091,183245.100,0.0,0.0,0.0,0.0,1827.047,5326.204
25.229,4.314,69.542,0.0,0.0,0.915,0.0,0.0,5515351.0,5355101.0,0.0,0.0,3342.0,8915.0
13.690,2.347,83.572,0.0,0.0,0.391,0.0,0.0,6500187.0,6306224.0,0.0,0.0,2548.0,7321.0
5.109,2.427,91.826,0.0,0.0,0.639,0.0,0.0,6203251.0,6019073.0,0.0,0.0,2394.0,7085.0
5.634,2.689,90.909,0.0,0.0,0.768,0.0,0.0,6510741.0,6318999.0,0.0,0.0,2470.0,7298.0
14.987,2.713,81.395,0.0,0.0,0.904,0.0,0.0,6380802.0,6188847.0,0.0,0.0,2590.0,7231.0
2.049,2.049,95.134,0.0,0.0,0.768,0.0,0.0,6157104.0,5980004.0,0.0,0.0,2404.0,6909.0
1.527,2.036,95.802,0.0,0.0,0.636,0.0,0.0,6376517.0,6188657.0,0.0,0.0,2421.0,7157.0
1.269,2.665,95.431,0.0,0.0,0.635,0.0,0.0,6323930.0,6136595.0,0.0,0.0,2362.0,7114.0
1.027,1.797,96.406,0.0,0.0,0.770,0.0,0.0,6346479.0,6158155.0,0.0,0.0,2412.0,7140.0
1.779,2.033,95.553,0.0,0.0,0.635,0.0,0.0,6313730.0,6127718.0,0.0,0.0,2426.0,7188.0
1.648,2.535,95.184,0.0,0.0,0.634,0.0,0.0,6253616.0,6066803.0,0.0,0.0,2341.0,6980.0
1.654,2.545,95.420,0.0,0.0,0.382,0.0,0.0,6281237.0,6097427.0,0.0,0.0,2408.0,7112.0
1.652,2.287,95.680,0.0,0.0,0.381,0.0,0.0,6313667.0,6127733.0,0.0,0.0,2362.0,7092.0
1.656,1.911,95.541,0.0,0.0,0.892,0.0,0.0,6240648.0,6058214.0,0.0,0.0,2396.0,7055.0
2.025,1.899,95.316,0.0,0.0,0.759,0.0,0.0,6276305.0,6088644.0,0.0,0.0,2316.0,6978.0
2.551,1.531,95.153,0.0,0.0,0.765,0.0,0.0,6302742.0,6110852.0,0.0,0.0,2358.0,6950.0
1.654,1.781,95.929,0.0,0.0,0.636,0.0,0.0,6382394.0,6193092.0,0.0,0.0,2372.0,7055.0
1.408,2.049,96.031,0.0,0.0,0.512,0.0,0.0,6234588.0,6049659.0,0.0,0.0,2368.0,6991.0
1.517,2.781,95.196,0.0,0.0,0.506,0.0,0.0,6322699.0,6136423.0,0.0,0.0,2398.0,7078.0
1.768,1.894,95.455,0.0,0.0,0.884,0.0,12288.0,6331683.0,6145221.0,0.0,0.0,2439.0,7067.0
1.396,2.157,95.558,0.0,0.0,0.888,0.0,0.0,6439429.0,6250106.0,0.0,0.0,2476.0,7103.0
1.533,1.277,96.169,0.0,0.0,1.022,0.0,0.0,6276745.0,6076355.0,0.0,0.0,2454.0,7089.0
1.652,2.287,95.807,0.0,0.0,0.254,0.0,0.0,6527149.0,6336267.0,0.0,0.0,2434.0,7188.0
1.781,2.163,95.674,0.0,0.0,0.382,0.0,0.0,6444872.0,6253817.0,0.0,0.0,2454.0,7180.0
1.652,2.160,95.553,0.0,0.0,0.635,0.0,1093632.0,6246433.0,6062401.0,0.0,0.0,2434.0,7098.0
1.019,2.038,96.306,0.0,0.0,0.637,0.0,0.0,6340576.0,6153772.0,0.0,0.0,2388.0,6994.0
1.145,2.290,95.929,0.0,0.0,0.636,0.0,0.0,6292688.0,6105965.0,0.0,0.0,2446.0,7076.0
1.407,1.662,96.419,0.0,0.0,0.512,0.0,0.0,6443580.0,6253896.0,0.0,0.0,2463.0,7151.0
1.654,2.163,95.293,0.254,0.0,0.636,0.0,53248.0,6462952.0,6271196.0,0.0,0.0,2479.0,7183.0
1.774,2.535,95.184,0.127,0.0,0.380,0.0,4096.0,6507429.0,6310412.0,0.0,0.0,2501.0,7402.0
1.646,2.278,95.443,0.0,0.0,0.633,0.0,0.0,6455586.0,6266816.0,0.0,0.0,2468.0,7182.0
0.896,1.793,96.671,0.0,0.0,0.640,0.0,0.0,6421247.0,6232067.0,0.0,0.0,2427.0,7093.0
1.020,2.423,95.918,0.0,0.0,0.638,0.0,0.0,6427116.0,6236589.0,0.0,0.0,2512.0,7241.0
1.023,2.046,96.292,0.0,0.0,0.639,0.0,0.0,6406374.0,6219056.0,0.0,0.0,2466.0,7168.0
1.271,2.287,95.553,0.0,0.0,0.889,0.0,12288.0,6412281.0,6223443.0,0.0,0.0,2442.0,7139.0
2.023,2.655,94.943,0.0,0.0,0.379,0.0,0.0,6445030.0,6253819.0,0.0,0.0,2488.0,7168.0
1.152,2.049,96.287,0.0,0.0,0.512,0.0,0.0,6416671.0,6227701.0,0.0,0.0,2471.0,7143.0
1.148,2.041,96.301,0.0,0.0,0.510,0.0,0.0,6234503.0,6049479.0,0.0,0.0,2410.0,6968.0
1.149,2.171,95.913,0.0,0.0,0.766,0.0,0.0,6425606.0,6236467.0,0.0,0.0,2494.0,7220.0
1.392,2.658,95.316,0.0,0.0,0.633,0.0,0.0,6237611.0,6053843.0,0.0,0.0,2487.0,7085.0
1.531,1.786,96.046,0.0,0.0,0.638,0.0,0.0,6327127.0,6140719.0,0.0,0.0,2411.0,6959.0
1.267,2.281,95.564,0.0,0.0,0.887,0.0,0.0,6319567.0,6132442.0,0.0,0.0,2463.0,7117.0
1.658,1.913,95.791,0.0,0.0,0.638,0.0,0.0,6549484.0,6353676.0,0.0,0.0,2514.0,7421.0
1.788,1.788,95.913,0.0,0.0,0.511,0.0,0.0,6367392.0,6179796.0,0.0,0.0,2533.0,7188.0
1.660,1.788,96.041,0.0,0.0,0.511,0.0,0.0,6546457.0,6353754.0,0.0,0.0,2609.0,7459.0
2.049,1.921,95.519,0.0,0.0,0.512,0.0,0.0,6322690.0,6136414.0,0.0,0.0,2418.0,7082.0
2.028,2.028,95.311,0.0,0.0,0.634,0.0,0.0,6482420.0,6292858.0,0.0,0.0,2543.0,7385.0
1.774,2.408,95.437,0.0,0.0,0.380,0.0,0.0,6409198.0,6219043.0,0.0,0.0,2491.0,7142.0
1.289,2.320,95.876,0.0,0.0,0.515,0.0,0.0,6311934.0,6128017.0,0.0,0.0,2479.0,7219.0
2.284,2.665,94.543,0.0,0.0,0.508,0.0,0.0,6197319.0,6014817.0,0.0,0.0,2515.0,7162.0
2.264,2.642,94.465,0.0,0.0,0.629,0.0,0.0,6377769.0,6188616.0,0.0,0.0,2481.0,7172.0
1.768,2.652,95.202,0.0,0.0,0.379,0.0,0.0,6298679.0,6110341.0,0.0,0.0,2450.0,7079.0
1.517,2.528,95.070,0.0,0.0,0.885,0.0,0.0,6361136.0,6171566.0,0.0,0.0,2509.0,7132.0
1.407,1.918,96.036,0.0,0.0,0.639,0.0,0.0,6409120.0,6218965.0,0.0,0.0,2528.0,7343.0
1.149,1.916,96.296,0.0,0.0,0.639,0.0,20480.0,6488453.0,6302715.0,0.0,0.0,2522.0,7324.0
1.641,2.525,95.455,0.0,0.0,0.379,0.0,0.0,6247674.0,6058604.0,0.0,0.0,2440.0,6976.0
1.765,2.774,94.956,0.0,0.0,0.504,0.0,0.0,6279331.0,6093004.0,0.0,0.0,2506.0,7124.0
0.640,2.049,96.799,0.0,0.0,0.512,0.0,0.0,6373455.0,6184339.0,0.0,0.0,2396.0,6988.0
1.401,1.911,95.669,0.255,0.0,0.764,0.0,45056.0,6277993.0,6093037.0,0.0,0.0,2452.0,7104.0
1.277,1.916,95.913,0.128,0.0,0.766,0.0,1671168.0,6327175.0,6140940.0,0.0,0.0,2488.0,7156.0
1.152,2.049,96.415,0.0,0.0,0.384,0.0,0.0,6416784.0,6227736.0,0.0,0.0,2476.0,7250.0
1.399,1.908,95.802,0.0,0.0,0.891,0.0,0.0,6251068.0,6066904.0,0.0,0.0,2421.0,7016.0
1.519,2.025,95.443,0.0,0.0,1.013,0.0,0.0,6256695.0,6067150.0,0.0,0.0,2454.0,7147.0
1.401,2.166,96.051,0.0,0.0,0.382,0.0,0.0,6212169.0,6027727.0,0.0,0.0,2402.0,7035.0
1.155,1.926,96.534,0.0,0.0,0.385,0.0,0.0,6388364.0,6201730.0,0.0,0.0,2424.0,7136.0
1.527,2.417,95.547,0.0,0.0,0.509,0.0,8192.0,6288187.0,6101596.0,0.0,0.0,2445.0,7129.0
1.160,1.289,97.165,0.0,0.0,0.387,0.0,0.0,6277898.0,6092942.0,0.0,0.0,2368.0,7005.0
0.895,1.918,96.547,0.0,0.0,0.639,0.0,0.0,6240613.0,6058257.0,0.0,0.0,2415.0,6975.0
1.527,2.290,95.547,0.0,0.0,0.636,0.0,0.0,6189754.0,6006145.0,0.0,0.0,2409.0,7073.0
1.018,2.672,95.674,0.0,0.0,0.636,0.0,0.0,6239715.0,6045611.0,0.0,0.0,2360.0,7073.0
