1         Threads
1         Connections per thread
70        Seconds


ALL STATS
========================================================================
Type        Ops/sec     Hits/sec   Misses/sec      Latency       KB/sec 
------------------------------------------------------------------------
Sets         527.00          ---          ---      1.88900      2127.00 
Gets           0.00         0.00         0.00      0.00000         0.00 
Waits          0.00          ---          ---      0.00000          --- 
Totals       527.00         0.00         0.00      1.88900      2127.00 


Request Latency Distribution
Type     <= msec         Percent
------------------------------------------------------------------------
SET       0.840         0.00
SET       0.850         0.01
SET       0.870         0.01
SET       0.880         0.02
SET       0.890         0.02
SET       0.900         0.02
SET       0.910         0.04
SET       0.920         0.06
SET       0.930         0.08
SET       0.940         0.10
SET       0.950         0.11
SET       0.960         0.14
SET       0.970         0.18
SET       0.980         0.27
SET       0.990         0.32
SET       1.000         1.01
SET       1.100         4.18
SET       1.200        11.00
SET       1.300        20.48
SET       1.400        31.44
SET       1.500        41.82
SET       1.600        51.19
SET       1.700        58.97
SET       1.800        65.35
SET       1.900        70.68
SET       2.000        75.23
SET       2.100        78.83
SET       2.200        81.65
SET       2.300        84.08
SET       2.400        86.06
SET       2.500        87.84
SET       2.600        89.20
SET       2.700        90.32
SET       2.800        91.40
SET       2.900        92.19
SET       3.000        92.94
SET       3.100        93.62
SET       3.200        94.10
SET       3.300        94.62
SET       3.400        95.09
SET       3.500        95.47
SET       3.600        95.80
SET       3.700        96.12
SET       3.800        96.42
SET       3.900        96.65
SET       4.000        96.87
SET       4.100        97.09
SET       4.200        97.29
SET       4.300        97.47
SET       4.400        97.60
SET       4.500        97.75
SET       4.600        97.90
SET       4.700        98.02
SET       4.800        98.11
SET       4.900        98.18
SET       5.000        98.28
SET       5.100        98.39
SET       5.200        98.45
SET       5.300        98.51
SET       5.400        98.59
SET       5.500        98.67
SET       5.600        98.71
SET       5.700        98.77
SET       5.800        98.84
SET       5.900        98.91
SET       6.000        98.98
SET       6.100        99.06
SET       6.200        99.10
SET       6.300        99.16
SET       6.400        99.18
SET       6.500        99.22
SET       6.600        99.28
SET       6.700        99.33
SET       6.800        99.39
SET       6.900        99.44
SET       7.000        99.47
SET       7.100        99.51
SET       7.200        99.55
SET       7.300        99.58
SET       7.400        99.61
SET       7.500        99.63
SET       7.600        99.65
SET       7.700        99.66
SET       7.800        99.69
SET       7.900        99.70
SET       8.000        99.72
SET       8.100        99.74
SET       8.200        99.75
SET       8.300        99.77
SET       8.400        99.78
SET       8.500        99.79
SET       8.600        99.79
SET       8.700        99.83
SET       8.800        99.85
SET       8.900        99.85
SET       9.000        99.86
SET       9.100        99.87
SET       9.200        99.88
SET       9.300        99.89
SET       9.400        99.89
SET       9.500        99.90
SET       9.600        99.90
SET       9.700        99.91
SET       9.800        99.91
SET       9.900        99.91
SET      10.000        99.94
SET      11.000        99.97
SET      12.000        99.98
SET      13.000        99.99
SET      14.000        99.99
SET      15.000        99.99
SET      16.000       100.00
SET      19.000       100.00
---
---
