1         Threads
64        Connections per thread
70        Seconds


ALL STATS
========================================================================
Type        Ops/sec     Hits/sec   Misses/sec      Latency       KB/sec 
------------------------------------------------------------------------
Sets           0.00          ---          ---      0.00000         0.00 
Gets         518.94       518.94         0.00    123.31200      2102.04 
Waits          0.00          ---          ---      0.00000          --- 
Totals       518.94       518.94         0.00    123.31200      2102.04 


Request Latency Distribution
Type     <= msec         Percent
------------------------------------------------------------------------
---
GET      80.000         0.00
GET      81.000         0.01
GET      92.000         0.01
GET      93.000         0.04
GET      94.000         0.13
GET      95.000         0.31
GET      96.000         0.42
GET      97.000         0.44
GET      98.000         0.46
GET      99.000         0.47
GET     100.000         0.51
GET     110.000        22.78
GET     120.000        60.96
GET     130.000        88.72
GET     140.000        99.71
GET     150.000        99.77
GET     160.000        99.82
GET     240.000        99.88
GET     250.000        99.96
GET     260.000       100.00
GET     270.000       100.00
---
