1         Threads
14        Connections per thread
70        Seconds


ALL STATS
========================================================================
Type        Ops/sec     Hits/sec   Misses/sec      Latency       KB/sec 
------------------------------------------------------------------------
Sets           0.00          ---          ---      0.00000         0.00 
Gets         490.46       490.46         0.00     28.53100      1986.64 
Waits          0.00          ---          ---      0.00000          --- 
Totals       490.46       490.46         0.00     28.53100      1986.64 


Request Latency Distribution
Type     <= msec         Percent
------------------------------------------------------------------------
---
GET       4.700         0.00
GET       5.200         0.01
GET       5.300         0.01
GET       5.500         0.01
GET       5.700         0.01
GET       5.800         0.02
GET       6.000         0.03
GET       6.100         0.03
GET       6.200         0.04
GET       6.400         0.04
GET       6.500         0.05
GET       6.600         0.06
GET       6.700         0.06
GET       6.800         0.07
GET       7.000         0.07
GET       7.300         0.08
GET       7.700         0.08
GET       7.800         0.08
GET       7.900         0.09
GET       8.400         0.09
GET       8.500         0.09
GET       8.700         0.10
GET       8.800         0.10
GET       8.900         0.10
GET       9.100         0.11
GET       9.200         0.12
GET       9.400         0.12
GET       9.500         0.12
GET       9.600         0.13
GET       9.800         0.13
GET      10.000         0.13
GET      11.000         0.14
GET      12.000         0.17
GET      13.000         0.18
GET      14.000         0.31
GET      15.000         0.53
GET      16.000         0.69
GET      17.000         1.88
GET      18.000        11.00
GET      19.000        15.58
GET      20.000        16.96
GET      21.000        17.50
GET      22.000        17.78
GET      23.000        18.02
GET      24.000        18.28
GET      25.000        18.59
GET      26.000        19.12
GET      27.000        19.99
GET      28.000        21.76
GET      29.000        28.10
GET      30.000        53.50
GET      31.000        87.66
GET      32.000        96.01
GET      33.000        97.80
GET      34.000        98.66
GET      35.000        99.04
GET      36.000        99.30
GET      37.000        99.45
GET      38.000        99.51
GET      39.000        99.57
GET      40.000        99.60
GET      41.000        99.61
GET      42.000        99.63
GET      43.000        99.65
GET      44.000        99.71
GET      45.000        99.79
GET      46.000        99.92
GET      47.000        99.95
GET      48.000        99.96
GET     210.000        99.97
GET     220.000       100.00
---
