1         Threads
42        Connections per thread
70        Seconds


ALL STATS
========================================================================
Type        Ops/sec     Hits/sec   Misses/sec      Latency       KB/sec 
------------------------------------------------------------------------
Sets           0.00          ---          ---      0.00000         0.00 
Gets         491.63       491.63         0.00     85.41500      1991.38 
Waits          0.00          ---          ---      0.00000          --- 
Totals       491.63       491.63         0.00     85.41500      1991.38 


Request Latency Distribution
Type     <= msec         Percent
------------------------------------------------------------------------
---
GET      24.000         0.00
GET      30.000         0.01
GET      32.000         0.01
GET      33.000         0.01
GET      34.000         0.03
GET      35.000         0.03
GET      36.000         0.04
GET      39.000         0.04
GET      41.000         0.05
GET      42.000         0.05
GET      43.000         0.06
GET      44.000         0.06
GET      46.000         0.07
GET      47.000         0.09
GET      48.000         0.12
GET      49.000         0.13
GET      50.000         0.15
GET      51.000         0.15
GET      52.000         0.17
GET      53.000         0.18
GET      54.000         0.18
GET      55.000         0.19
GET      56.000         0.19
GET      57.000         0.21
GET      58.000         0.21
GET      59.000         0.24
GET      60.000         0.27
GET      61.000         0.44
GET      62.000         1.76
GET      63.000         5.10
GET      64.000         6.16
GET      65.000         6.35
GET      66.000         6.44
GET      67.000         6.47
GET      68.000         6.49
GET      69.000         6.52
GET      70.000         6.54
GET      71.000         6.56
GET      72.000         6.59
GET      73.000         6.66
GET      74.000         6.89
GET      75.000         7.32
GET      76.000         8.29
GET      77.000        16.20
GET      78.000        44.78
GET      79.000        59.35
GET      80.000        61.42
GET      81.000        62.09
GET      82.000        62.39
GET      83.000        62.56
GET      84.000        62.64
GET      85.000        62.76
GET      86.000        62.82
GET      87.000        62.90
GET      88.000        63.00
GET      89.000        63.11
GET      90.000        63.36
GET      91.000        63.88
GET      92.000        65.80
GET      93.000        76.15
GET      94.000        87.34
GET      95.000        89.79
GET      96.000        90.23
GET      97.000        90.43
GET      98.000        90.54
GET      99.000        90.58
GET     100.000        90.67
GET     110.000        96.54
GET     120.000        97.85
GET     130.000        98.59
GET     140.000        99.36
GET     150.000        99.40
GET     160.000        99.64
GET     170.000        99.72
GET     180.000        99.73
GET     190.000        99.80
GET     200.000        99.81
GET     220.000        99.85
GET     230.000        99.88
GET     240.000        99.92
GET     250.000        99.95
GET     260.000        99.97
GET     270.000        99.97
GET     280.000        99.98
GET     290.000        99.99
GET     310.000        99.99
GET     330.000       100.00
GET     410.000       100.00
---
