2         Threads
4         Connections per thread
70        Seconds


ALL STATS
========================================================================
Type        Ops/sec     Hits/sec   Misses/sec      Latency       KB/sec 
------------------------------------------------------------------------
Sets        5281.76          ---          ---      1.51100     21317.31 
Gets           0.00         0.00         0.00      0.00000         0.00 
Waits          0.00          ---          ---      0.00000          --- 
Totals      5281.76         0.00         0.00      1.51100     21317.31 


Request Latency Distribution
Type     <= msec         Percent
------------------------------------------------------------------------
SET       0.200         0.00
SET       0.210         0.00
SET       0.220         0.00
SET       0.230         0.01
SET       0.240         0.02
SET       0.250         0.04
SET       0.260         0.06
SET       0.270         0.11
SET       0.280         0.17
SET       0.290         0.23
SET       0.300         0.31
SET       0.310         0.41
SET       0.320         0.55
SET       0.330         0.70
SET       0.340         0.90
SET       0.350         1.11
SET       0.360         1.39
SET       0.370         1.70
SET       0.380         2.07
SET       0.390         2.47
SET       0.400         2.92
SET       0.410         3.41
SET       0.420         3.97
SET       0.430         4.56
SET       0.440         5.22
SET       0.450         5.92
SET       0.460         6.66
SET       0.470         7.48
SET       0.480         8.29
SET       0.490         9.18
SET       0.500        10.07
SET       0.510        11.04
SET       0.520        12.01
SET       0.530        13.03
SET       0.540        14.10
SET       0.550        15.24
SET       0.560        16.39
SET       0.570        17.57
SET       0.580        18.78
SET       0.590        20.04
SET       0.600        21.40
SET       0.610        22.79
SET       0.620        24.20
SET       0.630        25.68
SET       0.640        27.19
SET       0.650        28.76
SET       0.660        30.36
SET       0.670        31.98
SET       0.680        33.67
SET       0.690        35.35
SET       0.700        37.07
SET       0.710        38.80
SET       0.720        40.49
SET       0.730        42.22
SET       0.740        43.89
SET       0.750        45.50
SET       0.760        47.11
SET       0.770        48.70
SET       0.780        50.25
SET       0.790        51.75
SET       0.800        53.18
SET       0.810        54.61
SET       0.820        55.98
SET       0.830        57.27
SET       0.840        58.54
SET       0.850        59.75
SET       0.860        60.87
SET       0.870        61.98
SET       0.880        63.03
SET       0.890        64.04
SET       0.900        64.98
SET       0.910        65.86
SET       0.920        66.73
SET       0.930        67.55
SET       0.940        68.31
SET       0.950        69.03
SET       0.960        69.71
SET       0.970        70.38
SET       0.980        71.00
SET       0.990        71.57
SET       1.000        74.36
SET       1.100        77.28
SET       1.200        78.89
SET       1.300        79.78
SET       1.400        80.36
SET       1.500        80.76
SET       1.600        81.07
SET       1.700        81.33
SET       1.800        81.55
SET       1.900        81.72
SET       2.000        81.89
SET       2.100        82.07
SET       2.200        82.23
SET       2.300        82.37
SET       2.400        82.56
SET       2.500        82.72
SET       2.600        82.85
SET       2.700        82.97
SET       2.800        83.11
SET       2.900        83.23
SET       3.000        83.35
SET       3.100        83.49
SET       3.200        83.64
SET       3.300        83.80
SET       3.400        83.96
SET       3.500        84.15
SET       3.600        84.35
SET       3.700        84.59
SET       3.800        84.81
SET       3.900        85.03
SET       4.000        85.32
SET       4.100        85.61
SET       4.200        85.95
SET       4.300        86.39
SET       4.400        86.93
SET       4.500        87.51
SET       4.600        88.20
SET       4.700        88.98
SET       4.800        89.84
SET       4.900        90.77
SET       5.000        91.74
SET       5.100        92.74
SET       5.200        93.73
SET       5.300        94.72
SET       5.400        95.60
SET       5.500        96.43
SET       5.600        97.12
SET       5.700        97.70
SET       5.800        98.17
SET       5.900        98.56
SET       6.000        98.86
SET       6.100        99.08
SET       6.200        99.22
SET       6.300        99.31
SET       6.400        99.40
SET       6.500        99.47
SET       6.600        99.53
SET       6.700        99.57
SET       6.800        99.60
SET       6.900        99.63
SET       7.000        99.65
SET       7.100        99.67
SET       7.200        99.70
SET       7.300        99.72
SET       7.400        99.73
SET       7.500        99.75
SET       7.600        99.76
SET       7.700        99.78
SET       7.800        99.79
SET       7.900        99.80
SET       8.000        99.81
SET       8.100        99.82
SET       8.200        99.83
SET       8.300        99.84
SET       8.400        99.84
SET       8.500        99.85
SET       8.600        99.85
SET       8.700        99.86
SET       8.800        99.86
SET       8.900        99.87
SET       9.000        99.87
SET       9.100        99.88
SET       9.200        99.88
SET       9.300        99.89
SET       9.400        99.89
SET       9.500        99.89
SET       9.700        99.89
SET       9.800        99.89
SET       9.900        99.90
SET      10.000        99.91
SET      11.000        99.91
SET      12.000        99.91
SET      13.000        99.92
SET      14.000        99.93
SET      15.000        99.95
SET      16.000        99.97
SET      17.000        99.98
SET      18.000        99.99
SET      19.000        99.99
SET      20.000        99.99
SET      21.000        99.99
SET      26.000        99.99
SET      27.000        99.99
SET      32.000        99.99
SET      51.000        99.99
SET      53.000        99.99
SET      60.000        99.99
SET      61.000       100.00
SET      64.000       100.00
SET      66.000       100.00
SET      67.000       100.00
SET     130.000       100.00
SET     390.000       100.00
SET     510.000       100.00
SET     540.000       100.00
SET     560.000       100.00
SET     580.000       100.00
---
---
