"Dstat 0.7.2 CSV output"
"Author:","Dag Wieers <dag@wieers.com>",,,,"URL:","http://dag.wieers.com/home-made/dstat/"
"Host:","Server2",,,,"User:","maki"
"Cmdline:","dstat --output server_8_multi_get_2_2_3.csv 1 70",,,,"Date:","30 Nov 2018 21:26:19 UTC"

"total cpu usage",,,,,,"dsk/total",,"net/total",,"paging",,"system",
"usr","sys","idl","wai","hiq","siq","read","writ","recv","send","in","out","int","csw"
2.902,4.227,90.772,1.762,0.0,0.338,46898.163,248815.903,0.0,0.0,0.0,0.0,19.275,1670.870
4.211,3.158,91.579,0.0,0.0,1.053,0.0,0.0,6246585.0,6193929.0,0.0,0.0,18.0,2726.0
2.128,3.191,93.617,0.0,0.0,1.064,0.0,0.0,7569760.0,7489181.0,0.0,0.0,19.0,3182.0
2.105,6.316,91.579,0.0,0.0,0.0,0.0,0.0,8981230.0,8856207.0,0.0,0.0,18.0,3534.0
2.174,4.348,92.391,0.0,0.0,1.087,0.0,0.0,9644578.0,9544561.0,0.0,0.0,18.0,3877.0
3.191,7.447,88.298,0.0,0.0,1.064,0.0,0.0,10599929.0,10432395.0,0.0,0.0,19.0,4126.0
2.198,5.495,92.308,0.0,0.0,0.0,0.0,0.0,10815932.0,10663793.0,0.0,0.0,18.0,4148.0
2.198,3.297,92.308,0.0,0.0,2.198,0.0,0.0,11469013.0,11309113.0,0.0,0.0,18.0,4316.0
2.151,7.527,90.323,0.0,0.0,0.0,0.0,0.0,11818353.0,11668662.0,0.0,0.0,18.0,4425.0
1.087,7.609,91.304,0.0,0.0,0.0,0.0,0.0,11581495.0,11409545.0,0.0,0.0,18.0,4197.0
5.376,7.527,86.022,0.0,0.0,1.075,0.0,0.0,11062906.0,10885225.0,0.0,0.0,19.0,4129.0
1.064,9.574,89.362,0.0,0.0,0.0,0.0,0.0,11781083.0,11641464.0,0.0,0.0,18.0,4414.0
1.075,7.527,90.323,0.0,0.0,1.075,0.0,0.0,11503716.0,11333434.0,0.0,0.0,18.0,4305.0
6.383,5.319,88.298,0.0,0.0,0.0,0.0,0.0,11425578.0,11271236.0,0.0,0.0,18.0,4033.0
3.261,4.348,92.391,0.0,0.0,0.0,0.0,0.0,11522359.0,11358548.0,0.0,0.0,18.0,4061.0
4.348,5.435,90.217,0.0,0.0,0.0,0.0,0.0,11079919.0,10918663.0,0.0,0.0,19.0,4066.0
2.222,5.556,92.222,0.0,0.0,0.0,0.0,0.0,11272534.0,11104891.0,0.0,0.0,18.0,4034.0
2.151,7.527,89.247,0.0,0.0,1.075,0.0,0.0,12214669.0,12043564.0,0.0,0.0,18.0,4352.0
4.167,6.250,89.583,0.0,0.0,0.0,0.0,0.0,10794767.0,10624154.0,0.0,0.0,18.0,4001.0
4.494,3.371,92.135,0.0,0.0,0.0,0.0,0.0,11773571.0,11606124.0,0.0,0.0,18.0,4525.0
0.0,7.692,92.308,0.0,0.0,0.0,0.0,0.0,10175830.0,10051241.0,0.0,0.0,18.0,4004.0
4.348,4.348,91.304,0.0,0.0,0.0,0.0,0.0,10988584.0,10843147.0,0.0,0.0,19.0,4262.0
2.105,9.474,87.368,0.0,0.0,1.053,0.0,0.0,11384648.0,11218553.0,0.0,0.0,18.0,4318.0
3.125,8.333,88.542,0.0,0.0,0.0,0.0,0.0,11138371.0,10984863.0,0.0,0.0,18.0,4125.0
2.198,4.396,93.407,0.0,0.0,0.0,0.0,0.0,10569112.0,10419020.0,0.0,0.0,18.0,3736.0
2.222,7.778,88.889,0.0,0.0,1.111,0.0,0.0,11008887.0,10856299.0,0.0,0.0,19.0,3931.0
2.174,4.348,92.391,0.0,0.0,1.087,0.0,0.0,11219537.0,11062276.0,0.0,0.0,18.0,4030.0
1.099,6.593,92.308,0.0,0.0,0.0,0.0,0.0,11266834.0,11100509.0,0.0,0.0,18.0,4253.0
5.376,3.226,91.398,0.0,0.0,0.0,0.0,8192.0,10988624.0,10845045.0,0.0,0.0,18.0,4038.0
1.087,6.522,92.391,0.0,0.0,0.0,0.0,0.0,11423610.0,11270181.0,0.0,0.0,18.0,4058.0
2.151,6.452,90.323,0.0,0.0,1.075,0.0,0.0,10947885.0,10779144.0,0.0,0.0,19.0,3889.0
3.226,7.527,86.022,2.151,0.0,1.075,0.0,32768.0,11421356.0,11281344.0,0.0,0.0,18.0,4126.0
4.444,6.667,88.889,0.0,0.0,0.0,0.0,0.0,11006321.0,10835497.0,0.0,0.0,18.0,4041.0
1.111,2.222,94.444,0.0,0.0,2.222,0.0,12288.0,10763151.0,10619846.0,0.0,0.0,18.0,3796.0
7.292,6.250,86.458,0.0,0.0,0.0,0.0,0.0,10987094.0,10810694.0,0.0,0.0,19.0,4194.0
2.151,8.602,88.172,0.0,0.0,1.075,0.0,0.0,11024679.0,10893435.0,0.0,0.0,18.0,4441.0
2.151,7.527,89.247,0.0,0.0,1.075,0.0,0.0,11262789.0,11102622.0,0.0,0.0,18.0,4406.0
3.158,8.421,87.368,0.0,0.0,1.053,0.0,0.0,12038734.0,11876230.0,0.0,0.0,18.0,4747.0
4.301,5.376,90.323,0.0,0.0,0.0,0.0,0.0,11656099.0,11485345.0,0.0,0.0,18.0,4628.0
3.191,7.447,89.362,0.0,0.0,0.0,0.0,0.0,11717119.0,11543547.0,0.0,0.0,19.0,4672.0
1.099,8.791,89.011,0.0,0.0,1.099,0.0,0.0,10733588.0,10601177.0,0.0,0.0,18.0,4042.0
2.174,5.435,91.304,0.0,0.0,1.087,0.0,0.0,11609014.0,11438198.0,0.0,0.0,18.0,4143.0
4.255,6.383,89.362,0.0,0.0,0.0,0.0,0.0,11136903.0,10972733.0,0.0,0.0,18.0,3840.0
2.198,5.495,91.209,0.0,0.0,1.099,0.0,0.0,11446440.0,11297487.0,0.0,0.0,18.0,4051.0
4.301,5.376,90.323,0.0,0.0,0.0,0.0,0.0,11700245.0,11513111.0,0.0,0.0,19.0,4106.0
3.226,6.452,89.247,0.0,0.0,1.075,0.0,0.0,11134430.0,10984810.0,0.0,0.0,18.0,4027.0
4.124,10.309,85.567,0.0,0.0,0.0,0.0,0.0,11933392.0,11759177.0,0.0,0.0,18.0,4507.0
4.211,6.316,88.421,0.0,0.0,1.053,0.0,0.0,11538892.0,11387501.0,0.0,0.0,18.0,4122.0
2.222,2.222,94.444,0.0,0.0,1.111,0.0,0.0,11544229.0,11371812.0,0.0,0.0,18.0,4234.0
3.191,9.574,86.170,0.0,0.0,1.064,0.0,0.0,11319939.0,11180175.0,0.0,0.0,19.0,4283.0
4.167,7.292,87.500,0.0,0.0,1.042,0.0,0.0,10947123.0,10791365.0,0.0,0.0,18.0,4047.0
2.151,6.452,91.398,0.0,0.0,0.0,0.0,0.0,10690962.0,10509828.0,0.0,0.0,18.0,3898.0
3.226,6.452,89.247,0.0,0.0,1.075,0.0,0.0,11497334.0,11360807.0,0.0,0.0,18.0,4235.0
3.226,6.452,90.323,0.0,0.0,0.0,0.0,0.0,11482484.0,11320909.0,0.0,0.0,18.0,4065.0
2.198,5.495,92.308,0.0,0.0,0.0,0.0,0.0,11453758.0,11283574.0,0.0,0.0,19.0,4058.0
4.255,7.447,86.170,0.0,0.0,2.128,0.0,0.0,10998060.0,10841708.0,0.0,0.0,18.0,3861.0
2.105,8.421,88.421,0.0,0.0,1.053,0.0,0.0,10974984.0,10806769.0,0.0,0.0,18.0,3950.0
2.105,7.368,89.474,0.0,0.0,1.053,0.0,0.0,10554383.0,10415559.0,0.0,0.0,18.0,3735.0
4.301,6.452,89.247,0.0,0.0,0.0,0.0,0.0,11630865.0,11473902.0,0.0,0.0,19.0,4064.0
3.158,8.421,88.421,0.0,0.0,0.0,0.0,0.0,11244164.0,11091496.0,0.0,0.0,18.0,4285.0
3.261,4.348,91.304,0.0,0.0,1.087,0.0,0.0,11051972.0,10869424.0,0.0,0.0,18.0,4131.0
4.255,6.383,88.298,0.0,0.0,1.064,0.0,0.0,11159528.0,11022701.0,0.0,0.0,18.0,4023.0
4.211,7.368,86.316,2.105,0.0,0.0,0.0,36864.0,11085572.0,10924589.0,0.0,0.0,18.0,3929.0
1.042,10.417,87.500,0.0,0.0,1.042,0.0,0.0,10931702.0,10792451.0,0.0,0.0,19.0,3755.0
3.093,8.247,86.598,1.031,0.0,1.031,0.0,40960.0,10815866.0,10651709.0,0.0,0.0,18.0,4128.0
2.174,6.522,90.217,0.0,0.0,1.087,0.0,0.0,11025135.0,10869642.0,0.0,0.0,18.0,4086.0
3.261,4.348,92.391,0.0,0.0,0.0,0.0,0.0,10412222.0,10288703.0,0.0,0.0,18.0,3906.0
3.333,4.444,92.222,0.0,0.0,0.0,0.0,0.0,11054855.0,10884605.0,0.0,0.0,18.0,4019.0
4.124,8.247,87.629,0.0,0.0,0.0,0.0,0.0,11083875.0,10946876.0,0.0,0.0,19.0,4045.0
2.174,6.522,91.304,0.0,0.0,0.0,0.0,0.0,11302324.0,11114399.0,0.0,0.0,18.0,4080.0
2.174,6.522,91.304,0.0,0.0,0.0,0.0,0.0,8748429.0,8641939.0,0.0,0.0,18.0,3263.0
