2         Threads
64        Connections per thread
70        Seconds


ALL STATS
========================================================================
Type        Ops/sec     Hits/sec   Misses/sec      Latency       KB/sec 
------------------------------------------------------------------------
Sets           0.00          ---          ---      0.00000         0.00 
Gets        1037.28      1037.28         0.00    123.27600      4201.60 
Waits          0.00          ---          ---      0.00000          --- 
Totals      1037.28      1037.28         0.00    123.27600      4201.60 


Request Latency Distribution
Type     <= msec         Percent
------------------------------------------------------------------------
---
GET       0.450         0.00
GET       0.460         0.00
GET       0.500         0.00
GET       0.530         0.01
GET       0.540         0.01
GET       0.550         0.01
GET       0.560         0.01
GET       0.570         0.02
GET       0.590         0.02
GET       0.600         0.03
GET       0.610         0.03
GET       0.620         0.04
GET       0.630         0.04
GET       0.640         0.04
GET       0.650         0.05
GET       0.660         0.05
GET       0.680         0.05
GET       0.690         0.05
GET       0.700         0.05
GET       0.710         0.06
GET       0.720         0.06
GET       0.730         0.07
GET       0.740         0.07
GET       0.750         0.08
GET       0.760         0.09
GET       0.770         0.09
GET       0.780         0.10
GET       0.790         0.10
GET       0.800         0.11
GET       0.810         0.11
GET       0.820         0.12
GET       0.830         0.12
GET       0.840         0.13
GET       0.850         0.14
GET       0.860         0.15
GET       0.870         0.15
GET       0.880         0.15
GET       0.890         0.16
GET       0.900         0.16
GET       0.910         0.16
GET       0.920         0.16
GET       0.930         0.17
GET       0.940         0.17
GET       0.960         0.17
GET       0.970         0.17
GET       0.980         0.18
GET       0.990         0.19
GET       1.000         0.20
GET       1.100         0.22
GET       1.200         0.23
GET       1.300         0.23
GET       1.400         0.24
GET       1.500         0.25
GET       1.900         0.25
GET       2.000         0.26
GET       2.100         0.27
GET       2.600         0.27
GET       2.700         0.27
GET       9.000         0.27
GET       9.100         0.28
GET       9.200         0.28
GET       9.300         0.28
GET       9.400         0.28
GET       9.500         0.29
GET       9.900         0.29
GET      10.000         0.32
GET      11.000         0.32
GET      12.000         0.35
GET      13.000         0.40
GET      14.000         0.50
GET      15.000         6.17
GET      16.000        21.65
GET      17.000        21.82
GET      18.000        21.87
GET      19.000        21.92
GET      20.000        21.94
GET      21.000        21.97
GET      23.000        21.99
GET      25.000        21.99
GET      26.000        21.99
GET      27.000        22.02
GET      28.000        22.05
GET      29.000        22.08
GET      30.000        22.40
GET      31.000        34.25
GET      32.000        36.97
GET      33.000        37.00
GET      34.000        37.03
GET      35.000        37.07
GET      36.000        37.08
GET      37.000        37.08
GET      41.000        37.08
GET      43.000        37.11
GET      44.000        37.16
GET      45.000        37.18
GET      46.000        38.56
GET      47.000        47.20
GET      48.000        47.53
GET      49.000        47.55
GET      50.000        47.57
GET      51.000        47.59
GET      52.000        47.61
GET      53.000        47.66
GET      56.000        47.67
GET      58.000        47.68
GET      59.000        47.70
GET      60.000        47.71
GET      61.000        47.83
GET      62.000        51.30
GET      63.000        54.87
GET      64.000        54.92
GET      65.000        54.94
GET      66.000        54.95
GET      67.000        54.95
GET      68.000        54.97
GET      74.000        54.98
GET      76.000        54.99
GET      77.000        55.25
GET      78.000        59.78
GET      79.000        60.51
GET      80.000        60.53
GET      81.000        60.54
GET      89.000        60.57
GET      90.000        60.57
GET      91.000        60.58
GET      92.000        60.62
GET      93.000        61.47
GET      94.000        64.92
GET      95.000        65.06
GET      97.000        65.07
GET      98.000        65.07
GET     100.000        65.08
GET     110.000        68.65
GET     120.000        69.99
GET     130.000        71.49
GET     140.000        74.18
GET     150.000        74.19
GET     160.000        76.44
GET     170.000        78.78
GET     180.000        78.79
GET     190.000        80.73
GET     200.000        82.61
GET     210.000        82.61
GET     220.000        84.22
GET     230.000        85.59
GET     240.000        85.69
GET     250.000        87.05
GET     260.000        87.15
GET     270.000        88.20
GET     280.000        89.17
GET     290.000        89.19
GET     300.000        90.08
GET     310.000        90.90
GET     320.000        90.90
GET     330.000        91.57
GET     340.000        92.20
GET     350.000        92.21
GET     360.000        92.74
GET     370.000        92.99
GET     380.000        93.21
GET     390.000        93.68
GET     400.000        93.68
GET     410.000        94.18
GET     420.000        94.65
GET     430.000        94.65
GET     440.000        95.05
GET     450.000        95.45
GET     470.000        95.82
GET     480.000        96.15
GET     490.000        96.16
GET     500.000        96.48
GET     510.000        96.51
GET     520.000        96.75
GET     530.000        97.04
GET     550.000        97.26
GET     560.000        97.48
GET     580.000        97.66
GET     590.000        97.85
GET     600.000        97.86
GET     610.000        98.04
GET     620.000        98.14
GET     630.000        98.19
GET     640.000        98.29
GET     650.000        98.30
GET     660.000        98.41
GET     670.000        98.52
GET     690.000        98.59
GET     700.000        98.69
GET     720.000        98.76
GET     730.000        98.83
GET     740.000        98.83
GET     750.000        98.91
GET     760.000        98.92
GET     770.000        98.94
GET     780.000        98.99
GET     800.000        99.04
GET     810.000        99.07
GET     830.000        99.11
GET     840.000        99.15
GET     860.000        99.19
GET     870.000        99.21
GET     880.000        99.22
GET     890.000        99.25
GET     910.000        99.27
GET     920.000        99.30
GET     940.000        99.34
GET     950.000        99.37
GET     970.000        99.39
GET     980.000        99.41
GET     990.000        99.42
GET    1000.000        99.54
GET    1100.000        99.67
GET    1200.000        99.78
GET    1300.000        99.85
GET    1400.000        99.89
GET    1500.000        99.90
GET    1600.000        99.91
GET    1700.000        99.92
GET    1800.000        99.93
GET    1900.000        99.94
GET    2000.000        99.95
GET    2100.000        99.96
GET    2200.000        99.97
GET    2300.000        99.97
GET    2400.000        99.98
GET    2500.000        99.99
GET    2600.000        99.99
GET    2700.000        99.99
GET    2800.000        99.99
GET    3200.000        99.99
GET    3700.000        99.99
GET    3900.000       100.00
GET    4600.000       100.00
GET    6500.000       100.00
GET    6700.000       100.00
---
