2         Threads
42        Connections per thread
70        Seconds


ALL STATS
========================================================================
Type        Ops/sec     Hits/sec   Misses/sec      Latency       KB/sec 
------------------------------------------------------------------------
Sets           0.00          ---          ---      0.00000         0.00 
Gets        1024.58      1024.58         0.00     81.49400      4150.17 
Waits          0.00          ---          ---      0.00000          --- 
Totals      1024.58      1024.58         0.00     81.49400      4150.17 


Request Latency Distribution
Type     <= msec         Percent
------------------------------------------------------------------------
---
GET       0.500         0.00
GET       0.620         0.00
GET       0.630         0.00
GET       0.650         0.01
GET       0.660         0.01
GET       0.680         0.01
GET       0.690         0.01
GET       0.770         0.01
GET       0.850         0.01
GET       0.870         0.02
GET       0.880         0.02
GET       0.890         0.02
GET       0.900         0.02
GET       0.920         0.02
GET       0.950         0.02
GET       0.980         0.03
GET       1.200         0.03
GET       1.300         0.03
GET       1.400         0.04
GET       1.600         0.05
GET       1.700         0.05
GET       1.800         0.05
GET       1.900         0.06
GET       2.000         0.07
GET       2.100         0.08
GET       2.200         0.08
GET       2.300         0.08
GET       2.400         0.09
GET       3.000         0.09
GET       4.200         0.09
GET       4.300         0.10
GET       4.700         0.11
GET       4.800         0.12
GET       4.900         0.12
GET       5.000         0.13
GET       5.100         0.15
GET       5.200         0.18
GET       5.300         0.20
GET       5.400         0.22
GET       5.500         0.23
GET       5.800         0.23
GET       5.900         0.24
GET       6.300         0.24
GET       6.400         0.24
GET       6.500         0.24
GET       6.600         0.25
GET       6.700         0.26
GET       6.800         0.26
GET       6.900         0.27
GET       7.000         0.27
GET       7.100         0.27
GET       7.200         0.28
GET       7.300         0.29
GET       7.500         0.29
GET       7.600         0.30
GET       7.700         0.30
GET       8.000         0.31
GET       8.100         0.31
GET       8.400         0.32
GET       8.500         0.32
GET       8.600         0.34
GET       8.700         0.34
GET       8.800         0.35
GET       9.700         0.35
GET       9.800         0.36
GET       9.900         0.36
GET      10.000         0.38
GET      11.000         0.44
GET      12.000         0.46
GET      13.000         0.57
GET      14.000         0.71
GET      15.000         7.68
GET      16.000        27.71
GET      17.000        28.02
GET      18.000        28.14
GET      19.000        28.19
GET      20.000        28.24
GET      21.000        28.25
GET      22.000        28.26
GET      23.000        28.27
GET      24.000        28.27
GET      25.000        28.30
GET      26.000        28.33
GET      27.000        28.37
GET      28.000        28.41
GET      29.000        28.44
GET      30.000        28.74
GET      31.000        42.51
GET      32.000        45.91
GET      33.000        46.00
GET      34.000        46.05
GET      35.000        46.07
GET      36.000        46.08
GET      37.000        46.10
GET      38.000        46.12
GET      39.000        46.12
GET      40.000        46.14
GET      41.000        46.15
GET      42.000        46.17
GET      43.000        46.20
GET      44.000        46.22
GET      45.000        46.27
GET      46.000        47.55
GET      47.000        57.48
GET      48.000        57.75
GET      49.000        57.77
GET      50.000        57.79
GET      51.000        57.81
GET      52.000        57.83
GET      53.000        57.85
GET      54.000        57.87
GET      55.000        57.89
GET      56.000        57.89
GET      58.000        57.91
GET      59.000        57.91
GET      60.000        57.94
GET      61.000        58.02
GET      62.000        61.77
GET      63.000        66.03
GET      64.000        66.12
GET      65.000        66.14
GET      66.000        66.15
GET      67.000        66.16
GET      68.000        66.16
GET      71.000        66.16
GET      73.000        66.16
GET      74.000        66.19
GET      75.000        66.19
GET      76.000        66.23
GET      77.000        66.53
GET      78.000        71.18
GET      79.000        71.72
GET      80.000        71.75
GET      81.000        71.77
GET      82.000        71.77
GET      83.000        71.79
GET      84.000        71.79
GET      85.000        71.79
GET      87.000        71.80
GET      88.000        71.80
GET      92.000        71.82
GET      93.000        72.67
GET      94.000        75.60
GET      95.000        75.72
GET      96.000        75.72
GET      98.000        75.72
GET      99.000        75.74
GET     100.000        75.79
GET     110.000        79.12
GET     120.000        80.53
GET     130.000        81.80
GET     140.000        84.15
GET     150.000        84.18
GET     160.000        86.33
GET     170.000        88.32
GET     180.000        88.37
GET     190.000        90.12
GET     200.000        91.45
GET     210.000        91.47
GET     220.000        92.80
GET     230.000        93.69
GET     240.000        93.75
GET     250.000        94.59
GET     260.000        94.64
GET     270.000        95.38
GET     280.000        95.91
GET     290.000        95.92
GET     300.000        96.34
GET     310.000        96.76
GET     320.000        96.77
GET     330.000        97.05
GET     340.000        97.28
GET     350.000        97.29
GET     360.000        97.52
GET     370.000        97.64
GET     380.000        97.78
GET     390.000        98.03
GET     400.000        98.03
GET     410.000        98.20
GET     420.000        98.39
GET     430.000        98.40
GET     440.000        98.60
GET     450.000        98.74
GET     460.000        98.74
GET     470.000        98.85
GET     480.000        98.94
GET     490.000        98.94
GET     500.000        99.07
GET     510.000        99.09
GET     520.000        99.20
GET     530.000        99.30
GET     550.000        99.35
GET     560.000        99.41
GET     580.000        99.47
GET     590.000        99.54
GET     610.000        99.59
GET     620.000        99.62
GET     630.000        99.63
GET     640.000        99.64
GET     660.000        99.66
GET     670.000        99.69
GET     680.000        99.69
GET     690.000        99.70
GET     700.000        99.72
GET     720.000        99.73
GET     730.000        99.75
GET     740.000        99.75
GET     750.000        99.77
GET     760.000        99.77
GET     770.000        99.78
GET     780.000        99.79
GET     800.000        99.80
GET     810.000        99.81
GET     830.000        99.81
GET     840.000        99.81
GET     850.000        99.81
GET     860.000        99.83
GET     870.000        99.83
GET     880.000        99.83
GET     890.000        99.86
GET     910.000        99.86
GET     920.000        99.86
GET     930.000        99.86
GET     940.000        99.87
GET     950.000        99.88
GET     970.000        99.89
GET     980.000        99.89
GET    1000.000        99.92
GET    1100.000        99.96
GET    1200.000        99.97
GET    1300.000        99.98
GET    1500.000        99.98
GET    1600.000        99.98
GET    1700.000        99.98
GET    1900.000        99.98
GET    2000.000        99.98
GET    2100.000        99.99
GET    2400.000        99.99
GET    2500.000       100.00
GET    3300.000       100.00
GET    11000.000       100.00
---
