"Dstat 0.7.2 CSV output"
"Author:","Dag Wieers <dag@wieers.com>",,,,"URL:","http://dag.wieers.com/home-made/dstat/"
"Host:","Middleware2",,,,"User:","maki"
"Cmdline:","dstat --output dstat.csv 1 70",,,,"Date:","20 Nov 2018 07:31:18 UTC"

"total cpu usage",,,,,,"dsk/total",,"net/total",,"paging",,"system",
"usr","sys","idl","wai","hiq","siq","read","writ","recv","send","in","out","int","csw"
2.018,1.792,95.624,0.098,0.0,0.468,9131.477,190155.116,0.0,0.0,0.0,0.0,1862.236,5413.837
25.984,3.281,69.554,0.0,0.0,1.181,0.0,0.0,5672433.0,5554632.0,0.0,0.0,1783.0,5659.0
11.923,1.410,85.0,0.0,0.0,1.667,0.0,0.0,6162518.0,6057078.0,0.0,0.0,736.0,3416.0
8.291,1.276,89.158,0.0,0.0,1.276,0.0,0.0,6242240.0,6141259.0,0.0,0.0,891.0,3558.0
1.523,1.396,96.574,0.0,0.0,0.508,0.0,0.0,6442114.0,6341369.0,0.0,0.0,854.0,3022.0
11.985,1.804,85.052,0.0,0.0,1.160,0.0,0.0,6146218.0,6044466.0,0.0,0.0,1093.0,3261.0
2.138,1.258,95.597,0.0,0.0,1.006,0.0,0.0,6173071.0,6076126.0,0.0,0.0,1047.0,3205.0
1.253,1.504,96.366,0.0,0.0,0.877,0.0,24576.0,6340467.0,6233506.0,0.0,0.0,985.0,3157.0
1.014,1.267,96.705,0.0,0.0,1.014,0.0,0.0,6392829.0,6289224.0,0.0,0.0,1068.0,3213.0
1.131,2.010,95.980,0.0,0.0,0.879,0.0,0.0,6358465.0,6254699.0,0.0,0.0,1040.0,3238.0
1.759,1.005,95.854,0.0,0.0,1.382,0.0,0.0,6495357.0,6381459.0,0.0,0.0,1040.0,3339.0
1.141,1.014,96.958,0.0,0.0,0.887,0.0,0.0,6334633.0,6238814.0,0.0,0.0,978.0,3117.0
1.399,0.891,96.947,0.0,0.0,0.763,0.0,0.0,6217929.0,6120395.0,0.0,0.0,805.0,3322.0
1.003,1.504,96.241,0.0,0.0,1.253,0.0,0.0,6298754.0,6192509.0,0.0,0.0,750.0,3323.0
1.006,1.887,96.226,0.0,0.0,0.881,0.0,0.0,6454070.0,6352763.0,0.0,0.0,853.0,3416.0
1.637,1.259,96.474,0.0,0.0,0.630,0.0,0.0,6316911.0,6234081.0,0.0,0.0,992.0,3251.0
1.377,1.627,96.245,0.0,0.0,0.751,0.0,0.0,6304351.0,6202336.0,0.0,0.0,1008.0,3096.0
1.145,1.272,97.201,0.0,0.0,0.382,0.0,0.0,6216766.0,6118521.0,0.0,0.0,842.0,3137.0
0.637,1.274,97.580,0.0,0.0,0.510,0.0,0.0,6381750.0,6272292.0,0.0,0.0,828.0,3500.0
0.886,1.392,95.316,1.772,0.0,0.633,0.0,0.0,6474966.0,6385951.0,0.0,0.0,698.0,3295.0
1.131,1.884,83.040,13.191,0.0,0.754,0.0,65536.0,6201016.0,6094133.0,0.0,0.0,774.0,3282.0
0.884,1.389,96.717,0.0,0.0,1.010,0.0,0.0,6241540.0,6135545.0,0.0,0.0,794.0,3407.0
1.135,1.387,96.595,0.0,0.0,0.883,0.0,0.0,6402971.0,6298363.0,0.0,0.0,727.0,3217.0
1.141,0.887,97.212,0.0,0.0,0.760,0.0,1122304.0,6050520.0,5946345.0,0.0,0.0,748.0,3197.0
1.506,1.380,96.487,0.0,0.0,0.627,0.0,0.0,6007460.0,5907449.0,0.0,0.0,720.0,3267.0
1.389,1.641,96.212,0.0,0.0,0.758,0.0,0.0,6246758.0,6148208.0,0.0,0.0,847.0,3412.0
0.762,1.271,97.459,0.0,0.0,0.508,0.0,0.0,6298793.0,6195386.0,0.0,0.0,762.0,3234.0
0.758,1.515,96.970,0.0,0.0,0.758,0.0,0.0,6261427.0,6161225.0,0.0,0.0,674.0,3196.0
0.887,1.141,97.212,0.0,0.0,0.760,0.0,0.0,6286949.0,6189484.0,0.0,0.0,714.0,3335.0
1.134,1.259,96.851,0.0,0.0,0.756,0.0,0.0,6165331.0,6063057.0,0.0,0.0,725.0,3165.0
1.633,1.508,96.106,0.0,0.0,0.754,0.0,0.0,6181897.0,6080265.0,0.0,0.0,767.0,3238.0
0.506,1.519,97.215,0.0,0.0,0.759,0.0,0.0,5967262.0,5879229.0,0.0,0.0,698.0,3207.0
1.125,1.500,96.0,0.0,0.0,1.375,0.0,0.0,6072625.0,5969736.0,0.0,0.0,747.0,3253.0
1.146,1.019,97.707,0.0,0.0,0.127,0.0,12288.0,6232952.0,6129793.0,0.0,0.0,769.0,3322.0
1.131,1.508,96.357,0.0,0.0,1.005,0.0,0.0,6465965.0,6363469.0,0.0,0.0,756.0,3389.0
1.010,1.894,96.338,0.0,0.0,0.758,0.0,0.0,5953830.0,5859534.0,0.0,0.0,796.0,3302.0
0.886,1.519,96.835,0.0,0.0,0.759,0.0,0.0,6334550.0,6231974.0,0.0,0.0,810.0,3464.0
0.888,0.888,97.462,0.0,0.0,0.761,0.0,0.0,6053782.0,5955025.0,0.0,0.0,779.0,3284.0
1.132,1.132,96.604,0.0,0.0,1.132,0.0,0.0,6534663.0,6428806.0,0.0,0.0,757.0,3326.0
1.128,1.629,96.366,0.0,0.0,0.877,0.0,0.0,6019413.0,5920741.0,0.0,0.0,696.0,3164.0
1.015,1.269,97.208,0.0,0.0,0.508,0.0,0.0,6259907.0,6162694.0,0.0,0.0,800.0,3375.0
1.129,1.129,96.487,0.0,0.0,1.255,0.0,0.0,6117909.0,6018392.0,0.0,0.0,722.0,3272.0
1.018,1.145,97.583,0.0,0.0,0.254,0.0,0.0,6447365.0,6341751.0,0.0,0.0,719.0,3247.0
1.136,1.136,96.970,0.0,0.0,0.758,0.0,0.0,6115415.0,6024635.0,0.0,0.0,722.0,3218.0
1.136,1.136,96.843,0.0,0.0,0.884,0.0,0.0,6132667.0,6031768.0,0.0,0.0,756.0,3386.0
0.886,1.266,97.342,0.0,0.0,0.506,0.0,0.0,6255457.0,6159148.0,0.0,0.0,712.0,3203.0
1.259,1.385,95.970,0.0,0.0,1.385,0.0,0.0,6351727.0,6240753.0,0.0,0.0,754.0,3446.0
1.003,1.378,96.241,0.0,0.0,1.378,0.0,0.0,6147780.0,6049984.0,0.0,0.0,733.0,3239.0
1.010,1.515,96.338,0.0,0.0,1.136,0.0,0.0,6195300.0,6097756.0,0.0,0.0,795.0,3434.0
0.507,1.141,96.958,0.380,0.0,1.014,0.0,57344.0,6481998.0,6369721.0,0.0,0.0,690.0,3317.0
1.401,1.019,96.943,0.0,0.0,0.637,0.0,0.0,6101758.0,6007635.0,0.0,0.0,699.0,3158.0
1.136,1.515,96.717,0.0,0.0,0.631,0.0,0.0,6256637.0,6151713.0,0.0,0.0,817.0,3479.0
1.010,1.641,96.843,0.0,0.0,0.505,0.0,0.0,6289486.0,6182848.0,0.0,0.0,787.0,3395.0
0.759,1.519,96.962,0.0,0.0,0.759,0.0,20480.0,6332976.0,6231105.0,0.0,0.0,786.0,3356.0
1.142,1.142,96.827,0.0,0.0,0.888,0.0,0.0,6074683.0,5977850.0,0.0,0.0,806.0,3411.0
0.881,2.013,96.352,0.0,0.0,0.755,0.0,0.0,6124070.0,6024470.0,0.0,0.0,809.0,3473.0
0.878,1.380,96.361,0.0,0.0,1.380,0.0,0.0,6051022.0,5958162.0,0.0,0.0,757.0,3238.0
1.013,1.139,97.089,0.0,0.0,0.759,0.0,0.0,6364424.0,6264379.0,0.0,0.0,731.0,3275.0
1.662,0.895,96.675,0.0,0.0,0.767,0.0,1712128.0,6397508.0,6269423.0,0.0,0.0,790.0,3574.0
0.760,1.267,96.958,0.0,0.0,1.014,0.0,0.0,6000459.0,5913948.0,0.0,0.0,695.0,3223.0
1.001,1.752,96.370,0.0,0.0,0.876,0.0,0.0,6146346.0,6049172.0,0.0,0.0,741.0,3257.0
1.256,1.633,96.231,0.0,0.0,0.879,0.0,0.0,6008998.0,5913423.0,0.0,0.0,807.0,3437.0
0.879,1.256,96.357,0.0,0.0,1.508,0.0,0.0,6193735.0,6083962.0,0.0,0.0,800.0,3422.0
1.627,1.377,96.245,0.0,0.0,0.751,0.0,0.0,6307693.0,6211384.0,0.0,0.0,736.0,3329.0
0.633,1.139,97.215,0.0,0.0,1.013,0.0,8192.0,5937370.0,5843606.0,0.0,0.0,761.0,3294.0
1.498,1.873,95.880,0.0,0.0,0.749,0.0,0.0,6364308.0,6260700.0,0.0,0.0,773.0,3539.0
1.259,1.259,96.599,0.0,0.0,0.882,0.0,0.0,5981840.0,5881596.0,0.0,0.0,793.0,3384.0
1.010,1.263,96.843,0.0,0.0,0.884,0.0,0.0,5944799.0,5851374.0,0.0,0.0,788.0,3404.0
1.118,2.236,95.404,0.0,0.0,1.242,0.0,0.0,6364016.0,6259451.0,0.0,0.0,787.0,3489.0
0.507,1.141,97.592,0.0,0.0,0.760,0.0,0.0,6251830.0,6142024.0,0.0,0.0,701.0,3321.0
1.136,1.136,96.843,0.0,0.0,0.884,0.0,0.0,6115443.0,6019688.0,0.0,0.0,833.0,3410.0
