1         Threads
32        Connections per thread
70        Seconds


ALL STATS
========================================================================
Type        Ops/sec     Hits/sec   Misses/sec      Latency       KB/sec 
------------------------------------------------------------------------
Sets        2228.88          ---          ---     14.35200      8995.81 
Gets           0.00         0.00         0.00      0.00000         0.00 
Waits          0.00          ---          ---      0.00000          --- 
Totals      2228.88         0.00         0.00     14.35200      8995.81 


Request Latency Distribution
Type     <= msec         Percent
------------------------------------------------------------------------
SET       2.100         0.00
SET       2.200         0.00
SET       2.300         0.01
SET       2.400         0.01
SET       2.500         0.01
SET       2.600         0.02
SET       2.700         0.02
SET       2.800         0.02
SET       2.900         0.03
SET       3.000         0.03
SET       3.100         0.04
SET       3.200         0.05
SET       3.300         0.06
SET       3.400         0.07
SET       3.500         0.08
SET       3.600         0.10
SET       3.700         0.11
SET       3.800         0.13
SET       3.900         0.15
SET       4.000         0.18
SET       4.100         0.20
SET       4.200         0.22
SET       4.300         0.24
SET       4.400         0.27
SET       4.500         0.29
SET       4.600         0.31
SET       4.700         0.33
SET       4.800         0.35
SET       4.900         0.37
SET       5.000         0.40
SET       5.100         0.42
SET       5.200         0.43
SET       5.300         0.46
SET       5.400         0.48
SET       5.500         0.52
SET       5.600         0.56
SET       5.700         0.60
SET       5.800         0.64
SET       5.900         0.68
SET       6.000         0.71
SET       6.100         0.76
SET       6.200         0.80
SET       6.300         0.84
SET       6.400         0.88
SET       6.500         0.92
SET       6.600         0.95
SET       6.700         0.99
SET       6.800         1.02
SET       6.900         1.06
SET       7.000         1.09
SET       7.100         1.14
SET       7.200         1.18
SET       7.300         1.23
SET       7.400         1.28
SET       7.500         1.32
SET       7.600         1.38
SET       7.700         1.44
SET       7.800         1.50
SET       7.900         1.56
SET       8.000         1.64
SET       8.100         1.71
SET       8.200         1.79
SET       8.300         1.87
SET       8.400         1.95
SET       8.500         2.03
SET       8.600         2.11
SET       8.700         2.22
SET       8.800         2.32
SET       8.900         2.42
SET       9.000         2.55
SET       9.100         2.70
SET       9.200         2.86
SET       9.300         3.02
SET       9.400         3.21
SET       9.500         3.41
SET       9.600         3.62
SET       9.700         3.87
SET       9.800         4.17
SET       9.900         4.52
SET      10.000         7.26
SET      11.000        19.77
SET      12.000        39.32
SET      13.000        53.59
SET      14.000        62.81
SET      15.000        68.38
SET      16.000        72.50
SET      17.000        77.56
SET      18.000        84.48
SET      19.000        90.34
SET      20.000        94.44
SET      21.000        96.85
SET      22.000        98.22
SET      23.000        98.88
SET      24.000        99.20
SET      25.000        99.36
SET      26.000        99.47
SET      27.000        99.57
SET      28.000        99.63
SET      29.000        99.70
SET      30.000        99.76
SET      31.000        99.81
SET      32.000        99.84
SET      33.000        99.87
SET      34.000        99.88
SET      35.000        99.89
SET      36.000        99.90
SET      37.000        99.91
SET      38.000        99.93
SET      39.000        99.96
SET      40.000        99.97
SET      41.000        99.97
SET      42.000        99.97
SET      44.000        99.98
SET      45.000        99.98
SET      46.000        99.98
SET      47.000        99.98
SET     170.000        99.98
SET     180.000        99.98
SET     210.000        99.98
SET     220.000        99.99
SET     230.000       100.00
SET     240.000       100.00
SET     250.000       100.00
---
---
