1         Threads
1         Connections per thread
70        Seconds


ALL STATS
========================================================================
Type        Ops/sec     Hits/sec   Misses/sec      Latency       KB/sec 
------------------------------------------------------------------------
Sets           0.00          ---          ---      0.00000         0.00 
Gets         479.68       479.68         0.00      2.07100      1942.99 
Waits          0.00          ---          ---      0.00000          --- 
Totals       479.68       479.68         0.00      2.07100      1942.99 


Request Latency Distribution
Type     <= msec         Percent
------------------------------------------------------------------------
---
GET       0.820         0.00
GET       0.830         0.01
GET       0.860         0.01
GET       0.870         0.02
GET       0.880         0.03
GET       0.890         0.04
GET       0.900         0.05
GET       0.910         0.08
GET       0.920         0.10
GET       0.930         0.14
GET       0.940         0.17
GET       0.950         0.23
GET       0.960         0.29
GET       0.970         0.37
GET       0.980         0.42
GET       0.990         0.52
GET       1.000         1.21
GET       1.100         3.92
GET       1.200         9.49
GET       1.300        17.40
GET       1.400        27.12
GET       1.500        37.60
GET       1.600        46.88
GET       1.700        54.82
GET       1.800        61.50
GET       1.900        66.43
GET       2.000        70.60
GET       2.100        74.02
GET       2.200        77.05
GET       2.300        79.38
GET       2.400        81.30
GET       2.500        82.98
GET       2.600        84.29
GET       2.700        85.52
GET       2.800        86.64
GET       2.900        87.45
GET       3.000        88.19
GET       3.100        88.85
GET       3.200        89.51
GET       3.300        90.07
GET       3.400        90.66
GET       3.500        91.11
GET       3.600        91.62
GET       3.700        92.09
GET       3.800        92.51
GET       3.900        92.90
GET       4.000        93.29
GET       4.100        93.65
GET       4.200        93.98
GET       4.300        94.30
GET       4.400        94.66
GET       4.500        94.92
GET       4.600        95.17
GET       4.700        95.43
GET       4.800        95.69
GET       4.900        95.96
GET       5.000        96.22
GET       5.100        96.48
GET       5.200        96.71
GET       5.300        96.94
GET       5.400        97.19
GET       5.500        97.38
GET       5.600        97.57
GET       5.700        97.73
GET       5.800        97.91
GET       5.900        98.06
GET       6.000        98.22
GET       6.100        98.34
GET       6.200        98.48
GET       6.300        98.62
GET       6.400        98.74
GET       6.500        98.84
GET       6.600        98.90
GET       6.700        98.98
GET       6.800        99.07
GET       6.900        99.15
GET       7.000        99.20
GET       7.100        99.28
GET       7.200        99.33
GET       7.300        99.37
GET       7.400        99.41
GET       7.500        99.45
GET       7.600        99.50
GET       7.700        99.53
GET       7.800        99.55
GET       7.900        99.58
GET       8.000        99.61
GET       8.100        99.62
GET       8.200        99.64
GET       8.300        99.66
GET       8.400        99.67
GET       8.500        99.68
GET       8.600        99.69
GET       8.700        99.72
GET       8.800        99.73
GET       8.900        99.75
GET       9.000        99.76
GET       9.100        99.77
GET       9.200        99.78
GET       9.300        99.79
GET       9.400        99.80
GET       9.500        99.82
GET       9.600        99.82
GET       9.800        99.84
GET       9.900        99.84
GET      10.000        99.87
GET      11.000        99.92
GET      12.000        99.93
GET      13.000        99.93
GET      14.000        99.94
GET      15.000        99.94
GET      16.000        99.95
GET      17.000        99.96
GET      18.000        99.96
GET      19.000        99.98
GET      20.000        99.99
GET      21.000        99.99
GET      24.000       100.00
GET     180.000       100.00
---
