1         Threads
2         Connections per thread
70        Seconds


ALL STATS
========================================================================
Type        Ops/sec     Hits/sec   Misses/sec      Latency       KB/sec 
------------------------------------------------------------------------
Sets           0.00          ---          ---      0.00000         0.00 
Gets         490.41       490.41         0.00      4.06500      1986.45 
Waits          0.00          ---          ---      0.00000          --- 
Totals       490.41       490.41         0.00      4.06500      1986.45 


Request Latency Distribution
Type     <= msec         Percent
------------------------------------------------------------------------
---
GET       0.850         0.00
GET       0.870         0.01
GET       0.910         0.01
GET       0.920         0.01
GET       0.930         0.01
GET       0.940         0.02
GET       0.950         0.03
GET       0.980         0.03
GET       0.990         0.04
GET       1.000         0.10
GET       1.100         0.40
GET       1.200         1.10
GET       1.300         2.77
GET       1.400         5.52
GET       1.500         9.83
GET       1.600        15.41
GET       1.700        21.84
GET       1.800        29.21
GET       1.900        36.15
GET       2.000        42.78
GET       2.100        48.09
GET       2.200        52.94
GET       2.300        56.69
GET       2.400        59.53
GET       2.500        61.71
GET       2.600        63.62
GET       2.700        65.15
GET       2.800        66.35
GET       2.900        67.21
GET       3.000        68.01
GET       3.100        68.67
GET       3.200        69.23
GET       3.300        69.67
GET       3.400        70.17
GET       3.500        70.49
GET       3.600        70.86
GET       3.700        71.12
GET       3.800        71.39
GET       3.900        71.60
GET       4.000        71.84
GET       4.100        72.03
GET       4.200        72.27
GET       4.300        72.45
GET       4.400        72.60
GET       4.500        72.75
GET       4.600        72.87
GET       4.700        73.01
GET       4.800        73.20
GET       4.900        73.29
GET       5.000        73.43
GET       5.100        73.56
GET       5.200        73.65
GET       5.300        73.78
GET       5.400        73.92
GET       5.500        74.04
GET       5.600        74.13
GET       5.700        74.21
GET       5.800        74.29
GET       5.900        74.40
GET       6.000        74.49
GET       6.100        74.60
GET       6.200        74.74
GET       6.300        74.86
GET       6.400        74.97
GET       6.500        75.09
GET       6.600        75.21
GET       6.700        75.33
GET       6.800        75.45
GET       6.900        75.61
GET       7.000        75.71
GET       7.100        75.85
GET       7.200        76.02
GET       7.300        76.17
GET       7.400        76.31
GET       7.500        76.48
GET       7.600        76.73
GET       7.700        76.95
GET       7.800        77.19
GET       7.900        77.47
GET       8.000        77.75
GET       8.100        78.06
GET       8.200        78.35
GET       8.300        78.65
GET       8.400        78.96
GET       8.500        79.33
GET       8.600        79.76
GET       8.700        80.28
GET       8.800        80.77
GET       8.900        81.31
GET       9.000        81.90
GET       9.100        82.43
GET       9.200        83.08
GET       9.300        83.86
GET       9.400        84.68
GET       9.500        85.53
GET       9.600        86.47
GET       9.700        87.35
GET       9.800        88.33
GET       9.900        89.31
GET      10.000        94.06
GET      11.000        98.49
GET      12.000        99.65
GET      13.000        99.76
GET      14.000        99.83
GET      15.000        99.90
GET      16.000        99.91
GET      17.000        99.91
GET      18.000        99.92
GET      20.000        99.93
GET      21.000        99.94
GET      22.000        99.95
GET      23.000        99.97
GET      24.000        99.98
GET      25.000        99.99
GET      26.000        99.99
GET     160.000       100.00
---
