1         Threads
4         Connections per thread
70        Seconds


ALL STATS
========================================================================
Type        Ops/sec     Hits/sec   Misses/sec      Latency       KB/sec 
------------------------------------------------------------------------
Sets           0.00          ---          ---      0.00000         0.00 
Gets         483.05       483.05         0.00      8.26700      1956.61 
Waits          0.00          ---          ---      0.00000          --- 
Totals       483.05       483.05         0.00      8.26700      1956.61 


Request Latency Distribution
Type     <= msec         Percent
------------------------------------------------------------------------
---
GET       1.000         0.00
GET       1.100         0.01
GET       1.200         0.09
GET       1.300         0.36
GET       1.400         0.88
GET       1.500         1.87
GET       1.600         3.33
GET       1.700         5.08
GET       1.800         7.20
GET       1.900        10.00
GET       2.000        12.96
GET       2.100        16.01
GET       2.200        19.26
GET       2.300        22.47
GET       2.400        25.45
GET       2.500        28.45
GET       2.600        31.09
GET       2.700        33.35
GET       2.800        35.38
GET       2.900        37.06
GET       3.000        38.57
GET       3.100        39.78
GET       3.200        41.02
GET       3.300        41.83
GET       3.400        42.43
GET       3.500        42.89
GET       3.600        43.36
GET       3.700        43.78
GET       3.800        44.14
GET       3.900        44.47
GET       4.000        44.69
GET       4.100        44.90
GET       4.200        45.09
GET       4.300        45.27
GET       4.400        45.41
GET       4.500        45.52
GET       4.600        45.64
GET       4.700        45.82
GET       4.800        45.95
GET       4.900        46.07
GET       5.000        46.15
GET       5.100        46.24
GET       5.200        46.33
GET       5.300        46.40
GET       5.400        46.47
GET       5.500        46.56
GET       5.600        46.61
GET       5.700        46.68
GET       5.800        46.75
GET       5.900        46.80
GET       6.000        46.88
GET       6.100        46.93
GET       6.200        47.01
GET       6.300        47.09
GET       6.400        47.14
GET       6.500        47.19
GET       6.600        47.25
GET       6.700        47.29
GET       6.800        47.35
GET       6.900        47.41
GET       7.000        47.44
GET       7.100        47.48
GET       7.200        47.54
GET       7.300        47.58
GET       7.400        47.64
GET       7.500        47.69
GET       7.600        47.75
GET       7.700        47.81
GET       7.800        47.88
GET       7.900        47.92
GET       8.000        47.96
GET       8.100        48.02
GET       8.200        48.10
GET       8.300        48.17
GET       8.400        48.21
GET       8.500        48.26
GET       8.600        48.33
GET       8.700        48.43
GET       8.800        48.47
GET       8.900        48.54
GET       9.000        48.64
GET       9.100        48.72
GET       9.200        48.81
GET       9.300        48.89
GET       9.400        48.96
GET       9.500        49.04
GET       9.600        49.16
GET       9.700        49.24
GET       9.800        49.32
GET       9.900        49.42
GET      10.000        50.03
GET      11.000        51.86
GET      12.000        58.04
GET      13.000        79.19
GET      14.000        91.82
GET      15.000        96.24
GET      16.000        98.87
GET      17.000        99.15
GET      18.000        99.29
GET      19.000        99.38
GET      20.000        99.43
GET      21.000        99.45
GET      22.000        99.46
GET      23.000        99.48
GET      24.000        99.52
GET      25.000        99.57
GET      26.000        99.61
GET      27.000        99.78
GET      28.000        99.92
GET      29.000        99.97
GET      30.000        99.98
GET      31.000        99.99
GET     190.000        99.99
GET     200.000       100.00
---
