1         Threads
42        Connections per thread
70        Seconds


ALL STATS
========================================================================
Type        Ops/sec     Hits/sec   Misses/sec      Latency       KB/sec 
------------------------------------------------------------------------
Sets           0.00          ---          ---      0.00000         0.00 
Gets         500.63       500.63         0.00     83.87700      2027.87 
Waits          0.00          ---          ---      0.00000          --- 
Totals       500.63       500.63         0.00     83.87700      2027.87 


Request Latency Distribution
Type     <= msec         Percent
------------------------------------------------------------------------
---
GET      45.000         0.01
GET      46.000         0.01
GET      48.000         0.03
GET      49.000         0.03
GET      50.000         0.04
GET      51.000         0.05
GET      54.000         0.05
GET      55.000         0.06
GET      57.000         0.07
GET      58.000         0.07
GET      60.000         0.08
GET      61.000         0.11
GET      62.000         0.28
GET      63.000         0.93
GET      64.000         2.78
GET      65.000         3.39
GET      66.000         3.61
GET      67.000         3.67
GET      68.000         3.71
GET      69.000         3.74
GET      70.000         3.79
GET      71.000         3.80
GET      72.000         3.84
GET      73.000         3.92
GET      74.000         4.14
GET      75.000         4.47
GET      76.000         5.59
GET      77.000        10.55
GET      78.000        34.44
GET      79.000        52.11
GET      80.000        58.34
GET      81.000        59.97
GET      82.000        60.61
GET      83.000        60.91
GET      84.000        61.08
GET      85.000        61.21
GET      86.000        61.29
GET      87.000        61.44
GET      88.000        61.65
GET      89.000        61.93
GET      90.000        62.63
GET      91.000        64.61
GET      92.000        72.71
GET      93.000        86.18
GET      94.000        96.86
GET      95.000        98.24
GET      96.000        98.61
GET      97.000        98.71
GET      98.000        98.78
GET      99.000        98.82
GET     100.000        98.88
GET     110.000        99.88
GET     200.000        99.88
GET     210.000        99.96
GET     220.000       100.00
---
