1         Threads
64        Connections per thread
70        Seconds


ALL STATS
========================================================================
Type        Ops/sec     Hits/sec   Misses/sec      Latency       KB/sec 
------------------------------------------------------------------------
Sets           0.00          ---          ---      0.00000         0.00 
Gets         492.65       492.65         0.00    130.21200      1995.53 
Waits          0.00          ---          ---      0.00000          --- 
Totals       492.65       492.65         0.00    130.21200      1995.53 


Request Latency Distribution
Type     <= msec         Percent
------------------------------------------------------------------------
---
GET      40.000         0.00
GET      41.000         0.01
GET      44.000         0.01
GET      45.000         0.01
GET      51.000         0.01
GET      53.000         0.02
GET      57.000         0.02
GET      58.000         0.02
GET      60.000         0.03
GET      61.000         0.03
GET      62.000         0.06
GET      63.000         0.10
GET      64.000         0.13
GET      65.000         0.14
GET      66.000         0.14
GET      67.000         0.14
GET      69.000         0.15
GET      70.000         0.15
GET      73.000         0.16
GET      74.000         0.16
GET      75.000         0.19
GET      76.000         0.22
GET      77.000         0.56
GET      78.000         1.76
GET      79.000         2.84
GET      80.000         3.06
GET      81.000         3.09
GET      82.000         3.09
GET      83.000         3.11
GET      84.000         3.13
GET      85.000         3.13
GET      86.000         3.15
GET      88.000         3.16
GET      89.000         3.19
GET      90.000         3.23
GET      91.000         3.34
GET      92.000         3.96
GET      93.000         8.52
GET      94.000        17.53
GET      95.000        20.78
GET      96.000        21.20
GET      97.000        21.30
GET      98.000        21.35
GET      99.000        21.40
GET     100.000        21.59
GET     110.000        49.34
GET     120.000        58.72
GET     130.000        66.58
GET     140.000        78.14
GET     150.000        78.77
GET     160.000        85.21
GET     170.000        89.88
GET     180.000        89.97
GET     190.000        93.23
GET     200.000        94.90
GET     210.000        94.95
GET     220.000        96.09
GET     230.000        96.82
GET     240.000        96.96
GET     250.000        97.70
GET     260.000        97.82
GET     270.000        98.34
GET     280.000        98.68
GET     290.000        98.77
GET     300.000        99.07
GET     310.000        99.30
GET     320.000        99.32
GET     330.000        99.49
GET     340.000        99.64
GET     360.000        99.75
GET     370.000        99.81
GET     380.000        99.84
GET     390.000        99.91
GET     400.000        99.92
GET     410.000        99.92
GET     420.000        99.93
GET     430.000        99.93
GET     440.000        99.96
GET     450.000        99.97
GET     480.000        99.98
GET     490.000        99.98
GET     500.000        99.98
GET     530.000        99.99
GET     560.000        99.99
GET     620.000        99.99
GET     670.000       100.00
GET     700.000       100.00
---
