2         Threads
64        Connections per thread
70        Seconds


ALL STATS
========================================================================
Type        Ops/sec     Hits/sec   Misses/sec      Latency       KB/sec 
------------------------------------------------------------------------
Sets           0.00          ---          ---      0.00000         0.00 
Gets         984.73       984.73         0.00    129.97100      3988.75 
Waits          0.00          ---          ---      0.00000          --- 
Totals       984.73       984.73         0.00    129.97100      3988.75 


Request Latency Distribution
Type     <= msec         Percent
------------------------------------------------------------------------
---
GET      49.000         0.00
GET      50.000         0.00
GET      51.000         0.01
GET      52.000         0.01
GET      53.000         0.01
GET      54.000         0.02
GET      55.000         0.03
GET      56.000         0.06
GET      57.000         0.07
GET      58.000         0.09
GET      59.000         0.10
GET      60.000         0.11
GET      61.000         0.12
GET      62.000         0.13
GET      63.000         0.15
GET      64.000         0.17
GET      65.000         0.19
GET      66.000         0.21
GET      67.000         0.23
GET      68.000         0.24
GET      69.000         0.25
GET      70.000         0.27
GET      71.000         0.27
GET      72.000         0.27
GET      73.000         0.27
GET      74.000         0.28
GET      75.000         0.29
GET      76.000         0.30
GET      77.000         0.31
GET      78.000         0.31
GET      79.000         0.33
GET      80.000         0.38
GET      81.000         0.48
GET      82.000         0.55
GET      83.000         0.58
GET      84.000         0.61
GET      85.000         0.64
GET      86.000         0.68
GET      87.000         0.71
GET      88.000         0.74
GET      89.000         0.78
GET      90.000         0.83
GET      91.000         0.95
GET      92.000         1.19
GET      93.000         1.42
GET      94.000         1.56
GET      95.000         1.62
GET      96.000         1.65
GET      97.000         1.69
GET      98.000         1.71
GET      99.000         1.72
GET     100.000         1.74
GET     110.000         3.00
GET     120.000         7.41
GET     130.000        66.37
GET     140.000        99.60
GET     150.000        99.81
GET     160.000        99.81
GET     250.000        99.82
GET     260.000        99.83
GET     270.000        99.85
GET     280.000        99.86
GET     290.000        99.88
GET     300.000        99.92
GET     310.000        99.93
GET     320.000        99.96
GET     330.000        99.97
GET     340.000        99.99
GET     350.000       100.00
---
