2         Threads
42        Connections per thread
70        Seconds


ALL STATS
========================================================================
Type        Ops/sec     Hits/sec   Misses/sec      Latency       KB/sec 
------------------------------------------------------------------------
Sets           0.00          ---          ---      0.00000         0.00 
Gets         979.92       979.92         0.00     85.71100      3969.27 
Waits          0.00          ---          ---      0.00000          --- 
Totals       979.92       979.92         0.00     85.71100      3969.27 


Request Latency Distribution
Type     <= msec         Percent
------------------------------------------------------------------------
---
GET      44.000         0.00
GET      46.000         0.00
GET      47.000         0.01
GET      48.000         0.01
GET      49.000         0.02
GET      50.000         0.02
GET      51.000         0.02
GET      52.000         0.03
GET      53.000         0.05
GET      54.000         0.05
GET      55.000         0.05
GET      56.000         0.06
GET      57.000         0.07
GET      58.000         0.07
GET      59.000         0.08
GET      60.000         0.09
GET      61.000         0.09
GET      62.000         0.11
GET      63.000         0.17
GET      64.000         0.34
GET      65.000         0.49
GET      66.000         0.52
GET      67.000         0.59
GET      68.000         0.63
GET      69.000         0.67
GET      70.000         0.70
GET      71.000         0.71
GET      72.000         0.73
GET      73.000         0.77
GET      74.000         0.85
GET      75.000         1.03
GET      76.000         1.37
GET      77.000         1.97
GET      78.000         3.37
GET      79.000        18.08
GET      80.000        38.70
GET      81.000        46.89
GET      82.000        49.69
GET      83.000        50.94
GET      84.000        51.57
GET      85.000        52.04
GET      86.000        52.46
GET      87.000        53.00
GET      88.000        53.73
GET      89.000        55.39
GET      90.000        59.28
GET      91.000        71.18
GET      92.000        89.82
GET      93.000        97.24
GET      94.000        98.55
GET      95.000        99.07
GET      96.000        99.41
GET      97.000        99.52
GET      98.000        99.61
GET      99.000        99.63
GET     100.000        99.73
GET     110.000        99.88
GET     250.000        99.90
GET     260.000        99.91
GET     270.000        99.93
GET     280.000       100.00
GET     290.000       100.00
---
