2         Threads
4         Connections per thread
70        Seconds


ALL STATS
========================================================================
Type        Ops/sec     Hits/sec   Misses/sec      Latency       KB/sec 
------------------------------------------------------------------------
Sets           0.00          ---          ---      0.00000         0.00 
Gets         984.05       984.05         0.00      8.11900      3985.94 
Waits          0.00          ---          ---      0.00000          --- 
Totals       984.05       984.05         0.00      8.11900      3985.94 


Request Latency Distribution
Type     <= msec         Percent
------------------------------------------------------------------------
---
GET       1.100         0.00
GET       1.200         0.01
GET       1.300         0.01
GET       1.400         0.03
GET       1.500         0.07
GET       1.600         0.11
GET       1.700         0.17
GET       1.800         0.33
GET       1.900         0.49
GET       2.000         0.75
GET       2.100         1.13
GET       2.200         1.70
GET       2.300         2.47
GET       2.400         3.38
GET       2.500         4.48
GET       2.600         5.68
GET       2.700         7.23
GET       2.800         8.88
GET       2.900        10.59
GET       3.000        12.38
GET       3.100        14.21
GET       3.200        16.07
GET       3.300        17.97
GET       3.400        19.77
GET       3.500        21.49
GET       3.600        23.23
GET       3.700        24.80
GET       3.800        26.42
GET       3.900        27.86
GET       4.000        29.28
GET       4.100        30.60
GET       4.200        31.84
GET       4.300        33.00
GET       4.400        34.09
GET       4.500        35.19
GET       4.600        36.15
GET       4.700        37.06
GET       4.800        37.86
GET       4.900        38.65
GET       5.000        39.39
GET       5.100        40.08
GET       5.200        40.78
GET       5.300        41.36
GET       5.400        41.92
GET       5.500        42.39
GET       5.600        42.91
GET       5.700        43.36
GET       5.800        43.82
GET       5.900        44.26
GET       6.000        44.62
GET       6.100        45.00
GET       6.200        45.35
GET       6.300        45.69
GET       6.400        45.98
GET       6.500        46.29
GET       6.600        46.55
GET       6.700        46.79
GET       6.800        46.97
GET       6.900        47.21
GET       7.000        47.44
GET       7.100        47.68
GET       7.200        47.91
GET       7.300        48.11
GET       7.400        48.34
GET       7.500        48.53
GET       7.600        48.77
GET       7.700        49.01
GET       7.800        49.24
GET       7.900        49.49
GET       8.000        49.72
GET       8.100        49.96
GET       8.200        50.20
GET       8.300        50.45
GET       8.400        50.66
GET       8.500        50.92
GET       8.600        51.21
GET       8.700        51.46
GET       8.800        51.71
GET       8.900        51.98
GET       9.000        52.28
GET       9.100        52.57
GET       9.200        52.84
GET       9.300        53.13
GET       9.400        53.46
GET       9.500        53.80
GET       9.600        54.19
GET       9.700        54.63
GET       9.800        55.11
GET       9.900        55.53
GET      10.000        58.48
GET      11.000        67.17
GET      12.000        80.12
GET      13.000        92.44
GET      14.000        97.20
GET      15.000        98.59
GET      16.000        99.17
GET      17.000        99.40
GET      18.000        99.52
GET      19.000        99.60
GET      20.000        99.65
GET      21.000        99.68
GET      22.000        99.71
GET      23.000        99.73
GET      24.000        99.77
GET      25.000        99.81
GET      26.000        99.87
GET      27.000        99.91
GET      28.000        99.96
GET      29.000        99.97
GET      30.000        99.97
GET      31.000        99.98
GET      32.000        99.98
GET      33.000        99.99
GET      35.000        99.99
GET     220.000       100.00
---
