1         Threads
2         Connections per thread
70        Seconds


ALL STATS
========================================================================
Type        Ops/sec     Hits/sec   Misses/sec      Latency       KB/sec 
------------------------------------------------------------------------
Sets           0.00          ---          ---      0.00000         0.00 
Gets         492.58       492.58         0.00      4.05000      1995.23 
Waits          0.00          ---          ---      0.00000          --- 
Totals       492.58       492.58         0.00      4.05000      1995.23 


Request Latency Distribution
Type     <= msec         Percent
------------------------------------------------------------------------
---
GET       0.940         0.00
GET       0.960         0.01
GET       0.990         0.01
GET       1.000         0.07
GET       1.100         0.37
GET       1.200         1.39
GET       1.300         3.51
GET       1.400         7.19
GET       1.500        12.29
GET       1.600        18.48
GET       1.700        25.07
GET       1.800        32.12
GET       1.900        38.85
GET       2.000        44.58
GET       2.100        49.59
GET       2.200        53.66
GET       2.300        57.31
GET       2.400        60.08
GET       2.500        62.19
GET       2.600        63.85
GET       2.700        65.04
GET       2.800        66.04
GET       2.900        66.84
GET       3.000        67.74
GET       3.100        68.42
GET       3.200        68.91
GET       3.300        69.39
GET       3.400        69.86
GET       3.500        70.29
GET       3.600        70.62
GET       3.700        70.84
GET       3.800        71.15
GET       3.900        71.41
GET       4.000        71.67
GET       4.100        71.91
GET       4.200        72.08
GET       4.300        72.22
GET       4.400        72.41
GET       4.500        72.58
GET       4.600        72.75
GET       4.700        72.88
GET       4.800        73.01
GET       4.900        73.12
GET       5.000        73.28
GET       5.100        73.37
GET       5.200        73.50
GET       5.300        73.60
GET       5.400        73.73
GET       5.500        73.83
GET       5.600        73.92
GET       5.700        74.03
GET       5.800        74.15
GET       5.900        74.26
GET       6.000        74.38
GET       6.100        74.57
GET       6.200        74.69
GET       6.300        74.80
GET       6.400        74.91
GET       6.500        75.06
GET       6.600        75.20
GET       6.700        75.30
GET       6.800        75.42
GET       6.900        75.55
GET       7.000        75.73
GET       7.100        75.92
GET       7.200        76.10
GET       7.300        76.25
GET       7.400        76.47
GET       7.500        76.67
GET       7.600        76.90
GET       7.700        77.10
GET       7.800        77.36
GET       7.900        77.58
GET       8.000        77.88
GET       8.100        78.15
GET       8.200        78.44
GET       8.300        78.75
GET       8.400        79.10
GET       8.500        79.48
GET       8.600        79.94
GET       8.700        80.39
GET       8.800        80.88
GET       8.900        81.38
GET       9.000        81.98
GET       9.100        82.72
GET       9.200        83.34
GET       9.300        84.06
GET       9.400        84.85
GET       9.500        85.63
GET       9.600        86.41
GET       9.700        87.29
GET       9.800        88.15
GET       9.900        89.15
GET      10.000        94.23
GET      11.000        98.64
GET      12.000        99.52
GET      13.000        99.70
GET      14.000        99.82
GET      15.000        99.88
GET      16.000        99.90
GET      17.000        99.91
GET      19.000        99.92
GET      20.000        99.93
GET      21.000        99.94
GET      22.000        99.95
GET      23.000        99.97
GET      24.000        99.98
GET      25.000        99.98
GET      26.000        99.99
GET     220.000       100.00
---
