1         Threads
22        Connections per thread
70        Seconds


ALL STATS
========================================================================
Type        Ops/sec     Hits/sec   Misses/sec      Latency       KB/sec 
------------------------------------------------------------------------
Sets           0.00          ---          ---      0.00000         0.00 
Gets         482.43       482.43         0.00     45.59100      1954.11 
Waits          0.00          ---          ---      0.00000          --- 
Totals       482.43       482.43         0.00     45.59100      1954.11 


Request Latency Distribution
Type     <= msec         Percent
------------------------------------------------------------------------
---
GET      17.000         0.01
GET      18.000         0.04
GET      19.000         0.05
GET      20.000         0.07
GET      21.000         0.11
GET      22.000         0.13
GET      23.000         0.15
GET      24.000         0.18
GET      25.000         0.20
GET      26.000         0.24
GET      27.000         0.27
GET      28.000         0.31
GET      29.000         0.37
GET      30.000         0.46
GET      31.000         0.81
GET      32.000         1.05
GET      33.000         2.41
GET      34.000         7.01
GET      35.000         8.88
GET      36.000         9.68
GET      37.000         9.99
GET      38.000        10.20
GET      39.000        10.39
GET      40.000        10.67
GET      41.000        11.04
GET      42.000        11.64
GET      43.000        12.64
GET      44.000        15.03
GET      45.000        23.39
GET      46.000        46.03
GET      47.000        85.56
GET      48.000        93.18
GET      49.000        95.91
GET      50.000        96.90
GET      51.000        97.49
GET      52.000        97.82
GET      53.000        98.08
GET      54.000        98.19
GET      55.000        98.27
GET      56.000        98.37
GET      57.000        98.45
GET      58.000        98.63
GET      59.000        98.98
GET      60.000        99.53
GET      61.000        99.70
GET      62.000        99.81
GET      63.000        99.88
GET      64.000        99.91
GET      65.000        99.93
GET      66.000        99.93
GET      69.000        99.93
GET     210.000        99.97
GET     220.000       100.00
---
