1         Threads
2         Connections per thread
70        Seconds


ALL STATS
========================================================================
Type        Ops/sec     Hits/sec   Misses/sec      Latency       KB/sec 
------------------------------------------------------------------------
Sets           0.00          ---          ---      0.00000         0.00 
Gets         492.62       492.62         0.00      4.05000      1995.40 
Waits          0.00          ---          ---      0.00000          --- 
Totals       492.62       492.62         0.00      4.05000      1995.40 


Request Latency Distribution
Type     <= msec         Percent
------------------------------------------------------------------------
---
GET       0.880         0.00
GET       0.920         0.01
GET       0.950         0.01
GET       0.960         0.01
GET       0.970         0.02
GET       0.980         0.03
GET       0.990         0.03
GET       1.000         0.11
GET       1.100         0.41
GET       1.200         1.46
GET       1.300         3.46
GET       1.400         7.17
GET       1.500        12.45
GET       1.600        19.00
GET       1.700        26.15
GET       1.800        33.60
GET       1.900        40.31
GET       2.000        46.02
GET       2.100        50.59
GET       2.200        54.33
GET       2.300        57.41
GET       2.400        59.86
GET       2.500        61.83
GET       2.600        63.39
GET       2.700        64.73
GET       2.800        65.88
GET       2.900        66.75
GET       3.000        67.55
GET       3.100        68.20
GET       3.200        68.71
GET       3.300        69.20
GET       3.400        69.62
GET       3.500        69.96
GET       3.600        70.34
GET       3.700        70.66
GET       3.800        70.99
GET       3.900        71.19
GET       4.000        71.49
GET       4.100        71.74
GET       4.200        71.95
GET       4.300        72.12
GET       4.400        72.34
GET       4.500        72.53
GET       4.600        72.70
GET       4.700        72.83
GET       4.800        72.97
GET       4.900        73.13
GET       5.000        73.26
GET       5.100        73.38
GET       5.200        73.51
GET       5.300        73.66
GET       5.400        73.82
GET       5.500        73.93
GET       5.600        74.04
GET       5.700        74.14
GET       5.800        74.28
GET       5.900        74.40
GET       6.000        74.51
GET       6.100        74.64
GET       6.200        74.79
GET       6.300        74.90
GET       6.400        75.06
GET       6.500        75.18
GET       6.600        75.28
GET       6.700        75.41
GET       6.800        75.55
GET       6.900        75.71
GET       7.000        75.89
GET       7.100        76.07
GET       7.200        76.23
GET       7.300        76.43
GET       7.400        76.65
GET       7.500        76.88
GET       7.600        77.07
GET       7.700        77.32
GET       7.800        77.55
GET       7.900        77.83
GET       8.000        78.06
GET       8.100        78.39
GET       8.200        78.71
GET       8.300        78.96
GET       8.400        79.34
GET       8.500        79.71
GET       8.600        80.22
GET       8.700        80.71
GET       8.800        81.27
GET       8.900        81.77
GET       9.000        82.36
GET       9.100        82.97
GET       9.200        83.55
GET       9.300        84.26
GET       9.400        84.99
GET       9.500        85.74
GET       9.600        86.51
GET       9.700        87.37
GET       9.800        88.19
GET       9.900        89.07
GET      10.000        93.85
GET      11.000        98.36
GET      12.000        99.36
GET      13.000        99.56
GET      14.000        99.67
GET      15.000        99.72
GET      16.000        99.75
GET      17.000        99.78
GET      18.000        99.80
GET      19.000        99.81
GET      20.000        99.81
GET      21.000        99.83
GET      22.000        99.85
GET      23.000        99.90
GET      24.000        99.94
GET      25.000        99.98
GET      26.000        99.99
GET      28.000        99.99
GET      48.000       100.00
---
