"Dstat 0.7.2 CSV output"
"Author:","Dag Wieers <dag@wieers.com>",,,,"URL:","http://dag.wieers.com/home-made/dstat/"
"Host:","Server1",,,,"User:","maki"
"Cmdline:","dstat --output server_8_multi_get_sharded_1_2_6.csv 1 70",,,,"Date:","30 Nov 2018 20:46:52 UTC"

"total cpu usage",,,,,,"dsk/total",,"net/total",,"paging",,"system",
"usr","sys","idl","wai","hiq","siq","read","writ","recv","send","in","out","int","csw"
6.544,7.585,79.281,6.078,0.0,0.512,166292.127,875439.205,0.0,0.0,0.0,0.0,21.746,1175.905
2.222,7.778,88.889,0.0,0.0,1.111,0.0,0.0,6679005.0,12701985.0,0.0,0.0,18.0,3575.0
4.040,12.121,81.818,0.0,0.0,2.020,0.0,0.0,6497029.0,12358355.0,0.0,0.0,18.0,3323.0
2.151,5.376,91.398,0.0,0.0,1.075,0.0,0.0,6559433.0,12458604.0,0.0,0.0,18.0,3132.0
2.151,8.602,88.172,0.0,0.0,1.075,0.0,0.0,6620607.0,12575558.0,0.0,0.0,18.0,3107.0
3.158,6.316,88.421,0.0,0.0,2.105,0.0,4096.0,6567831.0,12493084.0,0.0,0.0,19.0,2940.0
3.191,7.447,89.362,0.0,0.0,0.0,0.0,0.0,6602859.0,12526554.0,0.0,0.0,18.0,2609.0
6.522,7.609,84.783,0.0,0.0,1.087,0.0,0.0,6583115.0,12554506.0,0.0,0.0,18.0,2626.0
4.211,6.316,88.421,0.0,0.0,1.053,0.0,0.0,6657369.0,12612368.0,0.0,0.0,18.0,2520.0
2.128,7.447,88.298,1.064,0.0,1.064,0.0,45056.0,6593355.0,12508868.0,0.0,0.0,19.0,2512.0
4.124,9.278,85.567,0.0,0.0,1.031,0.0,0.0,6568717.0,12486641.0,0.0,0.0,19.0,2575.0
3.226,6.452,89.247,0.0,0.0,1.075,0.0,0.0,6590119.0,12509493.0,0.0,0.0,18.0,2749.0
2.198,7.692,89.011,0.0,0.0,1.099,0.0,0.0,6575930.0,12458165.0,0.0,0.0,18.0,2699.0
5.263,7.368,86.316,0.0,0.0,1.053,0.0,0.0,6604064.0,12537197.0,0.0,0.0,18.0,2594.0
2.198,5.495,92.308,0.0,0.0,0.0,0.0,0.0,6568054.0,12500202.0,0.0,0.0,19.0,2572.0
2.128,8.511,89.362,0.0,0.0,0.0,0.0,0.0,6576626.0,12492103.0,0.0,0.0,18.0,2571.0
4.348,5.435,89.130,0.0,0.0,1.087,0.0,0.0,6581852.0,12503232.0,0.0,0.0,18.0,2461.0
5.155,8.247,84.536,0.0,0.0,2.062,0.0,0.0,6577553.0,12459489.0,0.0,0.0,18.0,2683.0
3.191,8.511,88.298,0.0,0.0,0.0,0.0,0.0,6571977.0,12532923.0,0.0,0.0,18.0,2852.0
3.191,8.511,87.234,0.0,0.0,1.064,0.0,0.0,6597747.0,12504051.0,0.0,0.0,19.0,2572.0
5.319,6.383,88.298,0.0,0.0,0.0,0.0,0.0,6670195.0,12688781.0,0.0,0.0,18.0,2595.0
1.075,7.527,91.398,0.0,0.0,0.0,0.0,0.0,6587520.0,12492186.0,0.0,0.0,18.0,2647.0
3.297,7.692,87.912,0.0,0.0,1.099,0.0,0.0,6568442.0,12477429.0,0.0,0.0,18.0,2804.0
2.151,6.452,90.323,0.0,0.0,1.075,0.0,0.0,6581409.0,12526098.0,0.0,0.0,18.0,2675.0
2.083,9.375,87.500,0.0,0.0,1.042,0.0,0.0,6571916.0,12483543.0,0.0,0.0,18.0,2497.0
6.250,7.292,85.417,0.0,0.0,1.042,0.0,0.0,6585906.0,12494304.0,0.0,0.0,19.0,2607.0
6.0,8.0,85.0,0.0,0.0,1.0,0.0,0.0,6567845.0,12502453.0,0.0,0.0,18.0,2475.0
4.348,6.522,89.130,0.0,0.0,0.0,0.0,0.0,6376055.0,12142734.0,0.0,0.0,18.0,2602.0
4.167,9.375,85.417,0.0,0.0,1.042,0.0,0.0,6568154.0,12477612.0,0.0,0.0,18.0,2431.0
3.191,6.383,89.362,0.0,0.0,1.064,0.0,0.0,6585231.0,12509135.0,0.0,0.0,19.0,2679.0
2.151,5.376,91.398,0.0,0.0,1.075,0.0,12288.0,6643136.0,12611406.0,0.0,0.0,18.0,2624.0
3.226,7.527,89.247,0.0,0.0,0.0,0.0,0.0,6572580.0,12486433.0,0.0,0.0,18.0,2449.0
5.263,7.368,86.316,0.0,0.0,1.053,0.0,0.0,6595347.0,12502692.0,0.0,0.0,18.0,2564.0
3.158,7.368,88.421,0.0,0.0,1.053,0.0,0.0,6628540.0,12589586.0,0.0,0.0,18.0,2587.0
3.191,7.447,88.298,0.0,0.0,1.064,0.0,0.0,6577459.0,12503120.0,0.0,0.0,19.0,2567.0
3.191,7.447,89.362,0.0,0.0,0.0,0.0,4096.0,6571932.0,12499984.0,0.0,0.0,18.0,2633.0
2.083,9.375,87.500,0.0,0.0,1.042,0.0,0.0,6584927.0,12492588.0,0.0,0.0,18.0,2633.0
4.494,7.865,86.517,0.0,0.0,1.124,0.0,0.0,6598032.0,12485271.0,0.0,0.0,28.0,2870.0
2.198,8.791,89.011,0.0,0.0,0.0,0.0,0.0,6563329.0,12501644.0,0.0,0.0,18.0,2514.0
5.102,7.143,84.694,0.0,0.0,3.061,0.0,0.0,6572023.0,12483509.0,0.0,0.0,19.0,2497.0
2.174,6.522,88.043,3.261,0.0,0.0,0.0,102400.0,6577463.0,12511062.0,0.0,0.0,18.0,2701.0
3.030,11.111,84.848,0.0,0.0,1.010,0.0,0.0,6580764.0,12500948.0,0.0,0.0,18.0,2605.0
2.174,5.435,92.391,0.0,0.0,0.0,0.0,0.0,6551629.0,12482921.0,0.0,0.0,18.0,2609.0
3.226,8.602,87.097,0.0,0.0,1.075,0.0,0.0,6603568.0,12503797.0,0.0,0.0,19.0,2581.0
3.158,8.421,86.316,0.0,0.0,2.105,0.0,0.0,6577384.0,12506154.0,0.0,0.0,18.0,2516.0
5.155,12.371,82.474,0.0,0.0,0.0,0.0,0.0,6621923.0,12595397.0,0.0,0.0,18.0,2857.0
5.435,5.435,88.043,0.0,0.0,1.087,0.0,0.0,6587409.0,12520488.0,0.0,0.0,18.0,2608.0
4.255,5.319,90.426,0.0,0.0,0.0,0.0,0.0,6331361.0,12051889.0,0.0,0.0,18.0,2469.0
4.348,6.522,88.043,0.0,0.0,1.087,0.0,0.0,6576038.0,12483609.0,0.0,0.0,19.0,2772.0
5.319,7.447,86.170,0.0,0.0,1.064,0.0,0.0,6581736.0,12511668.0,0.0,0.0,18.0,2474.0
4.301,4.301,90.323,0.0,0.0,1.075,0.0,0.0,6576640.0,12508796.0,0.0,0.0,18.0,2748.0
1.053,9.474,88.421,0.0,0.0,1.053,0.0,16384.0,6575859.0,12475222.0,0.0,0.0,18.0,2494.0
6.383,7.447,86.170,0.0,0.0,0.0,0.0,0.0,6577800.0,12519819.0,0.0,0.0,18.0,2645.0
4.211,9.474,85.263,0.0,0.0,1.053,0.0,0.0,6576342.0,12517129.0,0.0,0.0,19.0,2437.0
2.128,8.511,89.362,0.0,0.0,0.0,0.0,0.0,6503633.0,12296802.0,0.0,0.0,18.0,2496.0
4.348,5.435,89.130,0.0,0.0,1.087,0.0,0.0,6650336.0,12681519.0,0.0,0.0,18.0,2536.0
2.151,7.527,90.323,0.0,0.0,0.0,0.0,0.0,6576648.0,12508811.0,0.0,0.0,18.0,2500.0
4.167,7.292,87.500,0.0,0.0,1.042,0.0,0.0,6578153.0,12458611.0,0.0,0.0,18.0,2551.0
4.444,5.556,88.889,0.0,0.0,1.111,0.0,0.0,6580003.0,12484020.0,0.0,0.0,19.0,2521.0
2.105,10.526,87.368,0.0,0.0,0.0,0.0,0.0,6576597.0,12519463.0,0.0,0.0,18.0,2531.0
3.261,5.435,90.217,0.0,0.0,1.087,0.0,0.0,6577391.0,12542361.0,0.0,0.0,18.0,2718.0
3.158,7.368,88.421,0.0,0.0,1.053,0.0,0.0,6567503.0,12466614.0,0.0,0.0,18.0,2634.0
0.0,7.865,92.135,0.0,0.0,0.0,0.0,0.0,6590014.0,12486720.0,0.0,0.0,18.0,2571.0
3.261,5.435,89.130,0.0,0.0,2.174,0.0,0.0,6594800.0,12559699.0,0.0,0.0,19.0,2625.0
3.226,6.452,90.323,0.0,0.0,0.0,0.0,0.0,6616858.0,12560493.0,0.0,0.0,18.0,2673.0
4.396,4.396,91.209,0.0,0.0,0.0,0.0,0.0,6590909.0,12553749.0,0.0,0.0,18.0,2526.0
1.087,6.522,92.391,0.0,0.0,0.0,0.0,0.0,6507721.0,12313779.0,0.0,0.0,18.0,2554.0
0.0,8.696,91.304,0.0,0.0,0.0,0.0,0.0,6608148.0,12585425.0,0.0,0.0,18.0,2700.0
4.167,10.417,84.375,0.0,0.0,1.042,0.0,0.0,6631167.0,12580782.0,0.0,0.0,19.0,2657.0
1.042,9.375,88.542,0.0,0.0,1.042,0.0,0.0,6550577.0,12499719.0,0.0,0.0,18.0,2424.0
2.020,9.091,85.859,3.030,0.0,0.0,0.0,40960.0,4648335.0,8850682.0,0.0,0.0,18.0,1809.0
