"Dstat 0.7.2 CSV output"
"Author:","Dag Wieers <dag@wieers.com>",,,,"URL:","http://dag.wieers.com/home-made/dstat/"
"Host:","Server1",,,,"User:","maki"
"Cmdline:","dstat --output server_8_multi_get_sharded_3_2_6.csv 1 70",,,,"Date:","30 Nov 2018 21:03:01 UTC"

"total cpu usage",,,,,,"dsk/total",,"net/total",,"paging",,"system",
"usr","sys","idl","wai","hiq","siq","read","writ","recv","send","in","out","int","csw"
4.636,6.243,85.564,3.026,0.0,0.531,81441.130,429669.108,0.0,0.0,0.0,0.0,19.947,1606.005
2.174,5.435,91.304,0.0,0.0,1.087,0.0,0.0,5547814.0,10578503.0,0.0,0.0,18.0,3219.0
2.128,7.447,88.298,0.0,0.0,2.128,0.0,0.0,6858731.0,13036576.0,0.0,0.0,19.0,3886.0
3.297,7.692,89.011,0.0,0.0,0.0,0.0,0.0,6574430.0,12467341.0,0.0,0.0,18.0,3318.0
4.211,9.474,85.263,0.0,0.0,1.053,0.0,0.0,6600125.0,12562315.0,0.0,0.0,18.0,3143.0
4.301,5.376,90.323,0.0,0.0,0.0,0.0,0.0,6567377.0,12492308.0,0.0,0.0,18.0,2796.0
2.174,4.348,91.304,0.0,0.0,2.174,0.0,0.0,6576383.0,12492030.0,0.0,0.0,19.0,2633.0
2.174,8.696,89.130,0.0,0.0,0.0,0.0,0.0,6586308.0,12503305.0,0.0,0.0,18.0,2650.0
3.226,8.602,88.172,0.0,0.0,0.0,0.0,0.0,6581175.0,12534115.0,0.0,0.0,18.0,2691.0
2.105,9.474,86.316,0.0,0.0,2.105,0.0,0.0,6572424.0,12500321.0,0.0,0.0,18.0,2840.0
3.061,11.224,84.694,0.0,0.0,1.020,0.0,0.0,6573139.0,12478489.0,0.0,0.0,18.0,2721.0
2.151,7.527,90.323,0.0,0.0,0.0,0.0,0.0,6580830.0,12483802.0,0.0,0.0,19.0,2730.0
1.075,7.527,90.323,0.0,0.0,1.075,0.0,0.0,6576362.0,12500038.0,0.0,0.0,18.0,2677.0
5.435,8.696,83.696,0.0,0.0,2.174,0.0,0.0,6573595.0,12511828.0,0.0,0.0,18.0,2746.0
3.158,5.263,77.895,11.579,0.0,2.105,0.0,32768.0,6580796.0,12475476.0,0.0,0.0,18.0,2881.0
0.0,7.692,92.308,0.0,0.0,0.0,0.0,0.0,6577373.0,12525631.0,0.0,0.0,19.0,2990.0
3.297,5.495,89.011,0.0,0.0,2.198,0.0,0.0,6545885.0,12435227.0,0.0,0.0,18.0,3033.0
3.093,9.278,86.598,0.0,0.0,1.031,0.0,0.0,6612977.0,12594131.0,0.0,0.0,18.0,3092.0
3.226,7.527,87.097,0.0,0.0,2.151,0.0,0.0,6571935.0,12475189.0,0.0,0.0,18.0,3041.0
4.167,9.375,85.417,0.0,0.0,1.042,0.0,0.0,6559662.0,12453710.0,0.0,0.0,18.0,3119.0
3.191,8.511,88.298,0.0,0.0,0.0,0.0,0.0,6594022.0,12517770.0,0.0,0.0,19.0,3029.0
3.261,6.522,90.217,0.0,0.0,0.0,0.0,0.0,6562798.0,12466320.0,0.0,0.0,18.0,2991.0
3.158,7.368,85.263,0.0,0.0,4.211,0.0,0.0,6551120.0,12477352.0,0.0,0.0,18.0,2808.0
4.211,9.474,85.263,0.0,0.0,1.053,0.0,0.0,6608053.0,12568288.0,0.0,0.0,18.0,2982.0
2.222,5.556,92.222,0.0,0.0,0.0,0.0,0.0,6580661.0,12492459.0,0.0,0.0,18.0,2917.0
5.319,7.447,86.170,0.0,0.0,1.064,0.0,0.0,6581774.0,12503259.0,0.0,0.0,19.0,2969.0
0.0,8.791,91.209,0.0,0.0,0.0,0.0,0.0,6567561.0,12475002.0,0.0,0.0,18.0,2935.0
3.158,8.421,88.421,0.0,0.0,0.0,0.0,0.0,6589787.0,12509372.0,0.0,0.0,18.0,2983.0
5.495,6.593,85.714,0.0,0.0,2.198,0.0,0.0,6551341.0,12468892.0,0.0,0.0,18.0,2972.0
4.348,5.435,90.217,0.0,0.0,0.0,0.0,0.0,6599144.0,12542886.0,0.0,0.0,18.0,2971.0
2.151,7.527,90.323,0.0,0.0,0.0,0.0,0.0,6580977.0,12492531.0,0.0,0.0,19.0,2955.0
2.128,9.574,86.170,0.0,0.0,2.128,0.0,0.0,6577883.0,12494618.0,0.0,0.0,18.0,2681.0
3.093,9.278,85.567,0.0,0.0,2.062,0.0,0.0,6575905.0,12492140.0,0.0,0.0,18.0,2911.0
3.191,10.638,86.170,0.0,0.0,0.0,0.0,0.0,6576930.0,12533864.0,0.0,0.0,18.0,2837.0
6.316,7.368,86.316,0.0,0.0,0.0,0.0,16384.0,6630658.0,12563392.0,0.0,0.0,18.0,2851.0
2.105,9.474,88.421,0.0,0.0,0.0,0.0,0.0,6571563.0,12466923.0,0.0,0.0,19.0,2885.0
2.151,5.376,90.323,0.0,0.0,2.151,0.0,0.0,6575391.0,12542452.0,0.0,0.0,18.0,2821.0
3.158,9.474,86.316,0.0,0.0,1.053,0.0,0.0,6603496.0,12486734.0,0.0,0.0,18.0,3020.0
4.124,16.495,78.351,0.0,0.0,1.031,0.0,0.0,6343961.0,12083115.0,0.0,0.0,18.0,3177.0
1.111,6.667,92.222,0.0,0.0,0.0,0.0,0.0,6804121.0,12935209.0,0.0,0.0,18.0,3395.0
3.226,6.452,88.172,0.0,0.0,2.151,0.0,0.0,6600257.0,12496765.0,0.0,0.0,19.0,2857.0
3.226,6.452,89.247,0.0,0.0,1.075,0.0,0.0,6572003.0,12511120.0,0.0,0.0,18.0,2948.0
4.211,7.368,88.421,0.0,0.0,0.0,0.0,0.0,6562421.0,12512808.0,0.0,0.0,18.0,2973.0
3.261,7.609,89.130,0.0,0.0,0.0,0.0,0.0,5864310.0,11083452.0,0.0,0.0,18.0,3145.0
2.198,6.593,90.110,0.0,0.0,1.099,0.0,8192.0,6624508.0,12599934.0,0.0,0.0,19.0,2814.0
2.151,5.376,89.247,1.075,0.0,2.151,0.0,36864.0,6559099.0,12522948.0,0.0,0.0,18.0,2669.0
3.261,6.522,89.130,0.0,0.0,1.087,0.0,0.0,6603661.0,12512492.0,0.0,0.0,18.0,2581.0
1.087,6.522,91.304,0.0,0.0,1.087,0.0,0.0,6576674.0,12497905.0,0.0,0.0,18.0,2744.0
3.191,7.447,88.298,0.0,0.0,1.064,0.0,0.0,6558476.0,12495367.0,0.0,0.0,18.0,2795.0
3.261,8.696,85.870,0.0,0.0,2.174,0.0,0.0,6573348.0,12479542.0,0.0,0.0,19.0,2757.0
3.261,5.435,91.304,0.0,0.0,0.0,0.0,0.0,6570741.0,12522558.0,0.0,0.0,18.0,2740.0
4.301,6.452,89.247,0.0,0.0,0.0,0.0,0.0,6593312.0,12469487.0,0.0,0.0,18.0,2704.0
4.211,7.368,87.368,0.0,0.0,1.053,0.0,0.0,6577559.0,12531437.0,0.0,0.0,18.0,2735.0
2.105,9.474,88.421,0.0,0.0,0.0,0.0,0.0,6594618.0,12537821.0,0.0,0.0,18.0,2732.0
4.167,8.333,85.417,0.0,0.0,2.083,0.0,0.0,6639574.0,12647696.0,0.0,0.0,19.0,2862.0
2.174,7.609,89.130,0.0,0.0,1.087,0.0,0.0,6581448.0,12472718.0,0.0,0.0,17.0,2829.0
4.167,6.250,88.542,0.0,0.0,1.042,0.0,0.0,6571817.0,12486525.0,0.0,0.0,19.0,2580.0
2.151,7.527,90.323,0.0,0.0,0.0,0.0,0.0,6553988.0,12477561.0,0.0,0.0,18.0,2901.0
4.211,7.368,86.316,0.0,0.0,2.105,0.0,0.0,6559082.0,12428008.0,0.0,0.0,18.0,2854.0
4.301,7.527,88.172,0.0,0.0,0.0,0.0,0.0,6611920.0,12570048.0,0.0,0.0,19.0,2694.0
3.297,4.396,92.308,0.0,0.0,0.0,0.0,0.0,6571916.0,12510515.0,0.0,0.0,18.0,2626.0
3.191,8.511,87.234,0.0,0.0,1.064,0.0,0.0,6609784.0,12599278.0,0.0,0.0,18.0,2763.0
3.191,7.447,89.362,0.0,0.0,0.0,0.0,0.0,6593683.0,12479718.0,0.0,0.0,18.0,2647.0
2.151,8.602,89.247,0.0,0.0,0.0,0.0,0.0,6577918.0,12522268.0,0.0,0.0,18.0,2727.0
5.376,6.452,87.097,0.0,0.0,1.075,0.0,0.0,6581881.0,12509852.0,0.0,0.0,19.0,2742.0
3.226,7.527,89.247,0.0,0.0,0.0,0.0,8192.0,6587519.0,12489039.0,0.0,0.0,18.0,2737.0
2.105,8.421,88.421,0.0,0.0,1.053,0.0,0.0,6565824.0,12513516.0,0.0,0.0,18.0,2660.0
4.348,5.435,88.043,0.0,0.0,2.174,0.0,0.0,6595226.0,12534107.0,0.0,0.0,18.0,2574.0
3.191,6.383,89.362,0.0,0.0,1.064,0.0,0.0,6563291.0,12486181.0,0.0,0.0,18.0,2844.0
3.226,8.602,88.172,0.0,0.0,0.0,0.0,0.0,6593951.0,12520491.0,0.0,0.0,19.0,2716.0
3.191,6.383,89.362,0.0,0.0,1.064,0.0,0.0,5773210.0,10945784.0,0.0,0.0,18.0,2574.0
