"Dstat 0.7.2 CSV output"
"Author:","Dag Wieers <dag@wieers.com>",,,,"URL:","http://dag.wieers.com/home-made/dstat/"
"Host:","Server1",,,,"User:","maki"
"Cmdline:","dstat --output server_8_multi_get_sharded_4_2_9.csv 1 70",,,,"Date:","30 Nov 2018 21:13:35 UTC"

"total cpu usage",,,,,,"dsk/total",,"net/total",,"paging",,"system",
"usr","sys","idl","wai","hiq","siq","read","writ","recv","send","in","out","int","csw"
4.124,5.853,87.194,2.305,0.0,0.524,61070.479,322565.801,0.0,0.0,0.0,0.0,19.512,1672.131
3.125,3.125,91.667,0.0,0.0,2.083,0.0,0.0,3955720.0,11189314.0,0.0,0.0,19.0,2310.0
2.105,6.316,91.579,0.0,0.0,0.0,0.0,0.0,4438017.0,12477320.0,0.0,0.0,18.0,2478.0
4.255,6.383,88.298,0.0,0.0,1.064,0.0,0.0,4442380.0,12513341.0,0.0,0.0,18.0,2269.0
1.020,10.204,88.776,0.0,0.0,0.0,0.0,0.0,4503597.0,12587964.0,0.0,0.0,18.0,2339.0
3.125,5.208,90.625,0.0,0.0,1.042,0.0,0.0,4465193.0,12629379.0,0.0,0.0,18.0,2133.0
3.158,8.421,86.316,0.0,0.0,2.105,0.0,0.0,4377204.0,12231289.0,0.0,0.0,18.0,2029.0
2.128,5.319,69.149,22.340,0.0,1.064,0.0,102400.0,4466999.0,12514617.0,0.0,0.0,19.0,1950.0
2.151,6.452,91.398,0.0,0.0,0.0,0.0,0.0,4467706.0,12621965.0,0.0,0.0,18.0,1940.0
4.124,4.124,88.660,0.0,0.0,3.093,0.0,0.0,4431385.0,12439096.0,0.0,0.0,18.0,1899.0
2.128,4.255,93.617,0.0,0.0,0.0,0.0,0.0,4426227.0,12509308.0,0.0,0.0,19.0,1878.0
3.093,6.186,89.691,0.0,0.0,1.031,0.0,0.0,4439472.0,12449727.0,0.0,0.0,18.0,1871.0
3.125,5.208,90.625,0.0,0.0,1.042,0.0,0.0,4432362.0,12475530.0,0.0,0.0,18.0,1933.0
3.093,5.155,88.660,0.0,0.0,3.093,0.0,0.0,4434713.0,12436566.0,0.0,0.0,18.0,1944.0
3.191,3.191,92.553,0.0,0.0,1.064,0.0,0.0,4422531.0,12473935.0,0.0,0.0,18.0,1881.0
2.105,5.263,90.526,0.0,0.0,2.105,0.0,0.0,4450488.0,12477812.0,0.0,0.0,19.0,1979.0
2.062,6.186,89.691,0.0,0.0,2.062,0.0,0.0,4431486.0,12460233.0,0.0,0.0,18.0,1886.0
1.064,7.447,91.489,0.0,0.0,0.0,0.0,0.0,4425941.0,12472544.0,0.0,0.0,18.0,1812.0
3.125,9.375,86.458,0.0,0.0,1.042,0.0,0.0,4440092.0,12461331.0,0.0,0.0,18.0,1837.0
2.083,5.208,90.625,0.0,0.0,2.083,0.0,0.0,4421562.0,12420347.0,0.0,0.0,18.0,1835.0
2.105,5.263,91.579,0.0,0.0,1.053,0.0,0.0,4444838.0,12475124.0,0.0,0.0,19.0,1877.0
3.158,5.263,89.474,0.0,0.0,2.105,0.0,0.0,4433404.0,12527091.0,0.0,0.0,18.0,1869.0
0.0,7.368,92.632,0.0,0.0,0.0,0.0,0.0,4426074.0,12435275.0,0.0,0.0,18.0,1739.0
2.151,4.301,91.398,0.0,0.0,2.151,0.0,0.0,4439775.0,12449201.0,0.0,0.0,18.0,1889.0
4.082,6.122,87.755,0.0,0.0,2.041,0.0,0.0,4437304.0,12452069.0,0.0,0.0,18.0,1938.0
3.191,3.191,92.553,0.0,0.0,1.064,0.0,0.0,4425686.0,12434298.0,0.0,0.0,19.0,1867.0
0.0,6.383,93.617,0.0,0.0,0.0,0.0,0.0,4439941.0,12523752.0,0.0,0.0,18.0,1828.0
3.158,4.211,91.579,0.0,0.0,1.053,0.0,0.0,4418611.0,12412495.0,0.0,0.0,18.0,1934.0
4.167,5.208,88.542,0.0,0.0,2.083,0.0,0.0,4435220.0,12447541.0,0.0,0.0,18.0,1835.0
2.083,5.208,90.625,0.0,0.0,2.083,0.0,0.0,4444574.0,12524656.0,0.0,0.0,18.0,1936.0
3.125,6.250,89.583,0.0,0.0,1.042,0.0,0.0,4435984.0,12464447.0,0.0,0.0,19.0,1960.0
3.125,4.167,91.667,0.0,0.0,1.042,0.0,0.0,4418240.0,12448571.0,0.0,0.0,18.0,1888.0
1.053,6.316,91.579,0.0,0.0,1.053,0.0,12288.0,4444882.0,12485795.0,0.0,0.0,18.0,1801.0
5.319,6.383,86.170,0.0,0.0,2.128,0.0,0.0,4432055.0,12437781.0,0.0,0.0,18.0,1955.0
3.093,5.155,90.722,0.0,0.0,1.031,0.0,0.0,4436933.0,12451205.0,0.0,0.0,18.0,1877.0
1.075,5.376,93.548,0.0,0.0,0.0,0.0,0.0,4429809.0,12483955.0,0.0,0.0,19.0,1953.0
3.158,5.263,90.526,0.0,0.0,1.053,0.0,0.0,4413321.0,12435141.0,0.0,0.0,18.0,1865.0
2.151,3.226,94.624,0.0,0.0,0.0,0.0,0.0,4452051.0,12438736.0,0.0,0.0,18.0,1867.0
2.105,6.316,86.316,3.158,0.0,2.105,0.0,20480.0,4432310.0,12524828.0,0.0,0.0,18.0,1906.0
3.191,4.255,91.489,0.0,0.0,1.064,0.0,0.0,4440747.0,12452243.0,0.0,0.0,18.0,1880.0
3.158,3.158,91.579,0.0,0.0,2.105,0.0,0.0,4422582.0,12435944.0,0.0,0.0,19.0,1892.0
2.128,4.255,93.617,0.0,0.0,0.0,0.0,0.0,4440038.0,12509526.0,0.0,0.0,18.0,1923.0
2.083,5.208,91.667,0.0,0.0,1.042,0.0,0.0,4403473.0,12344955.0,0.0,0.0,18.0,1785.0
4.301,4.301,90.323,0.0,0.0,1.075,0.0,0.0,4467660.0,12525815.0,0.0,0.0,18.0,2038.0
2.105,6.316,91.579,0.0,0.0,0.0,0.0,0.0,4495540.0,12702099.0,0.0,0.0,18.0,2046.0
2.105,4.211,92.632,0.0,0.0,1.053,0.0,0.0,4440527.0,12450522.0,0.0,0.0,19.0,1854.0
3.191,4.255,91.489,0.0,0.0,1.064,0.0,0.0,4432554.0,12465240.0,0.0,0.0,18.0,1907.0
3.125,5.208,90.625,0.0,0.0,1.042,0.0,0.0,4434936.0,12423649.0,0.0,0.0,18.0,1888.0
2.151,5.376,91.398,0.0,0.0,1.075,0.0,0.0,4418514.0,12486260.0,0.0,0.0,18.0,1983.0
3.125,6.250,88.542,0.0,0.0,2.083,0.0,0.0,4450381.0,12504586.0,0.0,0.0,18.0,2041.0
2.128,3.191,93.617,0.0,0.0,1.064,0.0,0.0,4425588.0,12409269.0,0.0,0.0,19.0,1976.0
1.075,3.226,94.624,0.0,0.0,1.075,0.0,0.0,4435749.0,12522466.0,0.0,0.0,18.0,1946.0
5.208,5.208,88.542,0.0,0.0,1.042,0.0,0.0,4436599.0,12463195.0,0.0,0.0,18.0,1984.0
1.075,5.376,92.473,0.0,0.0,1.075,0.0,0.0,4435818.0,12461861.0,0.0,0.0,18.0,1937.0
1.064,6.383,92.553,0.0,0.0,0.0,0.0,0.0,4497464.0,12598600.0,0.0,0.0,19.0,2055.0
3.158,6.316,90.526,0.0,0.0,0.0,0.0,0.0,4431561.0,12424080.0,0.0,0.0,18.0,2014.0
2.083,4.167,91.667,0.0,0.0,2.083,0.0,0.0,4409725.0,12470676.0,0.0,0.0,18.0,1884.0
2.151,3.226,93.548,0.0,0.0,1.075,0.0,0.0,4444945.0,12488853.0,0.0,0.0,18.0,1964.0
5.155,7.216,86.598,0.0,0.0,1.031,0.0,0.0,4449772.0,12501359.0,0.0,0.0,18.0,2001.0
1.087,4.348,94.565,0.0,0.0,0.0,0.0,0.0,4431713.0,12450947.0,0.0,0.0,19.0,1864.0
4.124,4.124,90.722,0.0,0.0,1.031,0.0,0.0,4494620.0,12664630.0,0.0,0.0,18.0,1932.0
5.208,4.167,89.583,0.0,0.0,1.042,0.0,0.0,4445163.0,12475354.0,0.0,0.0,18.0,1952.0
2.041,7.143,89.796,0.0,0.0,1.020,0.0,0.0,4430690.0,12449038.0,0.0,0.0,18.0,2000.0
3.125,7.292,88.542,0.0,0.0,1.042,0.0,8192.0,4418455.0,12472472.0,0.0,0.0,18.0,1900.0
2.105,6.316,89.474,0.0,0.0,2.105,0.0,0.0,4454615.0,12478590.0,0.0,0.0,19.0,1954.0
5.155,5.155,89.691,0.0,0.0,0.0,0.0,0.0,4430122.0,12473017.0,0.0,0.0,18.0,2017.0
4.255,5.319,88.298,0.0,0.0,2.128,0.0,0.0,4433719.0,12477946.0,0.0,0.0,18.0,1916.0
2.174,6.522,91.304,0.0,0.0,0.0,0.0,0.0,4428407.0,12451160.0,0.0,0.0,18.0,1991.0
3.061,7.143,85.714,2.041,0.0,2.041,0.0,73728.0,4430082.0,12423951.0,0.0,0.0,18.0,1963.0
0.0,4.301,94.624,0.0,0.0,1.075,0.0,0.0,4447511.0,12461273.0,0.0,0.0,19.0,2045.0
5.102,5.102,88.776,0.0,0.0,1.020,0.0,0.0,3738842.0,10548157.0,0.0,0.0,18.0,1647.0
