"Dstat 0.7.2 CSV output"
"Author:","Dag Wieers <dag@wieers.com>",,,,"URL:","http://dag.wieers.com/home-made/dstat/"
"Host:","Server1",,,,"User:","maki"
"Cmdline:","dstat --output server_8_multi_get_3_2_3.csv 1 70",,,,"Date:","30 Nov 2018 21:34:21 UTC"

"total cpu usage",,,,,,"dsk/total",,"net/total",,"paging",,"system",
"usr","sys","idl","wai","hiq","siq","read","writ","recv","send","in","out","int","csw"
3.626,5.324,88.912,1.579,0.0,0.559,40934.342,216822.323,0.0,0.0,0.0,0.0,19.082,1759.757
4.301,5.376,88.172,0.0,0.0,2.151,0.0,0.0,7259905.0,7167939.0,0.0,0.0,18.0,3245.0
4.301,6.452,88.172,0.0,0.0,1.075,0.0,0.0,9040276.0,8909057.0,0.0,0.0,18.0,3732.0
2.151,7.527,89.247,0.0,0.0,1.075,0.0,0.0,8601771.0,8519796.0,0.0,0.0,18.0,3752.0
7.692,7.692,82.418,0.0,0.0,2.198,0.0,0.0,9718935.0,9593974.0,0.0,0.0,18.0,3908.0
3.261,8.696,85.870,2.174,0.0,0.0,0.0,57344.0,11337720.0,11125090.0,0.0,0.0,19.0,4551.0
3.261,9.783,86.957,0.0,0.0,0.0,0.0,0.0,11412784.0,11279321.0,0.0,0.0,18.0,4618.0
4.348,9.783,83.696,0.0,0.0,2.174,0.0,0.0,11650652.0,11476493.0,0.0,0.0,18.0,4692.0
7.447,9.574,81.915,0.0,0.0,1.064,0.0,0.0,11372327.0,11229162.0,0.0,0.0,18.0,4471.0
4.348,10.870,83.696,0.0,0.0,1.087,0.0,0.0,10794651.0,10622558.0,0.0,0.0,19.0,4102.0
5.435,8.696,83.696,0.0,0.0,2.174,0.0,0.0,11637321.0,11449827.0,0.0,0.0,18.0,4323.0
5.435,8.696,84.783,0.0,0.0,1.087,0.0,0.0,11970749.0,11822611.0,0.0,0.0,18.0,4827.0
3.297,7.692,89.011,0.0,0.0,0.0,0.0,0.0,11121607.0,10968967.0,0.0,0.0,18.0,4399.0
6.122,12.245,80.612,0.0,0.0,1.020,0.0,0.0,10834926.0,10674584.0,0.0,0.0,18.0,4146.0
6.522,8.696,83.696,0.0,0.0,1.087,0.0,0.0,11267134.0,11086940.0,0.0,0.0,19.0,4377.0
2.198,7.692,87.912,0.0,0.0,2.198,0.0,0.0,10777884.0,10648807.0,0.0,0.0,18.0,4238.0
8.889,6.667,84.444,0.0,0.0,0.0,0.0,0.0,11174879.0,11002265.0,0.0,0.0,18.0,4369.0
3.226,9.677,86.022,0.0,0.0,1.075,0.0,0.0,11075334.0,10917542.0,0.0,0.0,18.0,4369.0
2.174,10.870,84.783,0.0,0.0,2.174,0.0,0.0,10910019.0,10739460.0,0.0,0.0,18.0,4238.0
6.383,10.638,82.979,0.0,0.0,0.0,0.0,0.0,9940852.0,9828767.0,0.0,0.0,19.0,4051.0
2.128,10.638,85.106,0.0,0.0,2.128,0.0,0.0,10918345.0,10764936.0,0.0,0.0,18.0,4109.0
4.167,11.458,83.333,0.0,0.0,1.042,0.0,0.0,11601229.0,11422830.0,0.0,0.0,18.0,4568.0
8.511,8.511,81.915,0.0,0.0,1.064,0.0,0.0,11098658.0,10961928.0,0.0,0.0,18.0,4413.0
2.198,13.187,84.615,0.0,0.0,0.0,0.0,0.0,10697037.0,10535879.0,0.0,0.0,18.0,4482.0
4.348,9.783,83.696,0.0,0.0,2.174,0.0,0.0,11061798.0,10867334.0,0.0,0.0,19.0,4361.0
6.593,8.791,82.418,0.0,0.0,2.198,0.0,0.0,10989756.0,10832721.0,0.0,0.0,18.0,4201.0
4.348,8.696,86.957,0.0,0.0,0.0,0.0,0.0,11430297.0,11268096.0,0.0,0.0,18.0,4457.0
5.435,8.696,84.783,0.0,0.0,1.087,0.0,0.0,11001874.0,10844208.0,0.0,0.0,18.0,4391.0
5.435,10.870,82.609,0.0,0.0,1.087,0.0,0.0,10862255.0,10711555.0,0.0,0.0,18.0,4162.0
6.250,12.500,80.208,0.0,0.0,1.042,0.0,0.0,11181621.0,11038255.0,0.0,0.0,19.0,4395.0
3.371,6.742,88.764,0.0,0.0,1.124,0.0,8192.0,11153780.0,10994468.0,0.0,0.0,18.0,4298.0
4.167,10.417,85.417,0.0,0.0,0.0,0.0,0.0,9434070.0,9245030.0,0.0,0.0,18.0,3696.0
1.053,4.211,93.684,0.0,0.0,1.053,0.0,0.0,4310272.0,4259175.0,0.0,0.0,18.0,1530.0
2.083,6.250,90.625,0.0,0.0,1.042,0.0,0.0,5903524.0,5817037.0,0.0,0.0,18.0,2186.0
6.742,7.865,85.393,0.0,0.0,0.0,0.0,0.0,11404366.0,11255053.0,0.0,0.0,19.0,4449.0
1.042,5.208,90.625,2.083,0.0,1.042,0.0,53248.0,5927840.0,5766181.0,0.0,0.0,18.0,2276.0
2.198,7.692,68.132,20.879,0.0,1.099,0.0,4096.0,9162962.0,9073358.0,0.0,0.0,18.0,3547.0
4.545,6.818,88.636,0.0,0.0,0.0,0.0,0.0,11570714.0,11407498.0,0.0,0.0,18.0,4496.0
7.368,8.421,84.211,0.0,0.0,0.0,0.0,0.0,11583249.0,11397021.0,0.0,0.0,18.0,4670.0
5.376,10.753,81.720,0.0,0.0,2.151,0.0,0.0,9720080.0,9567243.0,0.0,0.0,19.0,3850.0
7.216,11.340,79.381,0.0,0.0,2.062,0.0,0.0,11361126.0,11191303.0,0.0,0.0,18.0,4526.0
4.211,11.579,84.211,0.0,0.0,0.0,0.0,0.0,11841122.0,11680125.0,0.0,0.0,18.0,4559.0
4.167,4.167,89.583,0.0,0.0,2.083,0.0,0.0,6330978.0,6215088.0,0.0,0.0,18.0,2465.0
2.062,6.186,90.722,0.0,0.0,1.031,0.0,0.0,6620561.0,6494148.0,0.0,0.0,19.0,2677.0
4.301,10.753,82.796,0.0,0.0,2.151,0.0,0.0,11443834.0,11305541.0,0.0,0.0,18.0,4491.0
5.102,11.224,81.633,0.0,0.0,2.041,0.0,0.0,9922539.0,9748291.0,0.0,0.0,18.0,4118.0
3.371,8.989,86.517,0.0,0.0,1.124,0.0,0.0,11350712.0,11163196.0,0.0,0.0,18.0,4407.0
2.247,11.236,86.517,0.0,0.0,0.0,0.0,0.0,11687610.0,11537724.0,0.0,0.0,18.0,4511.0
6.452,7.527,83.871,0.0,0.0,2.151,0.0,0.0,10997069.0,10822354.0,0.0,0.0,19.0,4379.0
4.348,10.870,84.783,0.0,0.0,0.0,0.0,0.0,10866163.0,10748234.0,0.0,0.0,18.0,4369.0
3.297,7.692,87.912,0.0,0.0,1.099,0.0,0.0,11324031.0,11138677.0,0.0,0.0,18.0,4462.0
5.495,9.890,83.516,0.0,0.0,1.099,0.0,0.0,11274254.0,11140497.0,0.0,0.0,18.0,4333.0
4.211,12.632,82.105,0.0,0.0,1.053,0.0,0.0,11595149.0,11409591.0,0.0,0.0,18.0,4539.0
4.255,9.574,85.106,0.0,0.0,1.064,0.0,0.0,11337686.0,11166020.0,0.0,0.0,19.0,4693.0
7.609,8.696,80.435,0.0,0.0,3.261,0.0,0.0,10849534.0,10714755.0,0.0,0.0,18.0,4093.0
5.556,6.667,87.778,0.0,0.0,0.0,0.0,0.0,11561662.0,11371330.0,0.0,0.0,18.0,4335.0
6.186,12.371,81.443,0.0,0.0,0.0,0.0,0.0,11872627.0,11720191.0,0.0,0.0,18.0,4693.0
5.435,8.696,84.783,0.0,0.0,1.087,0.0,0.0,10862889.0,10703296.0,0.0,0.0,18.0,4308.0
3.261,9.783,84.783,0.0,0.0,2.174,0.0,0.0,10939450.0,10788876.0,0.0,0.0,19.0,4425.0
3.297,10.989,85.714,0.0,0.0,0.0,0.0,0.0,10855392.0,10699701.0,0.0,0.0,18.0,4443.0
4.444,8.889,85.556,0.0,0.0,1.111,0.0,0.0,11288048.0,11139682.0,0.0,0.0,18.0,4588.0
2.222,10.0,86.667,0.0,0.0,1.111,0.0,0.0,11543343.0,11383626.0,0.0,0.0,18.0,4608.0
5.435,8.696,85.870,0.0,0.0,0.0,0.0,0.0,11099772.0,10933063.0,0.0,0.0,18.0,4394.0
6.522,7.609,84.783,0.0,0.0,1.087,0.0,0.0,10884566.0,10717106.0,0.0,0.0,19.0,4381.0
3.297,8.791,85.714,0.0,0.0,2.198,0.0,0.0,10321095.0,10197026.0,0.0,0.0,18.0,4175.0
4.348,7.609,88.043,0.0,0.0,0.0,0.0,0.0,11310361.0,11140184.0,0.0,0.0,18.0,4470.0
6.316,11.579,77.895,2.105,0.0,2.105,0.0,40960.0,11733008.0,11566799.0,0.0,0.0,18.0,4564.0
4.396,8.791,85.714,0.0,0.0,1.099,0.0,0.0,12161274.0,11976835.0,0.0,0.0,18.0,4864.0
4.301,11.828,83.871,0.0,0.0,0.0,0.0,0.0,11429265.0,11278267.0,0.0,0.0,18.0,4581.0
9.783,7.609,79.348,0.0,0.0,3.261,0.0,0.0,11626693.0,11449297.0,0.0,0.0,19.0,4395.0
3.297,4.396,92.308,0.0,0.0,0.0,0.0,0.0,8308581.0,8190870.0,0.0,0.0,18.0,3300.0
