1         Threads
32        Connections per thread
70        Seconds


ALL STATS
========================================================================
Type        Ops/sec     Hits/sec   Misses/sec      Latency       KB/sec 
------------------------------------------------------------------------
Sets           0.00          ---          ---      0.00000         0.00 
Gets         510.91       510.91         0.00     62.62200      2069.46 
Waits          0.00          ---          ---      0.00000          --- 
Totals       510.91       510.91         0.00     62.62200      2069.46 


Request Latency Distribution
Type     <= msec         Percent
------------------------------------------------------------------------
---
GET      14.000         0.00
GET      17.000         0.01
GET      18.000         0.02
GET      19.000         0.02
GET      20.000         0.03
GET      21.000         0.03
GET      22.000         0.04
GET      23.000         0.04
GET      24.000         0.05
GET      25.000         0.06
GET      26.000         0.06
GET      30.000         0.10
GET      31.000         0.63
GET      32.000         1.21
GET      33.000         1.34
GET      34.000         1.37
GET      35.000         1.40
GET      37.000         1.40
GET      38.000         1.41
GET      39.000         1.41
GET      40.000         1.43
GET      41.000         1.43
GET      42.000         1.44
GET      43.000         1.47
GET      44.000         1.53
GET      45.000         1.78
GET      46.000         4.25
GET      47.000        18.57
GET      48.000        22.78
GET      49.000        23.21
GET      50.000        23.42
GET      51.000        23.56
GET      52.000        23.65
GET      53.000        23.70
GET      54.000        23.73
GET      55.000        23.76
GET      56.000        23.80
GET      57.000        23.96
GET      58.000        24.08
GET      59.000        24.48
GET      60.000        25.19
GET      61.000        27.65
GET      62.000        55.50
GET      63.000        79.09
GET      64.000        81.10
GET      65.000        81.78
GET      66.000        82.07
GET      67.000        82.22
GET      68.000        82.31
GET      69.000        82.35
GET      70.000        82.37
GET      71.000        82.39
GET      72.000        82.41
GET      73.000        82.48
GET      74.000        82.58
GET      75.000        82.73
GET      76.000        83.02
GET      77.000        85.45
GET      78.000        93.10
GET      79.000        95.00
GET      80.000        95.13
GET      81.000        95.21
GET      82.000        95.25
GET      83.000        95.26
GET      84.000        95.27
GET      85.000        95.28
GET      86.000        95.28
GET      88.000        95.28
GET      89.000        95.29
GET      90.000        95.31
GET      91.000        95.35
GET      92.000        95.56
GET      93.000        96.88
GET      94.000        98.24
GET      95.000        98.34
GET      96.000        98.37
GET      97.000        98.38
GET      99.000        98.38
GET     100.000        98.39
GET     110.000        99.22
GET     120.000        99.46
GET     130.000        99.62
GET     140.000        99.76
GET     150.000        99.77
GET     160.000        99.81
GET     170.000        99.85
GET     190.000        99.90
GET     200.000        99.91
GET     230.000        99.92
GET     240.000       100.00
---
