1         Threads
32        Connections per thread
70        Seconds


ALL STATS
========================================================================
Type        Ops/sec     Hits/sec   Misses/sec      Latency       KB/sec 
------------------------------------------------------------------------
Sets        2021.49          ---          ---     15.82500      8158.79 
Gets           0.00         0.00         0.00      0.00000         0.00 
Waits          0.00          ---          ---      0.00000          --- 
Totals      2021.49         0.00         0.00     15.82500      8158.79 


Request Latency Distribution
Type     <= msec         Percent
------------------------------------------------------------------------
SET       3.700         0.00
SET       4.400         0.00
SET       4.600         0.00
SET       5.100         0.00
SET       5.200         0.01
SET       5.300         0.01
SET       5.400         0.01
SET       5.500         0.01
SET       5.600         0.02
SET       5.700         0.02
SET       5.800         0.02
SET       5.900         0.03
SET       6.000         0.04
SET       6.100         0.05
SET       6.200         0.06
SET       6.300         0.06
SET       6.400         0.07
SET       6.500         0.07
SET       6.600         0.08
SET       6.700         0.08
SET       6.800         0.08
SET       6.900         0.09
SET       7.000         0.10
SET       7.100         0.11
SET       7.200         0.13
SET       7.300         0.15
SET       7.400         0.17
SET       7.500         0.18
SET       7.600         0.20
SET       7.700         0.22
SET       7.800         0.23
SET       7.900         0.25
SET       8.000         0.27
SET       8.100         0.29
SET       8.200         0.30
SET       8.300         0.32
SET       8.400         0.33
SET       8.500         0.35
SET       8.600         0.37
SET       8.700         0.39
SET       8.800         0.41
SET       8.900         0.45
SET       9.000         0.48
SET       9.100         0.52
SET       9.200         0.54
SET       9.300         0.57
SET       9.400         0.61
SET       9.500         0.65
SET       9.600         0.70
SET       9.700         0.76
SET       9.800         0.83
SET       9.900         0.90
SET      10.000         1.75
SET      11.000         7.50
SET      12.000        19.20
SET      13.000        32.69
SET      14.000        44.33
SET      15.000        53.92
SET      16.000        62.86
SET      17.000        71.01
SET      18.000        78.99
SET      19.000        85.16
SET      20.000        89.84
SET      21.000        93.28
SET      22.000        95.29
SET      23.000        96.47
SET      24.000        97.28
SET      25.000        97.77
SET      26.000        98.21
SET      27.000        98.56
SET      28.000        98.87
SET      29.000        99.10
SET      30.000        99.31
SET      31.000        99.42
SET      32.000        99.51
SET      33.000        99.58
SET      34.000        99.65
SET      35.000        99.69
SET      36.000        99.73
SET      37.000        99.77
SET      38.000        99.81
SET      39.000        99.84
SET      40.000        99.87
SET      41.000        99.89
SET      42.000        99.90
SET      43.000        99.91
SET      44.000        99.92
SET      45.000        99.93
SET      46.000        99.94
SET      47.000        99.95
SET      48.000        99.95
SET      49.000        99.96
SET      50.000        99.96
SET      51.000        99.97
SET      52.000        99.97
SET      53.000        99.98
SET      54.000        99.98
SET      55.000        99.98
SET      56.000        99.98
SET      67.000        99.98
SET      68.000        99.98
SET      69.000        99.99
SET      76.000        99.99
SET      77.000        99.99
SET      78.000        99.99
SET      80.000        99.99
SET      81.000        99.99
SET      88.000        99.99
SET     160.000       100.00
SET     210.000       100.00
SET     220.000       100.00
---
---
