1         Threads
32        Connections per thread
70        Seconds


ALL STATS
========================================================================
Type        Ops/sec     Hits/sec   Misses/sec      Latency       KB/sec 
------------------------------------------------------------------------
Sets        1367.57          ---          ---     23.39400      5519.55 
Gets           0.00         0.00         0.00      0.00000         0.00 
Waits          0.00          ---          ---      0.00000          --- 
Totals      1367.57         0.00         0.00     23.39400      5519.55 


Request Latency Distribution
Type     <= msec         Percent
------------------------------------------------------------------------
SET       4.000         0.00
SET       4.200         0.01
SET       4.300         0.01
SET       4.400         0.01
SET       4.500         0.01
SET       4.700         0.02
SET       4.900         0.02
SET       5.100         0.02
SET       5.200         0.02
SET       5.300         0.03
SET       5.400         0.03
SET       5.500         0.03
SET       5.600         0.03
SET       5.700         0.03
SET       5.800         0.04
SET       5.900         0.04
SET       6.000         0.05
SET       6.100         0.05
SET       6.200         0.06
SET       6.300         0.06
SET       6.400         0.06
SET       6.500         0.06
SET       6.600         0.06
SET       6.700         0.07
SET       6.800         0.07
SET       6.900         0.08
SET       7.000         0.08
SET       7.100         0.08
SET       7.200         0.09
SET       7.300         0.09
SET       7.400         0.10
SET       7.500         0.10
SET       7.600         0.10
SET       7.700         0.10
SET       7.800         0.10
SET       7.900         0.11
SET       8.000         0.11
SET       8.100         0.11
SET       8.200         0.12
SET       8.400         0.12
SET       8.500         0.12
SET       8.600         0.13
SET       8.700         0.13
SET       8.900         0.13
SET       9.000         0.13
SET       9.100         0.13
SET       9.500         0.13
SET       9.600         0.14
SET       9.800         0.14
SET      10.000         0.14
SET      11.000         0.15
SET      12.000         0.15
SET      13.000         0.18
SET      14.000         0.35
SET      15.000         1.31
SET      16.000         4.12
SET      17.000         9.11
SET      18.000        15.35
SET      19.000        22.12
SET      20.000        30.16
SET      21.000        39.65
SET      22.000        49.62
SET      23.000        58.44
SET      24.000        66.16
SET      25.000        72.75
SET      26.000        78.63
SET      27.000        83.40
SET      28.000        87.00
SET      29.000        89.73
SET      30.000        91.67
SET      31.000        93.10
SET      32.000        94.26
SET      33.000        95.23
SET      34.000        96.07
SET      35.000        96.77
SET      36.000        97.38
SET      37.000        97.92
SET      38.000        98.31
SET      39.000        98.67
SET      40.000        98.95
SET      41.000        99.19
SET      42.000        99.35
SET      43.000        99.53
SET      44.000        99.64
SET      45.000        99.73
SET      46.000        99.80
SET      47.000        99.87
SET      48.000        99.90
SET      49.000        99.91
SET      50.000        99.93
SET      51.000        99.93
SET      52.000        99.94
SET      54.000        99.94
SET      55.000        99.95
SET      56.000        99.95
SET      57.000        99.95
SET      58.000        99.95
SET      60.000        99.95
SET      62.000        99.95
SET      63.000        99.96
SET      65.000        99.96
SET      69.000        99.96
SET      72.000        99.96
SET      73.000        99.96
SET      74.000        99.96
SET      75.000        99.96
SET      76.000        99.96
SET      85.000        99.97
SET     100.000        99.97
SET     140.000        99.98
SET     150.000       100.00
---
---
