1         Threads
22        Connections per thread
70        Seconds


ALL STATS
========================================================================
Type        Ops/sec     Hits/sec   Misses/sec      Latency       KB/sec 
------------------------------------------------------------------------
Sets           0.00          ---          ---      0.00000         0.00 
Gets         501.04       501.04         0.00     43.89900      2029.48 
Waits          0.00          ---          ---      0.00000          --- 
Totals       501.04       501.04         0.00     43.89900      2029.48 


Request Latency Distribution
Type     <= msec         Percent
------------------------------------------------------------------------
---
GET      18.000         0.07
GET      19.000         0.09
GET      20.000         0.09
GET      21.000         0.12
GET      22.000         0.16
GET      23.000         0.19
GET      24.000         0.20
GET      25.000         0.21
GET      26.000         0.23
GET      27.000         0.24
GET      28.000         0.28
GET      29.000         0.38
GET      30.000         0.61
GET      31.000         0.90
GET      32.000         1.15
GET      33.000         5.75
GET      34.000        14.68
GET      35.000        17.70
GET      36.000        18.87
GET      37.000        19.46
GET      38.000        19.80
GET      39.000        20.06
GET      40.000        20.31
GET      41.000        20.76
GET      42.000        21.45
GET      43.000        22.98
GET      44.000        26.61
GET      45.000        39.17
GET      46.000        67.69
GET      47.000        91.77
GET      48.000        96.25
GET      49.000        97.80
GET      50.000        98.50
GET      51.000        98.92
GET      52.000        99.16
GET      53.000        99.26
GET      54.000        99.35
GET      55.000        99.43
GET      56.000        99.46
GET      57.000        99.50
GET      58.000        99.55
GET      59.000        99.61
GET      60.000        99.73
GET      61.000        99.83
GET      62.000        99.90
GET      63.000        99.93
GET      65.000        99.94
GET     210.000        99.95
GET     220.000       100.00
GET     240.000       100.00
---
