1         Threads
1         Connections per thread
70        Seconds


ALL STATS
========================================================================
Type        Ops/sec     Hits/sec   Misses/sec      Latency       KB/sec 
------------------------------------------------------------------------
Sets           0.00          ---          ---      0.00000         0.00 
Gets         476.33       476.33         0.00      2.08800      1929.41 
Waits          0.00          ---          ---      0.00000          --- 
Totals       476.33       476.33         0.00      2.08800      1929.41 


Request Latency Distribution
Type     <= msec         Percent
------------------------------------------------------------------------
---
GET       0.830         0.00
GET       0.840         0.01
GET       0.850         0.01
GET       0.870         0.02
GET       0.890         0.02
GET       0.900         0.03
GET       0.910         0.03
GET       0.920         0.04
GET       0.930         0.05
GET       0.940         0.06
GET       0.950         0.07
GET       0.960         0.08
GET       0.970         0.10
GET       0.980         0.13
GET       0.990         0.16
GET       1.000         0.50
GET       1.100         1.96
GET       1.200         6.20
GET       1.300        13.74
GET       1.400        24.49
GET       1.500        36.19
GET       1.600        46.43
GET       1.700        55.04
GET       1.800        61.92
GET       1.900        67.36
GET       2.000        71.54
GET       2.100        74.74
GET       2.200        77.20
GET       2.300        79.55
GET       2.400        81.32
GET       2.500        82.87
GET       2.600        84.07
GET       2.700        85.18
GET       2.800        86.19
GET       2.900        87.02
GET       3.000        87.81
GET       3.100        88.44
GET       3.200        89.08
GET       3.300        89.67
GET       3.400        90.21
GET       3.500        90.77
GET       3.600        91.26
GET       3.700        91.68
GET       3.800        92.11
GET       3.900        92.49
GET       4.000        92.82
GET       4.100        93.23
GET       4.200        93.64
GET       4.300        93.97
GET       4.400        94.21
GET       4.500        94.56
GET       4.600        94.87
GET       4.700        95.18
GET       4.800        95.49
GET       4.900        95.74
GET       5.000        96.00
GET       5.100        96.28
GET       5.200        96.52
GET       5.300        96.77
GET       5.400        97.00
GET       5.500        97.25
GET       5.600        97.51
GET       5.700        97.73
GET       5.800        97.91
GET       5.900        98.06
GET       6.000        98.21
GET       6.100        98.33
GET       6.200        98.48
GET       6.300        98.61
GET       6.400        98.75
GET       6.500        98.87
GET       6.600        98.96
GET       6.700        99.05
GET       6.800        99.12
GET       6.900        99.21
GET       7.000        99.27
GET       7.100        99.34
GET       7.200        99.39
GET       7.300        99.44
GET       7.400        99.47
GET       7.500        99.52
GET       7.600        99.53
GET       7.700        99.56
GET       7.800        99.59
GET       7.900        99.61
GET       8.000        99.65
GET       8.100        99.67
GET       8.200        99.70
GET       8.300        99.72
GET       8.400        99.74
GET       8.500        99.75
GET       8.600        99.77
GET       8.700        99.77
GET       8.800        99.78
GET       8.900        99.79
GET       9.000        99.81
GET       9.100        99.82
GET       9.200        99.84
GET       9.300        99.84
GET       9.400        99.84
GET       9.500        99.85
GET       9.700        99.85
GET       9.800        99.87
GET       9.900        99.87
GET      10.000        99.89
GET      11.000        99.94
GET      12.000        99.95
GET      13.000        99.96
GET      14.000        99.96
GET      15.000        99.97
GET      16.000        99.98
GET      17.000        99.98
GET      18.000        99.99
GET      20.000        99.99
GET      21.000       100.00
GET     180.000       100.00
---
