"Dstat 0.7.2 CSV output"
"Author:","Dag Wieers <dag@wieers.com>",,,,"URL:","http://dag.wieers.com/home-made/dstat/"
"Host:","Server1",,,,"User:","maki"
"Cmdline:","dstat --output server1_16_set_3_42.csv 1 70",,,,"Date:","07 Dec 2018 16:45:12 UTC"

"total cpu usage",,,,,,"dsk/total",,"net/total",,"paging",,"system",
"usr","sys","idl","wai","hiq","siq","read","writ","recv","send","in","out","int","csw"
6.894,10.091,79.660,2.258,0.0,1.097,59914.071,246234.550,0.0,0.0,0.0,0.0,18.844,1991.075
5.882,15.294,76.471,0.0,0.0,2.353,0.0,0.0,24604371.0,795546.0,0.0,0.0,18.0,3358.0
8.333,19.444,68.056,0.0,0.0,4.167,0.0,0.0,32956900.0,1067674.0,0.0,0.0,18.0,3367.0
11.628,30.233,55.814,0.0,0.0,2.326,0.0,0.0,36754855.0,1192256.0,0.0,0.0,18.0,2608.0
13.158,22.368,64.474,0.0,0.0,0.0,0.0,0.0,36013799.0,1168054.0,0.0,0.0,19.0,2329.0
9.524,22.619,65.476,0.0,0.0,2.381,0.0,0.0,41473407.0,1341274.0,0.0,0.0,18.0,2903.0
6.173,23.457,67.901,0.0,0.0,2.469,0.0,0.0,39448028.0,1281156.0,0.0,0.0,18.0,2504.0
7.143,27.381,63.095,0.0,0.0,2.381,0.0,0.0,41910567.0,1356634.0,0.0,0.0,18.0,2987.0
12.048,21.687,65.060,0.0,0.0,1.205,0.0,0.0,40587633.0,1314914.0,0.0,0.0,18.0,2894.0
14.815,20.988,59.259,0.0,0.0,4.938,0.0,0.0,37884025.0,1229434.0,0.0,0.0,19.0,2751.0
7.143,29.762,61.905,0.0,0.0,1.190,0.0,0.0,38106208.0,1234414.0,0.0,0.0,18.0,2538.0
8.791,27.473,60.440,0.0,0.0,3.297,0.0,0.0,39606278.0,1282714.0,0.0,0.0,18.0,2606.0
11.538,30.769,52.564,0.0,0.0,5.128,0.0,0.0,37774419.0,1226136.0,0.0,0.0,18.0,2553.0
11.765,31.765,52.941,0.0,0.0,3.529,0.0,0.0,37605151.0,1219014.0,0.0,0.0,18.0,2570.0
6.173,25.926,61.728,1.235,0.0,4.938,0.0,32768.0,39978071.0,1294754.0,0.0,0.0,19.0,2653.0
10.390,27.273,59.740,0.0,0.0,2.597,0.0,0.0,36473900.0,1183996.0,0.0,0.0,18.0,2457.0
12.658,29.114,53.165,0.0,0.0,5.063,0.0,0.0,37263872.0,1207394.0,0.0,0.0,18.0,2695.0
14.667,30.667,52.0,0.0,0.0,2.667,0.0,0.0,34812675.0,1126334.0,0.0,0.0,18.0,2459.0
17.333,34.667,44.0,0.0,0.0,4.0,0.0,0.0,34040509.0,1106531.0,0.0,0.0,19.0,2308.0
13.699,32.877,49.315,0.0,0.0,4.110,0.0,0.0,35582059.0,1154024.0,0.0,0.0,18.0,2666.0
13.580,37.037,43.210,0.0,0.0,6.173,0.0,0.0,34716205.0,1125374.0,0.0,0.0,18.0,2744.0
16.456,35.443,43.038,0.0,0.0,5.063,0.0,0.0,35293506.0,1145636.0,0.0,0.0,18.0,2518.0
14.667,34.667,46.667,0.0,0.0,4.0,0.0,0.0,35616426.0,1153560.0,0.0,0.0,18.0,2380.0
11.429,30.0,57.143,0.0,0.0,1.429,0.0,0.0,37302496.0,1208094.0,0.0,0.0,19.0,2471.0
9.589,34.247,49.315,0.0,0.0,6.849,0.0,0.0,35402143.0,1149276.0,0.0,0.0,18.0,2275.0
10.526,35.526,48.684,0.0,0.0,5.263,0.0,0.0,36432865.0,1180028.0,0.0,0.0,18.0,2211.0
7.042,29.577,57.746,0.0,0.0,5.634,0.0,0.0,37757529.0,1224054.0,0.0,0.0,18.0,2445.0
8.537,32.927,51.220,0.0,0.0,7.317,0.0,0.0,31363709.0,1020364.0,0.0,0.0,18.0,2122.0
16.216,29.730,51.351,0.0,0.0,2.703,0.0,0.0,35953247.0,1164620.0,0.0,0.0,19.0,2307.0
11.688,35.065,49.351,0.0,0.0,3.896,0.0,0.0,34981439.0,1132480.0,0.0,0.0,18.0,2273.0
18.056,31.944,45.833,0.0,0.0,4.167,0.0,8192.0,35171530.0,1138772.0,0.0,0.0,18.0,2347.0
13.253,31.325,50.602,0.0,0.0,4.819,0.0,0.0,36336423.0,1179152.0,0.0,0.0,18.0,2450.0
11.538,33.333,52.564,0.0,0.0,2.564,0.0,0.0,36524034.0,1183174.0,0.0,0.0,18.0,2300.0
13.158,30.263,53.947,0.0,0.0,2.632,0.0,0.0,36969385.0,1197248.0,0.0,0.0,19.0,2523.0
13.699,34.247,49.315,0.0,0.0,2.740,0.0,0.0,34670999.0,1127576.0,0.0,0.0,18.0,2411.0
10.667,32.0,52.0,0.0,0.0,5.333,0.0,0.0,36376911.0,1176536.0,0.0,0.0,18.0,2518.0
16.216,27.027,51.351,0.0,0.0,5.405,0.0,4096.0,33848580.0,1098651.0,0.0,0.0,18.0,2477.0
10.526,32.895,53.947,0.0,0.0,2.632,0.0,0.0,36728689.0,1194570.0,0.0,0.0,18.0,2359.0
13.699,28.767,52.055,0.0,0.0,5.479,0.0,0.0,36498255.0,1181848.0,0.0,0.0,19.0,2539.0
10.811,32.432,52.703,0.0,0.0,4.054,0.0,0.0,35836462.0,1160634.0,0.0,0.0,18.0,2475.0
13.158,32.895,51.316,0.0,0.0,2.632,0.0,0.0,35868029.0,1164462.0,0.0,0.0,18.0,2230.0
10.127,32.911,53.165,0.0,0.0,3.797,0.0,0.0,36295380.0,1178488.0,0.0,0.0,18.0,2263.0
16.049,27.160,53.086,0.0,0.0,3.704,0.0,0.0,37531905.0,1214062.0,0.0,0.0,18.0,2408.0
13.158,27.632,53.947,0.0,0.0,5.263,0.0,0.0,36265745.0,1178882.0,0.0,0.0,19.0,2323.0
6.849,30.137,58.904,1.370,0.0,2.740,0.0,24576.0,37842114.0,1224128.0,0.0,0.0,18.0,2445.0
15.584,31.169,50.649,0.0,0.0,2.597,0.0,0.0,36446075.0,1180580.0,0.0,0.0,18.0,2312.0
12.987,29.870,50.649,0.0,0.0,6.494,0.0,24576.0,34370656.0,1115358.0,0.0,0.0,18.0,2144.0
8.861,26.582,60.759,0.0,0.0,3.797,0.0,0.0,38244259.0,1240220.0,0.0,0.0,18.0,2445.0
11.538,32.051,53.846,0.0,0.0,2.564,0.0,0.0,40151099.0,1299094.0,0.0,0.0,19.0,2704.0
12.346,27.160,55.556,0.0,0.0,4.938,0.0,0.0,37100597.0,1205210.0,0.0,0.0,18.0,2327.0
10.0,32.500,51.250,0.0,0.0,6.250,0.0,0.0,37082043.0,1200814.0,0.0,0.0,18.0,2473.0
12.162,37.838,44.595,0.0,0.0,5.405,0.0,0.0,36074902.0,1167752.0,0.0,0.0,18.0,2462.0
11.538,39.744,43.590,0.0,0.0,5.128,0.0,0.0,35838693.0,1163782.0,0.0,0.0,19.0,2500.0
11.538,34.615,48.718,0.0,0.0,5.128,0.0,0.0,35883753.0,1162174.0,0.0,0.0,18.0,2546.0
8.974,29.487,56.410,0.0,0.0,5.128,0.0,0.0,38612412.0,1251000.0,0.0,0.0,18.0,2521.0
11.765,30.588,52.941,0.0,0.0,4.706,0.0,0.0,37225596.0,1208076.0,0.0,0.0,18.0,2343.0
14.474,28.947,53.947,0.0,0.0,2.632,0.0,0.0,36372264.0,1178454.0,0.0,0.0,18.0,2289.0
9.211,34.211,53.947,0.0,0.0,2.632,0.0,0.0,37276738.0,1207048.0,0.0,0.0,18.0,2301.0
9.091,20.455,68.182,0.0,0.0,2.273,0.0,0.0,36646233.0,1189522.0,0.0,0.0,19.0,2160.0
4.494,17.978,77.528,0.0,0.0,0.0,0.0,0.0,36973316.0,1198088.0,0.0,0.0,18.0,2103.0
6.522,18.478,72.826,0.0,0.0,2.174,0.0,0.0,37704583.0,1220694.0,0.0,0.0,18.0,2149.0
8.696,22.826,66.304,0.0,0.0,2.174,0.0,0.0,33789320.0,1096702.0,0.0,0.0,18.0,2088.0
7.692,17.582,74.725,0.0,0.0,0.0,0.0,0.0,37912202.0,1227908.0,0.0,0.0,19.0,2190.0
9.474,16.842,71.579,0.0,0.0,2.105,0.0,0.0,37877065.0,1227134.0,0.0,0.0,18.0,2167.0
10.843,31.325,54.217,0.0,0.0,3.614,0.0,0.0,38016759.0,1233696.0,0.0,0.0,18.0,2845.0
12.821,30.769,52.564,0.0,0.0,3.846,0.0,0.0,39104699.0,1266680.0,0.0,0.0,18.0,2961.0
12.162,36.486,48.649,0.0,0.0,2.703,0.0,0.0,38007038.0,1232734.0,0.0,0.0,18.0,2978.0
8.750,33.750,52.500,0.0,0.0,5.0,0.0,0.0,38460609.0,1248050.0,0.0,0.0,19.0,3060.0
8.750,23.750,63.750,0.0,0.0,3.750,0.0,0.0,38946836.0,1260034.0,0.0,0.0,18.0,3035.0
15.190,30.380,51.899,0.0,0.0,2.532,0.0,0.0,37899329.0,1227900.0,0.0,0.0,18.0,2997.0
12.500,25.0,57.500,0.0,0.0,5.0,0.0,0.0,38334863.0,1244146.0,0.0,0.0,18.0,3122.0
