"Dstat 0.7.2 CSV output"
"Author:","Dag Wieers <dag@wieers.com>",,,,"URL:","http://dag.wieers.com/home-made/dstat/"
"Host:","Server1",,,,"User:","maki"
"Cmdline:","dstat --output server1_32_get_2_1.csv 1 70",,,,"Date:","20 Nov 2018 12:53:55 UTC"

"total cpu usage",,,,,,"dsk/total",,"net/total",,"paging",,"system",
"usr","sys","idl","wai","hiq","siq","read","writ","recv","send","in","out","int","csw"
4.231,8.956,84.801,0.295,0.0,1.717,4885.882,18178.876,0.0,0.0,0.0,0.0,18.351,938.746
2.083,9.375,85.417,0.0,0.0,3.125,0.0,0.0,296222.0,8356083.0,0.0,0.0,23.0,2162.0
3.030,4.040,88.889,0.0,0.0,4.040,0.0,0.0,313593.0,8758459.0,0.0,0.0,18.0,2148.0
2.105,6.316,90.526,0.0,0.0,1.053,0.0,8192.0,380054.0,10802546.0,0.0,0.0,18.0,2417.0
3.093,8.247,85.567,0.0,0.0,3.093,0.0,0.0,415734.0,11809858.0,0.0,0.0,19.0,2306.0
2.083,6.250,87.500,0.0,0.0,4.167,0.0,0.0,454174.0,12751859.0,0.0,0.0,18.0,2269.0
2.105,7.368,88.421,0.0,0.0,2.105,0.0,0.0,440363.0,12525873.0,0.0,0.0,18.0,2316.0
2.062,5.155,88.660,0.0,0.0,4.124,0.0,0.0,438927.0,12478905.0,0.0,0.0,18.0,2401.0
2.151,5.376,89.247,0.0,0.0,3.226,0.0,4096.0,437167.0,12278750.0,0.0,0.0,18.0,2152.0
3.093,8.247,84.536,0.0,0.0,4.124,0.0,0.0,448081.0,12747529.0,0.0,0.0,19.0,2312.0
0.0,9.184,87.755,0.0,0.0,3.061,0.0,0.0,434789.0,12359631.0,0.0,0.0,18.0,2365.0
4.082,8.163,85.714,0.0,0.0,2.041,0.0,0.0,447291.0,12551574.0,0.0,0.0,18.0,2449.0
1.053,5.263,89.474,0.0,0.0,4.211,0.0,0.0,441612.0,12555656.0,0.0,0.0,18.0,2259.0
1.053,7.368,89.474,0.0,0.0,2.105,0.0,0.0,436311.0,12406551.0,0.0,0.0,18.0,2224.0
4.167,8.333,85.417,0.0,0.0,2.083,0.0,0.0,449455.0,12599056.0,0.0,0.0,19.0,2382.0
0.0,4.211,90.526,0.0,0.0,5.263,0.0,0.0,437568.0,12436408.0,0.0,0.0,18.0,2247.0
1.053,6.316,89.474,0.0,0.0,3.158,0.0,0.0,441563.0,12539853.0,0.0,0.0,18.0,2312.0
4.082,6.122,85.714,0.0,0.0,4.082,0.0,0.0,445885.0,12513287.0,0.0,0.0,18.0,2330.0
1.020,9.184,85.714,2.041,0.0,2.041,0.0,49152.0,438369.0,12461934.0,0.0,0.0,18.0,2250.0
3.030,9.091,84.848,0.0,0.0,3.030,0.0,0.0,432874.0,12308522.0,0.0,0.0,18.0,2259.0
4.124,6.186,86.598,0.0,0.0,3.093,0.0,0.0,452767.0,12700683.0,0.0,0.0,19.0,2315.0
1.042,7.292,88.542,0.0,0.0,3.125,0.0,0.0,440313.0,12517364.0,0.0,0.0,18.0,2407.0
2.0,9.0,84.0,0.0,0.0,5.0,0.0,0.0,440021.0,12513129.0,0.0,0.0,18.0,2461.0
2.105,7.368,88.421,0.0,0.0,2.105,0.0,0.0,441787.0,12415152.0,0.0,0.0,19.0,2285.0
2.062,8.247,84.536,0.0,0.0,5.155,0.0,0.0,441723.0,12547193.0,0.0,0.0,18.0,2406.0
2.083,6.250,89.583,0.0,0.0,2.083,0.0,0.0,436191.0,12406583.0,0.0,0.0,18.0,2407.0
2.174,5.435,90.217,0.0,0.0,2.174,0.0,0.0,440127.0,12346998.0,0.0,0.0,18.0,2233.0
2.083,6.250,88.542,0.0,0.0,3.125,0.0,0.0,446049.0,12687779.0,0.0,0.0,18.0,2503.0
0.0,5.376,91.398,0.0,0.0,3.226,0.0,0.0,456604.0,12990406.0,0.0,0.0,19.0,2453.0
4.211,7.368,85.263,0.0,0.0,3.158,0.0,0.0,435508.0,12206336.0,0.0,0.0,18.0,2440.0
2.128,5.319,90.426,0.0,0.0,2.128,0.0,0.0,449598.0,12794739.0,0.0,0.0,18.0,2495.0
1.010,9.091,85.859,0.0,0.0,4.040,0.0,0.0,434341.0,12325609.0,0.0,0.0,18.0,2460.0
4.0,8.0,83.0,0.0,0.0,5.0,0.0,0.0,451215.0,12675130.0,0.0,0.0,18.0,2480.0
1.031,8.247,87.629,0.0,0.0,3.093,0.0,0.0,439585.0,12500274.0,0.0,0.0,18.0,2532.0
3.030,9.091,83.838,0.0,0.0,4.040,0.0,16384.0,439351.0,12483254.0,0.0,0.0,19.0,2239.0
3.030,10.101,84.848,0.0,0.0,2.020,0.0,0.0,446068.0,12534437.0,0.0,0.0,18.0,2444.0
1.0,9.0,86.0,0.0,0.0,4.0,0.0,0.0,439322.0,12487524.0,0.0,0.0,18.0,2395.0
2.062,8.247,86.598,0.0,0.0,3.093,0.0,0.0,438794.0,12474726.0,0.0,0.0,18.0,2402.0
4.040,9.091,83.838,0.0,0.0,3.030,0.0,0.0,442454.0,12423677.0,0.0,0.0,18.0,2367.0
2.062,9.278,86.598,0.0,0.0,2.062,0.0,0.0,428176.0,12189168.0,0.0,0.0,19.0,2245.0
2.041,6.122,86.735,0.0,0.0,5.102,0.0,0.0,454635.0,12913671.0,0.0,0.0,18.0,2371.0
5.102,7.143,84.694,0.0,0.0,3.061,0.0,0.0,437811.0,12293799.0,0.0,0.0,18.0,2435.0
3.061,8.163,86.735,0.0,0.0,2.041,0.0,0.0,446575.0,12677178.0,0.0,0.0,18.0,2561.0
1.075,6.452,91.398,0.0,0.0,1.075,0.0,0.0,437438.0,12444922.0,0.0,0.0,18.0,2496.0
3.191,8.511,87.234,0.0,0.0,1.064,0.0,0.0,442183.0,12564215.0,0.0,0.0,19.0,2534.0
3.191,5.319,89.362,0.0,0.0,2.128,0.0,0.0,445230.0,12517433.0,0.0,0.0,18.0,2546.0
2.083,5.208,90.625,0.0,0.0,2.083,0.0,0.0,425894.0,12099706.0,0.0,0.0,18.0,2299.0
2.020,9.091,84.848,0.0,0.0,4.040,0.0,0.0,453442.0,12883875.0,0.0,0.0,18.0,2558.0
3.191,6.383,89.362,0.0,0.0,1.064,0.0,0.0,441410.0,12390376.0,0.0,0.0,19.0,2622.0
2.020,11.111,80.808,3.030,0.0,3.030,0.0,65536.0,440945.0,12521606.0,0.0,0.0,18.0,2544.0
2.128,6.383,89.362,0.0,0.0,2.128,0.0,0.0,440710.0,12534377.0,0.0,0.0,18.0,2485.0
2.083,8.333,86.458,0.0,0.0,3.125,0.0,0.0,445969.0,12525946.0,0.0,0.0,18.0,2383.0
1.064,7.447,89.362,0.0,0.0,2.128,0.0,0.0,440834.0,12538632.0,0.0,0.0,18.0,2518.0
0.0,8.511,90.426,0.0,0.0,1.064,0.0,0.0,439509.0,12491721.0,0.0,0.0,19.0,2320.0
3.191,8.511,86.170,0.0,0.0,2.128,0.0,0.0,445257.0,12496050.0,0.0,0.0,18.0,2492.0
2.041,9.184,86.735,0.0,0.0,2.041,0.0,0.0,439709.0,12504507.0,0.0,0.0,18.0,2439.0
3.030,5.051,84.848,0.0,0.0,7.071,0.0,0.0,445028.0,12653730.0,0.0,0.0,18.0,2441.0
2.128,5.319,89.362,0.0,0.0,3.191,0.0,0.0,443622.0,12440739.0,0.0,0.0,19.0,2440.0
2.151,3.226,90.323,0.0,0.0,4.301,0.0,0.0,442598.0,12572996.0,0.0,0.0,18.0,2339.0
2.083,10.417,85.417,0.0,0.0,2.083,0.0,0.0,441278.0,12534610.0,0.0,0.0,18.0,2731.0
3.158,6.316,88.421,0.0,0.0,2.105,0.0,0.0,443821.0,12457712.0,0.0,0.0,18.0,2678.0
6.122,10.204,80.612,0.0,0.0,3.061,0.0,0.0,439757.0,12434688.0,0.0,0.0,23.0,2540.0
2.083,6.250,88.542,0.0,0.0,3.125,0.0,0.0,442185.0,12581252.0,0.0,0.0,18.0,2461.0
4.301,4.301,88.172,0.0,0.0,3.226,0.0,0.0,445212.0,12483618.0,0.0,0.0,19.0,2651.0
2.105,9.474,87.368,0.0,0.0,1.053,0.0,0.0,437282.0,12436374.0,0.0,0.0,18.0,2369.0
1.064,6.383,90.426,0.0,0.0,2.128,0.0,0.0,442054.0,12577010.0,0.0,0.0,18.0,2203.0
3.158,5.263,87.368,0.0,0.0,4.211,0.0,0.0,447918.0,12535593.0,0.0,0.0,18.0,2417.0
1.042,6.250,89.583,0.0,0.0,3.125,0.0,0.0,439210.0,12500282.0,0.0,0.0,19.0,2381.0
2.105,4.211,90.526,0.0,0.0,3.158,0.0,0.0,436001.0,12393757.0,0.0,0.0,18.0,2407.0
2.151,6.452,88.172,0.0,0.0,3.226,0.0,8192.0,448488.0,12594221.0,0.0,0.0,18.0,2542.0
2.062,2.062,92.784,0.0,0.0,3.093,0.0,0.0,302643.0,8600653.0,0.0,0.0,18.0,1686.0
