"Dstat 0.7.2 CSV output"
"Author:","Dag Wieers <dag@wieers.com>",,,,"URL:","http://dag.wieers.com/home-made/dstat/"
"Host:","Server1",,,,"User:","maki"
"Cmdline:","dstat --output server1_8_get_2_42.csv 1 70",,,,"Date:","20 Nov 2018 11:38:47 UTC"

"total cpu usage",,,,,,"dsk/total",,"net/total",,"paging",,"system",
"usr","sys","idl","wai","hiq","siq","read","writ","recv","send","in","out","int","csw"
4.494,9.405,83.940,0.313,0.0,1.849,5374.915,19799.513,0.0,0.0,0.0,0.0,18.359,949.207
4.211,7.368,86.316,0.0,0.0,2.105,0.0,0.0,453502.0,12695237.0,0.0,0.0,18.0,2099.0
3.061,7.143,89.796,0.0,0.0,0.0,0.0,0.0,447518.0,12709320.0,0.0,0.0,18.0,1550.0
3.093,10.309,86.598,0.0,0.0,0.0,0.0,0.0,438622.0,12459184.0,0.0,0.0,19.0,1432.0
2.128,6.383,91.489,0.0,0.0,0.0,0.0,4096.0,446696.0,12531947.0,0.0,0.0,18.0,1341.0
1.031,7.216,90.722,0.0,0.0,1.031,0.0,0.0,437616.0,12466524.0,0.0,0.0,18.0,1360.0
1.053,7.368,91.579,0.0,0.0,0.0,0.0,0.0,441216.0,12500620.0,0.0,0.0,18.0,1233.0
2.041,8.163,88.776,0.0,0.0,1.020,0.0,0.0,445286.0,12534387.0,0.0,0.0,18.0,1357.0
2.128,7.447,90.426,0.0,0.0,0.0,0.0,0.0,438574.0,12432336.0,0.0,0.0,19.0,1357.0
2.062,7.216,90.722,0.0,0.0,0.0,0.0,0.0,442116.0,12566898.0,0.0,0.0,18.0,1291.0
1.042,8.333,89.583,0.0,0.0,1.042,0.0,0.0,443664.0,12465917.0,0.0,0.0,18.0,1381.0
1.053,6.316,92.632,0.0,0.0,0.0,0.0,0.0,440628.0,12534578.0,0.0,0.0,18.0,1332.0
1.031,7.216,90.722,0.0,0.0,1.031,0.0,0.0,440488.0,12504850.0,0.0,0.0,18.0,1270.0
3.191,7.447,89.362,0.0,0.0,0.0,0.0,0.0,443844.0,12466426.0,0.0,0.0,19.0,1335.0
2.083,6.250,91.667,0.0,0.0,0.0,0.0,0.0,441166.0,12526142.0,0.0,0.0,18.0,1308.0
3.125,5.208,91.667,0.0,0.0,0.0,0.0,0.0,438778.0,12466485.0,0.0,0.0,18.0,1331.0
1.064,5.319,92.553,0.0,0.0,1.064,0.0,0.0,444274.0,12500551.0,0.0,0.0,18.0,1359.0
3.125,5.208,90.625,0.0,0.0,1.042,0.0,0.0,440976.0,12501758.0,0.0,0.0,18.0,1239.0
1.042,10.417,88.542,0.0,0.0,0.0,0.0,0.0,440764.0,12531386.0,0.0,0.0,19.0,1330.0
3.191,5.319,88.298,3.191,0.0,0.0,0.0,40960.0,443157.0,12466388.0,0.0,0.0,18.0,1408.0
1.064,7.447,91.489,0.0,0.0,0.0,0.0,0.0,440900.0,12514622.0,0.0,0.0,18.0,1344.0
2.105,3.158,93.684,0.0,0.0,1.053,0.0,0.0,440793.0,12521437.0,0.0,0.0,18.0,1233.0
1.075,6.452,91.398,0.0,0.0,1.075,0.0,0.0,442783.0,12431906.0,0.0,0.0,18.0,1295.0
3.093,8.247,88.660,0.0,0.0,0.0,0.0,0.0,440779.0,12530315.0,0.0,0.0,18.0,1401.0
1.053,6.316,92.632,0.0,0.0,0.0,0.0,0.0,445460.0,12701756.0,0.0,0.0,19.0,1294.0
1.042,8.333,90.625,0.0,0.0,0.0,0.0,0.0,444620.0,12496934.0,0.0,0.0,18.0,1328.0
1.042,8.333,89.583,0.0,0.0,1.042,0.0,0.0,441378.0,12498300.0,0.0,0.0,18.0,1342.0
1.053,6.316,92.632,0.0,0.0,0.0,0.0,0.0,439205.0,12500408.0,0.0,0.0,19.0,1238.0
2.128,8.511,89.362,0.0,0.0,0.0,0.0,0.0,440909.0,12498916.0,0.0,0.0,18.0,1239.0
4.124,8.247,86.598,0.0,0.0,1.031,0.0,12288.0,445220.0,12505961.0,0.0,0.0,18.0,1306.0
2.083,6.250,91.667,0.0,0.0,0.0,0.0,0.0,432840.0,12284219.0,0.0,0.0,18.0,1257.0
1.031,8.247,90.722,0.0,0.0,0.0,0.0,0.0,446078.0,12709292.0,0.0,0.0,18.0,1310.0
2.128,5.319,91.489,0.0,0.0,1.064,0.0,0.0,446296.0,12500253.0,0.0,0.0,19.0,1291.0
3.158,6.316,89.474,0.0,0.0,1.053,0.0,0.0,438330.0,12500054.0,0.0,0.0,18.0,1393.0
2.083,7.292,90.625,0.0,0.0,0.0,0.0,8192.0,440491.0,12499968.0,0.0,0.0,18.0,1303.0
2.083,7.292,89.583,0.0,0.0,1.042,0.0,0.0,445165.0,12503179.0,0.0,0.0,18.0,1420.0
1.042,8.333,90.625,0.0,0.0,0.0,0.0,0.0,440131.0,12496108.0,0.0,0.0,18.0,1235.0
3.061,6.122,89.796,0.0,0.0,1.020,0.0,0.0,439845.0,12501760.0,0.0,0.0,19.0,1299.0
2.105,9.474,88.421,0.0,0.0,0.0,0.0,0.0,446158.0,12500713.0,0.0,0.0,18.0,1361.0
1.075,4.301,94.624,0.0,0.0,0.0,0.0,0.0,439112.0,12498384.0,0.0,0.0,18.0,1309.0
2.020,8.081,88.889,0.0,0.0,1.010,0.0,0.0,440622.0,12501656.0,0.0,0.0,18.0,1360.0
3.093,7.216,89.691,0.0,0.0,0.0,0.0,0.0,445387.0,12490423.0,0.0,0.0,18.0,1257.0
2.151,3.226,94.624,0.0,0.0,0.0,0.0,0.0,439017.0,12480527.0,0.0,0.0,19.0,1284.0
2.151,5.376,92.473,0.0,0.0,0.0,0.0,0.0,446654.0,12713457.0,0.0,0.0,18.0,1302.0
3.261,3.261,93.478,0.0,0.0,0.0,0.0,0.0,445624.0,12475863.0,0.0,0.0,18.0,1365.0
1.064,5.319,92.553,0.0,0.0,1.064,0.0,0.0,440094.0,12499154.0,0.0,0.0,18.0,1304.0
0.0,6.452,93.548,0.0,0.0,0.0,0.0,0.0,439810.0,12500414.0,0.0,0.0,18.0,1320.0
2.0,12.0,86.0,0.0,0.0,0.0,0.0,0.0,444400.0,12500455.0,0.0,0.0,19.0,1384.0
0.0,10.638,89.362,0.0,0.0,0.0,0.0,0.0,439667.0,12466475.0,0.0,0.0,18.0,1329.0
1.053,7.368,88.421,3.158,0.0,0.0,0.0,36864.0,440028.0,12533174.0,0.0,0.0,18.0,1374.0
2.105,6.316,90.526,0.0,0.0,1.053,0.0,45056.0,446539.0,12501740.0,0.0,0.0,18.0,1428.0
1.053,6.316,91.579,0.0,0.0,1.053,0.0,0.0,439679.0,12498670.0,0.0,0.0,18.0,1311.0
1.075,5.376,93.548,0.0,0.0,0.0,0.0,0.0,438538.0,12501503.0,0.0,0.0,19.0,1427.0
3.158,8.421,88.421,0.0,0.0,0.0,0.0,0.0,446305.0,12496370.0,0.0,0.0,18.0,1503.0
1.020,9.184,89.796,0.0,0.0,0.0,0.0,0.0,440212.0,12500520.0,0.0,0.0,18.0,1430.0
1.064,7.447,91.489,0.0,0.0,0.0,0.0,0.0,444994.0,12695946.0,0.0,0.0,18.0,1320.0
2.128,5.319,91.489,0.0,0.0,1.064,0.0,0.0,444998.0,12501398.0,0.0,0.0,18.0,1385.0
1.053,6.316,92.632,0.0,0.0,0.0,0.0,0.0,439220.0,12501202.0,0.0,0.0,19.0,1335.0
4.167,9.375,83.333,0.0,0.0,3.125,0.0,0.0,442786.0,12499864.0,0.0,0.0,23.0,1434.0
2.062,8.247,88.660,0.0,0.0,1.031,0.0,0.0,444929.0,12498627.0,0.0,0.0,18.0,1344.0
1.064,6.383,92.553,0.0,0.0,0.0,0.0,16384.0,440319.0,12498220.0,0.0,0.0,18.0,1322.0
2.062,6.186,91.753,0.0,0.0,0.0,0.0,0.0,446548.0,12696268.0,0.0,0.0,19.0,1344.0
0.0,6.316,92.632,0.0,0.0,1.053,0.0,0.0,439174.0,12500528.0,0.0,0.0,18.0,1218.0
2.105,8.421,88.421,0.0,0.0,1.053,0.0,0.0,446339.0,12500294.0,0.0,0.0,18.0,1384.0
1.053,6.316,92.632,0.0,0.0,0.0,0.0,0.0,438518.0,12500166.0,0.0,0.0,18.0,1254.0
2.128,4.255,93.617,0.0,0.0,0.0,0.0,0.0,440782.0,12500108.0,0.0,0.0,18.0,1343.0
2.083,6.250,90.625,0.0,0.0,1.042,0.0,0.0,451040.0,12689561.0,0.0,0.0,19.0,1319.0
2.105,5.263,92.632,0.0,0.0,0.0,0.0,0.0,440237.0,12496281.0,0.0,0.0,18.0,1272.0
1.087,6.522,91.304,0.0,0.0,1.087,0.0,0.0,441216.0,12509144.0,0.0,0.0,18.0,1372.0
3.226,4.301,92.473,0.0,0.0,0.0,0.0,0.0,445548.0,12500703.0,0.0,0.0,18.0,1390.0
1.010,10.101,87.879,0.0,0.0,1.010,0.0,0.0,438795.0,12500599.0,0.0,0.0,18.0,1378.0
