"Dstat 0.7.2 CSV output"
"Author:","Dag Wieers <dag@wieers.com>",,,,"URL:","http://dag.wieers.com/home-made/dstat/"
"Host:","Server1",,,,"User:","maki"
"Cmdline:","dstat --output server1_16_get_2_1.csv 1 70",,,,"Date:","20 Nov 2018 12:11:01 UTC"

"total cpu usage",,,,,,"dsk/total",,"net/total",,"paging",,"system",
"usr","sys","idl","wai","hiq","siq","read","writ","recv","send","in","out","int","csw"
4.377,9.204,84.330,0.305,0.0,1.784,5153.650,19062.925,0.0,0.0,0.0,0.0,18.356,947.432
0.0,7.0,91.0,0.0,0.0,2.0,0.0,0.0,233896.0,6620196.0,0.0,0.0,18.0,1673.0
4.211,5.263,89.474,0.0,0.0,1.053,0.0,0.0,363810.0,10179139.0,0.0,0.0,19.0,2118.0
1.064,5.319,92.553,0.0,0.0,1.064,0.0,0.0,375675.0,10670465.0,0.0,0.0,18.0,2165.0
1.075,5.376,91.398,0.0,0.0,2.151,0.0,0.0,430772.0,12261608.0,0.0,0.0,18.0,2629.0
4.255,7.447,86.170,0.0,0.0,2.128,0.0,0.0,440797.0,12364014.0,0.0,0.0,18.0,2302.0
1.053,8.421,90.526,0.0,0.0,0.0,0.0,0.0,445210.0,12662262.0,0.0,0.0,18.0,2445.0
1.099,5.495,93.407,0.0,0.0,0.0,0.0,0.0,440572.0,12513014.0,0.0,0.0,18.0,2326.0
4.255,7.447,88.298,0.0,0.0,0.0,0.0,0.0,444472.0,12491823.0,0.0,0.0,19.0,2419.0
1.099,5.495,93.407,0.0,0.0,0.0,0.0,0.0,439916.0,12496073.0,0.0,0.0,18.0,2551.0
3.191,7.447,88.298,0.0,0.0,1.064,0.0,0.0,439096.0,12504561.0,0.0,0.0,18.0,2306.0
3.125,8.333,86.458,0.0,0.0,2.083,0.0,0.0,447339.0,12526629.0,0.0,0.0,18.0,2373.0
2.198,2.198,94.505,0.0,0.0,1.099,0.0,0.0,429802.0,12231769.0,0.0,0.0,18.0,2364.0
1.099,6.593,92.308,0.0,0.0,0.0,0.0,16384.0,447167.0,12713371.0,0.0,0.0,19.0,2520.0
3.191,6.383,90.426,0.0,0.0,0.0,0.0,0.0,443908.0,12449215.0,0.0,0.0,18.0,2402.0
1.075,10.753,88.172,0.0,0.0,0.0,0.0,0.0,442060.0,12581296.0,0.0,0.0,18.0,2328.0
1.064,7.447,90.426,0.0,0.0,1.064,0.0,0.0,440895.0,12521639.0,0.0,0.0,18.0,2592.0
2.128,8.511,89.362,0.0,0.0,0.0,0.0,0.0,441029.0,12393804.0,0.0,0.0,18.0,2357.0
2.151,6.452,88.172,2.151,0.0,1.075,0.0,53248.0,448157.0,12726193.0,0.0,0.0,19.0,2291.0
1.087,5.435,92.391,0.0,0.0,1.087,0.0,0.0,441522.0,12559947.0,0.0,0.0,18.0,2527.0
3.226,7.527,88.172,0.0,0.0,1.075,0.0,0.0,441471.0,12398105.0,0.0,0.0,18.0,2446.0
0.0,7.527,91.398,0.0,0.0,1.075,0.0,0.0,448001.0,12738961.0,0.0,0.0,18.0,2408.0
1.064,8.511,90.426,0.0,0.0,0.0,0.0,0.0,438698.0,12470518.0,0.0,0.0,19.0,2512.0
1.064,7.447,90.426,0.0,0.0,1.064,0.0,4096.0,438463.0,12381517.0,0.0,0.0,18.0,2339.0
4.124,8.247,86.598,0.0,0.0,1.031,0.0,0.0,448454.0,12670336.0,0.0,0.0,18.0,2539.0
1.075,8.602,90.323,0.0,0.0,0.0,0.0,0.0,448528.0,12753254.0,0.0,0.0,18.0,2537.0
1.075,4.301,91.398,0.0,0.0,3.226,0.0,0.0,435858.0,12392315.0,0.0,0.0,18.0,2343.0
3.226,7.527,89.247,0.0,0.0,0.0,0.0,0.0,447358.0,12547242.0,0.0,0.0,19.0,2507.0
0.0,6.593,93.407,0.0,0.0,0.0,0.0,0.0,440431.0,12534380.0,0.0,0.0,18.0,2517.0
1.064,6.383,92.553,0.0,0.0,0.0,0.0,0.0,440287.0,12513113.0,0.0,0.0,18.0,2360.0
4.124,10.309,85.567,0.0,0.0,0.0,0.0,0.0,436707.0,12248922.0,0.0,0.0,18.0,2315.0
1.064,8.511,89.362,0.0,0.0,1.064,0.0,0.0,446494.0,12704890.0,0.0,0.0,18.0,2452.0
4.255,4.255,90.426,0.0,0.0,1.064,0.0,0.0,425703.0,12099695.0,0.0,0.0,19.0,2019.0
2.174,8.696,89.130,0.0,0.0,0.0,0.0,12288.0,455526.0,12785934.0,0.0,0.0,18.0,2668.0
2.105,6.316,90.526,0.0,0.0,1.053,0.0,0.0,420763.0,11967534.0,0.0,0.0,18.0,2264.0
3.158,10.526,86.316,0.0,0.0,0.0,0.0,0.0,445516.0,12675030.0,0.0,0.0,18.0,2313.0
1.064,8.511,89.362,0.0,0.0,1.064,0.0,0.0,444110.0,12457744.0,0.0,0.0,18.0,2465.0
1.064,6.383,92.553,0.0,0.0,0.0,0.0,0.0,436216.0,12410803.0,0.0,0.0,19.0,2365.0
0.0,6.593,93.407,0.0,0.0,0.0,0.0,0.0,443178.0,12589798.0,0.0,0.0,18.0,2559.0
3.261,2.174,92.391,0.0,0.0,2.174,0.0,0.0,438952.0,12317124.0,0.0,0.0,18.0,2493.0
0.0,8.696,91.304,0.0,0.0,0.0,0.0,0.0,443161.0,12606817.0,0.0,0.0,18.0,2426.0
2.128,6.383,89.362,0.0,0.0,2.128,0.0,0.0,443958.0,12615417.0,0.0,0.0,20.0,2432.0
2.128,8.511,89.362,0.0,0.0,0.0,0.0,0.0,444804.0,12496171.0,0.0,0.0,18.0,2565.0
2.128,7.447,90.426,0.0,0.0,0.0,0.0,0.0,434050.0,12342660.0,0.0,0.0,18.0,2487.0
1.064,8.511,90.426,0.0,0.0,0.0,0.0,0.0,444636.0,12636674.0,0.0,0.0,18.0,2589.0
4.211,8.421,85.263,0.0,0.0,2.105,0.0,0.0,444763.0,12487600.0,0.0,0.0,18.0,2229.0
1.053,7.368,90.526,0.0,0.0,1.053,0.0,0.0,439813.0,12496053.0,0.0,0.0,19.0,2362.0
1.064,6.383,91.489,0.0,0.0,1.064,0.0,0.0,433506.0,12318509.0,0.0,0.0,18.0,2170.0
3.191,8.511,88.298,0.0,0.0,0.0,0.0,36864.0,450868.0,12673652.0,0.0,0.0,18.0,2342.0
4.396,7.692,84.615,3.297,0.0,0.0,0.0,20480.0,432973.0,12223555.0,0.0,0.0,18.0,2358.0
2.105,9.474,86.316,0.0,0.0,2.105,0.0,0.0,447271.0,12730426.0,0.0,0.0,18.0,2338.0
2.128,6.383,89.362,0.0,0.0,2.128,0.0,0.0,448129.0,12594144.0,0.0,0.0,18.0,2356.0
2.083,8.333,89.583,0.0,0.0,0.0,0.0,0.0,438410.0,12453386.0,0.0,0.0,19.0,2322.0
2.128,6.383,90.426,0.0,0.0,1.064,0.0,0.0,420663.0,11946205.0,0.0,0.0,18.0,2255.0
1.099,5.495,93.407,0.0,0.0,0.0,0.0,0.0,462326.0,13011753.0,0.0,0.0,18.0,2487.0
2.151,7.527,89.247,0.0,0.0,1.075,0.0,0.0,442180.0,12551384.0,0.0,0.0,18.0,2359.0
2.151,5.376,91.398,0.0,0.0,1.075,0.0,0.0,438362.0,12483250.0,0.0,0.0,19.0,2269.0
3.226,7.527,89.247,0.0,0.0,0.0,0.0,0.0,444810.0,12463523.0,0.0,0.0,18.0,2387.0
0.0,5.435,93.478,0.0,0.0,1.087,0.0,0.0,441029.0,12541457.0,0.0,0.0,18.0,2381.0
3.158,7.368,89.474,0.0,0.0,0.0,0.0,8192.0,438483.0,12461909.0,0.0,0.0,18.0,2484.0
4.124,10.309,83.505,0.0,0.0,2.062,0.0,0.0,447134.0,12581317.0,0.0,0.0,18.0,2348.0
1.075,6.452,91.398,0.0,0.0,1.075,0.0,0.0,439516.0,12474716.0,0.0,0.0,19.0,2441.0
2.151,6.452,91.398,0.0,0.0,0.0,0.0,0.0,438354.0,12470427.0,0.0,0.0,18.0,2340.0
3.226,5.376,89.247,0.0,0.0,2.151,0.0,0.0,446089.0,12538731.0,0.0,0.0,18.0,2397.0
2.128,7.447,89.362,0.0,0.0,1.064,0.0,0.0,439541.0,12479004.0,0.0,0.0,18.0,2569.0
2.062,10.309,86.598,0.0,0.0,1.031,0.0,0.0,432232.0,12291450.0,0.0,0.0,18.0,2307.0
4.301,6.452,89.247,0.0,0.0,0.0,0.0,0.0,457626.0,12841321.0,0.0,0.0,19.0,2551.0
1.087,6.522,92.391,0.0,0.0,0.0,0.0,0.0,440568.0,12534385.0,0.0,0.0,18.0,2390.0
2.128,7.447,89.362,0.0,0.0,1.064,0.0,0.0,441494.0,12547180.0,0.0,0.0,18.0,2502.0
2.151,6.452,90.323,0.0,0.0,1.075,0.0,0.0,441741.0,12419434.0,0.0,0.0,18.0,2267.0
0.0,7.609,91.304,0.0,0.0,1.087,0.0,0.0,404810.0,11498764.0,0.0,0.0,18.0,2306.0
