"Dstat 0.7.2 CSV output"
"Author:","Dag Wieers <dag@wieers.com>",,,,"URL:","http://dag.wieers.com/home-made/dstat/"
"Host:","Server1",,,,"User:","maki"
"Cmdline:","dstat --output server1_8_set_2_4.csv 1 70",,,,"Date:","07 Dec 2018 15:37:21 UTC"

"total cpu usage",,,,,,"dsk/total",,"net/total",,"paging",,"system",
"usr","sys","idl","wai","hiq","siq","read","writ","recv","send","in","out","int","csw"
10.536,7.928,73.325,7.610,0.0,0.601,215250.958,880744.206,0.0,0.0,0.0,0.0,20.491,2027.805
3.191,8.511,86.170,0.0,0.0,2.128,0.0,0.0,17369614.0,561922.0,0.0,0.0,18.0,2976.0
2.198,5.495,90.110,0.0,0.0,2.198,0.0,0.0,18735490.0,606934.0,0.0,0.0,18.0,1977.0
6.383,9.574,84.043,0.0,0.0,0.0,0.0,0.0,20846223.0,678596.0,0.0,0.0,18.0,1851.0
4.444,13.333,82.222,0.0,0.0,0.0,0.0,0.0,26944682.0,872654.0,0.0,0.0,18.0,2646.0
4.545,11.364,82.955,0.0,0.0,1.136,0.0,0.0,28941603.0,937894.0,0.0,0.0,19.0,3062.0
6.452,12.903,77.419,0.0,0.0,3.226,0.0,0.0,22126475.0,724198.0,0.0,0.0,18.0,2262.0
4.301,13.978,81.720,0.0,0.0,0.0,0.0,0.0,26961873.0,874268.0,0.0,0.0,18.0,2685.0
4.255,15.957,77.660,0.0,0.0,2.128,0.0,0.0,27731442.0,897154.0,0.0,0.0,18.0,2950.0
9.639,12.048,78.313,0.0,0.0,0.0,0.0,0.0,30188021.0,980436.0,0.0,0.0,19.0,4051.0
6.316,12.632,80.0,0.0,0.0,1.053,0.0,0.0,27162316.0,880494.0,0.0,0.0,18.0,2760.0
4.301,12.903,81.720,0.0,0.0,1.075,0.0,0.0,25992048.0,841714.0,0.0,0.0,18.0,2631.0
5.435,13.043,80.435,0.0,0.0,1.087,0.0,0.0,24585248.0,799696.0,0.0,0.0,18.0,2460.0
4.444,12.222,82.222,0.0,0.0,1.111,0.0,0.0,28543956.0,923474.0,0.0,0.0,18.0,3098.0
4.494,14.607,78.652,0.0,0.0,2.247,0.0,0.0,30152201.0,977374.0,0.0,0.0,19.0,3430.0
5.682,14.773,77.273,0.0,0.0,2.273,0.0,0.0,28562489.0,927936.0,0.0,0.0,18.0,3308.0
4.545,14.773,78.409,2.273,0.0,0.0,0.0,45056.0,29261859.0,947274.0,0.0,0.0,18.0,3404.0
5.435,19.565,72.826,0.0,0.0,2.174,0.0,0.0,30952095.0,1003274.0,0.0,0.0,18.0,4317.0
8.140,15.116,75.581,0.0,0.0,1.163,0.0,0.0,30109840.0,977216.0,0.0,0.0,18.0,4089.0
6.452,19.355,72.043,0.0,0.0,2.151,0.0,0.0,31756092.0,1029628.0,0.0,0.0,19.0,3877.0
9.375,17.708,70.833,0.0,0.0,2.083,0.0,0.0,32162240.0,1041074.0,0.0,0.0,18.0,4144.0
7.229,13.253,78.313,0.0,0.0,1.205,0.0,0.0,31432726.0,1020930.0,0.0,0.0,18.0,4202.0
8.889,14.444,74.444,0.0,0.0,2.222,0.0,0.0,30926186.0,1002296.0,0.0,0.0,18.0,3815.0
7.778,13.333,76.667,0.0,0.0,2.222,0.0,0.0,28950412.0,937614.0,0.0,0.0,18.0,3295.0
8.889,16.667,72.222,0.0,0.0,2.222,0.0,0.0,30096927.0,977916.0,0.0,0.0,18.0,3622.0
7.059,9.412,81.176,0.0,0.0,2.353,0.0,0.0,29931778.0,969320.0,0.0,0.0,19.0,3646.0
7.692,15.385,76.923,0.0,0.0,0.0,0.0,0.0,31120701.0,1007548.0,0.0,0.0,18.0,3695.0
8.511,18.085,72.340,0.0,0.0,1.064,0.0,0.0,28943110.0,940956.0,0.0,0.0,18.0,3600.0
5.882,9.412,83.529,0.0,0.0,1.176,0.0,0.0,30856889.0,998374.0,0.0,0.0,18.0,4094.0
7.865,14.607,76.404,0.0,0.0,1.124,0.0,0.0,30657786.0,993334.0,0.0,0.0,19.0,4047.0
8.333,14.286,76.190,0.0,0.0,1.190,0.0,0.0,30149393.0,980168.0,0.0,0.0,18.0,3879.0
7.865,17.978,71.910,0.0,0.0,2.247,0.0,0.0,31552870.0,1021474.0,0.0,0.0,18.0,4247.0
4.396,15.385,79.121,0.0,0.0,1.099,0.0,12288.0,29802141.0,965820.0,0.0,0.0,18.0,3444.0
11.957,14.130,70.652,0.0,0.0,3.261,0.0,0.0,29790122.0,968190.0,0.0,0.0,18.0,3686.0
7.865,11.236,78.652,0.0,0.0,2.247,0.0,0.0,28418772.0,919414.0,0.0,0.0,19.0,3609.0
4.762,14.286,80.952,0.0,0.0,0.0,0.0,0.0,32309373.0,1046880.0,0.0,0.0,18.0,3898.0
9.091,13.636,75.0,0.0,0.0,2.273,0.0,0.0,30231182.0,981556.0,0.0,0.0,18.0,3692.0
10.112,13.483,76.404,0.0,0.0,0.0,0.0,0.0,31384294.0,1017628.0,0.0,0.0,18.0,3903.0
9.890,13.187,74.725,0.0,0.0,2.198,0.0,0.0,32253337.0,1043594.0,0.0,0.0,18.0,4061.0
7.955,15.909,73.864,0.0,0.0,2.273,0.0,0.0,29271420.0,950756.0,0.0,0.0,19.0,3625.0
9.412,10.588,77.647,0.0,0.0,2.353,0.0,0.0,31570074.0,1022594.0,0.0,0.0,18.0,4337.0
6.818,11.364,79.545,0.0,0.0,2.273,0.0,0.0,30078846.0,974434.0,0.0,0.0,18.0,3469.0
5.682,13.636,79.545,0.0,0.0,1.136,0.0,0.0,31169310.0,1012422.0,0.0,0.0,18.0,3899.0
5.435,16.304,77.174,0.0,0.0,1.087,0.0,0.0,29888666.0,967788.0,0.0,0.0,19.0,3575.0
6.522,10.870,80.435,0.0,0.0,2.174,0.0,0.0,25345281.0,821554.0,0.0,0.0,18.0,2666.0
7.609,15.217,76.087,0.0,0.0,1.087,0.0,0.0,29167671.0,947256.0,0.0,0.0,18.0,3389.0
6.593,10.989,80.220,0.0,0.0,2.198,0.0,0.0,29538277.0,956654.0,0.0,0.0,18.0,3556.0
5.435,17.391,75.0,1.087,0.0,1.087,0.0,53248.0,29313492.0,949234.0,0.0,0.0,18.0,3199.0
8.791,19.780,67.033,0.0,0.0,4.396,0.0,0.0,30300338.0,984076.0,0.0,0.0,19.0,3870.0
8.140,18.605,72.093,0.0,0.0,1.163,0.0,0.0,28397215.0,919900.0,0.0,0.0,18.0,3461.0
6.593,17.582,74.725,0.0,0.0,1.099,0.0,0.0,29305916.0,948972.0,0.0,0.0,18.0,3485.0
9.890,14.286,75.824,0.0,0.0,0.0,0.0,0.0,27166190.0,882576.0,0.0,0.0,18.0,3024.0
8.989,10.112,78.652,0.0,0.0,2.247,0.0,0.0,29910225.0,968834.0,0.0,0.0,18.0,3431.0
6.250,13.542,78.125,0.0,0.0,2.083,0.0,0.0,26806362.0,868594.0,0.0,0.0,19.0,2537.0
10.112,12.360,77.528,0.0,0.0,0.0,0.0,0.0,28657672.0,931716.0,0.0,0.0,18.0,3258.0
4.706,15.294,76.471,0.0,0.0,3.529,0.0,0.0,28098867.0,909894.0,0.0,0.0,18.0,3584.0
6.897,12.644,80.460,0.0,0.0,0.0,0.0,0.0,28911540.0,935654.0,0.0,0.0,18.0,3566.0
5.747,13.793,79.310,0.0,0.0,1.149,0.0,0.0,29267083.0,951736.0,0.0,0.0,18.0,3462.0
5.319,13.830,78.723,0.0,0.0,2.128,0.0,0.0,28232858.0,913674.0,0.0,0.0,19.0,2751.0
3.261,14.130,82.609,0.0,0.0,0.0,0.0,0.0,25569933.0,828340.0,0.0,0.0,18.0,2583.0
6.593,6.593,84.615,0.0,0.0,2.198,0.0,0.0,18364761.0,597190.0,0.0,0.0,18.0,1839.0
4.124,10.309,85.567,0.0,0.0,0.0,0.0,0.0,18074033.0,586634.0,0.0,0.0,18.0,1572.0
4.301,5.376,90.323,0.0,0.0,0.0,0.0,0.0,17386740.0,562134.0,0.0,0.0,18.0,1423.0
2.198,6.593,91.209,0.0,0.0,0.0,0.0,0.0,18101091.0,588996.0,0.0,0.0,19.0,1474.0
3.061,6.122,89.796,0.0,0.0,1.020,0.0,0.0,12694466.0,411624.0,0.0,0.0,18.0,948.0
3.261,11.957,84.783,0.0,0.0,0.0,0.0,0.0,22383984.0,725654.0,0.0,0.0,18.0,2572.0
8.791,24.176,64.835,0.0,0.0,2.198,0.0,0.0,29420224.0,958199.0,0.0,0.0,18.0,4428.0
11.364,15.909,70.455,0.0,0.0,2.273,0.0,8192.0,28931301.0,941784.0,0.0,0.0,18.0,4230.0
11.364,25.0,61.364,0.0,0.0,2.273,0.0,0.0,28535929.0,925448.0,0.0,0.0,19.0,4498.0
6.977,17.442,74.419,0.0,0.0,1.163,0.0,0.0,30783401.0,996768.0,0.0,0.0,18.0,4284.0
10.112,19.101,69.663,0.0,0.0,1.124,0.0,0.0,27007746.0,877900.0,0.0,0.0,18.0,4051.0
