"Dstat 0.7.2 CSV output"
"Author:","Dag Wieers <dag@wieers.com>",,,,"URL:","http://dag.wieers.com/home-made/dstat/"
"Host:","Server1",,,,"User:","maki"
"Cmdline:","dstat --output server1_16_set_2_64.csv 1 70",,,,"Date:","07 Dec 2018 16:31:58 UTC"

"total cpu usage",,,,,,"dsk/total",,"net/total",,"paging",,"system",
"usr","sys","idl","wai","hiq","siq","read","writ","recv","send","in","out","int","csw"
7.038,9.706,79.637,2.605,0.0,1.014,69738.851,286323.266,0.0,0.0,0.0,0.0,18.947,2015.404
10.976,17.073,69.512,0.0,0.0,2.439,0.0,0.0,29937605.0,970490.0,0.0,0.0,18.0,3659.0
8.750,25.0,62.500,0.0,0.0,3.750,0.0,0.0,32876164.0,1067048.0,0.0,0.0,18.0,3366.0
8.108,32.432,55.405,0.0,0.0,4.054,0.0,0.0,34722230.0,1123814.0,0.0,0.0,18.0,2521.0
15.385,32.051,48.718,0.0,0.0,3.846,0.0,0.0,35215823.0,1143676.0,0.0,0.0,19.0,2257.0
11.268,36.620,47.887,0.0,0.0,4.225,0.0,0.0,35602282.0,1151690.0,0.0,0.0,18.0,2515.0
12.676,30.986,52.113,0.0,0.0,4.225,0.0,0.0,34354171.0,1112334.0,0.0,0.0,18.0,2182.0
9.524,30.952,53.571,0.0,0.0,5.952,0.0,4096.0,37952114.0,1231942.0,0.0,0.0,18.0,2594.0
14.667,30.667,52.0,0.0,0.0,2.667,0.0,0.0,35954171.0,1164488.0,0.0,0.0,19.0,2677.0
11.429,30.0,52.857,0.0,0.0,5.714,0.0,0.0,35884697.0,1162380.0,0.0,0.0,18.0,2704.0
14.943,32.184,47.126,0.0,0.0,5.747,0.0,0.0,36624777.0,1190156.0,0.0,0.0,18.0,2441.0
13.953,31.395,50.0,1.163,0.0,3.488,0.0,40960.0,37198634.0,1203614.0,0.0,0.0,18.0,2705.0
9.756,31.707,52.439,0.0,0.0,6.098,0.0,0.0,35849609.0,1161128.0,0.0,0.0,18.0,2447.0
11.538,29.487,55.128,0.0,0.0,3.846,0.0,0.0,37389584.0,1214376.0,0.0,0.0,19.0,2601.0
12.329,32.877,52.055,0.0,0.0,2.740,0.0,0.0,36385997.0,1177920.0,0.0,0.0,18.0,2654.0
13.333,38.667,42.667,0.0,0.0,5.333,0.0,0.0,35093393.0,1136628.0,0.0,0.0,18.0,2631.0
16.216,35.135,43.243,0.0,0.0,5.405,0.0,0.0,34357941.0,1115420.0,0.0,0.0,18.0,2473.0
12.658,32.911,50.633,0.0,0.0,3.797,0.0,0.0,37254745.0,1206834.0,0.0,0.0,18.0,2710.0
14.103,26.923,56.410,0.0,0.0,2.564,0.0,0.0,38062775.0,1233500.0,0.0,0.0,19.0,2590.0
10.390,31.169,54.545,0.0,0.0,3.896,0.0,0.0,36814654.0,1194356.0,0.0,0.0,18.0,2478.0
13.699,28.767,53.425,0.0,0.0,4.110,0.0,0.0,37164232.0,1203688.0,0.0,0.0,18.0,2770.0
10.256,34.615,51.282,0.0,0.0,3.846,0.0,0.0,36044303.0,1167494.0,0.0,0.0,18.0,2482.0
10.588,28.235,58.824,0.0,0.0,2.353,0.0,0.0,38859656.0,1262322.0,0.0,0.0,18.0,2532.0
10.843,30.120,54.217,0.0,0.0,4.819,0.0,0.0,37181502.0,1203754.0,0.0,0.0,19.0,2712.0
3.371,19.101,77.528,0.0,0.0,0.0,0.0,0.0,34276828.0,1109748.0,0.0,0.0,18.0,1974.0
9.677,17.204,70.968,0.0,0.0,2.151,0.0,0.0,36495195.0,1184950.0,0.0,0.0,18.0,2106.0
8.791,16.484,74.725,0.0,0.0,0.0,0.0,0.0,35856026.0,1162392.0,0.0,0.0,18.0,2005.0
6.818,14.773,77.273,0.0,0.0,1.136,0.0,0.0,39096411.0,1265354.0,0.0,0.0,18.0,2302.0
4.396,20.879,71.429,0.0,0.0,3.297,0.0,0.0,36402787.0,1182316.0,0.0,0.0,19.0,2149.0
8.235,23.529,65.882,0.0,0.0,2.353,0.0,0.0,39245815.0,1270612.0,0.0,0.0,18.0,2723.0
14.103,26.923,56.410,0.0,0.0,2.564,0.0,0.0,39246712.0,1273194.0,0.0,0.0,18.0,3138.0
15.584,36.364,42.857,0.0,0.0,5.195,0.0,0.0,36710897.0,1189736.0,0.0,0.0,18.0,3154.0
9.459,32.432,55.405,0.0,0.0,2.703,0.0,0.0,37929831.0,1229288.0,0.0,0.0,19.0,3205.0
12.500,32.500,51.250,0.0,0.0,3.750,0.0,12288.0,38936661.0,1261080.0,0.0,0.0,18.0,3307.0
12.987,29.870,53.247,0.0,0.0,3.896,0.0,0.0,36659125.0,1191070.0,0.0,0.0,18.0,2863.0
8.861,29.114,56.962,0.0,0.0,5.063,0.0,0.0,41210279.0,1333814.0,0.0,0.0,18.0,3383.0
10.0,28.571,57.143,0.0,0.0,4.286,0.0,0.0,40095336.0,1298762.0,0.0,0.0,18.0,3299.0
16.667,28.205,51.282,0.0,0.0,3.846,0.0,0.0,37587679.0,1219692.0,0.0,0.0,18.0,3213.0
12.821,33.333,51.282,0.0,0.0,2.564,0.0,0.0,38209668.0,1239034.0,0.0,0.0,19.0,3087.0
16.456,27.848,49.367,0.0,0.0,6.329,0.0,0.0,37017025.0,1197594.0,0.0,0.0,18.0,3048.0
13.924,37.975,43.038,0.0,0.0,5.063,0.0,0.0,36702402.0,1196560.0,0.0,0.0,18.0,3297.0
9.589,30.137,56.164,0.0,0.0,4.110,0.0,0.0,36611290.0,1186302.0,0.0,0.0,18.0,3149.0
14.286,32.468,50.649,0.0,0.0,2.597,0.0,0.0,38412484.0,1245688.0,0.0,0.0,19.0,3377.0
13.158,32.895,46.053,3.947,0.0,3.947,0.0,69632.0,37407214.0,1211996.0,0.0,0.0,18.0,2957.0
12.048,27.711,55.422,0.0,0.0,4.819,0.0,0.0,39321144.0,1275434.0,0.0,0.0,18.0,3226.0
11.688,31.169,54.545,0.0,0.0,2.597,0.0,0.0,38573090.0,1247574.0,0.0,0.0,18.0,3206.0
17.105,32.895,44.737,0.0,0.0,5.263,0.0,0.0,36463788.0,1183574.0,0.0,0.0,18.0,3041.0
11.905,32.143,53.571,0.0,0.0,2.381,0.0,0.0,39256205.0,1271514.0,0.0,0.0,19.0,3139.0
11.250,32.500,53.750,0.0,0.0,2.500,0.0,0.0,37609079.0,1218528.0,0.0,0.0,18.0,2787.0
13.095,27.381,54.762,0.0,0.0,4.762,0.0,0.0,40765791.0,1323016.0,0.0,0.0,18.0,3214.0
11.538,30.769,53.846,0.0,0.0,3.846,0.0,0.0,38283741.0,1239594.0,0.0,0.0,18.0,2993.0
14.103,30.769,50.0,0.0,0.0,5.128,0.0,0.0,37060261.0,1200394.0,0.0,0.0,18.0,2999.0
15.278,30.556,51.389,0.0,0.0,2.778,0.0,0.0,36823716.0,1196888.0,0.0,0.0,18.0,3140.0
16.049,27.160,53.086,0.0,0.0,3.704,0.0,0.0,38007013.0,1232034.0,0.0,0.0,19.0,3256.0
10.714,33.333,52.381,0.0,0.0,3.571,0.0,0.0,40086745.0,1298740.0,0.0,0.0,18.0,3137.0
12.500,30.556,52.778,0.0,0.0,4.167,0.0,0.0,37511146.0,1215430.0,0.0,0.0,18.0,3075.0
15.068,31.507,52.055,0.0,0.0,1.370,0.0,0.0,37233909.0,1205722.0,0.0,0.0,18.0,3025.0
13.514,28.378,52.703,0.0,0.0,5.405,0.0,0.0,39709748.0,1286148.0,0.0,0.0,19.0,3471.0
11.842,32.895,51.316,0.0,0.0,3.947,0.0,0.0,36628783.0,1189736.0,0.0,0.0,18.0,3114.0
12.0,30.667,52.0,0.0,0.0,5.333,0.0,0.0,37643728.0,1220554.0,0.0,0.0,18.0,3131.0
12.346,32.099,51.852,0.0,0.0,3.704,0.0,0.0,39727349.0,1285720.0,0.0,0.0,18.0,3117.0
13.750,33.750,46.250,0.0,0.0,6.250,0.0,0.0,37588948.0,1221450.0,0.0,0.0,19.0,2974.0
10.127,29.114,56.962,0.0,0.0,3.797,0.0,0.0,38858711.0,1257160.0,0.0,0.0,18.0,3058.0
10.0,32.500,52.500,0.0,0.0,5.0,0.0,0.0,36376971.0,1179748.0,0.0,0.0,18.0,2748.0
13.514,25.676,56.757,0.0,0.0,4.054,0.0,8192.0,39368380.0,1272914.0,0.0,0.0,18.0,3123.0
15.0,26.250,55.0,0.0,0.0,3.750,0.0,0.0,38526403.0,1250496.0,0.0,0.0,18.0,2867.0
13.750,30.0,48.750,0.0,0.0,7.500,0.0,0.0,36921116.0,1195914.0,0.0,0.0,18.0,2947.0
11.392,31.646,51.899,0.0,0.0,5.063,0.0,0.0,39716803.0,1287943.0,0.0,0.0,19.0,3153.0
11.250,28.750,53.750,0.0,0.0,6.250,0.0,0.0,38440278.0,1247964.0,0.0,0.0,18.0,2981.0
5.128,38.462,51.282,0.0,0.0,5.128,0.0,0.0,37946931.0,1229484.0,0.0,0.0,18.0,2986.0
11.538,38.462,43.590,0.0,0.0,6.410,0.0,0.0,37820867.0,1226898.0,0.0,0.0,18.0,3108.0
