"Dstat 0.7.2 CSV output"
"Author:","Dag Wieers <dag@wieers.com>",,,,"URL:","http://dag.wieers.com/home-made/dstat/"
"Host:","Server1",,,,"User:","maki"
"Cmdline:","dstat --output server1_64_set_2_14.csv 1 70",,,,"Date:","07 Dec 2018 17:59:37 UTC"

"total cpu usage",,,,,,"dsk/total",,"net/total",,"paging",,"system",
"usr","sys","idl","wai","hiq","siq","read","writ","recv","send","in","out","int","csw"
6.964,12.392,77.531,1.330,0.0,1.783,33441.671,138204.985,0.0,0.0,0.0,0.0,18.563,1734.444
8.333,28.571,60.714,0.0,0.0,2.381,0.0,0.0,42171572.0,1357822.0,0.0,0.0,18.0,1909.0
16.867,46.988,26.506,0.0,0.0,9.639,0.0,0.0,50814191.0,1649514.0,0.0,0.0,18.0,1400.0
19.481,41.558,27.273,0.0,0.0,11.688,0.0,0.0,47377295.0,1534156.0,0.0,0.0,19.0,1204.0
13.253,39.759,38.554,0.0,0.0,8.434,0.0,0.0,49929843.0,1616614.0,0.0,0.0,18.0,1141.0
14.458,46.988,28.916,0.0,0.0,9.639,0.0,12288.0,49414876.0,1600440.0,0.0,0.0,18.0,1146.0
16.901,40.845,33.803,0.0,0.0,8.451,0.0,0.0,48447874.0,1572990.0,0.0,0.0,18.0,1100.0
18.987,45.570,22.785,0.0,0.0,12.658,0.0,0.0,51234462.0,1661900.0,0.0,0.0,18.0,1185.0
20.270,48.649,21.622,0.0,0.0,9.459,0.0,0.0,49605134.0,1603808.0,0.0,0.0,19.0,1262.0
16.883,44.156,24.675,0.0,0.0,14.286,0.0,0.0,49692192.0,1615926.0,0.0,0.0,18.0,1137.0
19.753,44.444,24.691,0.0,0.0,11.111,0.0,0.0,49873138.0,1614374.0,0.0,0.0,18.0,1149.0
15.385,50.0,25.641,0.0,0.0,8.974,0.0,0.0,48952346.0,1590154.0,0.0,0.0,18.0,1268.0
18.919,45.946,22.973,0.0,0.0,12.162,0.0,0.0,51430671.0,1661602.0,0.0,0.0,18.0,1298.0
17.722,48.101,22.785,0.0,0.0,11.392,0.0,0.0,50954091.0,1649308.0,0.0,0.0,19.0,1239.0
14.667,38.667,33.333,0.0,0.0,13.333,0.0,0.0,49095249.0,1594634.0,0.0,0.0,18.0,1117.0
18.919,40.541,28.378,0.0,0.0,12.162,0.0,40960.0,50358319.0,1626506.0,0.0,0.0,18.0,1127.0
19.767,37.209,33.721,0.0,0.0,9.302,0.0,0.0,45161644.0,1475206.0,0.0,0.0,18.0,1140.0
16.456,48.101,21.519,0.0,0.0,13.924,0.0,0.0,49544975.0,1605620.0,0.0,0.0,18.0,1199.0
15.789,44.737,25.0,0.0,0.0,14.474,0.0,0.0,50824076.0,1640648.0,0.0,0.0,19.0,1298.0
17.105,50.0,23.684,0.0,0.0,9.211,0.0,0.0,50358320.0,1632622.0,0.0,0.0,18.0,1293.0
13.750,42.500,31.250,0.0,0.0,12.500,0.0,0.0,49308415.0,1601512.0,0.0,0.0,18.0,1138.0
18.421,47.368,19.737,0.0,0.0,14.474,0.0,0.0,52881574.0,1710628.0,0.0,0.0,18.0,1291.0
18.667,48.0,20.0,0.0,0.0,13.333,0.0,0.0,50764521.0,1647602.0,0.0,0.0,18.0,1329.0
20.513,48.718,16.667,0.0,0.0,14.103,0.0,0.0,50821577.0,1650512.0,0.0,0.0,19.0,1266.0
17.500,47.500,21.250,0.0,0.0,13.750,0.0,0.0,51878993.0,1675134.0,0.0,0.0,18.0,1263.0
17.949,48.718,21.795,0.0,0.0,11.538,0.0,0.0,51156818.0,1662582.0,0.0,0.0,18.0,1271.0
18.182,50.649,18.182,0.0,0.0,12.987,0.0,0.0,52732098.0,1710488.0,0.0,0.0,18.0,1239.0
19.737,47.368,23.684,0.0,0.0,9.211,0.0,0.0,51205021.0,1656860.0,0.0,0.0,18.0,1287.0
20.253,46.835,20.253,0.0,0.0,12.658,0.0,0.0,49680231.0,1612806.0,0.0,0.0,19.0,1217.0
19.737,47.368,23.684,0.0,0.0,9.211,0.0,0.0,51921170.0,1679260.0,0.0,0.0,18.0,1212.0
18.182,46.753,22.078,0.0,0.0,12.987,0.0,8192.0,51733540.0,1674088.0,0.0,0.0,18.0,1216.0
18.667,44.0,22.667,0.0,0.0,14.667,0.0,0.0,49856961.0,1613516.0,0.0,0.0,18.0,1173.0
17.722,45.570,26.582,0.0,0.0,10.127,0.0,0.0,50359146.0,1634058.0,0.0,0.0,19.0,1188.0
21.951,45.122,21.951,0.0,0.0,10.976,0.0,0.0,50688789.0,1647018.0,0.0,0.0,18.0,1168.0
16.216,52.703,22.973,0.0,0.0,8.108,0.0,0.0,50578803.0,1634310.0,0.0,0.0,18.0,1249.0
22.368,39.474,22.368,0.0,0.0,15.789,0.0,4096.0,51239229.0,1664420.0,0.0,0.0,18.0,1232.0
23.611,44.444,23.611,0.0,0.0,8.333,0.0,0.0,51273666.0,1658128.0,0.0,0.0,18.0,1312.0
18.750,45.0,23.750,0.0,0.0,12.500,0.0,0.0,49856676.0,1620816.0,0.0,0.0,18.0,1188.0
21.333,50.667,18.667,0.0,0.0,9.333,0.0,0.0,50945214.0,1647620.0,0.0,0.0,19.0,1130.0
22.222,44.444,22.222,0.0,0.0,11.111,0.0,0.0,50119535.0,1621588.0,0.0,0.0,18.0,1232.0
17.722,46.835,24.051,0.0,0.0,11.392,0.0,0.0,49859870.0,1626478.0,0.0,0.0,18.0,1278.0
20.0,44.286,22.857,0.0,0.0,12.857,0.0,0.0,51255314.0,1653528.0,0.0,0.0,18.0,1239.0
17.722,54.430,20.253,0.0,0.0,7.595,0.0,0.0,51094819.0,1657988.0,0.0,0.0,19.0,1162.0
17.808,42.466,21.918,0.0,0.0,17.808,0.0,0.0,49318116.0,1597416.0,0.0,0.0,18.0,1248.0
21.053,46.053,23.684,0.0,0.0,9.211,0.0,0.0,49478219.0,1603314.0,0.0,0.0,18.0,1341.0
21.053,39.474,23.684,0.0,0.0,15.789,0.0,16384.0,50737740.0,1644474.0,0.0,0.0,18.0,1192.0
21.918,46.575,23.288,0.0,0.0,8.219,0.0,36864.0,49658064.0,1607356.0,0.0,0.0,18.0,1266.0
21.333,44.0,25.333,0.0,0.0,9.333,0.0,0.0,50698840.0,1641254.0,0.0,0.0,19.0,1277.0
24.691,40.741,22.222,0.0,0.0,12.346,0.0,0.0,49798360.0,1614912.0,0.0,0.0,18.0,1180.0
23.288,45.205,19.178,0.0,0.0,12.329,0.0,0.0,50765060.0,1654610.0,0.0,0.0,18.0,1282.0
18.056,44.444,25.0,0.0,0.0,12.500,0.0,0.0,51516166.0,1663580.0,0.0,0.0,18.0,1311.0
22.078,44.156,19.481,0.0,0.0,14.286,0.0,0.0,51243820.0,1656168.0,0.0,0.0,19.0,1288.0
18.987,46.835,25.316,0.0,0.0,8.861,0.0,0.0,48949425.0,1593356.0,0.0,0.0,17.0,1178.0
18.667,42.667,26.667,0.0,0.0,12.0,0.0,0.0,49443572.0,1601192.0,0.0,0.0,19.0,1218.0
14.706,45.588,25.0,0.0,0.0,14.706,0.0,0.0,50661472.0,1639228.0,0.0,0.0,18.0,1238.0
21.519,41.772,27.848,0.0,0.0,8.861,0.0,0.0,48649837.0,1579788.0,0.0,0.0,18.0,1258.0
11.392,51.899,26.582,0.0,0.0,10.127,0.0,0.0,50984160.0,1648674.0,0.0,0.0,18.0,1221.0
22.222,40.741,24.691,0.0,0.0,12.346,0.0,0.0,51412000.0,1668414.0,0.0,0.0,19.0,1193.0
24.096,40.964,21.687,0.0,0.0,13.253,0.0,0.0,49500527.0,1603458.0,0.0,0.0,18.0,1213.0
21.795,46.154,23.077,0.0,0.0,8.974,0.0,0.0,50403615.0,1634814.0,0.0,0.0,18.0,1129.0
13.514,43.243,24.324,0.0,0.0,18.919,0.0,0.0,50688830.0,1638248.0,0.0,0.0,18.0,1163.0
15.789,43.421,27.632,0.0,0.0,13.158,0.0,0.0,48413086.0,1570828.0,0.0,0.0,18.0,1172.0
14.865,51.351,22.973,0.0,0.0,10.811,0.0,0.0,50616771.0,1642160.0,0.0,0.0,19.0,1188.0
25.0,41.250,23.750,0.0,0.0,10.0,0.0,0.0,49554765.0,1600452.0,0.0,0.0,18.0,1105.0
19.178,49.315,21.918,0.0,0.0,9.589,0.0,0.0,49424831.0,1611136.0,0.0,0.0,18.0,1053.0
20.513,43.590,21.795,0.0,0.0,14.103,0.0,0.0,51870440.0,1670028.0,0.0,0.0,18.0,1093.0
17.722,40.506,31.646,0.0,0.0,10.127,0.0,8192.0,48161359.0,1569574.0,0.0,0.0,18.0,1145.0
14.773,31.818,50.0,0.0,0.0,3.409,0.0,0.0,46264717.0,1500462.0,0.0,0.0,19.0,868.0
10.843,30.120,55.422,0.0,0.0,3.614,0.0,0.0,46185855.0,1489148.0,0.0,0.0,18.0,917.0
10.345,27.586,55.172,0.0,0.0,6.897,0.0,0.0,34902806.0,1137780.0,0.0,0.0,18.0,810.0
0.0,0.0,100.0,0.0,0.0,0.0,0.0,0.0,2514.0,578.0,0.0,0.0,18.0,45.0
