"Dstat 0.7.2 CSV output"
"Author:","Dag Wieers <dag@wieers.com>",,,,"URL:","http://dag.wieers.com/home-made/dstat/"
"Host:","Server1",,,,"User:","maki"
"Cmdline:","dstat --output server1_16_get_2_14.csv 1 70",,,,"Date:","20 Nov 2018 12:18:12 UTC"

"total cpu usage",,,,,,"dsk/total",,"net/total",,"paging",,"system",
"usr","sys","idl","wai","hiq","siq","read","writ","recv","send","in","out","int","csw"
4.352,9.162,84.411,0.303,0.0,1.772,5106.810,18909.716,0.0,0.0,0.0,0.0,18.355,948.254
2.083,8.333,88.542,0.0,0.0,1.042,0.0,0.0,440028.0,12437694.0,0.0,0.0,19.0,1680.0
1.064,4.255,94.681,0.0,0.0,0.0,0.0,0.0,440040.0,12500588.0,0.0,0.0,18.0,1182.0
1.053,6.316,92.632,0.0,0.0,0.0,0.0,0.0,445201.0,12498892.0,0.0,0.0,18.0,893.0
0.0,6.250,92.708,0.0,0.0,1.042,0.0,0.0,439695.0,12500297.0,0.0,0.0,18.0,807.0
1.031,6.186,92.784,0.0,0.0,0.0,0.0,0.0,439928.0,12500532.0,0.0,0.0,19.0,815.0
3.061,11.224,85.714,0.0,0.0,0.0,0.0,0.0,445240.0,12498930.0,0.0,0.0,17.0,859.0
1.042,6.250,92.708,0.0,0.0,0.0,0.0,0.0,439987.0,12500358.0,0.0,0.0,19.0,854.0
2.062,7.216,90.722,0.0,0.0,0.0,0.0,4096.0,439701.0,12500227.0,0.0,0.0,18.0,863.0
2.062,6.186,90.722,0.0,0.0,1.031,0.0,0.0,445555.0,12499820.0,0.0,0.0,18.0,821.0
0.0,7.292,90.625,2.083,0.0,0.0,0.0,49152.0,439662.0,12500266.0,0.0,0.0,19.0,861.0
1.042,7.292,91.667,0.0,0.0,0.0,0.0,0.0,439680.0,12500205.0,0.0,0.0,18.0,819.0
3.158,4.211,90.526,0.0,0.0,2.105,0.0,0.0,445815.0,12499843.0,0.0,0.0,18.0,827.0
1.031,5.155,91.753,0.0,0.0,2.062,0.0,12288.0,440100.0,12499126.0,0.0,0.0,18.0,768.0
1.064,5.319,93.617,0.0,0.0,0.0,0.0,0.0,440026.0,12500426.0,0.0,0.0,18.0,811.0
3.125,6.250,89.583,0.0,0.0,1.042,0.0,0.0,444791.0,12500570.0,0.0,0.0,18.0,922.0
0.0,6.383,92.553,0.0,0.0,1.064,0.0,0.0,440620.0,12500476.0,0.0,0.0,19.0,828.0
1.020,8.163,90.816,0.0,0.0,0.0,0.0,0.0,446559.0,12740471.0,0.0,0.0,18.0,858.0
2.062,7.216,89.691,0.0,0.0,1.031,0.0,0.0,445740.0,12453783.0,0.0,0.0,18.0,841.0
0.0,8.247,91.753,0.0,0.0,0.0,0.0,0.0,439847.0,12500173.0,0.0,0.0,18.0,824.0
2.041,7.143,90.816,0.0,0.0,0.0,0.0,0.0,440160.0,12500574.0,0.0,0.0,19.0,787.0
1.075,6.452,92.473,0.0,0.0,0.0,0.0,0.0,439977.0,12500351.0,0.0,0.0,18.0,845.0
2.062,6.186,89.691,0.0,0.0,2.062,0.0,0.0,445479.0,12499126.0,0.0,0.0,18.0,839.0
1.053,6.316,92.632,0.0,0.0,0.0,0.0,0.0,446892.0,12696570.0,0.0,0.0,18.0,792.0
0.0,5.263,93.684,0.0,0.0,1.053,0.0,0.0,439765.0,12500294.0,0.0,0.0,18.0,893.0
3.061,7.143,89.796,0.0,0.0,0.0,0.0,0.0,444973.0,12498946.0,0.0,0.0,19.0,901.0
2.041,8.163,89.796,0.0,0.0,0.0,0.0,0.0,439527.0,12501315.0,0.0,0.0,18.0,882.0
1.031,7.216,90.722,0.0,0.0,1.031,0.0,0.0,439376.0,12498795.0,0.0,0.0,18.0,850.0
3.0,9.0,87.0,0.0,0.0,1.0,0.0,0.0,445316.0,12500394.0,0.0,0.0,18.0,767.0
0.0,6.316,93.684,0.0,0.0,0.0,0.0,0.0,439685.0,12500215.0,0.0,0.0,18.0,749.0
0.0,8.247,91.753,0.0,0.0,0.0,0.0,0.0,439846.0,12500225.0,0.0,0.0,19.0,807.0
2.128,4.255,91.489,0.0,0.0,2.128,0.0,0.0,445188.0,12498879.0,0.0,0.0,18.0,869.0
2.041,7.143,90.816,0.0,0.0,0.0,0.0,0.0,439749.0,12500343.0,0.0,0.0,18.0,789.0
1.042,5.208,93.750,0.0,0.0,0.0,0.0,0.0,439771.0,12500303.0,0.0,0.0,18.0,786.0
2.083,7.292,90.625,0.0,0.0,0.0,0.0,8192.0,445262.0,12500414.0,0.0,0.0,18.0,844.0
1.053,5.263,93.684,0.0,0.0,0.0,0.0,0.0,439639.0,12499061.0,0.0,0.0,19.0,758.0
2.083,7.292,90.625,0.0,0.0,0.0,0.0,0.0,446683.0,12694895.0,0.0,0.0,18.0,806.0
1.020,9.184,89.796,0.0,0.0,0.0,0.0,0.0,445157.0,12501781.0,0.0,0.0,18.0,824.0
1.042,7.292,90.625,0.0,0.0,1.042,0.0,0.0,439741.0,12498798.0,0.0,0.0,18.0,940.0
2.174,7.609,89.130,0.0,0.0,1.087,0.0,0.0,441812.0,12499878.0,0.0,0.0,23.0,938.0
3.061,6.122,89.796,0.0,0.0,1.020,0.0,0.0,445308.0,12500384.0,0.0,0.0,19.0,848.0
3.158,6.316,88.421,2.105,0.0,0.0,0.0,40960.0,439614.0,12500220.0,0.0,0.0,18.0,815.0
1.042,5.208,92.708,0.0,0.0,1.042,0.0,0.0,439823.0,12500193.0,0.0,0.0,18.0,743.0
2.105,5.263,92.632,0.0,0.0,0.0,0.0,0.0,445328.0,12498863.0,0.0,0.0,18.0,850.0
1.042,5.208,93.750,0.0,0.0,0.0,0.0,45056.0,439774.0,12500297.0,0.0,0.0,18.0,765.0
1.020,7.143,90.816,0.0,0.0,1.020,0.0,0.0,439841.0,12500291.0,0.0,0.0,19.0,793.0
3.261,4.348,92.391,0.0,0.0,0.0,0.0,0.0,452222.0,12694983.0,0.0,0.0,18.0,825.0
0.0,7.216,91.753,0.0,0.0,1.031,0.0,0.0,439757.0,12500364.0,0.0,0.0,18.0,845.0
2.041,5.102,91.837,0.0,0.0,1.020,0.0,0.0,439843.0,12500365.0,0.0,0.0,18.0,801.0
1.075,6.452,91.398,0.0,0.0,1.075,0.0,4096.0,452052.0,12695275.0,0.0,0.0,19.0,785.0
1.075,3.226,95.699,0.0,0.0,0.0,0.0,0.0,439914.0,12498834.0,0.0,0.0,18.0,821.0
1.042,7.292,91.667,0.0,0.0,0.0,0.0,0.0,439659.0,12500261.0,0.0,0.0,18.0,835.0
1.075,5.376,92.473,0.0,0.0,1.075,0.0,0.0,452146.0,12696454.0,0.0,0.0,18.0,827.0
2.105,5.263,92.632,0.0,0.0,0.0,0.0,0.0,439600.0,12499022.0,0.0,0.0,18.0,780.0
1.031,6.186,92.784,0.0,0.0,0.0,0.0,0.0,439840.0,12498900.0,0.0,0.0,18.0,773.0
3.093,6.186,89.691,0.0,0.0,1.031,0.0,0.0,445324.0,12501881.0,0.0,0.0,19.0,794.0
0.0,8.247,91.753,0.0,0.0,0.0,0.0,0.0,439698.0,12500301.0,0.0,0.0,18.0,805.0
2.083,7.292,89.583,0.0,0.0,1.042,0.0,0.0,446689.0,12694899.0,0.0,0.0,18.0,813.0
3.125,8.333,88.542,0.0,0.0,0.0,0.0,0.0,452376.0,12695188.0,0.0,0.0,18.0,834.0
1.053,4.211,94.737,0.0,0.0,0.0,0.0,0.0,439917.0,12500381.0,0.0,0.0,19.0,736.0
0.0,8.247,90.722,0.0,0.0,1.031,0.0,0.0,439601.0,12499028.0,0.0,0.0,18.0,810.0
3.125,5.208,91.667,0.0,0.0,0.0,0.0,0.0,445175.0,12501695.0,0.0,0.0,18.0,881.0
3.191,4.255,92.553,0.0,0.0,0.0,0.0,0.0,439848.0,12499086.0,0.0,0.0,18.0,860.0
2.020,7.071,90.909,0.0,0.0,0.0,0.0,0.0,439697.0,12498835.0,0.0,0.0,18.0,767.0
1.075,4.301,94.624,0.0,0.0,0.0,0.0,0.0,439749.0,12501818.0,0.0,0.0,18.0,779.0
3.093,7.216,89.691,0.0,0.0,0.0,0.0,8192.0,445294.0,12498982.0,0.0,0.0,19.0,853.0
1.020,5.102,92.857,0.0,0.0,1.020,0.0,0.0,439779.0,12500383.0,0.0,0.0,18.0,736.0
1.053,8.421,90.526,0.0,0.0,0.0,0.0,0.0,439710.0,12498849.0,0.0,0.0,18.0,804.0
3.093,6.186,89.691,0.0,0.0,1.031,0.0,0.0,445170.0,12500325.0,0.0,0.0,18.0,864.0
1.042,6.250,92.708,0.0,0.0,0.0,0.0,0.0,447621.0,12696079.0,0.0,0.0,18.0,756.0
0.0,7.143,91.837,0.0,0.0,1.020,0.0,8192.0,415203.0,11836700.0,0.0,0.0,19.0,740.0
