"Dstat 0.7.2 CSV output"
"Author:","Dag Wieers <dag@wieers.com>",,,,"URL:","http://dag.wieers.com/home-made/dstat/"
"Host:","Server1",,,,"User:","maki"
"Cmdline:","dstat --output server1_32_set_2_2.csv 1 70",,,,"Date:","07 Dec 2018 17:05:57 UTC"

"total cpu usage",,,,,,"dsk/total",,"net/total",,"paging",,"system",
"usr","sys","idl","wai","hiq","siq","read","writ","recv","send","in","out","int","csw"
6.877,10.976,78.965,1.875,0.0,1.307,49080.692,202023.339,0.0,0.0,0.0,0.0,18.729,1898.241
2.198,7.692,89.011,0.0,0.0,1.099,0.0,0.0,14979366.0,486370.0,0.0,0.0,19.0,3591.0
5.435,6.522,86.957,0.0,0.0,1.087,0.0,0.0,17361930.0,564636.0,0.0,0.0,18.0,4009.0
7.609,11.957,79.348,0.0,0.0,1.087,0.0,0.0,23274429.0,752954.0,0.0,0.0,18.0,4518.0
6.522,11.957,80.435,0.0,0.0,1.087,0.0,0.0,24726971.0,801954.0,0.0,0.0,18.0,5073.0
7.059,8.235,83.529,0.0,0.0,1.176,0.0,0.0,24438519.0,793536.0,0.0,0.0,19.0,4680.0
6.742,12.360,79.775,0.0,0.0,1.124,0.0,0.0,25267373.0,818894.0,0.0,0.0,18.0,4652.0
6.383,15.957,76.596,0.0,0.0,1.064,0.0,0.0,25600065.0,829320.0,0.0,0.0,18.0,5016.0
9.890,10.989,78.022,0.0,0.0,1.099,0.0,0.0,23422534.0,761270.0,0.0,0.0,18.0,4317.0
4.348,13.043,80.435,0.0,0.0,2.174,0.0,0.0,25263094.0,819034.0,0.0,0.0,18.0,4444.0
3.333,14.444,81.111,0.0,0.0,1.111,0.0,0.0,24069937.0,779274.0,0.0,0.0,19.0,4747.0
7.692,12.088,78.022,0.0,0.0,2.198,0.0,0.0,25553713.0,830496.0,0.0,0.0,18.0,4722.0
7.865,12.360,79.775,0.0,0.0,0.0,0.0,0.0,25695234.0,831914.0,0.0,0.0,18.0,4746.0
7.527,12.903,77.419,0.0,0.0,2.151,0.0,0.0,24139090.0,782634.0,0.0,0.0,18.0,4393.0
8.511,14.894,76.596,0.0,0.0,0.0,0.0,0.0,24650202.0,800536.0,0.0,0.0,18.0,4583.0
4.348,14.130,79.348,0.0,0.0,2.174,0.0,0.0,24843745.0,804614.0,0.0,0.0,19.0,4702.0
6.593,13.187,79.121,0.0,0.0,1.099,0.0,0.0,24338049.0,788654.0,0.0,0.0,18.0,4697.0
7.865,10.112,79.775,0.0,0.0,2.247,0.0,0.0,24931227.0,810336.0,0.0,0.0,18.0,4770.0
6.522,17.391,76.087,0.0,0.0,0.0,0.0,0.0,24902070.0,806006.0,0.0,0.0,18.0,4520.0
3.371,12.360,83.146,0.0,0.0,1.124,0.0,16384.0,24346584.0,788654.0,0.0,0.0,18.0,4458.0
6.383,13.830,78.723,0.0,0.0,1.064,0.0,0.0,23439885.0,761262.0,0.0,0.0,19.0,3938.0
9.091,6.818,82.955,0.0,0.0,1.136,0.0,0.0,24908579.0,806368.0,0.0,0.0,18.0,4582.0
5.682,9.091,85.227,0.0,0.0,0.0,0.0,0.0,24195335.0,784314.0,0.0,0.0,18.0,4099.0
6.818,12.500,78.409,0.0,0.0,2.273,0.0,0.0,23457204.0,763436.0,0.0,0.0,18.0,4549.0
3.448,12.644,82.759,0.0,0.0,1.149,0.0,0.0,24787548.0,801534.0,0.0,0.0,18.0,4427.0
7.692,13.187,75.824,2.198,0.0,1.099,0.0,32768.0,25323588.0,821760.0,0.0,0.0,19.0,4939.0
6.742,14.607,78.652,0.0,0.0,0.0,0.0,0.0,24853583.0,806630.0,0.0,0.0,18.0,4165.0
5.556,13.333,81.111,0.0,0.0,0.0,0.0,0.0,23879731.0,772974.0,0.0,0.0,18.0,3931.0
7.865,12.360,78.652,0.0,0.0,1.124,0.0,0.0,24173604.0,783474.0,0.0,0.0,18.0,4379.0
4.348,15.217,77.174,0.0,0.0,3.261,0.0,0.0,23876914.0,776888.0,0.0,0.0,19.0,4197.0
7.609,11.957,79.348,0.0,0.0,1.087,0.0,0.0,22530979.0,730760.0,0.0,0.0,18.0,4385.0
7.692,9.890,80.220,0.0,0.0,2.198,0.0,0.0,24013754.0,777248.0,0.0,0.0,18.0,4252.0
7.778,14.444,76.667,0.0,0.0,1.111,0.0,0.0,23911098.0,777716.0,0.0,0.0,18.0,4263.0
3.297,10.989,84.615,0.0,0.0,1.099,0.0,0.0,20957469.0,678894.0,0.0,0.0,18.0,2865.0
4.255,9.574,86.170,0.0,0.0,0.0,0.0,0.0,19574109.0,633394.0,0.0,0.0,19.0,2266.0
6.250,11.458,81.250,0.0,0.0,1.042,0.0,12288.0,20310087.0,661096.0,0.0,0.0,18.0,2416.0
4.396,7.692,87.912,0.0,0.0,0.0,0.0,0.0,20045273.0,649214.0,0.0,0.0,18.0,2257.0
4.301,7.527,88.172,0.0,0.0,0.0,0.0,0.0,18549588.0,599794.0,0.0,0.0,18.0,1768.0
4.301,12.903,80.645,0.0,0.0,2.151,0.0,0.0,18883843.0,614712.0,0.0,0.0,18.0,2426.0
5.376,12.903,80.645,0.0,0.0,1.075,0.0,0.0,24381167.0,790614.0,0.0,0.0,19.0,4790.0
5.263,14.737,78.947,0.0,0.0,1.053,0.0,0.0,24917224.0,807974.0,0.0,0.0,18.0,5344.0
12.222,8.889,78.889,0.0,0.0,0.0,0.0,0.0,25635855.0,832876.0,0.0,0.0,18.0,5118.0
3.448,13.793,81.609,0.0,0.0,1.149,0.0,0.0,26711189.0,865234.0,0.0,0.0,18.0,5601.0
5.814,10.465,82.558,0.0,0.0,1.163,0.0,0.0,25373733.0,820914.0,0.0,0.0,18.0,5283.0
9.677,12.903,75.269,0.0,0.0,2.151,0.0,0.0,24961649.0,811456.0,0.0,0.0,19.0,5071.0
4.545,12.500,81.818,0.0,0.0,1.136,0.0,0.0,25587335.0,828554.0,0.0,0.0,18.0,5042.0
9.195,12.644,78.161,0.0,0.0,0.0,0.0,0.0,24176361.0,789326.0,0.0,0.0,18.0,4687.0
6.452,15.054,76.344,0.0,0.0,2.151,0.0,0.0,24983168.0,810896.0,0.0,0.0,18.0,5227.0
3.297,14.286,80.220,0.0,0.0,2.198,0.0,0.0,23750048.0,769894.0,0.0,0.0,18.0,4241.0
6.593,14.286,79.121,0.0,0.0,0.0,0.0,0.0,25461923.0,825054.0,0.0,0.0,19.0,5399.0
5.682,10.227,81.818,0.0,0.0,2.273,0.0,0.0,25039069.0,814050.0,0.0,0.0,18.0,4905.0
7.447,13.830,77.660,0.0,0.0,1.064,0.0,0.0,25358484.0,820674.0,0.0,0.0,18.0,5016.0
5.747,11.494,81.609,0.0,0.0,1.149,0.0,0.0,25180862.0,816654.0,0.0,0.0,18.0,5821.0
10.989,8.791,79.121,0.0,0.0,1.099,0.0,0.0,24420193.0,790474.0,0.0,0.0,18.0,5086.0
8.046,9.195,82.759,0.0,0.0,0.0,0.0,0.0,24632989.0,800956.0,0.0,0.0,19.0,4534.0
5.556,13.333,77.778,2.222,0.0,1.111,0.0,81920.0,26062674.0,843254.0,0.0,0.0,18.0,5379.0
3.371,12.360,83.146,0.0,0.0,1.124,0.0,0.0,25483377.0,826174.0,0.0,0.0,18.0,4945.0
6.742,11.236,82.022,0.0,0.0,0.0,0.0,0.0,24827453.0,806836.0,0.0,0.0,18.0,4495.0
5.435,14.130,78.261,0.0,0.0,2.174,0.0,0.0,23732709.0,768074.0,0.0,0.0,18.0,4774.0
4.598,8.046,87.356,0.0,0.0,0.0,0.0,0.0,22185227.0,718828.0,0.0,0.0,19.0,4452.0
7.609,7.609,81.522,0.0,0.0,3.261,0.0,0.0,20228062.0,657736.0,0.0,0.0,18.0,4725.0
2.299,8.046,89.655,0.0,0.0,0.0,0.0,0.0,20594514.0,668288.0,0.0,0.0,18.0,4693.0
7.609,9.783,81.522,0.0,0.0,1.087,0.0,0.0,22548209.0,729640.0,0.0,0.0,18.0,5048.0
5.682,9.091,85.227,0.0,0.0,0.0,0.0,0.0,19994628.0,650876.0,0.0,0.0,18.0,3982.0
7.609,11.957,79.348,0.0,0.0,1.087,0.0,0.0,24804816.0,802868.0,0.0,0.0,19.0,4960.0
7.527,12.903,78.495,0.0,0.0,1.075,0.0,0.0,24311238.0,788050.0,0.0,0.0,18.0,5130.0
9.783,14.130,75.0,0.0,0.0,1.087,0.0,0.0,24784274.0,805716.0,0.0,0.0,18.0,4822.0
8.791,10.989,79.121,0.0,0.0,1.099,0.0,0.0,25392718.0,822114.0,0.0,0.0,18.0,5388.0
7.692,14.286,78.022,0.0,0.0,0.0,0.0,0.0,24056894.0,780254.0,0.0,0.0,19.0,4842.0
9.783,9.783,78.261,0.0,0.0,2.174,0.0,0.0,22579621.0,734036.0,0.0,0.0,18.0,4506.0
3.297,10.989,85.714,0.0,0.0,0.0,0.0,8192.0,19848563.0,643054.0,0.0,0.0,18.0,4440.0
