"Dstat 0.7.2 CSV output"
"Author:","Dag Wieers <dag@wieers.com>",,,,"URL:","http://dag.wieers.com/home-made/dstat/"
"Host:","Server1",,,,"User:","maki"
"Cmdline:","dstat --output server1_16_get_1_42.csv 1 70",,,,"Date:","20 Nov 2018 12:07:29 UTC"

"total cpu usage",,,,,,"dsk/total",,"net/total",,"paging",,"system",
"usr","sys","idl","wai","hiq","siq","read","writ","recv","send","in","out","int","csw"
4.390,9.227,84.287,0.306,0.0,1.791,5177.071,19139.220,0.0,0.0,0.0,0.0,18.356,949.012
2.151,7.527,90.323,0.0,0.0,0.0,0.0,0.0,443345.0,12518678.0,0.0,0.0,18.0,1623.0
3.061,7.143,89.796,0.0,0.0,0.0,0.0,0.0,439483.0,12511834.0,0.0,0.0,18.0,1184.0
1.075,5.376,93.548,0.0,0.0,0.0,0.0,0.0,445452.0,12491933.0,0.0,0.0,18.0,931.0
1.053,5.263,93.684,0.0,0.0,0.0,0.0,0.0,440310.0,12507808.0,0.0,0.0,19.0,805.0
1.031,7.216,91.753,0.0,0.0,0.0,0.0,0.0,447222.0,12695206.0,0.0,0.0,18.0,827.0
3.093,8.247,87.629,0.0,0.0,1.031,0.0,0.0,445698.0,12500703.0,0.0,0.0,18.0,832.0
1.020,6.122,91.837,0.0,0.0,1.020,0.0,0.0,439665.0,12498727.0,0.0,0.0,18.0,790.0
1.042,6.250,92.708,0.0,0.0,0.0,0.0,0.0,440019.0,12500543.0,0.0,0.0,18.0,806.0
0.0,6.316,92.632,0.0,0.0,1.053,0.0,0.0,444305.0,12500211.0,0.0,0.0,18.0,875.0
1.020,8.163,90.816,0.0,0.0,0.0,0.0,0.0,440029.0,12499883.0,0.0,0.0,19.0,754.0
1.042,7.292,91.667,0.0,0.0,0.0,0.0,0.0,438180.0,12449445.0,0.0,0.0,18.0,830.0
1.064,5.319,92.553,0.0,0.0,1.064,0.0,0.0,447114.0,12550271.0,0.0,0.0,18.0,844.0
2.062,5.155,92.784,0.0,0.0,0.0,0.0,0.0,439915.0,12500521.0,0.0,0.0,18.0,816.0
1.064,4.255,94.681,0.0,0.0,0.0,0.0,0.0,440012.0,12497533.0,0.0,0.0,19.0,841.0
1.020,7.143,90.816,0.0,0.0,1.020,0.0,0.0,445695.0,12502165.0,0.0,0.0,18.0,818.0
2.020,10.101,87.879,0.0,0.0,0.0,0.0,0.0,439929.0,12500455.0,0.0,0.0,18.0,838.0
1.031,6.186,91.753,0.0,0.0,1.031,0.0,0.0,437602.0,12439174.0,0.0,0.0,18.0,795.0
2.083,5.208,92.708,0.0,0.0,0.0,0.0,0.0,447165.0,12559888.0,0.0,0.0,18.0,782.0
2.105,4.211,93.684,0.0,0.0,0.0,0.0,0.0,439393.0,12500447.0,0.0,0.0,19.0,820.0
1.031,7.216,91.753,0.0,0.0,0.0,0.0,0.0,439512.0,12500259.0,0.0,0.0,18.0,806.0
2.105,12.632,84.211,0.0,0.0,1.053,0.0,0.0,447244.0,12500012.0,0.0,0.0,23.0,1006.0
1.064,3.191,94.681,0.0,0.0,1.064,0.0,0.0,437171.0,12438891.0,0.0,0.0,18.0,774.0
0.0,5.263,94.737,0.0,0.0,0.0,0.0,0.0,442014.0,12561572.0,0.0,0.0,18.0,788.0
3.061,6.122,90.816,0.0,0.0,0.0,0.0,0.0,444314.0,12473399.0,0.0,0.0,19.0,854.0
1.053,4.211,94.737,0.0,0.0,0.0,0.0,0.0,433322.0,12359578.0,0.0,0.0,18.0,770.0
1.042,6.250,90.625,0.0,0.0,2.083,0.0,0.0,445846.0,12607000.0,0.0,0.0,18.0,854.0
3.093,6.186,90.722,0.0,0.0,0.0,0.0,0.0,452353.0,12692400.0,0.0,0.0,18.0,831.0
2.062,6.186,91.753,0.0,0.0,0.0,0.0,0.0,441779.0,12561340.0,0.0,0.0,18.0,789.0
0.0,4.301,94.624,0.0,0.0,1.075,0.0,0.0,438300.0,12500188.0,0.0,0.0,19.0,836.0
2.083,5.208,91.667,0.0,0.0,1.042,0.0,0.0,442823.0,12452093.0,0.0,0.0,18.0,864.0
1.042,7.292,87.500,3.125,0.0,1.042,0.0,53248.0,439824.0,12479208.0,0.0,0.0,18.0,910.0
2.062,6.186,91.753,0.0,0.0,0.0,0.0,0.0,445863.0,12701929.0,0.0,0.0,18.0,802.0
2.020,7.071,89.899,0.0,0.0,1.010,0.0,0.0,446463.0,12543501.0,0.0,0.0,18.0,826.0
1.042,5.208,92.708,0.0,0.0,1.042,0.0,0.0,439768.0,12485003.0,0.0,0.0,19.0,829.0
2.083,5.208,92.708,0.0,0.0,0.0,0.0,0.0,442396.0,12531654.0,0.0,0.0,18.0,768.0
2.062,8.247,89.691,0.0,0.0,0.0,0.0,0.0,446473.0,12696440.0,0.0,0.0,18.0,886.0
3.093,5.155,90.722,0.0,0.0,1.031,0.0,0.0,441333.0,12371133.0,0.0,0.0,18.0,935.0
1.031,6.186,92.784,0.0,0.0,0.0,0.0,0.0,443627.0,12629880.0,0.0,0.0,19.0,821.0
0.0,6.316,93.684,0.0,0.0,0.0,0.0,0.0,439735.0,12500113.0,0.0,0.0,18.0,840.0
1.042,5.208,91.667,0.0,0.0,2.083,0.0,0.0,445418.0,12495284.0,0.0,0.0,18.0,804.0
2.062,8.247,89.691,0.0,0.0,0.0,0.0,0.0,440789.0,12504676.0,0.0,0.0,18.0,865.0
0.0,7.216,91.753,0.0,0.0,1.031,0.0,0.0,438214.0,12479013.0,0.0,0.0,18.0,869.0
1.064,6.383,92.553,0.0,0.0,0.0,0.0,0.0,451669.0,12656666.0,0.0,0.0,19.0,844.0
2.062,6.186,91.753,0.0,0.0,0.0,0.0,0.0,441907.0,12557430.0,0.0,0.0,18.0,807.0
1.042,7.292,91.667,0.0,0.0,0.0,0.0,0.0,453216.0,12874210.0,0.0,0.0,18.0,880.0
1.042,7.292,90.625,0.0,0.0,1.042,0.0,0.0,443869.0,12470692.0,0.0,0.0,18.0,910.0
1.031,6.186,92.784,0.0,0.0,0.0,0.0,0.0,439778.0,12535942.0,0.0,0.0,18.0,807.0
1.053,5.263,93.684,0.0,0.0,0.0,0.0,0.0,440235.0,12490543.0,0.0,0.0,19.0,847.0
2.083,7.292,90.625,0.0,0.0,0.0,0.0,0.0,446489.0,12494868.0,0.0,0.0,17.0,874.0
2.041,8.163,89.796,0.0,0.0,0.0,0.0,0.0,439033.0,12470469.0,0.0,0.0,19.0,833.0
4.040,8.081,86.869,0.0,0.0,1.010,0.0,4096.0,439282.0,12521420.0,0.0,0.0,18.0,866.0
2.083,7.292,89.583,0.0,0.0,1.042,0.0,0.0,443000.0,12406657.0,0.0,0.0,18.0,1000.0
0.0,5.376,94.624,0.0,0.0,0.0,0.0,0.0,440082.0,12572990.0,0.0,0.0,19.0,874.0
1.010,8.081,89.899,0.0,0.0,1.010,0.0,0.0,448786.0,12692201.0,0.0,0.0,18.0,873.0
2.062,7.216,89.691,0.0,0.0,1.031,0.0,0.0,444159.0,12500044.0,0.0,0.0,18.0,821.0
1.042,9.375,89.583,0.0,0.0,0.0,0.0,0.0,446213.0,12708754.0,0.0,0.0,18.0,892.0
0.0,3.226,95.699,0.0,0.0,1.075,0.0,0.0,440499.0,12497110.0,0.0,0.0,18.0,804.0
1.053,7.368,91.579,0.0,0.0,0.0,0.0,0.0,445166.0,12486192.0,0.0,0.0,19.0,834.0
2.083,5.208,92.708,0.0,0.0,0.0,0.0,0.0,440537.0,12560056.0,0.0,0.0,18.0,917.0
0.0,6.316,93.684,0.0,0.0,0.0,0.0,0.0,438994.0,12432306.0,0.0,0.0,18.0,809.0
2.062,7.216,86.598,2.062,0.0,2.062,0.0,45056.0,445852.0,12513195.0,0.0,0.0,18.0,870.0
2.105,4.211,93.684,0.0,0.0,0.0,0.0,0.0,439883.0,12531785.0,0.0,0.0,18.0,817.0
0.0,8.163,91.837,0.0,0.0,0.0,0.0,0.0,438035.0,12464728.0,0.0,0.0,19.0,847.0
2.128,5.319,92.553,0.0,0.0,0.0,0.0,0.0,446833.0,12495915.0,0.0,0.0,18.0,815.0
1.064,4.255,94.681,0.0,0.0,0.0,0.0,0.0,437352.0,12436197.0,0.0,0.0,18.0,785.0
4.0,7.0,86.0,0.0,0.0,3.0,0.0,8192.0,442130.0,12564413.0,0.0,0.0,18.0,845.0
0.0,7.447,92.553,0.0,0.0,0.0,0.0,0.0,443303.0,12432510.0,0.0,0.0,18.0,819.0
0.0,6.316,93.684,0.0,0.0,0.0,0.0,0.0,449316.0,12777650.0,0.0,0.0,19.0,788.0
1.031,6.186,91.753,0.0,0.0,1.031,0.0,0.0,445122.0,12675362.0,0.0,0.0,18.0,836.0
2.128,2.128,94.681,0.0,0.0,1.064,0.0,0.0,445029.0,12436620.0,0.0,0.0,18.0,821.0
