"Dstat 0.7.2 CSV output"
"Author:","Dag Wieers <dag@wieers.com>",,,,"URL:","http://dag.wieers.com/home-made/dstat/"
"Host:","Server1",,,,"User:","maki"
"Cmdline:","dstat --output server1_8_set_3_8.csv 1 70",,,,"Date:","07 Dec 2018 15:54:28 UTC"

"total cpu usage",,,,,,"dsk/total",,"net/total",,"paging",,"system",
"usr","sys","idl","wai","hiq","siq","read","writ","recv","send","in","out","int","csw"
8.007,7.840,78.881,4.617,0.0,0.654,130160.008,532775.680,0.0,0.0,0.0,0.0,19.587,2089.852
2.105,4.211,93.684,0.0,0.0,0.0,0.0,0.0,9193120.0,298640.0,0.0,0.0,18.0,2131.0
3.030,3.030,92.929,0.0,0.0,1.010,0.0,0.0,1961552.0,68640.0,0.0,0.0,19.0,398.0
0.0,0.0,99.010,0.0,0.0,0.990,0.0,0.0,211149.0,6730.0,0.0,0.0,18.0,82.0
3.226,8.602,87.097,0.0,0.0,1.075,0.0,0.0,16664026.0,543132.0,0.0,0.0,18.0,3003.0
2.151,2.151,95.699,0.0,0.0,0.0,0.0,0.0,10548779.0,341668.0,0.0,0.0,18.0,2005.0
8.140,13.953,76.744,0.0,0.0,1.163,0.0,0.0,31561493.0,1022314.0,0.0,0.0,18.0,4240.0
9.677,16.129,72.043,0.0,0.0,2.151,0.0,0.0,23232781.0,755930.0,0.0,0.0,19.0,3633.0
5.556,14.444,77.778,0.0,0.0,2.222,0.0,0.0,27779211.0,899608.0,0.0,0.0,18.0,3388.0
4.651,10.465,83.721,0.0,0.0,1.163,0.0,0.0,27069908.0,876854.0,0.0,0.0,18.0,3062.0
2.198,10.989,85.714,0.0,0.0,1.099,0.0,0.0,21261281.0,691896.0,0.0,0.0,18.0,1920.0
3.297,8.791,87.912,0.0,0.0,0.0,0.0,0.0,21826026.0,707034.0,0.0,0.0,18.0,2001.0
5.495,10.989,83.516,0.0,0.0,0.0,0.0,0.0,23914186.0,774094.0,0.0,0.0,19.0,2352.0
5.556,13.333,80.0,0.0,0.0,1.111,0.0,0.0,25303000.0,823142.0,0.0,0.0,18.0,2714.0
6.818,7.955,84.091,0.0,0.0,1.136,0.0,0.0,26914432.0,871188.0,0.0,0.0,18.0,2792.0
4.444,14.444,81.111,0.0,0.0,0.0,0.0,0.0,28297680.0,916334.0,0.0,0.0,18.0,2992.0
5.618,12.360,80.899,0.0,0.0,1.124,0.0,0.0,28073899.0,911976.0,0.0,0.0,19.0,3259.0
4.878,14.634,79.268,0.0,0.0,1.220,0.0,0.0,28021135.0,908774.0,0.0,0.0,18.0,3658.0
6.522,10.870,80.435,0.0,0.0,2.174,0.0,0.0,27597383.0,893094.0,0.0,0.0,18.0,2650.0
7.609,14.130,76.087,0.0,0.0,2.174,0.0,0.0,28523667.0,927376.0,0.0,0.0,18.0,3480.0
4.545,10.227,85.227,0.0,0.0,0.0,0.0,0.0,27930425.0,903594.0,0.0,0.0,18.0,2990.0
3.226,18.280,77.419,0.0,0.0,1.075,0.0,0.0,28911549.0,937614.0,0.0,0.0,19.0,3189.0
9.091,13.636,76.136,0.0,0.0,1.136,0.0,0.0,26440319.0,858183.0,0.0,0.0,18.0,3247.0
5.882,11.765,81.176,0.0,0.0,1.176,0.0,0.0,28584179.0,928568.0,0.0,0.0,18.0,3364.0
7.778,18.889,72.222,0.0,0.0,1.111,0.0,0.0,31894714.0,1033182.0,0.0,0.0,18.0,4479.0
7.865,14.607,75.281,0.0,0.0,2.247,0.0,0.0,31627291.0,1026842.0,0.0,0.0,18.0,4069.0
6.742,16.854,74.157,0.0,0.0,2.247,0.0,0.0,32589894.0,1055634.0,0.0,0.0,19.0,4165.0
5.747,16.092,77.011,0.0,0.0,1.149,0.0,0.0,29845339.0,967574.0,0.0,0.0,18.0,3794.0
6.977,16.279,74.419,0.0,0.0,2.326,0.0,0.0,31467385.0,1021036.0,0.0,0.0,18.0,4201.0
6.522,16.304,76.087,0.0,0.0,1.087,0.0,0.0,32503888.0,1053114.0,0.0,0.0,18.0,4124.0
4.348,15.217,76.087,3.261,0.0,1.087,0.0,49152.0,30087277.0,975414.0,0.0,0.0,18.0,3447.0
7.955,12.500,78.409,0.0,0.0,1.136,0.0,0.0,28549601.0,926396.0,0.0,0.0,19.0,3661.0
7.059,12.941,76.471,0.0,0.0,3.529,0.0,0.0,31829674.0,1030854.0,0.0,0.0,18.0,4317.0
6.593,14.286,76.923,0.0,0.0,2.198,0.0,0.0,32711495.0,1059694.0,0.0,0.0,18.0,4243.0
5.747,17.241,75.862,0.0,0.0,1.149,0.0,0.0,32077176.0,1041476.0,0.0,0.0,18.0,4539.0
6.897,14.943,78.161,0.0,0.0,0.0,0.0,4096.0,31937649.0,1035194.0,0.0,0.0,18.0,4382.0
6.897,12.644,79.310,0.0,0.0,1.149,0.0,0.0,32823366.0,1062494.0,0.0,0.0,19.0,3989.0
8.791,17.582,71.429,0.0,0.0,2.198,0.0,0.0,29526509.0,959856.0,0.0,0.0,18.0,3990.0
6.977,11.628,79.070,0.0,0.0,2.326,0.0,0.0,31647987.0,1024554.0,0.0,0.0,18.0,4394.0
8.989,12.360,78.652,0.0,0.0,0.0,0.0,0.0,30701117.0,994454.0,0.0,0.0,18.0,3647.0
9.195,14.943,74.713,0.0,0.0,1.149,0.0,0.0,30953395.0,1006208.0,0.0,0.0,18.0,3851.0
3.297,16.484,76.923,0.0,0.0,3.297,0.0,0.0,31600223.0,1023014.0,0.0,0.0,19.0,3716.0
5.618,16.854,76.404,0.0,0.0,1.124,0.0,0.0,30666437.0,993334.0,0.0,0.0,18.0,3798.0
5.882,12.941,77.647,0.0,0.0,3.529,0.0,0.0,30278754.0,983516.0,0.0,0.0,18.0,3870.0
7.778,14.444,77.778,0.0,0.0,0.0,0.0,0.0,29776175.0,965334.0,0.0,0.0,18.0,3926.0
6.897,12.644,79.310,0.0,0.0,1.149,0.0,0.0,30632158.0,991234.0,0.0,0.0,18.0,3575.0
6.593,14.286,76.923,0.0,0.0,2.198,0.0,0.0,30416955.0,987856.0,0.0,0.0,19.0,3768.0
7.865,14.607,75.281,0.0,0.0,2.247,0.0,0.0,30610392.0,991514.0,0.0,0.0,18.0,3848.0
5.435,14.130,78.261,0.0,0.0,2.174,0.0,0.0,30917120.0,1002500.0,0.0,0.0,18.0,3577.0
7.059,11.765,77.647,0.0,0.0,3.529,0.0,0.0,31316043.0,1017050.0,0.0,0.0,18.0,4179.0
6.977,9.302,83.721,0.0,0.0,0.0,0.0,0.0,29853995.0,966628.0,0.0,0.0,19.0,3564.0
4.545,9.091,85.227,0.0,0.0,1.136,0.0,0.0,25595897.0,829674.0,0.0,0.0,18.0,2393.0
8.140,11.628,79.070,0.0,0.0,1.163,0.0,0.0,27239755.0,883836.0,0.0,0.0,18.0,3229.0
6.742,14.607,77.528,0.0,0.0,1.124,0.0,0.0,26080243.0,845914.0,0.0,0.0,18.0,3085.0
4.598,11.494,82.759,0.0,0.0,1.149,0.0,0.0,29166816.0,943634.0,0.0,0.0,18.0,3367.0
11.236,15.730,69.663,0.0,0.0,3.371,0.0,0.0,31152122.0,1011796.0,0.0,0.0,19.0,4100.0
9.195,14.943,73.563,0.0,0.0,2.299,0.0,0.0,32019863.0,1037294.0,0.0,0.0,18.0,4219.0
8.235,14.118,75.294,0.0,0.0,2.353,0.0,0.0,32192574.0,1042614.0,0.0,0.0,18.0,4465.0
7.692,13.187,78.022,0.0,0.0,1.099,0.0,0.0,27429408.0,890910.0,0.0,0.0,18.0,3140.0
4.651,17.442,75.581,0.0,0.0,2.326,0.0,0.0,30287705.0,981500.0,0.0,0.0,18.0,3780.0
6.977,13.953,76.744,1.163,0.0,1.163,0.0,20480.0,31071585.0,1006914.0,0.0,0.0,19.0,3684.0
7.692,15.385,74.725,0.0,0.0,2.198,0.0,32768.0,30891371.0,1000894.0,0.0,0.0,18.0,3964.0
9.091,13.636,75.0,0.0,0.0,2.273,0.0,0.0,25776789.0,841948.0,0.0,0.0,18.0,2924.0
4.255,7.447,88.298,0.0,0.0,0.0,0.0,0.0,18052509.0,585020.0,0.0,0.0,18.0,1613.0
2.198,6.593,90.110,0.0,0.0,1.099,0.0,0.0,20529591.0,664894.0,0.0,0.0,18.0,1795.0
6.316,7.368,86.316,0.0,0.0,0.0,0.0,0.0,18006073.0,585850.0,0.0,0.0,19.0,1655.0
3.158,7.368,88.421,0.0,0.0,1.053,0.0,8192.0,17883946.0,580194.0,0.0,0.0,18.0,1598.0
7.071,11.111,80.808,0.0,0.0,1.010,0.0,0.0,20702403.0,669794.0,0.0,0.0,18.0,2250.0
3.333,10.0,86.667,0.0,0.0,0.0,0.0,0.0,20305727.0,660396.0,0.0,0.0,18.0,2131.0
4.878,20.732,69.512,0.0,0.0,4.878,0.0,0.0,30113181.0,975414.0,0.0,0.0,18.0,4346.0
7.955,14.773,77.273,0.0,0.0,0.0,0.0,0.0,29037438.0,941674.0,0.0,0.0,19.0,4458.0
