"Dstat 0.7.2 CSV output"
"Author:","Dag Wieers <dag@wieers.com>",,,,"URL:","http://dag.wieers.com/home-made/dstat/"
"Host:","Server1",,,,"User:","maki"
"Cmdline:","dstat --output server1_64_set_3_2.csv 1 70",,,,"Date:","07 Dec 2018 18:09:05 UTC"

"total cpu usage",,,,,,"dsk/total",,"net/total",,"paging",,"system",
"usr","sys","idl","wai","hiq","siq","read","writ","recv","send","in","out","int","csw"
7.043,12.801,76.961,1.263,0.0,1.932,31661.126,130944.365,0.0,0.0,0.0,0.0,18.544,1689.103
5.319,4.255,86.170,0.0,0.0,4.255,0.0,0.0,14024335.0,452862.0,0.0,0.0,18.0,3111.0
5.263,7.368,84.211,0.0,0.0,3.158,0.0,0.0,15640681.0,509616.0,0.0,0.0,18.0,3156.0
4.494,12.360,82.022,0.0,0.0,1.124,0.0,0.0,21738403.0,703918.0,0.0,0.0,18.0,4339.0
5.556,8.889,83.333,0.0,0.0,2.222,0.0,0.0,22817310.0,738954.0,0.0,0.0,19.0,3790.0
4.545,10.227,82.955,0.0,0.0,2.273,0.0,0.0,22342858.0,725360.0,0.0,0.0,18.0,3966.0
7.778,10.0,81.111,0.0,0.0,1.111,0.0,0.0,23146866.0,750154.0,0.0,0.0,18.0,4113.0
5.319,14.894,77.660,0.0,0.0,2.128,0.0,0.0,23980908.0,777174.0,0.0,0.0,18.0,4564.0
5.556,15.556,77.778,0.0,0.0,1.111,0.0,0.0,23100377.0,749532.0,0.0,0.0,19.0,4418.0
6.522,9.783,82.609,0.0,0.0,1.087,0.0,0.0,21705936.0,703814.0,0.0,0.0,18.0,3304.0
3.261,8.696,88.043,0.0,0.0,0.0,0.0,0.0,19122402.0,620300.0,0.0,0.0,18.0,2182.0
5.376,9.677,84.946,0.0,0.0,0.0,0.0,0.0,19772001.0,641430.0,0.0,0.0,18.0,2531.0
1.087,10.870,86.957,0.0,0.0,1.087,0.0,0.0,19596868.0,635494.0,0.0,0.0,17.0,2315.0
5.376,7.527,86.022,0.0,0.0,1.075,0.0,0.0,20569228.0,665594.0,0.0,0.0,20.0,2555.0
3.297,9.890,85.714,0.0,0.0,1.099,0.0,0.0,19687817.0,640376.0,0.0,0.0,17.0,2355.0
5.376,9.677,84.946,0.0,0.0,0.0,0.0,0.0,21224452.0,688620.0,0.0,0.0,19.0,3376.0
4.494,10.112,84.270,0.0,0.0,1.124,0.0,0.0,22695947.0,734828.0,0.0,0.0,18.0,4760.0
6.593,10.989,81.319,0.0,0.0,1.099,0.0,0.0,23095996.0,750836.0,0.0,0.0,18.0,4735.0
4.545,11.364,84.091,0.0,0.0,0.0,0.0,0.0,24304445.0,787254.0,0.0,0.0,19.0,4823.0
6.522,13.043,78.261,0.0,0.0,2.174,0.0,0.0,23609374.0,764014.0,0.0,0.0,18.0,4882.0
6.522,13.043,78.261,0.0,0.0,2.174,0.0,0.0,24258048.0,788636.0,0.0,0.0,18.0,4993.0
4.444,10.0,83.333,0.0,0.0,2.222,0.0,0.0,23907840.0,773674.0,0.0,0.0,18.0,5057.0
6.667,12.222,81.111,0.0,0.0,0.0,0.0,0.0,23861235.0,773118.0,0.0,0.0,18.0,4876.0
6.818,9.091,81.818,1.136,0.0,1.136,0.0,32768.0,22855412.0,743276.0,0.0,0.0,19.0,4651.0
6.667,12.222,80.0,0.0,0.0,1.111,0.0,0.0,24359319.0,788398.0,0.0,0.0,18.0,4935.0
5.319,14.894,79.787,0.0,0.0,0.0,0.0,0.0,24664991.0,798672.0,0.0,0.0,18.0,4930.0
5.435,13.043,80.435,0.0,0.0,1.087,0.0,0.0,23470191.0,763996.0,0.0,0.0,18.0,5023.0
8.989,5.618,83.146,0.0,0.0,2.247,0.0,0.0,23636080.0,764854.0,0.0,0.0,18.0,4748.0
4.396,10.989,82.418,0.0,0.0,2.198,0.0,0.0,24289127.0,786274.0,0.0,0.0,19.0,4638.0
6.593,16.484,74.725,0.0,0.0,2.198,0.0,0.0,22839233.0,742856.0,0.0,0.0,18.0,5199.0
7.609,9.783,81.522,0.0,0.0,1.087,0.0,0.0,23874015.0,773534.0,0.0,0.0,18.0,4786.0
6.522,11.957,80.435,0.0,0.0,1.087,0.0,0.0,23873813.0,772274.0,0.0,0.0,18.0,4502.0
4.301,13.978,78.495,0.0,0.0,3.226,0.0,0.0,23610228.0,768196.0,0.0,0.0,18.0,4611.0
9.375,12.500,76.042,0.0,0.0,2.083,0.0,12288.0,24887310.0,806360.0,0.0,0.0,19.0,4847.0
8.602,12.903,77.419,0.0,0.0,1.075,0.0,0.0,24710774.0,800068.0,0.0,0.0,18.0,4872.0
7.527,11.828,79.570,0.0,0.0,1.075,0.0,0.0,23009751.0,747476.0,0.0,0.0,18.0,4204.0
5.435,13.043,79.348,0.0,0.0,2.174,0.0,0.0,25291064.0,819594.0,0.0,0.0,18.0,5446.0
6.742,11.236,82.022,0.0,0.0,0.0,0.0,0.0,24006514.0,777034.0,0.0,0.0,18.0,4775.0
7.527,12.903,77.419,0.0,0.0,2.151,0.0,0.0,23322435.0,758688.0,0.0,0.0,19.0,4691.0
5.618,10.112,82.022,0.0,0.0,2.247,0.0,0.0,23553807.0,763874.0,0.0,0.0,18.0,5069.0
6.593,10.989,81.319,0.0,0.0,1.099,0.0,0.0,24633672.0,797194.0,0.0,0.0,18.0,4906.0
7.865,10.112,80.899,0.0,0.0,1.124,0.0,0.0,23904930.0,776522.0,0.0,0.0,18.0,4836.0
6.522,11.957,78.261,0.0,0.0,3.261,0.0,0.0,25212977.0,817668.0,0.0,0.0,19.0,5036.0
3.261,15.217,80.435,0.0,0.0,1.087,0.0,0.0,22761630.0,737068.0,0.0,0.0,18.0,4546.0
4.762,11.905,82.143,0.0,0.0,1.190,0.0,0.0,23960332.0,778976.0,0.0,0.0,18.0,4670.0
6.383,12.766,77.660,0.0,0.0,3.191,0.0,0.0,23795355.0,770314.0,0.0,0.0,18.0,4826.0
4.444,10.0,83.333,0.0,0.0,2.222,0.0,0.0,23845510.0,771154.0,0.0,0.0,18.0,4851.0
5.495,15.385,76.923,0.0,0.0,2.198,0.0,0.0,23684647.0,770856.0,0.0,0.0,19.0,4517.0
5.435,10.870,82.609,0.0,0.0,1.087,0.0,0.0,23895030.0,773534.0,0.0,0.0,18.0,4387.0
3.333,14.444,82.222,0.0,0.0,0.0,0.0,0.0,22815123.0,738954.0,0.0,0.0,18.0,4517.0
7.778,12.222,77.778,0.0,0.0,2.222,0.0,0.0,22679778.0,742918.0,0.0,0.0,18.0,4551.0
8.511,9.574,78.723,0.0,0.0,3.191,0.0,0.0,23920529.0,775288.0,0.0,0.0,18.0,4701.0
4.301,15.054,78.495,0.0,0.0,2.151,0.0,0.0,24167138.0,781934.0,0.0,0.0,19.0,4603.0
5.495,10.989,79.121,2.198,0.0,2.198,0.0,40960.0,23451979.0,762876.0,0.0,0.0,18.0,4246.0
3.409,10.227,82.955,0.0,0.0,3.409,0.0,36864.0,23242195.0,752052.0,0.0,0.0,18.0,4606.0
4.255,12.766,80.851,0.0,0.0,2.128,0.0,0.0,23683136.0,766814.0,0.0,0.0,18.0,4580.0
4.494,13.483,80.899,0.0,0.0,1.124,0.0,0.0,23182066.0,753916.0,0.0,0.0,18.0,4329.0
6.522,10.870,81.522,0.0,0.0,1.087,0.0,0.0,24226532.0,785808.0,0.0,0.0,19.0,4557.0
2.326,8.140,88.372,0.0,0.0,1.163,0.0,0.0,21685280.0,702010.0,0.0,0.0,18.0,4195.0
4.444,12.222,80.0,0.0,0.0,3.333,0.0,0.0,22371118.0,726896.0,0.0,0.0,18.0,4538.0
6.452,10.753,81.720,0.0,0.0,1.075,0.0,0.0,23756117.0,770174.0,0.0,0.0,18.0,4866.0
4.444,13.333,82.222,0.0,0.0,0.0,0.0,0.0,24092149.0,779834.0,0.0,0.0,18.0,4742.0
4.819,7.229,86.747,0.0,0.0,1.205,0.0,0.0,23739158.0,770716.0,0.0,0.0,19.0,4616.0
3.333,10.0,84.444,0.0,0.0,2.222,0.0,0.0,23513178.0,761914.0,0.0,0.0,18.0,4271.0
5.495,12.088,81.319,0.0,0.0,1.099,0.0,8192.0,23577956.0,764014.0,0.0,0.0,18.0,4018.0
8.511,12.766,77.660,0.0,0.0,1.064,0.0,0.0,24220620.0,787656.0,0.0,0.0,18.0,4534.0
5.319,15.957,77.660,0.0,0.0,1.064,0.0,0.0,24546997.0,795094.0,0.0,0.0,18.0,4706.0
5.495,10.989,82.418,0.0,0.0,1.099,0.0,0.0,24115459.0,780534.0,0.0,0.0,18.0,4547.0
6.250,13.542,79.167,0.0,0.0,1.042,0.0,0.0,20969043.0,681932.0,0.0,0.0,19.0,3706.0
6.667,12.222,78.889,0.0,0.0,2.222,0.0,0.0,24927444.0,807554.0,0.0,0.0,18.0,5052.0
7.0,15.0,76.0,0.0,0.0,2.0,0.0,0.0,20704416.0,670708.0,0.0,0.0,18.0,4083.0
