"Dstat 0.7.2 CSV output"
"Author:","Dag Wieers <dag@wieers.com>",,,,"URL:","http://dag.wieers.com/home-made/dstat/"
"Host:","Server1",,,,"User:","maki"
"Cmdline:","dstat --output server1_64_get_1_42.csv 1 70",,,,"Date:","20 Nov 2018 13:33:27 UTC"

"total cpu usage",,,,,,"dsk/total",,"net/total",,"paging",,"system",
"usr","sys","idl","wai","hiq","siq","read","writ","recv","send","in","out","int","csw"
4.110,8.743,85.176,0.288,0.0,1.683,4662.651,17445.343,0.0,0.0,0.0,0.0,18.348,931.383
3.061,4.082,89.796,0.0,0.0,3.061,0.0,0.0,359439.0,9819354.0,0.0,0.0,18.0,1145.0
2.062,6.186,90.722,0.0,0.0,1.031,0.0,0.0,464803.0,13134669.0,0.0,0.0,18.0,535.0
1.042,4.167,93.750,0.0,0.0,1.042,0.0,0.0,441441.0,12356603.0,0.0,0.0,18.0,451.0
1.020,5.102,91.837,0.0,0.0,2.041,0.0,0.0,440620.0,12522130.0,0.0,0.0,19.0,335.0
2.105,6.316,91.579,0.0,0.0,0.0,0.0,0.0,446159.0,12477470.0,0.0,0.0,18.0,411.0
0.0,5.263,93.684,0.0,0.0,1.053,0.0,0.0,441101.0,12500259.0,0.0,0.0,18.0,333.0
2.020,5.051,91.919,0.0,0.0,1.010,0.0,16384.0,440331.0,12500386.0,0.0,0.0,18.0,324.0
1.031,6.186,88.660,3.093,0.0,1.031,0.0,49152.0,446536.0,12501596.0,0.0,0.0,18.0,361.0
1.020,6.122,91.837,0.0,0.0,1.020,0.0,0.0,441050.0,12573985.0,0.0,0.0,19.0,337.0
2.041,8.163,89.796,0.0,0.0,0.0,0.0,0.0,440566.0,12492849.0,0.0,0.0,18.0,347.0
3.061,4.082,90.816,0.0,0.0,2.041,0.0,0.0,446753.0,12429496.0,0.0,0.0,18.0,341.0
1.031,5.155,92.784,0.0,0.0,1.031,0.0,4096.0,408833.0,11730063.0,0.0,0.0,18.0,319.0
1.042,6.250,91.667,0.0,0.0,1.042,0.0,0.0,462423.0,12949649.0,0.0,0.0,18.0,646.0
2.020,5.051,90.909,0.0,0.0,2.020,0.0,0.0,446736.0,12500318.0,0.0,0.0,18.0,390.0
2.020,8.081,87.879,0.0,0.0,2.020,0.0,0.0,441570.0,12498572.0,0.0,0.0,19.0,336.0
1.020,5.102,91.837,0.0,0.0,2.041,0.0,0.0,440722.0,12501784.0,0.0,0.0,18.0,332.0
1.053,3.158,93.684,0.0,0.0,2.105,0.0,0.0,447087.0,12500202.0,0.0,0.0,18.0,376.0
1.010,6.061,90.909,0.0,0.0,2.020,0.0,0.0,447930.0,12693139.0,0.0,0.0,18.0,316.0
2.020,7.071,90.909,0.0,0.0,0.0,0.0,0.0,441829.0,12501398.0,0.0,0.0,19.0,304.0
2.020,8.081,86.869,0.0,0.0,3.030,0.0,0.0,452864.0,12694969.0,0.0,0.0,18.0,393.0
1.053,4.211,93.684,0.0,0.0,1.053,0.0,0.0,440928.0,12500407.0,0.0,0.0,18.0,328.0
1.042,3.125,93.750,0.0,0.0,2.083,0.0,0.0,440920.0,12499921.0,0.0,0.0,18.0,300.0
4.040,5.051,89.899,0.0,0.0,1.010,0.0,0.0,446680.0,12500492.0,0.0,0.0,19.0,383.0
0.0,6.186,92.784,0.0,0.0,1.031,0.0,0.0,442234.0,12499736.0,0.0,0.0,18.0,339.0
1.042,7.292,90.625,0.0,0.0,1.042,0.0,0.0,441752.0,12498731.0,0.0,0.0,18.0,363.0
2.062,5.155,91.753,0.0,0.0,1.031,0.0,0.0,453517.0,12696257.0,0.0,0.0,18.0,345.0
2.020,5.051,90.909,0.0,0.0,2.020,0.0,0.0,441111.0,12500219.0,0.0,0.0,18.0,329.0
0.0,4.211,94.737,0.0,0.0,1.053,0.0,0.0,454771.0,12890681.0,0.0,0.0,19.0,359.0
3.061,4.082,91.837,0.0,0.0,1.020,0.0,0.0,447206.0,12499516.0,0.0,0.0,18.0,402.0
1.031,8.247,89.691,0.0,0.0,1.031,0.0,0.0,447465.0,12694792.0,0.0,0.0,18.0,341.0
1.031,5.155,93.814,0.0,0.0,0.0,0.0,0.0,441461.0,12500052.0,0.0,0.0,18.0,333.0
2.020,7.071,90.909,0.0,0.0,0.0,0.0,12288.0,440925.0,12498778.0,0.0,0.0,18.0,300.0
2.062,5.155,90.722,0.0,0.0,2.062,0.0,0.0,454240.0,12696303.0,0.0,0.0,19.0,345.0
2.020,6.061,90.909,0.0,0.0,1.010,0.0,0.0,440121.0,12500059.0,0.0,0.0,18.0,330.0
2.151,9.677,86.022,0.0,0.0,2.151,0.0,0.0,443231.0,12500010.0,0.0,0.0,23.0,479.0
2.062,4.124,91.753,0.0,0.0,2.062,0.0,0.0,446422.0,12498895.0,0.0,0.0,18.0,342.0
1.031,6.186,91.753,0.0,0.0,1.031,0.0,0.0,441509.0,12500219.0,0.0,0.0,18.0,376.0
1.010,6.061,91.919,0.0,0.0,1.010,0.0,0.0,440893.0,12500547.0,0.0,0.0,19.0,332.0
2.083,4.167,92.708,0.0,0.0,1.042,0.0,0.0,447137.0,12498978.0,0.0,0.0,18.0,385.0
1.031,6.186,89.691,2.062,0.0,1.031,0.0,32768.0,440563.0,12500058.0,0.0,0.0,18.0,346.0
0.0,5.155,92.784,0.0,0.0,2.062,0.0,0.0,441174.0,12501391.0,0.0,0.0,18.0,318.0
1.042,8.333,90.625,0.0,0.0,0.0,0.0,0.0,446736.0,12499938.0,0.0,0.0,18.0,358.0
1.010,5.051,91.919,0.0,0.0,2.020,0.0,40960.0,440878.0,12498773.0,0.0,0.0,19.0,322.0
2.083,3.125,93.750,0.0,0.0,1.042,0.0,0.0,441150.0,12501600.0,0.0,0.0,18.0,326.0
1.064,6.383,90.426,0.0,0.0,2.128,0.0,0.0,446826.0,12499078.0,0.0,0.0,18.0,394.0
1.042,4.167,93.750,0.0,0.0,1.042,0.0,0.0,440389.0,12500475.0,0.0,0.0,18.0,326.0
1.0,7.0,90.0,0.0,0.0,2.0,0.0,0.0,447827.0,12694947.0,0.0,0.0,18.0,321.0
2.062,7.216,89.691,0.0,0.0,1.031,0.0,0.0,446376.0,12499164.0,0.0,0.0,19.0,381.0
1.020,5.102,91.837,0.0,0.0,2.041,0.0,0.0,441524.0,12501770.0,0.0,0.0,18.0,306.0
2.062,6.186,90.722,0.0,0.0,1.031,0.0,0.0,447511.0,12694918.0,0.0,0.0,18.0,370.0
3.093,4.124,92.784,0.0,0.0,0.0,0.0,0.0,452682.0,12695141.0,0.0,0.0,18.0,395.0
2.0,6.0,90.0,0.0,0.0,2.0,0.0,0.0,440654.0,12500056.0,0.0,0.0,18.0,308.0
0.0,6.250,92.708,0.0,0.0,1.042,0.0,0.0,440520.0,12500266.0,0.0,0.0,18.0,380.0
1.961,8.824,86.275,0.0,0.0,2.941,0.0,0.0,445837.0,12499883.0,0.0,0.0,19.0,901.0
2.062,6.186,90.722,0.0,0.0,1.031,0.0,0.0,440481.0,12499898.0,0.0,0.0,18.0,535.0
0.0,7.143,91.837,0.0,0.0,1.020,0.0,0.0,442236.0,12499750.0,0.0,0.0,18.0,361.0
1.020,6.122,91.837,0.0,0.0,1.020,0.0,0.0,450423.0,12695154.0,0.0,0.0,18.0,346.0
2.041,6.122,90.816,0.0,0.0,1.020,0.0,0.0,443265.0,12500009.0,0.0,0.0,19.0,366.0
1.020,5.102,92.857,0.0,0.0,1.020,0.0,0.0,440606.0,12500078.0,0.0,0.0,18.0,311.0
3.061,5.102,89.796,0.0,0.0,2.041,0.0,0.0,440720.0,12500251.0,0.0,0.0,18.0,378.0
3.030,6.061,89.899,0.0,0.0,1.010,0.0,0.0,447419.0,12500220.0,0.0,0.0,18.0,380.0
0.0,6.186,93.814,0.0,0.0,0.0,0.0,0.0,440858.0,12500089.0,0.0,0.0,19.0,354.0
1.031,5.155,91.753,0.0,0.0,2.062,0.0,8192.0,441936.0,12498781.0,0.0,0.0,17.0,330.0
1.020,7.143,89.796,0.0,0.0,2.041,0.0,0.0,446503.0,12500171.0,0.0,0.0,19.0,372.0
2.083,8.333,89.583,0.0,0.0,0.0,0.0,0.0,440432.0,12500299.0,0.0,0.0,18.0,352.0
0.0,4.167,93.750,0.0,0.0,2.083,0.0,0.0,440835.0,12500287.0,0.0,0.0,18.0,336.0
2.041,5.102,90.816,0.0,0.0,2.041,0.0,0.0,446995.0,12500424.0,0.0,0.0,19.0,362.0
0.0,6.186,91.753,0.0,0.0,2.062,0.0,8192.0,440983.0,12500326.0,0.0,0.0,18.0,313.0
2.041,5.102,92.857,0.0,0.0,0.0,0.0,0.0,440747.0,12498928.0,0.0,0.0,18.0,317.0
3.030,7.071,88.889,0.0,0.0,1.010,0.0,0.0,436909.0,12398148.0,0.0,0.0,18.0,416.0
