"Dstat 0.7.2 CSV output"
"Author:","Dag Wieers <dag@wieers.com>",,,,"URL:","http://dag.wieers.com/home-made/dstat/"
"Host:","Server1",,,,"User:","maki"
"Cmdline:","dstat --output server1_16_set_1_22.csv 1 70",,,,"Date:","07 Dec 2018 16:13:16 UTC"

"total cpu usage",,,,,,"dsk/total",,"net/total",,"paging",,"system",
"usr","sys","idl","wai","hiq","siq","read","writ","recv","send","in","out","int","csw"
7.122,8.416,80.410,3.256,0.0,0.795,90738.151,371974.762,0.0,0.0,0.0,0.0,19.170,2072.290
7.792,18.182,70.130,0.0,0.0,3.896,0.0,0.0,31021674.0,1004034.0,0.0,0.0,18.0,4241.0
15.385,30.769,50.0,0.0,0.0,3.846,0.0,28672.0,32707127.0,1058534.0,0.0,0.0,18.0,3379.0
15.584,27.273,53.247,0.0,0.0,3.896,0.0,0.0,36534344.0,1186030.0,0.0,0.0,18.0,2709.0
15.789,35.526,44.737,0.0,0.0,3.947,0.0,0.0,36511260.0,1182474.0,0.0,0.0,19.0,2914.0
11.842,31.579,53.947,0.0,0.0,2.632,0.0,0.0,34332942.0,1112668.0,0.0,0.0,18.0,2688.0
5.208,8.333,85.417,0.0,0.0,1.042,0.0,0.0,9633700.0,316170.0,0.0,0.0,18.0,805.0
15.789,28.947,50.0,1.316,0.0,3.947,0.0,49152.0,34176722.0,1108345.0,0.0,0.0,18.0,2880.0
8.140,16.279,72.093,0.0,0.0,3.488,0.0,0.0,26257064.0,854472.0,0.0,0.0,18.0,1825.0
6.977,34.884,54.651,0.0,0.0,3.488,0.0,0.0,38173086.0,1236820.0,0.0,0.0,19.0,2428.0
8.140,27.907,61.628,0.0,0.0,2.326,0.0,0.0,30375422.0,987578.0,0.0,0.0,18.0,2076.0
15.116,27.907,55.814,0.0,0.0,1.163,0.0,0.0,39891817.0,1292234.0,0.0,0.0,18.0,2450.0
8.537,26.829,60.976,0.0,0.0,3.659,0.0,0.0,39748746.0,1287820.0,0.0,0.0,18.0,2620.0
10.465,25.581,58.140,0.0,0.0,5.814,0.0,45056.0,36772123.0,1196122.0,0.0,0.0,18.0,2768.0
10.976,29.268,57.317,0.0,0.0,2.439,0.0,0.0,38806920.0,1256954.0,0.0,0.0,19.0,2457.0
7.407,30.864,59.259,0.0,0.0,2.469,0.0,0.0,37703966.0,1219014.0,0.0,0.0,18.0,2315.0
14.815,27.160,54.321,0.0,0.0,3.704,0.0,0.0,37151689.0,1206042.0,0.0,0.0,18.0,2509.0
11.538,33.333,50.0,0.0,0.0,5.128,0.0,0.0,37038334.0,1199628.0,0.0,0.0,19.0,2820.0
12.346,25.926,60.494,0.0,0.0,1.235,0.0,0.0,33288911.0,1081776.0,0.0,0.0,19.0,2209.0
12.941,25.882,56.471,0.0,0.0,4.706,0.0,0.0,37623253.0,1220536.0,0.0,0.0,18.0,2566.0
11.538,28.205,57.692,0.0,0.0,2.564,0.0,0.0,36874473.0,1195000.0,0.0,0.0,18.0,2276.0
9.211,26.316,56.579,0.0,0.0,7.895,0.0,0.0,36926204.0,1195428.0,0.0,0.0,18.0,2291.0
18.182,24.675,51.948,0.0,0.0,5.195,0.0,0.0,35236952.0,1143956.0,0.0,0.0,18.0,2222.0
13.415,30.488,54.878,0.0,0.0,1.220,0.0,0.0,37803777.0,1224540.0,0.0,0.0,19.0,2427.0
10.667,29.333,56.0,0.0,0.0,4.0,0.0,0.0,37721295.0,1223988.0,0.0,0.0,18.0,2581.0
16.250,30.0,45.0,0.0,0.0,8.750,0.0,0.0,34703029.0,1125504.0,0.0,0.0,18.0,2374.0
12.329,36.986,46.575,0.0,0.0,4.110,0.0,0.0,35067273.0,1134380.0,0.0,0.0,18.0,2445.0
10.959,36.986,45.205,0.0,0.0,6.849,0.0,0.0,35651132.0,1154754.0,0.0,0.0,18.0,2641.0
16.176,35.294,42.647,0.0,0.0,5.882,0.0,0.0,36629221.0,1189844.0,0.0,0.0,19.0,2919.0
12.500,40.278,38.889,0.0,0.0,8.333,0.0,0.0,36917433.0,1195074.0,0.0,0.0,18.0,2962.0
16.216,35.135,41.892,0.0,0.0,6.757,0.0,0.0,35675363.0,1155610.0,0.0,0.0,18.0,2732.0
14.103,32.051,48.718,0.0,0.0,5.128,0.0,0.0,36542452.0,1184526.0,0.0,0.0,18.0,2700.0
15.385,33.333,47.436,0.0,0.0,3.846,0.0,0.0,37099406.0,1203364.0,0.0,0.0,18.0,2674.0
12.329,34.247,52.055,0.0,0.0,1.370,0.0,0.0,35050256.0,1136974.0,0.0,0.0,19.0,2321.0
8.861,36.709,49.367,0.0,0.0,5.063,0.0,0.0,36433606.0,1178554.0,0.0,0.0,18.0,2767.0
16.438,30.137,49.315,0.0,0.0,4.110,0.0,0.0,34524196.0,1120406.0,0.0,0.0,18.0,2398.0
9.459,35.135,51.351,0.0,0.0,4.054,0.0,0.0,35655244.0,1154894.0,0.0,0.0,18.0,2252.0
10.811,31.081,52.703,1.351,0.0,4.054,0.0,36864.0,35819781.0,1160280.0,0.0,0.0,18.0,2286.0
13.924,31.646,46.835,0.0,0.0,7.595,0.0,0.0,34610456.0,1125270.0,0.0,0.0,19.0,2353.0
13.889,27.778,55.556,0.0,0.0,2.778,0.0,0.0,36696769.0,1187234.0,0.0,0.0,18.0,2656.0
8.861,35.443,51.899,0.0,0.0,3.797,0.0,0.0,35447961.0,1148152.0,0.0,0.0,18.0,2601.0
14.286,29.870,49.351,0.0,0.0,6.494,0.0,0.0,35565760.0,1154456.0,0.0,0.0,18.0,2410.0
12.0,29.333,53.333,0.0,0.0,5.333,0.0,0.0,36826753.0,1192834.0,0.0,0.0,18.0,2616.0
15.068,32.877,50.685,0.0,0.0,1.370,0.0,0.0,36953009.0,1196646.0,0.0,0.0,19.0,2787.0
8.861,35.443,49.367,0.0,0.0,6.329,0.0,4096.0,35695115.0,1158656.0,0.0,0.0,18.0,2422.0
13.333,33.333,49.333,0.0,0.0,4.0,0.0,0.0,36698425.0,1189412.0,0.0,0.0,18.0,2734.0
10.811,31.081,54.054,0.0,0.0,4.054,0.0,0.0,37362266.0,1209560.0,0.0,0.0,18.0,2520.0
14.103,25.641,56.410,0.0,0.0,3.846,0.0,0.0,38279623.0,1243570.0,0.0,0.0,18.0,2535.0
15.385,30.769,48.718,0.0,0.0,5.128,0.0,0.0,37094483.0,1200394.0,0.0,0.0,19.0,2636.0
13.415,36.585,47.561,0.0,0.0,2.439,0.0,0.0,36714501.0,1189260.0,0.0,0.0,18.0,2677.0
12.500,33.750,48.750,0.0,0.0,5.0,0.0,0.0,35559107.0,1154028.0,0.0,0.0,18.0,2543.0
16.0,25.333,54.667,0.0,0.0,4.0,0.0,0.0,38240164.0,1238614.0,0.0,0.0,18.0,2557.0
15.789,25.0,55.263,0.0,0.0,3.947,0.0,0.0,37323860.0,1208934.0,0.0,0.0,18.0,2683.0
15.190,27.848,53.165,0.0,0.0,3.797,0.0,0.0,38667953.0,1257076.0,0.0,0.0,19.0,2639.0
11.392,31.646,54.430,0.0,0.0,2.532,0.0,0.0,37528629.0,1213620.0,0.0,0.0,18.0,2729.0
11.250,31.250,55.0,0.0,0.0,2.500,0.0,0.0,36185271.0,1172064.0,0.0,0.0,18.0,2523.0
13.095,28.571,52.381,0.0,0.0,5.952,0.0,0.0,36611568.0,1188476.0,0.0,0.0,18.0,2553.0
16.883,36.364,42.857,0.0,0.0,3.896,0.0,0.0,35393686.0,1147186.0,0.0,0.0,19.0,2485.0
15.584,33.766,48.052,0.0,0.0,2.597,0.0,0.0,36299319.0,1175334.0,0.0,0.0,18.0,2686.0
14.474,35.526,44.737,0.0,0.0,5.263,0.0,0.0,35669557.0,1158096.0,0.0,0.0,18.0,2545.0
11.250,33.750,51.250,0.0,0.0,3.750,0.0,0.0,37021275.0,1200348.0,0.0,0.0,18.0,2518.0
13.158,31.579,53.947,0.0,0.0,1.316,0.0,0.0,35132308.0,1135994.0,0.0,0.0,18.0,2535.0
11.392,32.911,48.101,0.0,0.0,7.595,0.0,0.0,36534271.0,1186516.0,0.0,0.0,19.0,2673.0
13.158,22.368,59.211,0.0,0.0,5.263,0.0,0.0,38270934.0,1239100.0,0.0,0.0,18.0,2385.0
17.722,22.785,56.962,0.0,0.0,2.532,0.0,0.0,37215660.0,1207048.0,0.0,0.0,18.0,2513.0
17.722,24.051,53.165,0.0,0.0,5.063,0.0,0.0,36486303.0,1182802.0,0.0,0.0,18.0,2636.0
5.882,18.824,72.941,0.0,0.0,2.353,0.0,0.0,35529273.0,1152488.0,0.0,0.0,18.0,2083.0
5.882,12.941,81.176,0.0,0.0,0.0,0.0,0.0,35660016.0,1155034.0,0.0,0.0,18.0,2091.0
6.818,18.182,68.182,2.273,0.0,4.545,0.0,12288.0,34811367.0,1127884.0,0.0,0.0,19.0,2095.0
10.0,16.667,73.333,0.0,0.0,0.0,0.0,0.0,37881200.0,1228814.0,0.0,0.0,18.0,2423.0
7.447,13.830,77.660,0.0,0.0,1.064,0.0,24576.0,27157240.0,879654.0,0.0,0.0,18.0,1582.0
