"Dstat 0.7.2 CSV output"
"Author:","Dag Wieers <dag@wieers.com>",,,,"URL:","http://dag.wieers.com/home-made/dstat/"
"Host:","Server1",,,,"User:","maki"
"Cmdline:","dstat --output server1_16_get_3_14.csv 1 70",,,,"Date:","20 Nov 2018 12:32:32 UTC"

"total cpu usage",,,,,,"dsk/total",,"net/total",,"paging",,"system",
"usr","sys","idl","wai","hiq","siq","read","writ","recv","send","in","out","int","csw"
4.303,9.079,84.572,0.300,0.0,1.746,5015.766,18609.259,0.0,0.0,0.0,0.0,18.354,945.771
0.0,5.376,93.548,0.0,0.0,1.075,0.0,0.0,440010.0,12442108.0,0.0,0.0,18.0,1561.0
3.061,8.163,88.776,0.0,0.0,0.0,0.0,0.0,445692.0,12499161.0,0.0,0.0,18.0,971.0
2.105,4.211,93.684,0.0,0.0,0.0,0.0,0.0,439676.0,12500283.0,0.0,0.0,18.0,886.0
1.053,5.263,93.684,0.0,0.0,0.0,0.0,0.0,439845.0,12500290.0,0.0,0.0,18.0,783.0
4.124,6.186,88.660,0.0,0.0,1.031,0.0,0.0,445537.0,12500614.0,0.0,0.0,19.0,845.0
0.0,6.186,91.753,0.0,0.0,2.062,0.0,0.0,439631.0,12498977.0,0.0,0.0,18.0,737.0
2.105,4.211,93.684,0.0,0.0,0.0,0.0,0.0,439834.0,12500363.0,0.0,0.0,18.0,777.0
2.062,7.216,90.722,0.0,0.0,0.0,0.0,0.0,445654.0,12501018.0,0.0,0.0,18.0,847.0
1.064,3.191,95.745,0.0,0.0,0.0,0.0,0.0,439825.0,12498885.0,0.0,0.0,18.0,771.0
1.042,7.292,90.625,0.0,0.0,1.042,0.0,4096.0,439670.0,12500276.0,0.0,0.0,19.0,783.0
1.053,6.316,92.632,0.0,0.0,0.0,0.0,0.0,445214.0,12500294.0,0.0,0.0,18.0,789.0
2.062,5.155,91.753,0.0,0.0,1.031,0.0,0.0,439660.0,12498794.0,0.0,0.0,18.0,790.0
1.064,2.128,93.617,2.128,0.0,1.064,0.0,40960.0,439762.0,12501835.0,0.0,0.0,18.0,765.0
2.083,6.250,91.667,0.0,0.0,0.0,0.0,0.0,445286.0,12498974.0,0.0,0.0,18.0,775.0
1.064,6.383,92.553,0.0,0.0,0.0,0.0,4096.0,439965.0,12499164.0,0.0,0.0,19.0,828.0
2.020,8.081,88.889,0.0,0.0,1.010,0.0,0.0,447088.0,12695176.0,0.0,0.0,18.0,773.0
1.053,5.263,93.684,0.0,0.0,0.0,0.0,0.0,445253.0,12500408.0,0.0,0.0,18.0,798.0
2.062,5.155,92.784,0.0,0.0,0.0,0.0,0.0,439835.0,12500283.0,0.0,0.0,18.0,748.0
0.0,6.316,93.684,0.0,0.0,0.0,0.0,0.0,439609.0,12500060.0,0.0,0.0,18.0,765.0
3.125,6.250,89.583,0.0,0.0,1.042,0.0,0.0,446538.0,12534510.0,0.0,0.0,19.0,859.0
3.191,8.511,87.234,0.0,0.0,1.064,0.0,4096.0,440773.0,12465876.0,0.0,0.0,23.0,956.0
1.053,3.158,94.737,0.0,0.0,1.053,0.0,0.0,446756.0,12694889.0,0.0,0.0,18.0,803.0
2.083,5.208,92.708,0.0,0.0,0.0,0.0,0.0,445528.0,12500605.0,0.0,0.0,18.0,810.0
1.020,7.143,90.816,0.0,0.0,1.020,0.0,0.0,439683.0,12498951.0,0.0,0.0,18.0,790.0
1.042,9.375,89.583,0.0,0.0,0.0,0.0,0.0,439746.0,12500196.0,0.0,0.0,19.0,898.0
2.105,4.211,92.632,0.0,0.0,1.053,0.0,0.0,451808.0,12696118.0,0.0,0.0,18.0,810.0
1.064,4.255,94.681,0.0,0.0,0.0,0.0,0.0,439540.0,12498677.0,0.0,0.0,18.0,802.0
1.031,5.155,92.784,0.0,0.0,1.031,0.0,0.0,434278.0,12324589.0,0.0,0.0,18.0,779.0
1.064,5.319,92.553,0.0,0.0,1.064,0.0,0.0,452215.0,12692229.0,0.0,0.0,18.0,858.0
2.041,8.163,89.796,0.0,0.0,0.0,0.0,0.0,439031.0,12483190.0,0.0,0.0,19.0,909.0
2.128,5.319,92.553,0.0,0.0,0.0,0.0,8192.0,440771.0,12498569.0,0.0,0.0,18.0,890.0
1.064,6.383,91.489,0.0,0.0,1.064,0.0,0.0,445853.0,12501337.0,0.0,0.0,18.0,974.0
0.0,9.091,90.909,0.0,0.0,0.0,0.0,0.0,439763.0,12500291.0,0.0,0.0,18.0,891.0
1.042,6.250,91.667,0.0,0.0,1.042,0.0,0.0,440020.0,12500328.0,0.0,0.0,18.0,927.0
3.125,5.208,90.625,0.0,0.0,1.042,0.0,0.0,442098.0,12498141.0,0.0,0.0,19.0,893.0
3.125,6.250,89.583,0.0,0.0,1.042,0.0,0.0,443375.0,12501540.0,0.0,0.0,18.0,816.0
0.0,7.368,92.632,0.0,0.0,0.0,0.0,0.0,440083.0,12500355.0,0.0,0.0,18.0,812.0
0.0,5.263,94.737,0.0,0.0,0.0,0.0,0.0,439797.0,12500264.0,0.0,0.0,18.0,806.0
3.158,5.263,91.579,0.0,0.0,0.0,0.0,0.0,445487.0,12500518.0,0.0,0.0,19.0,825.0
1.0,8.0,90.0,0.0,0.0,1.0,0.0,0.0,439946.0,12498960.0,0.0,0.0,18.0,763.0
1.053,6.316,91.579,0.0,0.0,1.053,0.0,0.0,439765.0,12500215.0,0.0,0.0,18.0,811.0
2.151,5.376,92.473,0.0,0.0,0.0,0.0,0.0,445521.0,12500306.0,0.0,0.0,18.0,848.0
1.010,7.071,86.869,4.040,0.0,1.010,0.0,32768.0,439648.0,12500249.0,0.0,0.0,18.0,767.0
2.083,4.167,93.750,0.0,0.0,0.0,0.0,0.0,440936.0,12498739.0,0.0,0.0,19.0,698.0
2.041,7.143,89.796,0.0,0.0,1.020,0.0,0.0,445803.0,12515941.0,0.0,0.0,18.0,808.0
1.064,6.383,92.553,0.0,0.0,0.0,0.0,32768.0,439182.0,12484723.0,0.0,0.0,18.0,805.0
2.062,6.186,91.753,0.0,0.0,0.0,0.0,0.0,439860.0,12500389.0,0.0,0.0,18.0,796.0
2.105,6.316,91.579,0.0,0.0,0.0,0.0,0.0,445941.0,12517541.0,0.0,0.0,18.0,875.0
1.031,7.216,90.722,0.0,0.0,1.031,0.0,0.0,439346.0,12481912.0,0.0,0.0,19.0,769.0
1.010,7.071,90.909,0.0,0.0,1.010,0.0,0.0,439669.0,12500275.0,0.0,0.0,18.0,706.0
3.158,5.263,90.526,0.0,0.0,1.053,0.0,4096.0,445138.0,12498965.0,0.0,0.0,18.0,809.0
2.062,5.155,92.784,0.0,0.0,0.0,0.0,0.0,439854.0,12500307.0,0.0,0.0,18.0,741.0
0.0,5.263,93.684,0.0,0.0,1.053,0.0,0.0,440118.0,12500268.0,0.0,0.0,18.0,794.0
2.128,4.255,93.617,0.0,0.0,0.0,0.0,0.0,451821.0,12695033.0,0.0,0.0,19.0,783.0
0.0,6.316,93.684,0.0,0.0,0.0,0.0,0.0,440497.0,12500677.0,0.0,0.0,18.0,756.0
1.031,8.247,89.691,0.0,0.0,1.031,0.0,0.0,439973.0,12500137.0,0.0,0.0,18.0,794.0
3.030,8.081,88.889,0.0,0.0,0.0,0.0,0.0,452143.0,12693649.0,0.0,0.0,18.0,746.0
1.020,6.122,91.837,0.0,0.0,1.020,0.0,0.0,439775.0,12500378.0,0.0,0.0,18.0,709.0
2.041,6.122,91.837,0.0,0.0,0.0,0.0,0.0,440070.0,12500376.0,0.0,0.0,19.0,777.0
2.062,7.216,90.722,0.0,0.0,0.0,0.0,0.0,452245.0,12693749.0,0.0,0.0,18.0,819.0
2.041,7.143,88.776,0.0,0.0,2.041,0.0,0.0,439755.0,12501819.0,0.0,0.0,18.0,822.0
2.128,4.255,92.553,0.0,0.0,1.064,0.0,16384.0,440175.0,12500455.0,0.0,0.0,18.0,826.0
2.128,4.255,93.617,0.0,0.0,0.0,0.0,0.0,440506.0,12355475.0,0.0,0.0,18.0,856.0
0.0,7.292,91.667,0.0,0.0,1.042,0.0,0.0,444991.0,12643923.0,0.0,0.0,19.0,832.0
1.031,6.186,92.784,0.0,0.0,0.0,0.0,0.0,439753.0,12500358.0,0.0,0.0,18.0,855.0
3.191,4.255,91.489,0.0,0.0,1.064,0.0,0.0,445322.0,12499011.0,0.0,0.0,18.0,846.0
0.0,5.263,93.684,0.0,0.0,1.053,0.0,0.0,439782.0,12501774.0,0.0,0.0,18.0,806.0
2.041,7.143,90.816,0.0,0.0,0.0,0.0,0.0,439649.0,12498787.0,0.0,0.0,19.0,770.0
2.083,6.250,91.667,0.0,0.0,0.0,0.0,0.0,445793.0,12499678.0,0.0,0.0,18.0,790.0
0.0,5.208,94.792,0.0,0.0,0.0,0.0,0.0,363941.0,10384870.0,0.0,0.0,18.0,580.0
