"Dstat 0.7.2 CSV output"
"Author:","Dag Wieers <dag@wieers.com>",,,,"URL:","http://dag.wieers.com/home-made/dstat/"
"Host:","Server1",,,,"User:","maki"
"Cmdline:","dstat --output server1_64_set_2_22.csv 1 70",,,,"Date:","07 Dec 2018 18:01:25 UTC"

"total cpu usage",,,,,,"dsk/total",,"net/total",,"paging",,"system",
"usr","sys","idl","wai","hiq","siq","read","writ","recv","send","in","out","int","csw"
7.007,12.527,77.319,1.317,0.0,1.830,33085.540,136755.656,0.0,0.0,0.0,0.0,18.559,1724.582
6.818,20.455,69.318,0.0,0.0,3.409,0.0,0.0,32464442.0,1053864.0,0.0,0.0,18.0,2677.0
13.253,37.349,44.578,0.0,0.0,4.819,0.0,0.0,44552045.0,1438106.0,0.0,0.0,18.0,1355.0
15.663,45.783,28.916,0.0,0.0,9.639,0.0,0.0,50917305.0,1650948.0,0.0,0.0,19.0,935.0
17.568,54.054,18.919,0.0,0.0,9.459,0.0,0.0,54730121.0,1774886.0,0.0,0.0,18.0,966.0
16.438,46.575,26.027,0.0,0.0,10.959,0.0,0.0,52025882.0,1685568.0,0.0,0.0,18.0,915.0
16.0,48.0,17.333,0.0,0.0,18.667,0.0,0.0,57365109.0,1854334.0,0.0,0.0,18.0,914.0
10.0,25.556,58.889,0.0,0.0,5.556,0.0,0.0,29809253.0,969762.0,0.0,0.0,18.0,586.0
14.634,34.146,42.683,0.0,0.0,8.537,0.0,0.0,43658641.0,1423446.0,0.0,0.0,19.0,712.0
16.0,38.667,36.0,0.0,0.0,9.333,0.0,0.0,46099229.0,1488038.0,0.0,0.0,18.0,746.0
11.628,27.907,51.163,0.0,0.0,9.302,0.0,0.0,36281384.0,1183256.0,0.0,0.0,18.0,623.0
15.476,38.095,36.905,0.0,0.0,9.524,0.0,0.0,45161738.0,1465212.0,0.0,0.0,18.0,802.0
15.190,44.304,32.911,0.0,0.0,7.595,0.0,0.0,51604589.0,1669040.0,0.0,0.0,18.0,877.0
17.647,41.176,32.353,0.0,0.0,8.824,0.0,0.0,53292419.0,1726728.0,0.0,0.0,19.0,921.0
14.865,37.838,35.135,0.0,0.0,12.162,0.0,0.0,49338217.0,1599376.0,0.0,0.0,18.0,922.0
13.158,35.526,42.105,0.0,0.0,9.211,0.0,0.0,48256607.0,1562994.0,0.0,0.0,18.0,924.0
20.0,42.667,29.333,0.0,0.0,8.0,0.0,0.0,52221608.0,1694444.0,0.0,0.0,18.0,896.0
15.190,44.304,29.114,0.0,0.0,11.392,0.0,0.0,50914593.0,1650542.0,0.0,0.0,19.0,955.0
12.987,49.351,28.571,0.0,0.0,9.091,0.0,0.0,52720366.0,1706008.0,0.0,0.0,18.0,981.0
13.514,45.946,29.730,0.0,0.0,10.811,0.0,0.0,52210515.0,1694034.0,0.0,0.0,18.0,988.0
24.359,46.154,17.949,0.0,0.0,11.538,0.0,0.0,51583358.0,1677776.0,0.0,0.0,18.0,892.0
15.714,48.571,24.286,0.0,0.0,11.429,0.0,0.0,53396506.0,1723220.0,0.0,0.0,18.0,857.0
14.865,52.703,22.973,0.0,0.0,9.459,0.0,0.0,53222274.0,1727164.0,0.0,0.0,18.0,912.0
17.105,42.105,28.947,0.0,0.0,11.842,0.0,0.0,50507051.0,1634096.0,0.0,0.0,19.0,902.0
14.103,38.462,35.897,0.0,0.0,11.538,0.0,0.0,50992997.0,1651548.0,0.0,0.0,18.0,876.0
18.293,53.659,23.171,0.0,0.0,4.878,0.0,0.0,51393737.0,1668480.0,0.0,0.0,18.0,912.0
14.667,44.0,25.333,0.0,0.0,16.0,0.0,0.0,51518516.0,1668470.0,0.0,0.0,18.0,991.0
12.162,50.0,28.378,0.0,0.0,9.459,0.0,0.0,53347583.0,1729734.0,0.0,0.0,18.0,906.0
17.808,43.836,26.027,0.0,0.0,12.329,0.0,0.0,51423535.0,1674966.0,0.0,0.0,19.0,940.0
19.178,46.575,23.288,0.0,0.0,10.959,0.0,0.0,52130709.0,1685056.0,0.0,0.0,18.0,922.0
18.919,51.351,18.919,1.351,0.0,9.459,0.0,12288.0,53721895.0,1744854.0,0.0,0.0,18.0,908.0
15.385,48.718,17.949,3.846,0.0,14.103,0.0,53248.0,54788211.0,1770614.0,0.0,0.0,18.0,870.0
25.352,42.254,21.127,0.0,0.0,11.268,0.0,0.0,54613151.0,1768202.0,0.0,0.0,18.0,820.0
19.737,47.368,22.368,0.0,0.0,10.526,0.0,0.0,52434904.0,1703354.0,0.0,0.0,19.0,829.0
17.722,50.633,22.785,0.0,0.0,8.861,0.0,0.0,52784980.0,1710908.0,0.0,0.0,18.0,894.0
15.190,51.899,20.253,0.0,0.0,12.658,0.0,0.0,51659659.0,1671420.0,0.0,0.0,18.0,900.0
15.584,42.857,23.377,0.0,0.0,18.182,0.0,4096.0,52273548.0,1693530.0,0.0,0.0,18.0,932.0
16.216,54.054,22.973,0.0,0.0,6.757,0.0,0.0,53020192.0,1720914.0,0.0,0.0,18.0,844.0
19.231,52.564,15.385,0.0,0.0,12.821,0.0,0.0,55186037.0,1782934.0,0.0,0.0,19.0,914.0
22.857,44.286,24.286,0.0,0.0,8.571,0.0,0.0,53449293.0,1735176.0,0.0,0.0,18.0,975.0
21.127,40.845,25.352,0.0,0.0,12.676,0.0,0.0,51546159.0,1670934.0,0.0,0.0,18.0,934.0
16.216,47.297,25.676,0.0,0.0,10.811,0.0,0.0,52753739.0,1706494.0,0.0,0.0,18.0,908.0
18.841,47.826,23.188,0.0,0.0,10.145,0.0,0.0,52145443.0,1693876.0,0.0,0.0,19.0,980.0
16.667,50.0,25.0,0.0,0.0,8.333,0.0,0.0,53941564.0,1745414.0,0.0,0.0,18.0,889.0
18.056,48.611,22.222,0.0,0.0,11.111,0.0,0.0,54322908.0,1758220.0,0.0,0.0,18.0,871.0
23.684,47.368,21.053,0.0,0.0,7.895,0.0,0.0,51510007.0,1675128.0,0.0,0.0,18.0,973.0
14.286,51.190,19.048,0.0,0.0,15.476,0.0,0.0,55043726.0,1782160.0,0.0,0.0,18.0,859.0
18.919,44.595,25.676,0.0,0.0,10.811,0.0,0.0,53971413.0,1751154.0,0.0,0.0,19.0,1018.0
18.182,48.052,20.779,0.0,0.0,12.987,0.0,0.0,53067599.0,1717610.0,0.0,0.0,18.0,988.0
19.718,47.887,25.352,0.0,0.0,7.042,0.0,0.0,53809848.0,1746394.0,0.0,0.0,18.0,1001.0
18.182,46.753,20.779,0.0,0.0,14.286,0.0,0.0,52089166.0,1680734.0,0.0,0.0,18.0,895.0
18.987,37.975,29.114,0.0,0.0,13.924,0.0,0.0,50894275.0,1651036.0,0.0,0.0,18.0,1069.0
16.667,56.944,19.444,0.0,0.0,6.944,0.0,0.0,55108042.0,1784960.0,0.0,0.0,19.0,851.0
17.333,52.0,18.667,0.0,0.0,12.0,0.0,0.0,54209136.0,1758648.0,0.0,0.0,18.0,906.0
15.584,50.649,23.377,0.0,0.0,10.390,0.0,0.0,52018498.0,1684652.0,0.0,0.0,18.0,962.0
15.789,55.263,21.053,0.0,0.0,7.895,0.0,0.0,51757913.0,1678914.0,0.0,0.0,18.0,1110.0
18.182,51.948,22.078,0.0,0.0,7.792,0.0,0.0,52631042.0,1707540.0,0.0,0.0,18.0,826.0
18.056,50.0,22.222,0.0,0.0,9.722,0.0,0.0,52268978.0,1694502.0,0.0,0.0,19.0,915.0
13.514,47.297,28.378,0.0,0.0,10.811,0.0,0.0,50953769.0,1648262.0,0.0,0.0,18.0,801.0
18.987,49.367,20.253,0.0,0.0,11.392,0.0,0.0,53770867.0,1745760.0,0.0,0.0,18.0,894.0
20.0,41.250,25.0,0.0,0.0,13.750,0.0,0.0,49871291.0,1611630.0,0.0,0.0,18.0,880.0
19.444,45.833,23.611,0.0,0.0,11.111,0.0,69632.0,53417891.0,1730434.0,0.0,0.0,18.0,916.0
14.474,52.632,28.947,0.0,0.0,3.947,0.0,0.0,53292631.0,1729660.0,0.0,0.0,19.0,993.0
17.105,47.368,21.053,0.0,0.0,14.474,0.0,0.0,51863020.0,1687370.0,0.0,0.0,18.0,885.0
20.513,42.308,26.923,0.0,0.0,10.256,0.0,0.0,52876364.0,1706634.0,0.0,0.0,18.0,974.0
18.750,46.250,21.250,0.0,0.0,13.750,0.0,0.0,52855827.0,1712596.0,0.0,0.0,19.0,985.0
19.481,49.351,19.481,0.0,0.0,11.688,0.0,0.0,53207289.0,1726010.0,0.0,0.0,18.0,933.0
19.231,52.564,19.231,0.0,0.0,8.974,0.0,0.0,54247869.0,1755774.0,0.0,0.0,18.0,843.0
20.988,46.914,17.284,0.0,0.0,14.815,0.0,0.0,54546024.0,1764874.0,0.0,0.0,19.0,754.0
15.789,50.0,23.684,0.0,0.0,10.526,0.0,0.0,52384826.0,1701654.0,0.0,0.0,18.0,917.0
17.500,45.0,27.500,0.0,0.0,10.0,0.0,0.0,48478060.0,1576788.0,0.0,0.0,18.0,982.0
