"Dstat 0.7.2 CSV output"
"Author:","Dag Wieers <dag@wieers.com>",,,,"URL:","http://dag.wieers.com/home-made/dstat/"
"Host:","Server1",,,,"User:","maki"
"Cmdline:","dstat --output server1_32_get_1_14.csv 1 70",,,,"Date:","20 Nov 2018 12:46:50 UTC"

"total cpu usage",,,,,,"dsk/total",,"net/total",,"paging",,"system",
"usr","sys","idl","wai","hiq","siq","read","writ","recv","send","in","out","int","csw"
4.255,8.997,84.722,0.297,0.0,1.729,4928.153,18318.891,0.0,0.0,0.0,0.0,18.352,943.448
1.042,8.333,90.625,0.0,0.0,0.0,0.0,0.0,461478.0,12911221.0,0.0,0.0,18.0,1093.0
4.040,12.121,81.818,0.0,0.0,2.020,0.0,0.0,448937.0,12499924.0,0.0,0.0,18.0,851.0
4.211,7.368,87.368,0.0,0.0,1.053,0.0,0.0,444843.0,12500356.0,0.0,0.0,19.0,757.0
2.128,8.511,88.298,0.0,0.0,1.064,0.0,0.0,450332.0,12694747.0,0.0,0.0,18.0,682.0
3.261,8.696,85.870,0.0,0.0,2.174,0.0,0.0,449206.0,12500458.0,0.0,0.0,23.0,713.0
1.042,5.208,93.750,0.0,0.0,0.0,0.0,0.0,440333.0,12499180.0,0.0,0.0,18.0,506.0
1.053,7.368,91.579,0.0,0.0,0.0,0.0,0.0,440036.0,12500330.0,0.0,0.0,18.0,511.0
0.0,5.155,93.814,0.0,0.0,1.031,0.0,0.0,439618.0,12500225.0,0.0,0.0,19.0,506.0
2.062,8.247,89.691,0.0,0.0,0.0,0.0,0.0,445647.0,12499827.0,0.0,0.0,18.0,526.0
1.031,6.186,92.784,0.0,0.0,0.0,0.0,0.0,439762.0,12500289.0,0.0,0.0,18.0,508.0
1.031,6.186,92.784,0.0,0.0,0.0,0.0,0.0,439731.0,12500181.0,0.0,0.0,18.0,459.0
3.093,7.216,88.660,0.0,0.0,1.031,0.0,0.0,445968.0,12499862.0,0.0,0.0,18.0,571.0
1.031,7.216,91.753,0.0,0.0,0.0,0.0,0.0,439828.0,12500352.0,0.0,0.0,19.0,488.0
0.0,4.211,94.737,0.0,0.0,1.053,0.0,0.0,439789.0,12498850.0,0.0,0.0,18.0,469.0
2.062,7.216,90.722,0.0,0.0,0.0,0.0,0.0,446577.0,12500696.0,0.0,0.0,18.0,553.0
1.031,5.155,92.784,0.0,0.0,1.031,0.0,0.0,440483.0,12500476.0,0.0,0.0,18.0,454.0
2.041,7.143,88.776,0.0,0.0,2.041,0.0,0.0,439648.0,12498996.0,0.0,0.0,18.0,524.0
2.128,3.191,94.681,0.0,0.0,0.0,0.0,0.0,445434.0,12500358.0,0.0,0.0,19.0,514.0
1.010,8.081,90.909,0.0,0.0,0.0,0.0,0.0,439540.0,12500063.0,0.0,0.0,18.0,479.0
1.010,8.081,90.909,0.0,0.0,0.0,0.0,0.0,439908.0,12500355.0,0.0,0.0,18.0,503.0
3.030,6.061,89.899,0.0,0.0,1.010,0.0,0.0,452274.0,12695041.0,0.0,0.0,18.0,550.0
2.128,5.319,92.553,0.0,0.0,0.0,0.0,8192.0,446710.0,12695060.0,0.0,0.0,18.0,539.0
1.042,6.250,91.667,0.0,0.0,1.042,0.0,0.0,440224.0,12500607.0,0.0,0.0,19.0,536.0
2.105,5.263,92.632,0.0,0.0,0.0,0.0,0.0,445345.0,12498900.0,0.0,0.0,18.0,558.0
1.020,6.122,91.837,0.0,0.0,1.020,0.0,0.0,439816.0,12500190.0,0.0,0.0,18.0,501.0
1.010,7.071,90.909,0.0,0.0,1.010,0.0,0.0,446347.0,12696025.0,0.0,0.0,18.0,509.0
3.191,6.383,88.298,2.128,0.0,0.0,0.0,49152.0,445088.0,12498978.0,0.0,0.0,18.0,556.0
2.083,4.167,92.708,0.0,0.0,1.042,0.0,0.0,439676.0,12498818.0,0.0,0.0,19.0,535.0
1.010,7.071,90.909,0.0,0.0,1.010,0.0,0.0,439698.0,12501686.0,0.0,0.0,18.0,515.0
1.042,5.208,93.750,0.0,0.0,0.0,0.0,0.0,445232.0,12500309.0,0.0,0.0,18.0,587.0
0.0,5.208,93.750,0.0,0.0,1.042,0.0,0.0,439740.0,12498798.0,0.0,0.0,18.0,543.0
1.042,7.292,91.667,0.0,0.0,0.0,0.0,16384.0,439834.0,12500284.0,0.0,0.0,18.0,500.0
3.125,4.167,91.667,0.0,0.0,1.042,0.0,0.0,445550.0,12500403.0,0.0,0.0,19.0,500.0
1.053,5.263,93.684,0.0,0.0,0.0,0.0,0.0,439805.0,12500335.0,0.0,0.0,18.0,470.0
0.0,3.158,94.737,0.0,0.0,2.105,0.0,0.0,439940.0,12500384.0,0.0,0.0,18.0,488.0
2.105,6.316,91.579,0.0,0.0,0.0,0.0,0.0,444886.0,12499914.0,0.0,0.0,18.0,531.0
2.083,7.292,89.583,0.0,0.0,1.042,0.0,4096.0,440024.0,12497954.0,0.0,0.0,19.0,527.0
1.042,4.167,94.792,0.0,0.0,0.0,0.0,0.0,439684.0,12500291.0,0.0,0.0,18.0,502.0
0.0,7.143,91.837,0.0,0.0,1.020,0.0,0.0,439707.0,12500311.0,0.0,0.0,18.0,462.0
2.041,7.143,89.796,0.0,0.0,1.020,0.0,0.0,445915.0,12500491.0,0.0,0.0,18.0,512.0
2.128,4.255,93.617,0.0,0.0,0.0,0.0,0.0,440173.0,12500496.0,0.0,0.0,18.0,534.0
1.031,8.247,89.691,0.0,0.0,1.031,0.0,0.0,440101.0,12500309.0,0.0,0.0,19.0,550.0
2.062,7.216,89.691,0.0,0.0,1.031,0.0,0.0,445497.0,12498874.0,0.0,0.0,18.0,514.0
2.041,5.102,92.857,0.0,0.0,0.0,0.0,0.0,439752.0,12500279.0,0.0,0.0,18.0,530.0
1.980,7.921,89.109,0.0,0.0,0.990,0.0,0.0,446497.0,12693528.0,0.0,0.0,18.0,538.0
2.083,7.292,90.625,0.0,0.0,0.0,0.0,0.0,452562.0,12696479.0,0.0,0.0,18.0,522.0
1.053,5.263,92.632,0.0,0.0,1.053,0.0,0.0,439822.0,12500347.0,0.0,0.0,19.0,509.0
2.062,4.124,92.784,0.0,0.0,1.031,0.0,0.0,446871.0,12694928.0,0.0,0.0,18.0,501.0
3.061,6.122,90.816,0.0,0.0,0.0,0.0,0.0,445277.0,12500433.0,0.0,0.0,18.0,537.0
2.083,5.208,92.708,0.0,0.0,0.0,0.0,0.0,440092.0,12500307.0,0.0,0.0,18.0,478.0
0.0,8.163,91.837,0.0,0.0,0.0,0.0,0.0,439673.0,12500277.0,0.0,0.0,18.0,495.0
3.030,9.091,86.869,0.0,0.0,1.010,0.0,0.0,445347.0,12500420.0,0.0,0.0,19.0,559.0
0.0,5.208,93.750,0.0,0.0,1.042,0.0,0.0,439594.0,12499020.0,0.0,0.0,18.0,538.0
2.083,3.125,92.708,0.0,0.0,2.083,0.0,0.0,440070.0,12498897.0,0.0,0.0,18.0,477.0
2.020,8.081,89.899,0.0,0.0,0.0,0.0,0.0,445232.0,12501853.0,0.0,0.0,18.0,510.0
0.0,5.263,94.737,0.0,0.0,0.0,0.0,0.0,439700.0,12498839.0,0.0,0.0,18.0,479.0
2.083,6.250,91.667,0.0,0.0,0.0,0.0,0.0,453773.0,12890979.0,0.0,0.0,19.0,518.0
2.041,7.143,85.714,3.061,0.0,2.041,0.0,98304.0,452244.0,12695216.0,0.0,0.0,18.0,555.0
2.041,6.122,89.796,0.0,0.0,2.041,0.0,0.0,440230.0,12500365.0,0.0,0.0,18.0,495.0
0.0,4.301,94.624,0.0,0.0,1.075,0.0,0.0,447004.0,12694904.0,0.0,0.0,18.0,451.0
2.041,6.122,90.816,0.0,0.0,1.020,0.0,0.0,428217.0,12003215.0,0.0,0.0,18.0,487.0
2.083,6.250,91.667,0.0,0.0,0.0,0.0,0.0,439696.0,12498836.0,0.0,0.0,19.0,554.0
1.020,4.082,92.857,0.0,0.0,2.041,0.0,8192.0,439799.0,12500322.0,0.0,0.0,18.0,526.0
2.083,5.208,92.708,0.0,0.0,0.0,0.0,0.0,445489.0,12500489.0,0.0,0.0,18.0,526.0
3.125,11.458,83.333,0.0,0.0,2.083,0.0,0.0,442097.0,12499930.0,0.0,0.0,23.0,580.0
1.042,6.250,92.708,0.0,0.0,0.0,0.0,0.0,439882.0,12500331.0,0.0,0.0,18.0,508.0
3.125,7.292,88.542,0.0,0.0,1.042,0.0,0.0,445220.0,12500375.0,0.0,0.0,18.0,573.0
0.0,6.186,92.784,0.0,0.0,1.031,0.0,16384.0,439741.0,12498800.0,0.0,0.0,19.0,529.0
1.042,4.167,94.792,0.0,0.0,0.0,0.0,0.0,439769.0,12500217.0,0.0,0.0,18.0,477.0
3.093,6.186,90.722,0.0,0.0,0.0,0.0,0.0,378792.0,10668449.0,0.0,0.0,18.0,524.0
