"Dstat 0.7.2 CSV output"
"Author:","Dag Wieers <dag@wieers.com>",,,,"URL:","http://dag.wieers.com/home-made/dstat/"
"Host:","Server1",,,,"User:","maki"
"Cmdline:","dstat --output server1_32_get_3_42.csv 1 70",,,,"Date:","20 Nov 2018 13:19:05 UTC"

"total cpu usage",,,,,,"dsk/total",,"net/total",,"paging",,"system",
"usr","sys","idl","wai","hiq","siq","read","writ","recv","send","in","out","int","csw"
4.152,8.819,85.047,0.291,0.0,1.691,4741.366,17705.278,0.0,0.0,0.0,0.0,18.349,934.174
1.053,5.263,91.579,0.0,0.0,2.105,0.0,0.0,428637.0,12016964.0,0.0,0.0,18.0,1238.0
2.083,6.250,91.667,0.0,0.0,0.0,0.0,0.0,439935.0,12498978.0,0.0,0.0,18.0,853.0
2.020,7.071,88.889,0.0,0.0,2.020,0.0,0.0,445375.0,12500452.0,0.0,0.0,19.0,710.0
2.083,4.167,93.750,0.0,0.0,0.0,0.0,0.0,440171.0,12500619.0,0.0,0.0,19.0,581.0
1.042,4.167,93.750,0.0,0.0,1.042,0.0,0.0,447066.0,12693800.0,0.0,0.0,18.0,581.0
2.041,6.122,90.816,0.0,0.0,1.020,0.0,0.0,452502.0,12696809.0,0.0,0.0,19.0,575.0
2.083,6.250,91.667,0.0,0.0,0.0,0.0,0.0,439527.0,12500137.0,0.0,0.0,18.0,562.0
1.042,5.208,93.750,0.0,0.0,0.0,0.0,0.0,440001.0,12500599.0,0.0,0.0,18.0,539.0
2.083,5.208,92.708,0.0,0.0,0.0,0.0,0.0,445256.0,12632377.0,0.0,0.0,18.0,531.0
0.0,6.316,93.684,0.0,0.0,0.0,0.0,0.0,439344.0,12366282.0,0.0,0.0,18.0,512.0
1.031,7.216,91.753,0.0,0.0,0.0,0.0,0.0,440086.0,12500612.0,0.0,0.0,18.0,509.0
2.105,7.368,90.526,0.0,0.0,0.0,0.0,0.0,445369.0,12499123.0,0.0,0.0,19.0,619.0
0.0,6.316,93.684,0.0,0.0,0.0,0.0,0.0,440130.0,12500582.0,0.0,0.0,18.0,560.0
3.061,5.102,90.816,0.0,0.0,1.020,0.0,0.0,439884.0,12500405.0,0.0,0.0,18.0,524.0
0.0,7.292,91.667,0.0,0.0,1.042,0.0,0.0,445851.0,12499354.0,0.0,0.0,18.0,720.0
2.062,4.124,92.784,0.0,0.0,1.031,0.0,0.0,439941.0,12500469.0,0.0,0.0,19.0,574.0
1.042,7.292,91.667,0.0,0.0,0.0,0.0,0.0,439860.0,12498932.0,0.0,0.0,18.0,561.0
2.041,5.102,91.837,0.0,0.0,1.020,0.0,0.0,445387.0,12500340.0,0.0,0.0,18.0,584.0
0.0,7.216,92.784,0.0,0.0,0.0,0.0,0.0,440545.0,12500646.0,0.0,0.0,18.0,586.0
1.020,5.102,91.837,0.0,0.0,2.041,0.0,4096.0,439862.0,12500232.0,0.0,0.0,18.0,595.0
1.020,7.143,91.837,0.0,0.0,0.0,0.0,0.0,442784.0,12499478.0,0.0,0.0,19.0,551.0
1.053,8.421,90.526,0.0,0.0,0.0,0.0,0.0,442680.0,12499786.0,0.0,0.0,18.0,605.0
1.042,5.208,93.750,0.0,0.0,0.0,0.0,0.0,439943.0,12500386.0,0.0,0.0,18.0,584.0
1.042,5.208,92.708,0.0,0.0,1.042,0.0,0.0,439777.0,12500233.0,0.0,0.0,18.0,605.0
3.030,6.061,85.859,4.040,0.0,1.010,0.0,53248.0,445313.0,12500318.0,0.0,0.0,18.0,583.0
2.062,5.155,92.784,0.0,0.0,0.0,0.0,0.0,439917.0,12498975.0,0.0,0.0,19.0,581.0
1.064,5.319,92.553,0.0,0.0,1.064,0.0,0.0,440187.0,12500486.0,0.0,0.0,18.0,574.0
0.0,5.208,92.708,0.0,0.0,2.083,0.0,0.0,445287.0,12500281.0,0.0,0.0,18.0,572.0
0.0,7.143,91.837,0.0,0.0,1.020,0.0,0.0,439673.0,12499905.0,0.0,0.0,18.0,540.0
1.042,6.250,92.708,0.0,0.0,0.0,0.0,12288.0,440853.0,12498946.0,0.0,0.0,18.0,607.0
2.041,7.143,89.796,0.0,0.0,1.020,0.0,0.0,445598.0,12500598.0,0.0,0.0,19.0,525.0
2.020,8.081,88.889,0.0,0.0,1.010,0.0,0.0,440344.0,12499646.0,0.0,0.0,18.0,589.0
1.031,5.155,93.814,0.0,0.0,0.0,0.0,0.0,439506.0,12499964.0,0.0,0.0,18.0,572.0
2.062,6.186,90.722,0.0,0.0,1.031,0.0,0.0,445243.0,12500249.0,0.0,0.0,18.0,546.0
0.0,7.216,92.784,0.0,0.0,0.0,0.0,0.0,439791.0,12500312.0,0.0,0.0,18.0,549.0
0.0,6.250,93.750,0.0,0.0,0.0,0.0,0.0,446613.0,12693642.0,0.0,0.0,19.0,520.0
3.158,6.316,89.474,0.0,0.0,1.053,0.0,0.0,445412.0,12501954.0,0.0,0.0,18.0,607.0
2.062,5.155,92.784,0.0,0.0,0.0,0.0,0.0,454255.0,12889885.0,0.0,0.0,18.0,594.0
1.020,5.102,91.837,0.0,0.0,2.041,0.0,0.0,439576.0,12500184.0,0.0,0.0,18.0,577.0
1.087,4.348,94.565,0.0,0.0,0.0,0.0,0.0,445719.0,12499859.0,0.0,0.0,18.0,628.0
1.053,4.211,94.737,0.0,0.0,0.0,0.0,0.0,440170.0,12500385.0,0.0,0.0,19.0,506.0
1.042,7.292,91.667,0.0,0.0,0.0,0.0,0.0,439718.0,12498858.0,0.0,0.0,18.0,528.0
1.031,5.155,92.784,0.0,0.0,1.031,0.0,0.0,445330.0,12500543.0,0.0,0.0,18.0,598.0
1.020,7.143,91.837,0.0,0.0,0.0,0.0,0.0,447229.0,12695133.0,0.0,0.0,18.0,519.0
1.042,5.208,92.708,0.0,0.0,1.042,0.0,0.0,440381.0,12500706.0,0.0,0.0,19.0,532.0
1.053,5.263,92.632,0.0,0.0,1.053,0.0,8192.0,445249.0,12499225.0,0.0,0.0,18.0,567.0
1.042,7.292,91.667,0.0,0.0,0.0,0.0,0.0,440212.0,12499218.0,0.0,0.0,18.0,573.0
0.0,8.081,91.919,0.0,0.0,0.0,0.0,0.0,439979.0,12500505.0,0.0,0.0,18.0,518.0
3.125,4.167,91.667,0.0,0.0,1.042,0.0,0.0,445541.0,12500619.0,0.0,0.0,18.0,535.0
1.020,7.143,91.837,0.0,0.0,0.0,0.0,0.0,439826.0,12498887.0,0.0,0.0,18.0,563.0
2.020,6.061,90.909,0.0,0.0,1.010,0.0,0.0,439827.0,12501589.0,0.0,0.0,19.0,570.0
5.051,7.071,86.869,0.0,0.0,1.010,0.0,0.0,445189.0,12498795.0,0.0,0.0,18.0,595.0
1.031,5.155,92.784,0.0,0.0,1.031,0.0,0.0,439991.0,12500438.0,0.0,0.0,18.0,546.0
2.151,6.452,90.323,0.0,0.0,1.075,0.0,0.0,441910.0,12499903.0,0.0,0.0,23.0,593.0
0.0,5.319,94.681,0.0,0.0,0.0,0.0,0.0,445148.0,12500157.0,0.0,0.0,19.0,596.0
2.041,5.102,87.755,4.082,0.0,1.020,0.0,110592.0,439303.0,12499898.0,0.0,0.0,18.0,567.0
2.041,6.122,89.796,0.0,0.0,2.041,0.0,0.0,439406.0,12500009.0,0.0,0.0,18.0,571.0
1.020,7.143,91.837,0.0,0.0,0.0,0.0,0.0,444608.0,12500359.0,0.0,0.0,18.0,526.0
1.053,3.158,94.737,0.0,0.0,1.053,0.0,0.0,440552.0,12498935.0,0.0,0.0,18.0,517.0
0.0,7.143,91.837,0.0,0.0,1.020,0.0,0.0,439822.0,12500426.0,0.0,0.0,19.0,551.0
2.020,7.071,90.909,0.0,0.0,0.0,0.0,8192.0,439897.0,12500425.0,0.0,0.0,18.0,505.0
2.062,8.247,89.691,0.0,0.0,0.0,0.0,0.0,445243.0,12499138.0,0.0,0.0,18.0,615.0
2.020,6.061,90.909,0.0,0.0,1.010,0.0,0.0,439722.0,12500325.0,0.0,0.0,18.0,539.0
0.0,5.319,94.681,0.0,0.0,0.0,0.0,0.0,439550.0,12498693.0,0.0,0.0,18.0,537.0
1.053,4.211,94.737,0.0,0.0,0.0,0.0,0.0,445911.0,12501625.0,0.0,0.0,19.0,549.0
1.020,6.122,91.837,0.0,0.0,1.020,0.0,0.0,439939.0,12500321.0,0.0,0.0,18.0,505.0
0.0,8.333,91.667,0.0,0.0,0.0,0.0,0.0,440186.0,12499090.0,0.0,0.0,18.0,555.0
2.020,7.071,89.899,0.0,0.0,1.010,0.0,0.0,445937.0,12500702.0,0.0,0.0,18.0,523.0
1.031,5.155,92.784,0.0,0.0,1.031,0.0,0.0,440044.0,12499105.0,0.0,0.0,18.0,515.0
1.053,4.211,94.737,0.0,0.0,0.0,0.0,0.0,414955.0,11845256.0,0.0,0.0,19.0,502.0
