"Dstat 0.7.2 CSV output"
"Author:","Dag Wieers <dag@wieers.com>",,,,"URL:","http://dag.wieers.com/home-made/dstat/"
"Host:","Server1",,,,"User:","maki"
"Cmdline:","dstat --output server1_8_set_1_4.csv 1 70",,,,"Date:","07 Dec 2018 15:22:23 UTC"

"total cpu usage",,,,,,"dsk/total",,"net/total",,"paging",,"system",
"usr","sys","idl","wai","hiq","siq","read","writ","recv","send","in","out","int","csw"
18.701,7.390,55.837,17.648,0.0,0.425,503231.209,2056658.122,0.0,0.0,0.0,0.0,23.529,1483.631
7.368,8.421,84.211,0.0,0.0,0.0,0.0,0.0,13171482.0,435316.0,0.0,0.0,18.0,1523.0
2.128,8.511,89.362,0.0,0.0,0.0,0.0,0.0,14970307.0,485414.0,0.0,0.0,18.0,1571.0
4.167,8.333,87.500,0.0,0.0,0.0,0.0,0.0,17870889.0,578234.0,0.0,0.0,18.0,1657.0
6.452,10.753,81.720,0.0,0.0,1.075,0.0,0.0,22968722.0,746636.0,0.0,0.0,19.0,2622.0
8.642,18.519,72.840,0.0,0.0,0.0,0.0,0.0,29659340.0,961834.0,0.0,0.0,18.0,4697.0
4.878,18.293,74.390,0.0,0.0,2.439,0.0,0.0,29611855.0,958054.0,0.0,0.0,18.0,4985.0
5.682,18.182,71.591,0.0,0.0,4.545,0.0,0.0,27974504.0,908756.0,0.0,0.0,18.0,4132.0
7.059,16.471,75.294,0.0,0.0,1.176,0.0,0.0,30091739.0,974714.0,0.0,0.0,19.0,4963.0
6.742,17.978,74.157,0.0,0.0,1.124,0.0,0.0,30018316.0,972474.0,0.0,0.0,17.0,4896.0
9.195,16.092,72.414,0.0,0.0,2.299,0.0,0.0,30136079.0,978856.0,0.0,0.0,19.0,4624.0
5.882,17.647,74.118,0.0,0.0,2.353,0.0,0.0,29516686.0,957008.0,0.0,0.0,18.0,4673.0
4.819,19.277,74.699,0.0,0.0,1.205,0.0,0.0,29200923.0,944894.0,0.0,0.0,18.0,5016.0
10.345,11.494,75.862,0.0,0.0,2.299,0.0,0.0,29241534.0,950488.0,0.0,0.0,19.0,4492.0
5.882,17.647,75.294,0.0,0.0,1.176,0.0,0.0,29257359.0,947694.0,0.0,0.0,18.0,4568.0
8.140,25.581,65.116,0.0,0.0,1.163,0.0,0.0,29201219.0,945874.0,0.0,0.0,18.0,4481.0
5.814,17.442,74.419,0.0,0.0,2.326,0.0,0.0,30855203.0,999890.0,0.0,0.0,18.0,4532.0
9.195,18.391,70.115,1.149,0.0,1.149,0.0,40960.0,28588324.0,928444.0,0.0,0.0,18.0,4573.0
9.524,10.714,78.571,0.0,0.0,1.190,0.0,0.0,30134814.0,976740.0,0.0,0.0,19.0,4598.0
6.897,16.092,73.563,0.0,0.0,3.448,0.0,0.0,30156492.0,976814.0,0.0,0.0,18.0,4587.0
5.952,15.476,78.571,0.0,0.0,0.0,0.0,0.0,31056674.0,1007950.0,0.0,0.0,18.0,4105.0
6.897,17.241,75.862,0.0,0.0,0.0,0.0,0.0,31449028.0,1018814.0,0.0,0.0,18.0,4598.0
8.989,17.978,70.787,0.0,0.0,2.247,0.0,0.0,29646495.0,960154.0,0.0,0.0,18.0,4009.0
8.989,20.225,68.539,0.0,0.0,2.247,0.0,0.0,29241132.0,949916.0,0.0,0.0,19.0,4219.0
5.882,11.765,81.176,0.0,0.0,1.176,0.0,0.0,31928803.0,1034074.0,0.0,0.0,18.0,4680.0
5.882,11.765,81.176,0.0,0.0,1.176,0.0,0.0,30804977.0,998514.0,0.0,0.0,18.0,4292.0
6.024,19.277,72.289,0.0,0.0,2.410,0.0,0.0,29747109.0,965456.0,0.0,0.0,18.0,4326.0
11.236,14.607,73.034,0.0,0.0,1.124,0.0,0.0,28617789.0,928094.0,0.0,0.0,19.0,4523.0
8.046,17.241,72.414,0.0,0.0,2.299,0.0,0.0,30437501.0,984794.0,0.0,0.0,18.0,4535.0
11.364,12.500,73.864,0.0,0.0,2.273,0.0,0.0,30360701.0,986176.0,0.0,0.0,18.0,4342.0
9.091,11.364,77.273,0.0,0.0,2.273,0.0,8192.0,30055066.0,973130.0,0.0,0.0,18.0,4433.0
7.317,13.415,78.049,0.0,0.0,1.220,0.0,0.0,30329554.0,983534.0,0.0,0.0,18.0,4348.0
9.195,18.391,70.115,0.0,0.0,2.299,0.0,0.0,29471350.0,956012.0,0.0,0.0,18.0,4669.0
9.091,22.727,64.773,0.0,0.0,3.409,0.0,0.0,28366827.0,918854.0,0.0,0.0,19.0,4512.0
3.659,20.732,73.171,0.0,0.0,2.439,0.0,0.0,30355396.0,983954.0,0.0,0.0,18.0,4788.0
5.747,17.241,75.862,0.0,0.0,1.149,0.0,4096.0,30062600.0,975676.0,0.0,0.0,18.0,4431.0
7.059,11.765,81.176,0.0,0.0,0.0,0.0,0.0,31539837.0,1021614.0,0.0,0.0,18.0,4786.0
8.434,19.277,69.880,0.0,0.0,2.410,0.0,0.0,28133590.0,912274.0,0.0,0.0,18.0,4399.0
8.235,14.118,76.471,0.0,0.0,1.176,0.0,0.0,30931508.0,1004096.0,0.0,0.0,19.0,4547.0
6.593,18.681,73.626,0.0,0.0,1.099,0.0,0.0,30061473.0,973174.0,0.0,0.0,18.0,4221.0
9.890,14.286,75.824,0.0,0.0,0.0,0.0,0.0,30740123.0,995714.0,0.0,0.0,18.0,4199.0
8.235,12.941,78.824,0.0,0.0,0.0,0.0,0.0,28545301.0,927236.0,0.0,0.0,18.0,3942.0
6.742,19.101,71.910,0.0,0.0,2.247,0.0,0.0,29222867.0,946574.0,0.0,0.0,19.0,4266.0
7.778,16.667,74.444,0.0,0.0,1.111,0.0,0.0,30619248.0,991934.0,0.0,0.0,18.0,4180.0
10.0,16.667,73.333,0.0,0.0,0.0,0.0,0.0,32496450.0,1055056.0,0.0,0.0,18.0,4543.0
9.195,14.943,74.713,0.0,0.0,1.149,0.0,0.0,32300632.0,1046394.0,0.0,0.0,18.0,4338.0
5.495,16.484,76.923,0.0,0.0,1.099,0.0,0.0,30402850.0,985774.0,0.0,0.0,18.0,3857.0
10.0,18.889,68.889,0.0,0.0,2.222,0.0,0.0,29781533.0,966156.0,0.0,0.0,19.0,4169.0
8.511,15.957,73.404,1.064,0.0,1.064,0.0,20480.0,31163834.0,1009434.0,0.0,0.0,18.0,4135.0
7.059,12.941,78.824,0.0,0.0,1.176,0.0,0.0,31807908.0,1030294.0,0.0,0.0,18.0,4425.0
6.897,16.092,75.862,0.0,0.0,1.149,0.0,0.0,31113031.0,1010396.0,0.0,0.0,18.0,4538.0
9.091,14.773,76.136,0.0,0.0,0.0,0.0,32768.0,29897183.0,968694.0,0.0,0.0,18.0,4359.0
7.955,20.455,69.318,0.0,0.0,2.273,0.0,0.0,28361677.0,918442.0,0.0,0.0,19.0,4082.0
8.889,15.556,74.444,0.0,0.0,1.111,0.0,0.0,29582739.0,961322.0,0.0,0.0,18.0,4072.0
5.495,17.582,75.824,0.0,0.0,1.099,0.0,0.0,32292126.0,1045554.0,0.0,0.0,18.0,4534.0
5.556,15.556,78.889,0.0,0.0,0.0,0.0,0.0,31241553.0,1012168.0,0.0,0.0,18.0,3944.0
10.227,15.909,71.591,0.0,0.0,2.273,0.0,0.0,29885284.0,971476.0,0.0,0.0,18.0,4114.0
8.791,15.385,73.626,0.0,0.0,2.198,0.0,0.0,29261705.0,947134.0,0.0,0.0,19.0,4181.0
6.742,17.978,74.157,0.0,0.0,1.124,0.0,0.0,30100312.0,974574.0,0.0,0.0,18.0,4152.0
10.227,12.500,75.0,0.0,0.0,2.273,0.0,0.0,29353534.0,953556.0,0.0,0.0,18.0,3841.0
5.952,19.048,73.810,0.0,0.0,1.190,0.0,0.0,29655105.0,960854.0,0.0,0.0,18.0,4122.0
12.222,14.444,72.222,0.0,0.0,1.111,0.0,0.0,24701031.0,805074.0,0.0,0.0,18.0,3549.0
8.333,10.714,79.762,0.0,0.0,1.190,0.0,0.0,27536027.0,895940.0,0.0,0.0,19.0,3264.0
2.198,7.692,89.011,0.0,0.0,1.099,0.0,0.0,16191650.0,524386.0,0.0,0.0,18.0,2332.0
6.250,12.500,79.167,0.0,0.0,2.083,0.0,0.0,23974805.0,776194.0,0.0,0.0,18.0,2804.0
1.010,0.0,98.990,0.0,0.0,0.0,0.0,0.0,536458.0,20992.0,0.0,0.0,18.0,190.0
5.556,17.778,72.222,0.0,0.0,4.444,0.0,8192.0,30476480.0,986680.0,0.0,0.0,18.0,3921.0
9.091,17.045,71.591,0.0,0.0,2.273,0.0,0.0,28047947.0,908792.0,0.0,0.0,19.0,3540.0
11.494,13.793,71.264,0.0,0.0,3.448,0.0,0.0,32659424.0,1056754.0,0.0,0.0,18.0,4504.0
6.977,17.442,75.581,0.0,0.0,0.0,0.0,0.0,29742667.0,966016.0,0.0,0.0,18.0,4160.0
7.595,15.190,75.949,0.0,0.0,1.266,0.0,0.0,24139602.0,783054.0,0.0,0.0,18.0,3256.0
