"Dstat 0.7.2 CSV output"
"Author:","Dag Wieers <dag@wieers.com>",,,,"URL:","http://dag.wieers.com/home-made/dstat/"
"Host:","Server1",,,,"User:","maki"
"Cmdline:","dstat --output server1_8_set_2_42.csv 1 70",,,,"Date:","07 Dec 2018 15:44:48 UTC"

"total cpu usage",,,,,,"dsk/total",,"net/total",,"paging",,"system",
"usr","sys","idl","wai","hiq","siq","read","writ","recv","send","in","out","int","csw"
9.156,8.050,76.209,5.935,0.0,0.649,167519.359,685836.755,0.0,0.0,0.0,0.0,19.985,2046.521
6.742,8.989,84.270,0.0,0.0,0.0,0.0,0.0,22597200.0,733684.0,0.0,0.0,19.0,4476.0
5.435,11.957,80.435,0.0,0.0,2.174,0.0,0.0,27494215.0,890574.0,0.0,0.0,18.0,4707.0
8.989,13.483,76.404,0.0,0.0,1.124,0.0,0.0,30558938.0,990954.0,0.0,0.0,18.0,4400.0
7.692,18.681,71.429,0.0,0.0,2.198,0.0,0.0,31527845.0,1023556.0,0.0,0.0,18.0,4429.0
6.667,20.0,71.111,0.0,0.0,2.222,0.0,0.0,30385854.0,983394.0,0.0,0.0,18.0,4461.0
5.814,16.279,77.907,0.0,0.0,0.0,0.0,0.0,32011566.0,1036940.0,0.0,0.0,19.0,4330.0
6.667,14.444,77.778,0.0,0.0,1.111,0.0,0.0,29455726.0,956518.0,0.0,0.0,18.0,3367.0
6.897,17.241,75.862,0.0,0.0,0.0,0.0,0.0,31928994.0,1034214.0,0.0,0.0,18.0,3959.0
8.537,14.634,75.610,0.0,0.0,1.220,0.0,0.0,30178086.0,977514.0,0.0,0.0,18.0,3821.0
9.195,17.241,70.115,0.0,0.0,3.448,0.0,0.0,28969178.0,942788.0,0.0,0.0,18.0,3544.0
2.083,7.292,90.625,0.0,0.0,0.0,0.0,0.0,14447154.0,468054.0,0.0,0.0,19.0,1645.0
1.031,4.124,93.814,0.0,0.0,1.031,0.0,0.0,8075797.0,262512.0,0.0,0.0,18.0,1321.0
2.062,2.062,95.876,0.0,0.0,0.0,0.0,0.0,6375664.0,206726.0,0.0,0.0,18.0,951.0
3.191,4.255,91.489,0.0,0.0,1.064,0.0,4096.0,12586377.0,412204.0,0.0,0.0,18.0,1805.0
9.091,20.455,69.318,0.0,0.0,1.136,0.0,0.0,29763232.0,963374.0,0.0,0.0,18.0,4260.0
7.059,21.176,68.235,0.0,0.0,3.529,0.0,0.0,27852437.0,903314.0,0.0,0.0,19.0,3881.0
6.667,12.222,81.111,0.0,0.0,0.0,0.0,0.0,23928110.0,776876.0,0.0,0.0,18.0,2654.0
6.452,6.452,86.022,0.0,0.0,1.075,0.0,0.0,22366599.0,725374.0,0.0,0.0,18.0,2398.0
3.261,7.609,85.870,2.174,0.0,1.087,0.0,32768.0,20767274.0,671614.0,0.0,0.0,18.0,1754.0
6.383,8.511,84.043,0.0,0.0,1.064,0.0,0.0,19151696.0,623502.0,0.0,0.0,18.0,1702.0
6.383,9.574,82.979,0.0,0.0,1.064,0.0,0.0,22712624.0,735248.0,0.0,0.0,19.0,1922.0
5.319,7.447,86.170,0.0,0.0,1.064,0.0,0.0,22474675.0,728034.0,0.0,0.0,18.0,2073.0
4.396,10.989,84.615,0.0,0.0,0.0,0.0,0.0,24118902.0,784716.0,0.0,0.0,18.0,2398.0
5.435,9.783,83.696,0.0,0.0,1.087,0.0,0.0,25924786.0,838980.0,0.0,0.0,18.0,2556.0
6.452,16.129,75.269,0.0,0.0,2.151,0.0,0.0,28886112.0,935588.0,0.0,0.0,18.0,3718.0
8.791,13.187,75.824,0.0,0.0,2.198,0.0,0.0,27110303.0,881966.0,0.0,0.0,19.0,2753.0
5.495,13.187,81.319,0.0,0.0,0.0,0.0,0.0,28107433.0,910454.0,0.0,0.0,18.0,2777.0
3.333,13.333,83.333,0.0,0.0,0.0,0.0,0.0,28915596.0,936634.0,0.0,0.0,18.0,2938.0
7.778,12.222,78.889,0.0,0.0,1.111,0.0,0.0,27952428.0,907776.0,0.0,0.0,18.0,2646.0
4.545,15.909,77.273,0.0,0.0,2.273,0.0,0.0,30148927.0,976652.0,0.0,0.0,18.0,3912.0
4.444,15.556,80.0,0.0,0.0,0.0,0.0,0.0,30117971.0,974714.0,0.0,0.0,19.0,3652.0
6.593,12.088,80.220,0.0,0.0,1.099,0.0,0.0,26911010.0,874942.0,0.0,0.0,18.0,2800.0
8.791,17.582,71.429,0.0,0.0,2.198,0.0,0.0,30333968.0,982134.0,0.0,0.0,18.0,4035.0
8.434,14.458,77.108,0.0,0.0,0.0,0.0,12288.0,31657132.0,1025608.0,0.0,0.0,18.0,4627.0
6.818,13.636,77.273,0.0,0.0,2.273,0.0,0.0,28173491.0,914776.0,0.0,0.0,19.0,3447.0
9.091,18.182,71.591,0.0,0.0,1.136,0.0,0.0,32283392.0,1046040.0,0.0,0.0,18.0,4056.0
6.667,17.778,74.444,0.0,0.0,1.111,0.0,0.0,32624509.0,1056442.0,0.0,0.0,18.0,4330.0
6.742,16.854,75.281,0.0,0.0,1.124,0.0,0.0,30576131.0,993036.0,0.0,0.0,18.0,3976.0
6.818,14.773,77.273,0.0,0.0,1.136,0.0,0.0,31418377.0,1017694.0,0.0,0.0,18.0,3971.0
6.593,17.582,74.725,0.0,0.0,1.099,0.0,0.0,29455006.0,954831.0,0.0,0.0,19.0,3747.0
7.059,14.118,77.647,0.0,0.0,1.176,0.0,0.0,28326320.0,921957.0,0.0,0.0,18.0,3444.0
8.602,15.054,75.269,0.0,0.0,1.075,0.0,0.0,31331909.0,1014894.0,0.0,0.0,18.0,3984.0
5.747,13.793,78.161,0.0,0.0,2.299,0.0,0.0,32586160.0,1056054.0,0.0,0.0,18.0,4223.0
8.889,16.667,73.333,0.0,0.0,1.111,0.0,0.0,30654657.0,995416.0,0.0,0.0,18.0,3921.0
5.814,16.279,75.581,0.0,0.0,2.326,0.0,0.0,30731241.0,995154.0,0.0,0.0,19.0,3844.0
6.593,15.385,75.824,0.0,0.0,2.198,0.0,0.0,31431816.0,1019094.0,0.0,0.0,18.0,3755.0
8.989,15.730,75.281,0.0,0.0,0.0,0.0,0.0,32249817.0,1047216.0,0.0,0.0,18.0,4197.0
7.059,11.765,78.824,0.0,0.0,2.353,0.0,0.0,31877441.0,1031488.0,0.0,0.0,18.0,4167.0
8.889,14.444,71.111,2.222,0.0,3.333,0.0,24576.0,30811025.0,1000215.0,0.0,0.0,18.0,3999.0
9.091,15.909,70.455,0.0,0.0,4.545,0.0,28672.0,29570112.0,960806.0,0.0,0.0,19.0,3662.0
7.865,15.730,75.281,0.0,0.0,1.124,0.0,0.0,30977816.0,1003458.0,0.0,0.0,18.0,3922.0
6.593,17.582,75.824,0.0,0.0,0.0,0.0,0.0,31704254.0,1028198.0,0.0,0.0,18.0,3965.0
6.742,15.730,75.281,0.0,0.0,2.247,0.0,0.0,31523522.0,1022716.0,0.0,0.0,18.0,4046.0
6.818,13.636,79.545,0.0,0.0,0.0,0.0,0.0,32594801.0,1056054.0,0.0,0.0,18.0,4021.0
6.742,15.730,75.281,0.0,0.0,2.247,0.0,0.0,31531378.0,1021054.0,0.0,0.0,19.0,4121.0
8.791,14.286,74.725,0.0,0.0,2.198,0.0,0.0,30563817.0,992896.0,0.0,0.0,18.0,3602.0
7.865,13.483,78.652,0.0,0.0,0.0,0.0,0.0,31375325.0,1016014.0,0.0,0.0,18.0,3802.0
9.091,11.364,79.545,0.0,0.0,0.0,0.0,0.0,33432801.0,1083494.0,0.0,0.0,18.0,4435.0
7.692,12.088,78.022,0.0,0.0,2.198,0.0,0.0,30010764.0,975116.0,0.0,0.0,18.0,3443.0
8.889,13.333,75.556,0.0,0.0,2.222,0.0,0.0,29862834.0,966174.0,0.0,0.0,19.0,3750.0
7.527,8.602,82.796,0.0,0.0,1.075,0.0,0.0,26352283.0,853614.0,0.0,0.0,18.0,2720.0
5.376,15.054,77.419,0.0,0.0,2.151,0.0,0.0,26634362.0,865670.0,0.0,0.0,18.0,2851.0
3.488,15.116,80.233,0.0,0.0,1.163,0.0,0.0,32525612.0,1054514.0,0.0,0.0,18.0,4334.0
8.791,17.582,72.527,0.0,0.0,1.099,0.0,0.0,32707533.0,1059414.0,0.0,0.0,18.0,4630.0
11.236,16.854,69.663,0.0,0.0,2.247,0.0,8192.0,29643313.0,962022.0,0.0,0.0,19.0,3852.0
4.348,14.130,80.435,0.0,0.0,1.087,0.0,0.0,27930124.0,904368.0,0.0,0.0,18.0,2934.0
2.198,18.681,79.121,0.0,0.0,0.0,0.0,0.0,29970918.0,971000.0,0.0,0.0,18.0,3135.0
8.696,14.130,75.0,0.0,0.0,2.174,0.0,0.0,29949843.0,972530.0,0.0,0.0,18.0,3578.0
5.435,13.043,81.522,0.0,0.0,0.0,0.0,0.0,28029531.0,908914.0,0.0,0.0,19.0,2969.0
8.140,15.116,75.581,0.0,0.0,1.163,0.0,0.0,29516891.0,955114.0,0.0,0.0,18.0,3624.0
