1         Threads
14        Connections per thread
70        Seconds


ALL STATS
========================================================================
Type        Ops/sec     Hits/sec   Misses/sec      Latency       KB/sec 
------------------------------------------------------------------------
Sets           0.00          ---          ---      0.00000         0.00 
Gets         520.71       520.71         0.00     26.87800      2109.17 
Waits          0.00          ---          ---      0.00000          --- 
Totals       520.71       520.71         0.00     26.87800      2109.17 


Request Latency Distribution
Type     <= msec         Percent
------------------------------------------------------------------------
---
GET       1.100         0.01
GET       1.200         0.01
GET       1.300         0.03
GET       1.400         0.07
GET       1.500         0.13
GET       1.600         0.20
GET       1.700         0.30
GET       1.800         0.46
GET       1.900         0.55
GET       2.000         0.67
GET       2.100         0.75
GET       2.200         0.85
GET       2.300         0.92
GET       2.400         1.05
GET       2.500         1.13
GET       2.600         1.23
GET       2.700         1.30
GET       2.800         1.36
GET       2.900         1.41
GET       3.000         1.46
GET       3.100         1.49
GET       3.200         1.53
GET       3.300         1.57
GET       3.400         1.57
GET       3.500         1.59
GET       3.600         1.59
GET       3.800         1.59
GET       3.900         1.60
GET       4.000         1.62
GET       4.100         1.62
GET       4.200         1.65
GET       4.300         1.66
GET       4.400         1.66
GET       4.500         1.68
GET       4.600         1.68
GET       4.700         1.69
GET       4.800         1.71
GET       4.900         1.72
GET       5.000         1.72
GET       5.100         1.73
GET       5.200         1.73
GET       5.300         1.73
GET       5.500         1.74
GET       6.100         1.74
GET       6.200         1.74
GET       6.300         1.75
GET       6.500         1.75
GET       6.600         1.75
GET       6.700         1.76
GET       6.800         1.77
GET       6.900         1.77
GET       7.000         1.78
GET       7.100         1.79
GET       7.200         1.79
GET       7.300         1.79
GET       7.400         1.80
GET       7.500         1.81
GET       7.600         1.82
GET       7.800         1.82
GET       7.900         1.82
GET       8.100         1.83
GET       8.300         1.84
GET       8.400         1.84
GET       8.500         1.84
GET       8.600         1.85
GET       8.700         1.85
GET       8.800         1.86
GET       8.900         1.87
GET       9.000         1.88
GET       9.100         1.89
GET       9.200         1.90
GET       9.300         1.91
GET       9.400         1.92
GET       9.500         1.94
GET       9.600         1.96
GET       9.700         1.96
GET       9.800         1.97
GET       9.900         1.98
GET      10.000         2.04
GET      11.000         2.31
GET      12.000         2.50
GET      13.000         2.76
GET      14.000         3.05
GET      15.000        13.78
GET      16.000        40.15
GET      17.000        42.20
GET      18.000        42.65
GET      19.000        42.90
GET      20.000        43.01
GET      21.000        43.10
GET      22.000        43.14
GET      23.000        43.15
GET      24.000        43.17
GET      25.000        43.22
GET      26.000        43.36
GET      27.000        43.61
GET      28.000        44.14
GET      29.000        44.93
GET      30.000        48.52
GET      31.000        79.50
GET      32.000        87.66
GET      33.000        88.29
GET      34.000        88.59
GET      35.000        88.78
GET      36.000        88.91
GET      37.000        88.92
GET      38.000        88.93
GET      39.000        88.96
GET      40.000        88.97
GET      41.000        88.99
GET      42.000        89.02
GET      43.000        89.07
GET      44.000        89.17
GET      45.000        89.31
GET      46.000        91.22
GET      47.000        96.41
GET      48.000        96.85
GET      49.000        96.93
GET      50.000        96.97
GET      51.000        96.99
GET      52.000        97.02
GET      53.000        97.03
GET      55.000        97.04
GET      56.000        97.04
GET      57.000        97.06
GET      59.000        97.06
GET      60.000        97.08
GET      61.000        97.17
GET      62.000        98.30
GET      63.000        98.87
GET      64.000        98.92
GET      65.000        98.93
GET      66.000        98.94
GET      67.000        98.95
GET      68.000        98.96
GET      70.000        98.96
GET      73.000        98.97
GET      74.000        98.97
GET      77.000        99.03
GET      78.000        99.47
GET      79.000        99.51
GET      80.000        99.51
GET      81.000        99.52
GET      82.000        99.52
GET      85.000        99.53
GET      86.000        99.53
GET      92.000        99.54
GET      93.000        99.58
GET      94.000        99.74
GET      95.000        99.75
GET      97.000        99.75
GET      98.000        99.76
GET      99.000        99.78
GET     100.000        99.78
GET     110.000        99.82
GET     120.000        99.84
GET     130.000        99.88
GET     140.000        99.88
GET     150.000        99.90
GET     160.000        99.92
GET     270.000        99.94
GET     280.000        99.95
GET     290.000        99.95
GET     300.000        99.96
GET     320.000        99.97
GET     340.000        99.97
GET     350.000        99.98
GET     360.000        99.98
GET     390.000        99.99
GET     400.000        99.99
GET     420.000       100.00
GET     430.000       100.00
---
