1         Threads
22        Connections per thread
70        Seconds


ALL STATS
========================================================================
Type        Ops/sec     Hits/sec   Misses/sec      Latency       KB/sec 
------------------------------------------------------------------------
Sets           0.00          ---          ---      0.00000         0.00 
Gets         499.88       499.88         0.00     44.00000      2024.79 
Waits          0.00          ---          ---      0.00000          --- 
Totals       499.88       499.88         0.00     44.00000      2024.79 


Request Latency Distribution
Type     <= msec         Percent
------------------------------------------------------------------------
---
GET      17.000         0.01
GET      18.000         0.05
GET      19.000         0.07
GET      20.000         0.07
GET      21.000         0.10
GET      22.000         0.11
GET      23.000         0.14
GET      24.000         0.17
GET      25.000         0.18
GET      26.000         0.21
GET      27.000         0.23
GET      28.000         0.26
GET      29.000         0.33
GET      30.000         0.49
GET      31.000         0.77
GET      32.000         0.97
GET      33.000         4.86
GET      34.000        13.69
GET      35.000        16.99
GET      36.000        18.45
GET      37.000        18.90
GET      38.000        19.26
GET      39.000        19.57
GET      40.000        19.93
GET      41.000        20.35
GET      42.000        21.08
GET      43.000        22.44
GET      44.000        26.45
GET      45.000        40.24
GET      46.000        66.84
GET      47.000        91.44
GET      48.000        95.94
GET      49.000        97.68
GET      50.000        98.41
GET      51.000        98.81
GET      52.000        99.05
GET      53.000        99.25
GET      54.000        99.32
GET      55.000        99.37
GET      56.000        99.42
GET      57.000        99.45
GET      58.000        99.49
GET      59.000        99.57
GET      60.000        99.69
GET      61.000        99.78
GET      62.000        99.88
GET      63.000        99.91
GET      64.000        99.92
GET      65.000        99.93
GET      69.000        99.94
GET     230.000        99.94
GET     240.000        99.97
GET     250.000        99.98
GET     260.000       100.00
GET     270.000       100.00
---
