1         Threads
64        Connections per thread
70        Seconds


ALL STATS
========================================================================
Type        Ops/sec     Hits/sec   Misses/sec      Latency       KB/sec 
------------------------------------------------------------------------
Sets           0.00          ---          ---      0.00000         0.00 
Gets         472.88       472.88         0.00    135.33100      1915.45 
Waits          0.00          ---          ---      0.00000          --- 
Totals       472.88       472.88         0.00    135.33100      1915.45 


Request Latency Distribution
Type     <= msec         Percent
------------------------------------------------------------------------
---
GET      88.000         0.00
GET      92.000         0.01
GET      93.000         0.10
GET      94.000         0.44
GET      95.000         0.52
GET      96.000         0.55
GET      97.000         0.55
GET     100.000         0.55
GET     110.000         7.66
GET     120.000        26.23
GET     130.000        50.90
GET     140.000        84.70
GET     150.000        85.75
GET     160.000        94.92
GET     170.000        97.82
GET     180.000        97.84
GET     190.000        99.07
GET     200.000        99.47
GET     210.000        99.50
GET     220.000        99.66
GET     230.000        99.74
GET     240.000        99.75
GET     250.000        99.78
GET     260.000        99.79
GET     270.000        99.81
GET     280.000        99.83
GET     290.000        99.85
GET     300.000        99.92
GET     310.000        99.93
GET     320.000        99.96
GET     330.000        99.98
GET     340.000       100.00
GET     370.000       100.00
---
