1         Threads
22        Connections per thread
70        Seconds


ALL STATS
========================================================================
Type        Ops/sec     Hits/sec   Misses/sec      Latency       KB/sec 
------------------------------------------------------------------------
Sets           0.00          ---          ---      0.00000         0.00 
Gets         502.45       502.45         0.00     43.77600      2035.22 
Waits          0.00          ---          ---      0.00000          --- 
Totals       502.45       502.45         0.00     43.77600      2035.22 


Request Latency Distribution
Type     <= msec         Percent
------------------------------------------------------------------------
---
GET      10.000         0.00
GET      11.000         0.01
GET      14.000         0.01
GET      15.000         0.01
GET      16.000         0.03
GET      17.000         0.12
GET      18.000         0.15
GET      19.000         0.16
GET      20.000         0.19
GET      21.000         0.21
GET      22.000         0.22
GET      23.000         0.22
GET      24.000         0.23
GET      25.000         0.24
GET      26.000         0.26
GET      27.000         0.28
GET      28.000         0.31
GET      29.000         0.39
GET      30.000         0.59
GET      31.000         3.48
GET      32.000        12.06
GET      33.000        22.90
GET      34.000        25.19
GET      35.000        25.88
GET      36.000        26.14
GET      37.000        26.31
GET      38.000        26.44
GET      39.000        26.51
GET      40.000        26.64
GET      41.000        26.79
GET      42.000        27.10
GET      43.000        27.68
GET      44.000        29.56
GET      45.000        37.71
GET      46.000        54.59
GET      47.000        87.95
GET      48.000        91.64
GET      49.000        92.83
GET      50.000        93.26
GET      51.000        93.47
GET      52.000        93.59
GET      53.000        93.67
GET      54.000        93.71
GET      55.000        93.75
GET      56.000        93.82
GET      57.000        93.91
GET      58.000        94.04
GET      59.000        94.39
GET      60.000        95.22
GET      61.000        97.97
GET      62.000        99.35
GET      63.000        99.79
GET      64.000        99.84
GET      65.000        99.87
GET      66.000        99.88
GET      67.000        99.89
GET      70.000        99.89
GET      72.000        99.89
GET      75.000        99.90
GET      76.000        99.92
GET      77.000        99.93
GET      78.000        99.94
GET     210.000        99.99
GET     220.000       100.00
---
