2         Threads
32        Connections per thread
70        Seconds


ALL STATS
========================================================================
Type        Ops/sec     Hits/sec   Misses/sec      Latency       KB/sec 
------------------------------------------------------------------------
Sets           0.00          ---          ---      0.00000         0.00 
Gets        2551.62      2551.62         0.00     25.07200     10335.51 
Waits          0.00          ---          ---      0.00000          --- 
Totals      2551.62      2551.62         0.00     25.07200     10335.51 


Request Latency Distribution
Type     <= msec         Percent
------------------------------------------------------------------------
---
GET      16.000         0.00
GET      17.000         0.02
GET      18.000         0.21
GET      19.000         1.30
GET      20.000         5.86
GET      21.000        15.30
GET      22.000        28.84
GET      23.000        43.81
GET      24.000        56.74
GET      25.000        67.05
GET      26.000        74.68
GET      27.000        80.53
GET      28.000        84.82
GET      29.000        88.13
GET      30.000        90.78
GET      31.000        92.78
GET      32.000        94.44
GET      33.000        95.67
GET      34.000        96.62
GET      35.000        97.35
GET      36.000        97.88
GET      37.000        98.26
GET      38.000        98.60
GET      39.000        98.92
GET      40.000        99.11
GET      41.000        99.26
GET      42.000        99.41
GET      43.000        99.51
GET      44.000        99.58
GET      45.000        99.65
GET      46.000        99.70
GET      47.000        99.73
GET      48.000        99.75
GET      49.000        99.78
GET      50.000        99.79
GET      51.000        99.82
GET      52.000        99.83
GET      53.000        99.85
GET      54.000        99.87
GET      55.000        99.88
GET      56.000        99.89
GET      57.000        99.90
GET      58.000        99.91
GET      59.000        99.91
GET      60.000        99.92
GET      61.000        99.92
GET      62.000        99.92
GET      63.000        99.93
GET      64.000        99.93
GET      65.000        99.94
GET      66.000        99.94
GET      67.000        99.94
GET      68.000        99.94
GET      69.000        99.94
GET      71.000        99.94
GET      73.000        99.95
GET      75.000        99.95
GET      76.000        99.95
GET      79.000        99.95
GET      80.000        99.95
GET      82.000        99.95
GET      88.000        99.95
GET     140.000        99.95
GET     150.000        99.95
GET     160.000        99.95
GET     200.000        99.96
GET     210.000        99.96
GET     220.000        99.96
GET     230.000        99.97
GET     240.000        99.97
GET     250.000        99.97
GET     260.000        99.98
GET     270.000        99.98
GET     280.000        99.99
GET     290.000        99.99
GET     300.000        99.99
GET     320.000       100.00
GET     330.000       100.00
GET     340.000       100.00
GET     360.000       100.00
GET     420.000       100.00
---
