"Dstat 0.7.2 CSV output"
"Author:","Dag Wieers <dag@wieers.com>",,,,"URL:","http://dag.wieers.com/home-made/dstat/"
"Host:","Server1",,,,"User:","maki"
"Cmdline:","dstat --output server1_32_get_2_14.csv 1 70",,,,"Date:","20 Nov 2018 07:29:25 UTC"

"total cpu usage",,,,,,"dsk/total",,"net/total",,"paging",,"system",
"usr","sys","idl","wai","hiq","siq","read","writ","recv","send","in","out","int","csw"
4.200,8.842,84.563,0.403,0.0,1.992,8049.025,28775.307,0.0,0.0,0.0,0.0,18.399,834.707
2.083,9.375,88.542,0.0,0.0,0.0,0.0,0.0,461730.0,13058614.0,0.0,0.0,19.0,928.0
1.042,5.208,92.708,0.0,0.0,1.042,0.0,0.0,446916.0,12695212.0,0.0,0.0,18.0,770.0
2.105,4.211,91.579,0.0,0.0,2.105,0.0,0.0,446235.0,12500324.0,0.0,0.0,18.0,784.0
1.042,5.208,92.708,0.0,0.0,1.042,0.0,0.0,440459.0,12500298.0,0.0,0.0,18.0,629.0
0.0,7.143,90.816,0.0,0.0,2.041,0.0,0.0,441086.0,12500320.0,0.0,0.0,18.0,589.0
3.061,9.184,86.735,0.0,0.0,1.020,0.0,0.0,445464.0,12566987.0,0.0,0.0,19.0,639.0
0.0,9.091,89.899,0.0,0.0,1.010,0.0,0.0,439845.0,12432101.0,0.0,0.0,18.0,594.0
1.042,5.208,92.708,0.0,0.0,1.042,0.0,0.0,440120.0,12500268.0,0.0,0.0,18.0,588.0
1.042,6.250,91.667,0.0,0.0,1.042,0.0,0.0,446516.0,12500204.0,0.0,0.0,18.0,658.0
2.062,4.124,92.784,0.0,0.0,1.031,0.0,0.0,439830.0,12500429.0,0.0,0.0,18.0,559.0
1.064,5.319,92.553,0.0,0.0,1.064,0.0,0.0,440082.0,12500153.0,0.0,0.0,19.0,606.0
2.105,4.211,92.632,0.0,0.0,1.053,0.0,0.0,446066.0,12498803.0,0.0,0.0,18.0,597.0
1.031,7.216,89.691,2.062,0.0,0.0,0.0,45056.0,434452.0,12328364.0,0.0,0.0,18.0,559.0
1.020,7.143,90.816,0.0,0.0,1.020,0.0,0.0,446448.0,12672186.0,0.0,0.0,18.0,603.0
1.042,6.250,92.708,0.0,0.0,0.0,0.0,0.0,446866.0,12695074.0,0.0,0.0,18.0,594.0
2.083,7.292,89.583,0.0,0.0,1.042,0.0,0.0,446348.0,12500371.0,0.0,0.0,19.0,706.0
0.0,6.316,93.684,0.0,0.0,0.0,0.0,0.0,448546.0,12723167.0,0.0,0.0,18.0,563.0
0.0,9.0,89.0,0.0,0.0,2.0,0.0,0.0,441401.0,12501368.0,0.0,0.0,18.0,619.0
2.041,8.163,88.776,0.0,0.0,1.020,0.0,0.0,445963.0,12498968.0,0.0,0.0,18.0,685.0
1.042,5.208,92.708,0.0,0.0,1.042,0.0,0.0,446849.0,12694922.0,0.0,0.0,18.0,563.0
1.042,7.292,91.667,0.0,0.0,0.0,0.0,0.0,447267.0,12696194.0,0.0,0.0,18.0,644.0
3.061,6.122,89.796,0.0,0.0,1.020,0.0,0.0,445742.0,12500443.0,0.0,0.0,19.0,636.0
1.042,4.167,92.708,0.0,0.0,2.083,0.0,0.0,440165.0,12500318.0,0.0,0.0,18.0,542.0
1.020,7.143,90.816,0.0,0.0,1.020,0.0,0.0,439994.0,12498749.0,0.0,0.0,18.0,597.0
2.062,6.186,90.722,0.0,0.0,1.031,0.0,0.0,445555.0,12500330.0,0.0,0.0,18.0,659.0
2.041,8.163,88.776,0.0,0.0,1.020,0.0,0.0,440079.0,12500009.0,0.0,0.0,19.0,623.0
1.020,6.122,90.816,0.0,0.0,2.041,0.0,0.0,440469.0,12500091.0,0.0,0.0,18.0,643.0
1.053,5.263,90.526,0.0,0.0,3.158,0.0,0.0,439864.0,12342386.0,0.0,0.0,18.0,1027.0
2.041,8.163,89.796,0.0,0.0,0.0,0.0,0.0,440953.0,12501497.0,0.0,0.0,18.0,760.0
2.020,5.051,90.909,0.0,0.0,2.020,0.0,0.0,440708.0,12498697.0,0.0,0.0,18.0,640.0
1.053,7.368,90.526,0.0,0.0,1.053,0.0,0.0,447183.0,12512309.0,0.0,0.0,19.0,670.0
3.030,6.061,88.889,0.0,0.0,2.020,0.0,0.0,439847.0,12487307.0,0.0,0.0,18.0,632.0
1.031,5.155,91.753,0.0,0.0,2.062,0.0,0.0,440219.0,12501714.0,0.0,0.0,18.0,588.0
2.041,7.143,89.796,0.0,0.0,1.020,0.0,12288.0,446025.0,12498914.0,0.0,0.0,18.0,659.0
2.062,5.155,91.753,0.0,0.0,1.031,0.0,0.0,447092.0,12694772.0,0.0,0.0,18.0,608.0
1.020,7.143,90.816,0.0,0.0,1.020,0.0,0.0,440950.0,12500238.0,0.0,0.0,19.0,585.0
2.105,6.316,90.526,0.0,0.0,1.053,0.0,0.0,442787.0,12500606.0,0.0,0.0,18.0,665.0
0.0,7.216,90.722,0.0,0.0,2.062,0.0,0.0,443359.0,12500024.0,0.0,0.0,18.0,589.0
0.0,7.216,91.753,0.0,0.0,1.031,0.0,0.0,447457.0,12696225.0,0.0,0.0,18.0,623.0
1.042,5.208,92.708,0.0,0.0,1.042,0.0,0.0,439911.0,12498908.0,0.0,0.0,19.0,570.0
1.031,8.247,90.722,0.0,0.0,0.0,0.0,0.0,446207.0,12500322.0,0.0,0.0,18.0,820.0
5.319,9.574,82.979,0.0,0.0,2.128,0.0,0.0,450769.0,12694054.0,0.0,0.0,23.0,952.0
1.053,4.211,92.632,0.0,0.0,2.105,0.0,0.0,434402.0,12326626.0,0.0,0.0,18.0,651.0
2.105,6.316,89.474,2.105,0.0,0.0,0.0,65536.0,451955.0,12673959.0,0.0,0.0,18.0,578.0
2.062,6.186,90.722,0.0,0.0,1.031,0.0,0.0,447962.0,12700727.0,0.0,0.0,18.0,687.0
0.0,8.163,90.816,0.0,0.0,1.020,0.0,0.0,439899.0,12494563.0,0.0,0.0,19.0,576.0
5.0,9.0,84.0,0.0,0.0,2.0,0.0,0.0,452519.0,12694973.0,0.0,0.0,18.0,615.0
1.042,5.208,92.708,0.0,0.0,1.042,0.0,0.0,440656.0,12500258.0,0.0,0.0,18.0,590.0
0.0,5.208,93.750,0.0,0.0,1.042,0.0,0.0,440121.0,12500135.0,0.0,0.0,18.0,570.0
2.062,7.216,89.691,0.0,0.0,1.031,0.0,0.0,445911.0,12500326.0,0.0,0.0,19.0,603.0
2.105,4.211,92.632,0.0,0.0,1.053,0.0,0.0,440628.0,12498823.0,0.0,0.0,18.0,543.0
1.042,6.250,90.625,0.0,0.0,2.083,0.0,0.0,440268.0,12500204.0,0.0,0.0,18.0,637.0
2.041,7.143,89.796,0.0,0.0,1.020,0.0,0.0,446892.0,12500211.0,0.0,0.0,18.0,609.0
1.031,5.155,91.753,0.0,0.0,2.062,0.0,0.0,447420.0,12699021.0,0.0,0.0,18.0,581.0
1.020,6.122,90.816,0.0,0.0,2.041,0.0,0.0,447319.0,12695008.0,0.0,0.0,18.0,665.0
2.0,7.0,88.0,0.0,0.0,3.0,0.0,0.0,446007.0,12500258.0,0.0,0.0,19.0,704.0
1.053,6.316,90.526,0.0,0.0,2.105,0.0,0.0,441019.0,12500058.0,0.0,0.0,18.0,609.0
1.042,5.208,92.708,0.0,0.0,1.042,0.0,0.0,440520.0,12500316.0,0.0,0.0,18.0,572.0
2.083,4.167,92.708,0.0,0.0,1.042,0.0,0.0,446050.0,12500307.0,0.0,0.0,18.0,671.0
1.031,6.186,91.753,0.0,0.0,1.031,0.0,0.0,440412.0,12498785.0,0.0,0.0,19.0,571.0
2.041,6.122,89.796,0.0,0.0,2.041,0.0,0.0,453822.0,12890888.0,0.0,0.0,18.0,608.0
2.041,9.184,87.755,0.0,0.0,1.020,0.0,0.0,442640.0,12499498.0,0.0,0.0,18.0,769.0
1.031,6.186,91.753,0.0,0.0,1.031,0.0,0.0,444002.0,12500070.0,0.0,0.0,18.0,644.0
4.0,6.0,89.0,0.0,0.0,1.0,0.0,0.0,440171.0,12500343.0,0.0,0.0,18.0,581.0
1.0,9.0,89.0,0.0,0.0,1.0,0.0,8192.0,447171.0,12694675.0,0.0,0.0,19.0,610.0
1.042,6.250,91.667,0.0,0.0,1.042,0.0,0.0,446267.0,12500339.0,0.0,0.0,18.0,662.0
0.0,9.184,88.776,0.0,0.0,2.041,0.0,0.0,440108.0,12500422.0,0.0,0.0,18.0,633.0
1.064,3.191,93.617,0.0,0.0,2.128,0.0,0.0,440439.0,12500014.0,0.0,0.0,18.0,561.0
3.093,5.155,89.691,0.0,0.0,2.062,0.0,0.0,446634.0,12500209.0,0.0,0.0,19.0,649.0
1.031,6.186,91.753,0.0,0.0,1.031,0.0,0.0,423407.0,12166337.0,0.0,0.0,18.0,757.0
