"Dstat 0.7.2 CSV output"
"Author:","Dag Wieers <dag@wieers.com>",,,,"URL:","http://dag.wieers.com/home-made/dstat/"
"Host:","Server1",,,,"User:","maki"
"Cmdline:","dstat --output server1_32_set_1_42.csv 1 70",,,,"Date:","20 Nov 2018 01:11:14 UTC"

"total cpu usage",,,,,,"dsk/total",,"net/total",,"paging",,"system",
"usr","sys","idl","wai","hiq","siq","read","writ","recv","send","in","out","int","csw"
7.206,14.452,75.328,1.034,0.0,1.980,21026.304,111766.183,0.0,0.0,0.0,0.0,18.759,1385.241
15.854,48.780,26.829,0.0,0.0,8.537,0.0,0.0,53453513.0,1730782.0,0.0,0.0,18.0,1040.0
16.471,49.412,22.353,0.0,0.0,11.765,0.0,0.0,53916888.0,1749133.0,0.0,0.0,19.0,1003.0
17.568,45.946,22.973,0.0,0.0,13.514,0.0,0.0,57311970.0,1855034.0,0.0,0.0,18.0,914.0
22.500,46.250,16.250,0.0,0.0,15.0,0.0,0.0,54664872.0,1767954.0,0.0,0.0,18.0,778.0
25.610,43.902,19.512,0.0,0.0,10.976,0.0,0.0,58023317.0,1883879.0,0.0,0.0,18.0,778.0
17.105,52.632,18.421,0.0,0.0,11.842,0.0,0.0,58864666.0,1906228.0,0.0,0.0,18.0,883.0
25.0,55.0,15.0,0.0,0.0,5.0,0.0,0.0,59928189.0,1941060.0,0.0,0.0,18.0,729.0
23.684,52.632,15.789,0.0,0.0,7.895,0.0,0.0,57057859.0,1855533.0,0.0,0.0,19.0,745.0
15.385,56.410,15.385,0.0,0.0,12.821,0.0,0.0,58447163.0,1892974.0,0.0,0.0,18.0,875.0
15.190,46.835,22.785,0.0,0.0,15.190,0.0,0.0,55891264.0,1808274.0,0.0,0.0,18.0,788.0
19.767,54.651,15.116,0.0,0.0,10.465,0.0,0.0,55832158.0,1805685.0,0.0,0.0,18.0,744.0
18.293,53.659,15.854,0.0,0.0,12.195,0.0,0.0,56988488.0,1851048.0,0.0,0.0,18.0,725.0
16.667,52.564,20.513,0.0,0.0,10.256,0.0,0.0,58622662.0,1901160.0,0.0,0.0,19.0,860.0
18.750,50.0,15.0,0.0,0.0,16.250,0.0,0.0,57347482.0,1862113.0,0.0,0.0,18.0,814.0
20.482,53.012,15.663,0.0,0.0,10.843,0.0,0.0,57683764.0,1869120.0,0.0,0.0,18.0,714.0
19.753,48.148,17.284,0.0,0.0,14.815,0.0,0.0,58231899.0,1882342.0,0.0,0.0,18.0,830.0
18.750,50.0,20.0,0.0,0.0,11.250,0.0,0.0,55368752.0,1797779.0,0.0,0.0,19.0,795.0
18.987,48.101,21.519,0.0,0.0,11.392,0.0,0.0,57116272.0,1849730.0,0.0,0.0,18.0,865.0
19.048,54.762,15.476,0.0,0.0,10.714,0.0,0.0,58540083.0,1897240.0,0.0,0.0,18.0,734.0
21.053,47.368,17.105,0.0,0.0,14.474,0.0,0.0,54600214.0,1773873.0,0.0,0.0,18.0,711.0
13.924,54.430,17.722,0.0,0.0,13.924,0.0,0.0,58311343.0,1886740.0,0.0,0.0,18.0,779.0
21.053,46.053,21.053,0.0,0.0,11.842,0.0,0.0,57397949.0,1861432.0,0.0,0.0,19.0,805.0
10.526,60.526,18.421,0.0,0.0,10.526,0.0,0.0,57642949.0,1870719.0,0.0,0.0,18.0,828.0
22.078,46.753,19.481,0.0,0.0,11.688,0.0,0.0,56997378.0,1846214.0,0.0,0.0,18.0,789.0
17.333,48.0,24.0,0.0,0.0,10.667,0.0,0.0,56229605.0,1820446.0,0.0,0.0,18.0,821.0
21.687,50.602,15.663,0.0,0.0,12.048,0.0,0.0,54562585.0,1772293.0,0.0,0.0,18.0,788.0
21.622,47.297,20.270,0.0,0.0,10.811,0.0,0.0,58301111.0,1889552.0,0.0,0.0,19.0,806.0
19.737,51.316,18.421,0.0,0.0,10.526,0.0,0.0,58333048.0,1887028.0,0.0,0.0,18.0,823.0
20.253,51.899,15.190,0.0,0.0,12.658,0.0,0.0,56557087.0,1828946.0,0.0,0.0,18.0,778.0
22.892,49.398,15.663,0.0,0.0,12.048,0.0,0.0,55921340.0,1818965.0,0.0,0.0,18.0,737.0
18.519,55.556,9.877,3.704,0.0,12.346,0.0,45056.0,58298656.0,1891014.0,0.0,0.0,18.0,755.0
15.476,52.381,20.238,0.0,0.0,11.905,0.0,40960.0,57887743.0,1870788.0,0.0,0.0,19.0,818.0
24.0,42.667,20.0,0.0,0.0,13.333,0.0,0.0,56584035.0,1836905.0,0.0,0.0,18.0,862.0
22.078,53.247,12.987,0.0,0.0,11.688,0.0,0.0,58541018.0,1896474.0,0.0,0.0,18.0,713.0
19.512,48.780,14.634,0.0,0.0,17.073,0.0,0.0,57606074.0,1864142.0,0.0,0.0,18.0,760.0
19.753,50.617,14.815,0.0,0.0,14.815,0.0,0.0,53882089.0,1750599.0,0.0,0.0,17.0,725.0
20.253,51.899,16.456,0.0,0.0,11.392,0.0,0.0,57291603.0,1853568.0,0.0,0.0,20.0,717.0
15.190,46.835,17.722,0.0,0.0,20.253,0.0,0.0,57053837.0,1856854.0,0.0,0.0,18.0,701.0
20.238,52.381,16.667,0.0,0.0,10.714,0.0,0.0,56752512.0,1836485.0,0.0,0.0,18.0,764.0
20.253,51.899,16.456,0.0,0.0,11.392,0.0,0.0,55557845.0,1799454.0,0.0,0.0,18.0,761.0
24.051,44.304,17.722,0.0,0.0,13.924,0.0,0.0,57304661.0,1855734.0,0.0,0.0,18.0,718.0
20.482,49.398,18.072,0.0,0.0,12.048,0.0,0.0,55689325.0,1805059.0,0.0,0.0,19.0,789.0
20.732,48.780,19.512,0.0,0.0,10.976,0.0,0.0,59560770.0,1930568.0,0.0,0.0,18.0,850.0
21.795,46.154,15.385,0.0,0.0,16.667,0.0,0.0,59383388.0,1922934.0,0.0,0.0,18.0,783.0
20.0,51.250,17.500,0.0,0.0,11.250,0.0,0.0,54522321.0,1768247.0,0.0,0.0,18.0,804.0
20.513,50.0,16.667,0.0,0.0,12.821,0.0,0.0,58354951.0,1889968.0,0.0,0.0,19.0,801.0
16.456,50.633,21.519,0.0,0.0,11.392,0.0,0.0,57036277.0,1843480.0,0.0,0.0,18.0,821.0
24.324,43.243,21.622,0.0,0.0,10.811,0.0,0.0,57854541.0,1881853.0,0.0,0.0,18.0,909.0
19.753,53.086,16.049,0.0,0.0,11.111,0.0,0.0,56452335.0,1829414.0,0.0,0.0,18.0,714.0
16.438,50.685,20.548,0.0,0.0,12.329,0.0,0.0,55229679.0,1788718.0,0.0,0.0,18.0,761.0
23.377,49.351,15.584,0.0,0.0,11.688,0.0,0.0,54436621.0,1769499.0,0.0,0.0,18.0,709.0
28.571,45.238,14.286,0.0,0.0,11.905,0.0,0.0,56993955.0,1840894.0,0.0,0.0,19.0,695.0
15.663,50.602,16.867,0.0,0.0,16.867,0.0,0.0,56970874.0,1847540.0,0.0,0.0,18.0,796.0
26.316,42.105,15.789,0.0,0.0,15.789,0.0,0.0,59045651.0,1912636.0,0.0,0.0,18.0,842.0
25.0,43.750,17.500,0.0,0.0,13.750,0.0,0.0,55111487.0,1790235.0,0.0,0.0,18.0,836.0
16.456,54.430,15.190,0.0,0.0,13.924,0.0,0.0,57574793.0,1863030.0,0.0,0.0,18.0,716.0
24.675,46.753,16.883,0.0,0.0,11.688,0.0,0.0,57982659.0,1879188.0,0.0,0.0,19.0,740.0
24.0,45.333,18.667,0.0,0.0,12.0,0.0,0.0,55610752.0,1803305.0,0.0,0.0,18.0,790.0
24.390,50.0,17.073,0.0,0.0,8.537,0.0,0.0,59491199.0,1926228.0,0.0,0.0,18.0,712.0
17.284,54.321,14.815,0.0,0.0,13.580,0.0,0.0,56353113.0,1825214.0,0.0,0.0,18.0,780.0
26.744,48.837,15.116,0.0,0.0,9.302,0.0,0.0,57206376.0,1856859.0,0.0,0.0,18.0,775.0
21.918,49.315,17.808,2.740,0.0,8.219,0.0,20480.0,56378994.0,1821854.0,0.0,0.0,19.0,843.0
17.949,48.718,19.231,0.0,0.0,14.103,0.0,8192.0,56686087.0,1840334.0,0.0,0.0,18.0,785.0
19.753,48.148,18.519,0.0,0.0,13.580,0.0,0.0,54081813.0,1756119.0,0.0,0.0,18.0,732.0
22.892,50.602,16.867,0.0,0.0,9.639,0.0,0.0,56659990.0,1835508.0,0.0,0.0,18.0,841.0
19.481,51.948,16.883,0.0,0.0,11.688,0.0,0.0,57403825.0,1858460.0,0.0,0.0,19.0,781.0
20.238,45.238,17.857,0.0,0.0,16.667,0.0,0.0,53609851.0,1741079.0,0.0,0.0,18.0,735.0
22.222,49.383,14.815,0.0,0.0,13.580,0.0,0.0,58717906.0,1902914.0,0.0,0.0,18.0,746.0
25.610,45.122,14.634,0.0,0.0,14.634,0.0,0.0,56630012.0,1832914.0,0.0,0.0,18.0,707.0
15.663,37.349,38.554,0.0,0.0,8.434,0.0,0.0,42119410.0,1376695.0,0.0,0.0,18.0,670.0
