"Dstat 0.7.2 CSV output"
"Author:","Dag Wieers <dag@wieers.com>",,,,"URL:","http://dag.wieers.com/home-made/dstat/"
"Host:","Server1",,,,"User:","maki"
"Cmdline:","dstat --output server1_32_get_2_42.csv 1 70",,,,"Date:","20 Nov 2018 07:33:13 UTC"

"total cpu usage",,,,,,"dsk/total",,"net/total",,"paging",,"system",
"usr","sys","idl","wai","hiq","siq","read","writ","recv","send","in","out","int","csw"
4.178,8.805,84.633,0.401,0.0,1.982,7988.607,28573.641,0.0,0.0,0.0,0.0,18.398,830.981
2.083,5.208,91.667,0.0,0.0,1.042,0.0,0.0,445497.0,12587663.0,0.0,0.0,19.0,559.0
1.031,7.216,90.722,0.0,0.0,1.031,0.0,0.0,446973.0,12500748.0,0.0,0.0,18.0,448.0
0.0,5.208,93.750,0.0,0.0,1.042,0.0,0.0,441252.0,12500043.0,0.0,0.0,18.0,356.0
0.0,6.122,91.837,0.0,0.0,2.041,0.0,0.0,447972.0,12694930.0,0.0,0.0,18.0,371.0
3.093,8.247,88.660,0.0,0.0,0.0,0.0,0.0,447000.0,12499227.0,0.0,0.0,18.0,405.0
0.0,6.061,91.919,0.0,0.0,2.020,0.0,0.0,440931.0,12500431.0,0.0,0.0,19.0,313.0
0.0,6.122,91.837,0.0,0.0,2.041,0.0,0.0,440781.0,12500233.0,0.0,0.0,18.0,314.0
3.030,5.051,89.899,0.0,0.0,2.020,0.0,0.0,445484.0,12499978.0,0.0,0.0,18.0,420.0
2.020,7.071,89.899,0.0,0.0,1.010,0.0,0.0,440851.0,12500364.0,0.0,0.0,18.0,316.0
1.031,7.216,91.753,0.0,0.0,0.0,0.0,0.0,440228.0,12500152.0,0.0,0.0,18.0,352.0
1.042,5.208,93.750,0.0,0.0,0.0,0.0,0.0,440585.0,12499048.0,0.0,0.0,19.0,303.0
2.041,6.122,90.816,0.0,0.0,1.020,0.0,0.0,445786.0,12500647.0,0.0,0.0,18.0,327.0
1.010,7.071,90.909,0.0,0.0,1.010,0.0,0.0,440125.0,12498970.0,0.0,0.0,18.0,281.0
1.020,6.122,91.837,0.0,0.0,1.020,0.0,0.0,440333.0,12500519.0,0.0,0.0,18.0,313.0
2.041,6.122,88.776,0.0,0.0,3.061,0.0,0.0,446432.0,12500551.0,0.0,0.0,18.0,405.0
1.010,6.061,91.919,0.0,0.0,1.010,0.0,0.0,441471.0,12499989.0,0.0,0.0,19.0,308.0
2.041,4.082,92.857,0.0,0.0,1.020,0.0,0.0,440219.0,12498856.0,0.0,0.0,18.0,298.0
2.041,6.122,90.816,0.0,0.0,1.020,0.0,0.0,446102.0,12500455.0,0.0,0.0,18.0,324.0
0.0,6.122,92.857,0.0,0.0,1.020,0.0,0.0,439870.0,12500392.0,0.0,0.0,18.0,298.0
1.053,5.263,92.632,0.0,0.0,1.053,0.0,0.0,434098.0,12315315.0,0.0,0.0,18.0,329.0
1.031,5.155,91.753,0.0,0.0,2.062,0.0,0.0,448436.0,12527198.0,0.0,0.0,19.0,325.0
2.020,4.040,91.919,0.0,0.0,2.020,0.0,0.0,445876.0,12657971.0,0.0,0.0,18.0,298.0
0.0,7.216,91.753,0.0,0.0,1.031,0.0,0.0,447225.0,12694568.0,0.0,0.0,18.0,318.0
2.041,4.082,90.816,0.0,0.0,3.061,0.0,0.0,446081.0,12500402.0,0.0,0.0,18.0,315.0
1.0,8.0,89.0,0.0,0.0,2.0,0.0,0.0,440973.0,12500171.0,0.0,0.0,18.0,309.0
2.970,5.941,87.129,2.970,0.0,0.990,0.0,40960.0,440602.0,12500182.0,0.0,0.0,19.0,314.0
1.053,5.263,92.632,0.0,0.0,1.053,0.0,0.0,446669.0,12498852.0,0.0,0.0,18.0,316.0
1.020,5.102,92.857,0.0,0.0,1.020,0.0,0.0,440428.0,12500206.0,0.0,0.0,18.0,281.0
1.020,5.102,91.837,0.0,0.0,2.041,0.0,0.0,441005.0,12500320.0,0.0,0.0,18.0,327.0
2.105,5.263,91.579,0.0,0.0,1.053,0.0,0.0,445944.0,12500237.0,0.0,0.0,18.0,359.0
1.020,6.122,91.837,0.0,0.0,1.020,0.0,4096.0,441018.0,12499743.0,0.0,0.0,19.0,335.0
0.0,6.122,92.857,0.0,0.0,1.020,0.0,0.0,446969.0,12696287.0,0.0,0.0,18.0,317.0
2.041,6.122,90.816,0.0,0.0,1.020,0.0,0.0,445999.0,12498759.0,0.0,0.0,18.0,336.0
0.0,5.155,93.814,0.0,0.0,1.031,0.0,0.0,440164.0,12500199.0,0.0,0.0,18.0,289.0
2.062,5.155,90.722,0.0,0.0,2.062,0.0,0.0,440636.0,12500116.0,0.0,0.0,19.0,321.0
1.020,6.122,90.816,0.0,0.0,2.041,0.0,0.0,443607.0,12500805.0,0.0,0.0,18.0,310.0
1.031,6.186,91.753,0.0,0.0,1.031,0.0,0.0,443373.0,12499945.0,0.0,0.0,18.0,310.0
2.020,5.051,90.909,0.0,0.0,2.020,0.0,0.0,440475.0,12498763.0,0.0,0.0,18.0,308.0
2.020,6.061,90.909,0.0,0.0,1.010,0.0,0.0,440557.0,12500209.0,0.0,0.0,18.0,298.0
4.124,5.155,89.691,0.0,0.0,1.031,0.0,0.0,445433.0,12500359.0,0.0,0.0,19.0,384.0
0.0,7.143,92.857,0.0,0.0,0.0,0.0,0.0,441475.0,12500066.0,0.0,0.0,18.0,304.0
2.062,5.155,92.784,0.0,0.0,0.0,0.0,0.0,441211.0,12499956.0,0.0,0.0,18.0,294.0
0.0,4.167,93.750,0.0,0.0,2.083,0.0,0.0,446268.0,12500534.0,0.0,0.0,18.0,359.0
2.083,4.167,93.750,0.0,0.0,0.0,0.0,0.0,440770.0,12500071.0,0.0,0.0,18.0,297.0
2.020,7.071,88.889,0.0,0.0,2.020,0.0,0.0,440054.0,12498968.0,0.0,0.0,18.0,338.0
1.042,6.250,91.667,0.0,0.0,1.042,0.0,0.0,446581.0,12500662.0,0.0,0.0,19.0,343.0
1.031,5.155,93.814,0.0,0.0,0.0,0.0,0.0,440891.0,12500268.0,0.0,0.0,18.0,290.0
0.0,5.102,92.857,0.0,0.0,2.041,0.0,0.0,440139.0,12498979.0,0.0,0.0,18.0,303.0
1.031,6.186,92.784,0.0,0.0,0.0,0.0,0.0,445870.0,12500219.0,0.0,0.0,18.0,342.0
0.0,6.250,91.667,0.0,0.0,2.083,0.0,0.0,441017.0,12500155.0,0.0,0.0,18.0,360.0
1.020,7.143,91.837,0.0,0.0,0.0,0.0,0.0,448337.0,12701941.0,0.0,0.0,19.0,300.0
3.061,4.082,90.816,0.0,0.0,2.041,0.0,0.0,452460.0,12688680.0,0.0,0.0,18.0,348.0
1.031,6.186,91.753,0.0,0.0,1.031,0.0,0.0,447040.0,12696091.0,0.0,0.0,18.0,289.0
1.0,7.0,90.0,0.0,0.0,2.0,0.0,0.0,440323.0,12498563.0,0.0,0.0,18.0,309.0
4.211,11.579,82.105,0.0,0.0,2.105,0.0,0.0,455443.0,12695708.0,0.0,0.0,24.0,497.0
1.031,5.155,89.691,3.093,0.0,1.031,0.0,28672.0,440471.0,12500014.0,0.0,0.0,18.0,353.0
0.0,3.125,93.750,0.0,0.0,3.125,0.0,32768.0,440290.0,12500147.0,0.0,0.0,18.0,309.0
3.030,6.061,90.909,0.0,0.0,0.0,0.0,0.0,446009.0,12502499.0,0.0,0.0,18.0,332.0
1.031,6.186,91.753,0.0,0.0,1.031,0.0,0.0,440398.0,12496711.0,0.0,0.0,18.0,329.0
2.062,5.155,90.722,0.0,0.0,2.062,0.0,0.0,440122.0,12500233.0,0.0,0.0,19.0,349.0
0.0,5.155,92.784,0.0,0.0,2.062,0.0,0.0,441713.0,12501194.0,0.0,0.0,18.0,313.0
1.020,7.143,89.796,0.0,0.0,2.041,0.0,8192.0,446366.0,12498827.0,0.0,0.0,18.0,317.0
1.020,4.082,91.837,0.0,0.0,3.061,0.0,0.0,440557.0,12500319.0,0.0,0.0,18.0,296.0
1.020,6.122,92.857,0.0,0.0,0.0,0.0,0.0,440689.0,12500367.0,0.0,0.0,18.0,282.0
3.125,5.208,90.625,0.0,0.0,1.042,0.0,0.0,446646.0,12500287.0,0.0,0.0,19.0,355.0
2.970,5.941,88.119,0.0,0.0,2.970,0.0,0.0,454076.0,12889746.0,0.0,0.0,18.0,293.0
2.0,6.0,91.0,0.0,0.0,1.0,0.0,0.0,441381.0,12499735.0,0.0,0.0,18.0,346.0
0.990,8.911,88.119,0.0,0.0,1.980,0.0,0.0,446118.0,12500435.0,0.0,0.0,18.0,379.0
1.010,6.061,90.909,0.0,0.0,2.020,0.0,0.0,440407.0,12500417.0,0.0,0.0,18.0,302.0
1.010,6.061,91.919,0.0,0.0,1.010,0.0,0.0,340340.0,9792463.0,0.0,0.0,19.0,296.0
