"Dstat 0.7.2 CSV output"
"Author:","Dag Wieers <dag@wieers.com>",,,,"URL:","http://dag.wieers.com/home-made/dstat/"
"Host:","Server1",,,,"User:","maki"
"Cmdline:","dstat --output server1_32_set_1_22.csv 1 70",,,,"Date:","20 Nov 2018 01:09:02 UTC"

"total cpu usage",,,,,,"dsk/total",,"net/total",,"paging",,"system",
"usr","sys","idl","wai","hiq","siq","read","writ","recv","send","in","out","int","csw"
7.142,14.299,75.596,1.052,0.0,1.911,21408.802,113755.308,0.0,0.0,0.0,0.0,18.769,1401.960
19.277,36.145,36.145,0.0,0.0,8.434,0.0,0.0,47000772.0,1527949.0,0.0,0.0,19.0,1439.0
18.293,47.561,23.171,0.0,0.0,10.976,0.0,0.0,55735423.0,1800220.0,0.0,0.0,18.0,899.0
21.519,45.570,20.253,0.0,0.0,12.658,0.0,0.0,59025004.0,1913768.0,0.0,0.0,18.0,845.0
19.753,54.321,18.519,0.0,0.0,7.407,0.0,0.0,56652776.0,1837399.0,0.0,0.0,18.0,902.0
12.658,56.962,21.519,0.0,0.0,8.861,0.0,0.0,55695965.0,1803842.0,0.0,0.0,19.0,840.0
12.0,56.0,22.667,0.0,0.0,9.333,0.0,0.0,58323488.0,1892554.0,0.0,0.0,18.0,889.0
24.706,45.882,15.294,0.0,0.0,14.118,0.0,0.0,55825341.0,1808767.0,0.0,0.0,18.0,824.0
14.815,50.617,18.519,0.0,0.0,16.049,0.0,4096.0,56742445.0,1839774.0,0.0,0.0,18.0,735.0
23.077,48.718,17.949,0.0,0.0,10.256,0.0,0.0,58462570.0,1891500.0,0.0,0.0,18.0,811.0
20.988,49.383,16.049,0.0,0.0,13.580,0.0,0.0,55061916.0,1789453.0,0.0,0.0,19.0,904.0
23.077,50.0,20.513,0.0,0.0,6.410,0.0,0.0,59205975.0,1918734.0,0.0,0.0,18.0,750.0
20.0,50.588,15.294,0.0,0.0,14.118,0.0,0.0,56292762.0,1817514.0,0.0,0.0,18.0,734.0
25.316,44.304,17.722,0.0,0.0,12.658,0.0,0.0,57534941.0,1871205.0,0.0,0.0,18.0,796.0
18.987,49.367,18.987,0.0,0.0,12.658,0.0,0.0,58709107.0,1905154.0,0.0,0.0,18.0,787.0
23.077,43.590,20.513,0.0,0.0,12.821,0.0,0.0,53835941.0,1738526.0,0.0,0.0,19.0,840.0
24.051,50.633,15.190,0.0,0.0,10.127,0.0,0.0,57387895.0,1863233.0,0.0,0.0,18.0,752.0
21.333,52.0,17.333,0.0,0.0,9.333,0.0,0.0,58013236.0,1880860.0,0.0,0.0,18.0,786.0
18.293,52.439,15.854,0.0,0.0,13.415,0.0,0.0,58735351.0,1900222.0,0.0,0.0,18.0,805.0
20.253,51.899,17.722,0.0,0.0,10.127,0.0,0.0,57161781.0,1851534.0,0.0,0.0,18.0,689.0
27.273,44.156,16.883,0.0,0.0,11.688,0.0,0.0,53474046.0,1735469.0,0.0,0.0,18.0,749.0
23.684,44.737,18.421,0.0,0.0,13.158,0.0,0.0,56802990.0,1840754.0,0.0,0.0,19.0,786.0
26.744,45.349,18.605,0.0,0.0,9.302,0.0,0.0,56893842.0,1840548.0,0.0,0.0,18.0,775.0
21.519,45.570,16.456,0.0,0.0,16.456,0.0,81920.0,53087819.0,1720587.0,0.0,0.0,18.0,845.0
18.391,54.023,12.644,0.0,0.0,14.943,0.0,0.0,55082378.0,1791466.0,0.0,0.0,18.0,594.0
20.253,48.101,18.987,0.0,0.0,12.658,0.0,0.0,56103873.0,1817740.0,0.0,0.0,19.0,857.0
24.691,50.617,16.049,0.0,0.0,8.642,0.0,0.0,55965353.0,1816905.0,0.0,0.0,18.0,777.0
17.857,52.381,16.667,0.0,0.0,13.095,0.0,0.0,56916351.0,1842780.0,0.0,0.0,18.0,718.0
27.160,44.444,17.284,0.0,0.0,11.111,0.0,0.0,58024394.0,1880868.0,0.0,0.0,18.0,747.0
20.0,52.0,16.0,0.0,0.0,12.0,0.0,0.0,56583595.0,1835225.0,0.0,0.0,19.0,769.0
18.182,50.649,15.584,0.0,0.0,15.584,0.0,0.0,55920113.0,1806036.0,0.0,0.0,18.0,799.0
20.238,47.619,16.667,0.0,0.0,15.476,0.0,0.0,56801133.0,1844600.0,0.0,0.0,18.0,733.0
28.235,44.706,16.471,0.0,0.0,10.588,0.0,0.0,56485550.0,1834953.0,0.0,0.0,18.0,793.0
19.737,46.053,17.105,0.0,0.0,17.105,0.0,16384.0,56093747.0,1813594.0,0.0,0.0,18.0,795.0
21.250,47.500,17.500,0.0,0.0,13.750,0.0,0.0,56668773.0,1844394.0,0.0,0.0,18.0,781.0
25.333,44.0,17.333,0.0,0.0,13.333,0.0,0.0,56242345.0,1820525.0,0.0,0.0,18.0,838.0
17.722,44.304,21.519,0.0,0.0,16.456,0.0,0.0,54836030.0,1772648.0,0.0,0.0,19.0,832.0
18.750,48.750,17.500,0.0,0.0,15.0,0.0,0.0,53524216.0,1735016.0,0.0,0.0,18.0,795.0
26.582,44.304,18.987,0.0,0.0,10.127,0.0,0.0,56900834.0,1849719.0,0.0,0.0,18.0,720.0
26.582,43.038,17.722,0.0,0.0,12.658,0.0,0.0,56742523.0,1834948.0,0.0,0.0,19.0,814.0
19.737,47.368,17.105,0.0,0.0,15.789,0.0,0.0,58259875.0,1890174.0,0.0,0.0,18.0,787.0
19.231,51.282,14.103,0.0,0.0,15.385,0.0,0.0,56076589.0,1818359.0,0.0,0.0,18.0,802.0
20.732,48.780,17.073,0.0,0.0,13.415,0.0,0.0,59089729.0,1915646.0,0.0,0.0,18.0,718.0
18.667,48.0,18.667,0.0,0.0,14.667,0.0,0.0,57256804.0,1853000.0,0.0,0.0,18.0,808.0
21.519,46.835,20.253,0.0,0.0,11.392,0.0,0.0,55289922.0,1793228.0,0.0,0.0,18.0,803.0
20.513,43.590,23.077,0.0,0.0,12.821,0.0,0.0,55360482.0,1794699.0,0.0,0.0,19.0,799.0
22.500,43.750,18.750,0.0,0.0,15.0,0.0,0.0,54802590.0,1775032.0,0.0,0.0,18.0,781.0
19.231,46.154,17.949,0.0,0.0,16.667,0.0,0.0,56819958.0,1842994.0,0.0,0.0,18.0,768.0
25.287,45.977,14.943,0.0,0.0,13.793,0.0,0.0,55451076.0,1797359.0,0.0,0.0,18.0,776.0
20.0,49.333,20.0,0.0,0.0,10.667,0.0,0.0,57113843.0,1850554.0,0.0,0.0,19.0,800.0
26.829,48.780,17.073,0.0,0.0,7.317,0.0,0.0,55212993.0,1787932.0,0.0,0.0,18.0,676.0
23.750,42.500,20.0,0.0,0.0,13.750,0.0,0.0,51922235.0,1686331.0,0.0,0.0,18.0,835.0
18.919,51.351,20.270,0.0,0.0,9.459,0.0,0.0,56621223.0,1832840.0,0.0,0.0,18.0,783.0
22.500,43.750,18.750,1.250,0.0,13.750,0.0,73728.0,54649965.0,1775868.0,0.0,0.0,18.0,712.0
23.457,46.914,17.284,0.0,0.0,12.346,0.0,4096.0,53367938.0,1727511.0,0.0,0.0,19.0,743.0
18.987,51.899,21.519,0.0,0.0,7.595,0.0,0.0,54688850.0,1775094.0,0.0,0.0,18.0,762.0
21.622,52.703,18.919,0.0,0.0,6.757,0.0,0.0,54623998.0,1769000.0,0.0,0.0,18.0,714.0
26.250,43.750,16.250,0.0,0.0,13.750,0.0,0.0,55632689.0,1804919.0,0.0,0.0,18.0,722.0
18.987,55.696,18.987,0.0,0.0,6.329,0.0,0.0,57502997.0,1860008.0,0.0,0.0,18.0,717.0
22.078,44.156,20.779,0.0,0.0,12.987,0.0,0.0,55998655.0,1822694.0,0.0,0.0,19.0,788.0
21.795,44.872,19.231,0.0,0.0,14.103,0.0,0.0,55727822.0,1800159.0,0.0,0.0,18.0,865.0
20.253,44.304,15.190,0.0,0.0,20.253,0.0,0.0,56266816.0,1822414.0,0.0,0.0,18.0,757.0
21.795,53.846,15.385,0.0,0.0,8.974,0.0,0.0,56638551.0,1836694.0,0.0,0.0,18.0,737.0
23.457,50.617,13.580,0.0,0.0,12.346,0.0,0.0,54850358.0,1780625.0,0.0,0.0,18.0,702.0
22.500,46.250,17.500,0.0,0.0,13.750,0.0,8192.0,55626961.0,1802328.0,0.0,0.0,19.0,763.0
18.421,52.632,15.789,0.0,0.0,13.158,0.0,0.0,56638591.0,1834100.0,0.0,0.0,18.0,736.0
20.513,52.564,17.949,0.0,0.0,8.974,0.0,0.0,52944770.0,1715413.0,0.0,0.0,18.0,862.0
23.077,48.718,17.949,0.0,0.0,10.256,0.0,0.0,55393480.0,1799314.0,0.0,0.0,18.0,687.0
26.506,45.783,15.663,0.0,0.0,12.048,0.0,0.0,58916770.0,1905294.0,0.0,0.0,18.0,760.0
20.779,48.052,14.286,0.0,0.0,16.883,0.0,0.0,56501789.0,1831305.0,0.0,0.0,19.0,779.0
17.857,35.714,38.095,0.0,0.0,8.333,0.0,0.0,46557582.0,1516588.0,0.0,0.0,18.0,654.0
