"Dstat 0.7.2 CSV output"
"Author:","Dag Wieers <dag@wieers.com>",,,,"URL:","http://dag.wieers.com/home-made/dstat/"
"Host:","Server1",,,,"User:","maki"
"Cmdline:","dstat --output server1_16_get_2_2.csv 1 70",,,,"Date:","20 Nov 2018 03:56:14 UTC"

"total cpu usage",,,,,,"dsk/total",,"net/total",,"paging",,"system",
"usr","sys","idl","wai","hiq","siq","read","writ","recv","send","in","out","int","csw"
6.578,13.865,76.151,0.494,0.0,2.911,9000.214,48770.741,0.0,0.0,0.0,0.0,18.484,1117.563
2.105,9.474,86.316,0.0,0.0,2.105,0.0,0.0,460730.0,12904502.0,0.0,0.0,19.0,2198.0
1.099,3.297,95.604,0.0,0.0,0.0,0.0,0.0,439868.0,12500304.0,0.0,0.0,18.0,1798.0
2.041,7.143,88.776,0.0,0.0,2.041,0.0,0.0,439799.0,12500324.0,0.0,0.0,18.0,1670.0
1.064,5.319,91.489,0.0,0.0,2.128,0.0,0.0,445293.0,12498849.0,0.0,0.0,18.0,1693.0
2.041,9.184,84.694,0.0,0.0,4.082,0.0,0.0,446340.0,12696347.0,0.0,0.0,18.0,1711.0
3.158,5.263,89.474,0.0,0.0,2.105,0.0,0.0,439908.0,12500259.0,0.0,0.0,19.0,1742.0
1.031,7.216,88.660,0.0,0.0,3.093,0.0,0.0,445454.0,12498933.0,0.0,0.0,18.0,1654.0
1.042,6.250,90.625,0.0,0.0,2.083,0.0,0.0,446613.0,12696368.0,0.0,0.0,18.0,1641.0
2.083,6.250,89.583,0.0,0.0,2.083,0.0,0.0,439580.0,12499003.0,0.0,0.0,18.0,1526.0
6.316,5.263,86.316,0.0,0.0,2.105,0.0,0.0,445509.0,12498908.0,0.0,0.0,18.0,1535.0
0.0,6.452,91.398,0.0,0.0,2.151,0.0,0.0,446629.0,12696309.0,0.0,0.0,19.0,1639.0
2.062,7.216,87.629,0.0,0.0,3.093,0.0,0.0,439968.0,12500181.0,0.0,0.0,18.0,1758.0
1.075,4.301,90.323,0.0,0.0,4.301,0.0,0.0,445324.0,12500344.0,0.0,0.0,18.0,1607.0
1.010,10.101,87.879,0.0,0.0,1.010,0.0,0.0,439829.0,12500278.0,0.0,0.0,18.0,1597.0
3.125,8.333,87.500,0.0,0.0,1.042,0.0,0.0,439694.0,12500298.0,0.0,0.0,18.0,1542.0
3.125,7.292,87.500,0.0,0.0,2.083,0.0,0.0,452329.0,12695036.0,0.0,0.0,19.0,1586.0
1.031,7.216,89.691,0.0,0.0,2.062,0.0,0.0,439737.0,12503272.0,0.0,0.0,18.0,1508.0
1.010,8.081,88.889,0.0,0.0,2.020,0.0,0.0,439653.0,12497327.0,0.0,0.0,18.0,1575.0
3.125,8.333,88.542,0.0,0.0,0.0,0.0,0.0,445400.0,12498842.0,0.0,0.0,18.0,1761.0
1.064,7.447,89.362,0.0,0.0,2.128,0.0,4096.0,439672.0,12500278.0,0.0,0.0,18.0,1541.0
2.062,7.216,89.691,0.0,0.0,1.031,0.0,0.0,439726.0,12500174.0,0.0,0.0,19.0,1453.0
2.105,6.316,89.474,0.0,0.0,2.105,0.0,0.0,445640.0,12499695.0,0.0,0.0,18.0,1490.0
2.062,7.216,78.351,11.340,0.0,1.031,0.0,40960.0,439806.0,12500330.0,0.0,0.0,18.0,1561.0
1.031,7.216,89.691,0.0,0.0,2.062,0.0,0.0,439776.0,12498836.0,0.0,0.0,18.0,1486.0
3.191,6.383,87.234,0.0,0.0,3.191,0.0,8192.0,445320.0,12500344.0,0.0,0.0,19.0,1453.0
0.0,6.452,92.473,0.0,0.0,1.075,0.0,0.0,437131.0,12456153.0,0.0,0.0,18.0,1510.0
3.030,8.081,85.859,0.0,0.0,3.030,0.0,0.0,442427.0,12544375.0,0.0,0.0,18.0,1651.0
2.128,5.319,90.426,0.0,0.0,2.128,0.0,0.0,445403.0,12500425.0,0.0,0.0,18.0,1703.0
0.971,10.680,85.437,0.0,0.0,2.913,0.0,0.0,439761.0,12498899.0,0.0,0.0,18.0,1781.0
2.105,8.421,88.421,0.0,0.0,1.053,0.0,4096.0,439760.0,12500364.0,0.0,0.0,19.0,1589.0
2.151,4.301,91.398,0.0,0.0,2.151,0.0,0.0,445428.0,12498862.0,0.0,0.0,18.0,1642.0
1.053,6.316,91.579,0.0,0.0,1.053,0.0,0.0,439618.0,12501686.0,0.0,0.0,18.0,1709.0
3.093,6.186,89.691,0.0,0.0,1.031,0.0,0.0,439670.0,12498810.0,0.0,0.0,18.0,1686.0
1.099,4.396,94.505,0.0,0.0,0.0,0.0,0.0,445443.0,12500385.0,0.0,0.0,18.0,1680.0
3.093,8.247,85.567,0.0,0.0,3.093,0.0,0.0,446618.0,12696374.0,0.0,0.0,19.0,1638.0
0.0,8.333,90.625,0.0,0.0,1.042,0.0,4096.0,446589.0,12694878.0,0.0,0.0,18.0,1533.0
3.030,8.081,85.859,0.0,0.0,3.030,0.0,0.0,444584.0,12500367.0,0.0,0.0,18.0,1450.0
1.031,8.247,88.660,0.0,0.0,2.062,0.0,0.0,440376.0,12498960.0,0.0,0.0,18.0,1635.0
1.053,6.316,91.579,0.0,0.0,1.053,0.0,0.0,446605.0,12696363.0,0.0,0.0,18.0,1764.0
3.093,8.247,85.567,0.0,0.0,3.093,0.0,0.0,445541.0,12500405.0,0.0,0.0,19.0,1604.0
2.062,7.216,88.660,0.0,0.0,2.062,0.0,0.0,439714.0,12498854.0,0.0,0.0,18.0,1705.0
2.151,4.301,93.548,0.0,0.0,0.0,0.0,0.0,440558.0,12524450.0,0.0,0.0,18.0,1700.0
2.174,5.435,92.391,0.0,0.0,0.0,0.0,0.0,451631.0,12670892.0,0.0,0.0,18.0,1694.0
0.0,6.316,91.579,0.0,0.0,2.105,0.0,0.0,439697.0,12500301.0,0.0,0.0,18.0,1556.0
2.041,7.143,86.735,0.0,0.0,4.082,0.0,0.0,439679.0,12500285.0,0.0,0.0,19.0,1541.0
2.105,7.368,89.474,0.0,0.0,1.053,0.0,0.0,445155.0,12499889.0,0.0,0.0,18.0,1684.0
1.020,8.163,87.755,0.0,0.0,3.061,0.0,0.0,440053.0,12499527.0,0.0,0.0,18.0,1749.0
1.053,5.263,92.632,0.0,0.0,1.053,0.0,0.0,439751.0,12500355.0,0.0,0.0,18.0,1629.0
0.0,8.247,88.660,0.0,0.0,3.093,0.0,0.0,439812.0,12500340.0,0.0,0.0,19.0,1653.0
4.211,7.368,87.368,0.0,0.0,1.053,0.0,0.0,445481.0,12498956.0,0.0,0.0,18.0,1747.0
2.062,6.186,88.660,0.0,0.0,3.093,0.0,0.0,439668.0,12500274.0,0.0,0.0,18.0,1756.0
4.167,10.417,82.292,0.0,0.0,3.125,0.0,0.0,441918.0,12499829.0,0.0,0.0,23.0,1682.0
4.255,5.319,89.362,0.0,0.0,1.064,0.0,0.0,445399.0,12500339.0,0.0,0.0,18.0,1699.0
1.053,5.263,88.421,3.158,0.0,2.105,0.0,28672.0,439780.0,12500307.0,0.0,0.0,19.0,1562.0
1.031,9.278,86.598,0.0,0.0,3.093,0.0,0.0,439699.0,12500304.0,0.0,0.0,18.0,1690.0
4.211,7.368,87.368,0.0,0.0,1.053,0.0,32768.0,445456.0,12498933.0,0.0,0.0,18.0,1494.0
0.0,7.292,90.625,0.0,0.0,2.083,0.0,0.0,439781.0,12500305.0,0.0,0.0,18.0,1656.0
1.064,5.319,91.489,0.0,0.0,2.128,0.0,0.0,439761.0,12500288.0,0.0,0.0,18.0,1685.0
2.041,8.163,85.714,0.0,0.0,4.082,0.0,0.0,445464.0,12500406.0,0.0,0.0,18.0,1674.0
1.087,8.696,90.217,0.0,0.0,0.0,0.0,0.0,449016.0,12766031.0,0.0,0.0,19.0,1737.0
1.010,9.091,86.869,0.0,0.0,3.030,0.0,0.0,439807.0,12498867.0,0.0,0.0,18.0,1543.0
1.053,7.368,90.526,0.0,0.0,1.053,0.0,0.0,445371.0,12500391.0,0.0,0.0,18.0,1768.0
2.128,5.319,92.553,0.0,0.0,0.0,0.0,0.0,439696.0,12500301.0,0.0,0.0,18.0,1577.0
0.0,8.163,89.796,0.0,0.0,2.041,0.0,0.0,439265.0,12500289.0,0.0,0.0,19.0,1665.0
6.186,7.216,82.474,0.0,0.0,4.124,0.0,0.0,452575.0,12693604.0,0.0,0.0,18.0,1627.0
3.0,6.0,86.0,0.0,0.0,5.0,0.0,0.0,439692.0,12501763.0,0.0,0.0,18.0,1603.0
1.053,6.316,90.526,0.0,0.0,2.105,0.0,0.0,439675.0,12498811.0,0.0,0.0,18.0,1546.0
3.922,10.784,82.353,0.0,0.0,2.941,0.0,0.0,445506.0,12500373.0,0.0,0.0,18.0,1746.0
2.041,7.143,88.776,0.0,0.0,2.041,0.0,0.0,446569.0,12694857.0,0.0,0.0,19.0,1572.0
2.151,4.301,93.548,0.0,0.0,0.0,0.0,0.0,341716.0,9742864.0,0.0,0.0,18.0,1313.0
