"Dstat 0.7.2 CSV output"
"Author:","Dag Wieers <dag@wieers.com>",,,,"URL:","http://dag.wieers.com/home-made/dstat/"
"Host:","Server1",,,,"User:","maki"
"Cmdline:","dstat --output server1_64_get_4_42.csv 1 70",,,,"Date:","20 Nov 2018 07:02:09 UTC"

"total cpu usage",,,,,,"dsk/total",,"net/total",,"paging",,"system",
"usr","sys","idl","wai","hiq","siq","read","writ","recv","send","in","out","int","csw"
4.364,9.161,84.020,0.418,0.0,2.038,8509.244,30330.498,0.0,0.0,0.0,0.0,18.406,846.826
1.031,5.155,91.753,0.0,0.0,2.062,0.0,0.0,452447.0,12808125.0,0.0,0.0,18.0,596.0
0.0,6.316,92.632,0.0,0.0,1.053,0.0,0.0,452552.0,12777542.0,0.0,0.0,18.0,449.0
1.010,7.071,88.889,0.0,0.0,3.030,0.0,0.0,471484.0,13255421.0,0.0,0.0,18.0,352.0
2.041,7.143,87.755,0.0,0.0,3.061,0.0,0.0,450116.0,12606976.0,0.0,0.0,18.0,379.0
1.0,7.0,90.0,0.0,0.0,2.0,0.0,0.0,450534.0,12780320.0,0.0,0.0,19.0,328.0
0.0,5.263,92.632,0.0,0.0,2.105,0.0,0.0,465326.0,13097834.0,0.0,0.0,18.0,352.0
2.062,4.124,90.722,0.0,0.0,3.093,0.0,0.0,452077.0,12774565.0,0.0,0.0,18.0,316.0
1.053,4.211,93.684,0.0,0.0,1.053,0.0,0.0,455626.0,12880152.0,0.0,0.0,18.0,312.0
1.031,7.216,89.691,0.0,0.0,2.062,0.0,0.0,452362.0,12828933.0,0.0,0.0,18.0,352.0
1.053,5.263,92.632,0.0,0.0,1.053,0.0,0.0,458722.0,12907874.0,0.0,0.0,19.0,322.0
0.0,4.124,76.289,16.495,0.0,3.093,0.0,40960.0,453622.0,12861776.0,0.0,0.0,18.0,341.0
0.0,5.155,91.753,0.0,0.0,3.093,0.0,0.0,462362.0,12862670.0,0.0,0.0,18.0,319.0
2.062,6.186,89.691,0.0,0.0,2.062,0.0,0.0,458967.0,12921014.0,0.0,0.0,18.0,332.0
3.061,7.143,88.776,0.0,0.0,1.020,0.0,0.0,449003.0,12616932.0,0.0,0.0,19.0,362.0
2.020,6.061,89.899,0.0,0.0,2.020,0.0,0.0,446730.0,12672106.0,0.0,0.0,18.0,321.0
1.075,3.226,94.624,0.0,0.0,1.075,0.0,0.0,457729.0,12818604.0,0.0,0.0,18.0,354.0
0.0,5.102,91.837,0.0,0.0,3.061,0.0,0.0,447883.0,12723314.0,0.0,0.0,18.0,324.0
1.020,5.102,91.837,0.0,0.0,2.041,0.0,0.0,452132.0,12740982.0,0.0,0.0,18.0,341.0
0.0,7.216,89.691,0.0,0.0,3.093,0.0,0.0,455525.0,13030199.0,0.0,0.0,18.0,423.0
1.010,6.061,89.899,0.0,0.0,3.030,0.0,0.0,455792.0,12626241.0,0.0,0.0,19.0,354.0
2.041,6.122,90.816,0.0,0.0,1.020,0.0,0.0,455782.0,13058271.0,0.0,0.0,18.0,289.0
0.0,6.122,91.837,0.0,0.0,2.041,0.0,0.0,457483.0,12964401.0,0.0,0.0,18.0,325.0
2.083,4.167,91.667,0.0,0.0,2.083,0.0,0.0,456675.0,12770052.0,0.0,0.0,18.0,345.0
2.062,5.155,88.660,0.0,0.0,4.124,0.0,0.0,446785.0,12684193.0,0.0,0.0,18.0,369.0
2.041,6.122,90.816,0.0,0.0,1.020,0.0,0.0,452124.0,12823875.0,0.0,0.0,19.0,324.0
0.0,5.208,93.750,0.0,0.0,1.042,0.0,12288.0,453078.0,12763644.0,0.0,0.0,18.0,293.0
2.041,6.122,89.796,0.0,0.0,2.041,0.0,0.0,461012.0,12892083.0,0.0,0.0,18.0,347.0
0.0,4.301,95.699,0.0,0.0,0.0,0.0,0.0,450684.0,12866340.0,0.0,0.0,18.0,303.0
2.041,6.122,88.776,0.0,0.0,3.061,0.0,0.0,454943.0,12741607.0,0.0,0.0,19.0,334.0
1.031,8.247,90.722,0.0,0.0,0.0,0.0,0.0,458307.0,12945544.0,0.0,0.0,18.0,348.0
2.041,6.122,90.816,0.0,0.0,1.020,0.0,8192.0,450646.0,12645927.0,0.0,0.0,18.0,335.0
1.042,4.167,93.750,0.0,0.0,1.042,0.0,0.0,449143.0,12863051.0,0.0,0.0,18.0,311.0
2.083,4.167,90.625,0.0,0.0,3.125,0.0,0.0,458437.0,12719385.0,0.0,0.0,18.0,344.0
1.031,6.186,90.722,0.0,0.0,2.062,0.0,0.0,447463.0,12659790.0,0.0,0.0,19.0,321.0
1.031,6.186,90.722,0.0,0.0,2.062,0.0,0.0,447505.0,12685475.0,0.0,0.0,18.0,363.0
1.042,6.250,91.667,0.0,0.0,1.042,0.0,0.0,466266.0,13208972.0,0.0,0.0,18.0,320.0
1.0,5.0,89.0,0.0,0.0,5.0,0.0,0.0,455265.0,12746836.0,0.0,0.0,18.0,354.0
1.042,5.208,92.708,0.0,0.0,1.042,0.0,0.0,449639.0,12735534.0,0.0,0.0,18.0,340.0
1.020,5.102,90.816,0.0,0.0,3.061,0.0,0.0,457261.0,13015904.0,0.0,0.0,19.0,302.0
2.083,6.250,89.583,0.0,0.0,2.083,0.0,0.0,454692.0,12627959.0,0.0,0.0,18.0,378.0
2.041,7.143,89.796,0.0,0.0,1.020,0.0,20480.0,447963.0,12776045.0,0.0,0.0,18.0,304.0
0.0,6.186,89.691,2.062,0.0,2.062,0.0,28672.0,456688.0,12921215.0,0.0,0.0,18.0,322.0
2.062,7.216,89.691,0.0,0.0,1.031,0.0,0.0,464086.0,12932619.0,0.0,0.0,18.0,327.0
0.0,5.208,92.708,0.0,0.0,2.083,0.0,0.0,454044.0,12854509.0,0.0,0.0,19.0,344.0
1.020,6.122,88.776,0.0,0.0,4.082,0.0,0.0,452019.0,12633172.0,0.0,0.0,18.0,323.0
1.031,5.155,90.722,0.0,0.0,3.093,0.0,0.0,460325.0,12993452.0,0.0,0.0,18.0,364.0
0.0,3.226,95.699,0.0,0.0,1.075,0.0,0.0,457157.0,12833952.0,0.0,0.0,18.0,302.0
2.0,6.0,90.0,0.0,0.0,2.0,0.0,0.0,446197.0,12739886.0,0.0,0.0,19.0,292.0
1.010,7.071,89.899,0.0,0.0,2.020,0.0,0.0,460372.0,12817023.0,0.0,0.0,18.0,322.0
2.970,5.941,86.139,0.0,0.0,4.950,0.0,0.0,453878.0,12871130.0,0.0,0.0,18.0,357.0
1.042,5.208,92.708,0.0,0.0,1.042,0.0,0.0,456406.0,12926957.0,0.0,0.0,18.0,326.0
1.020,6.122,91.837,0.0,0.0,1.020,0.0,0.0,455542.0,12919048.0,0.0,0.0,18.0,300.0
2.062,8.247,86.598,0.0,0.0,3.093,0.0,0.0,465111.0,13004763.0,0.0,0.0,24.0,422.0
2.105,8.421,88.421,0.0,0.0,1.053,0.0,0.0,462070.0,12992703.0,0.0,0.0,18.0,429.0
2.041,8.163,87.755,0.0,0.0,2.041,0.0,0.0,464989.0,13178550.0,0.0,0.0,18.0,339.0
3.061,5.102,89.796,0.0,0.0,2.041,0.0,0.0,455405.0,12786960.0,0.0,0.0,18.0,331.0
1.020,7.143,91.837,0.0,0.0,0.0,0.0,0.0,458629.0,12894424.0,0.0,0.0,18.0,310.0
1.020,4.082,91.837,0.0,0.0,3.061,0.0,0.0,456329.0,12867595.0,0.0,0.0,19.0,317.0
1.031,6.186,90.722,0.0,0.0,2.062,0.0,0.0,466741.0,13054477.0,0.0,0.0,18.0,334.0
1.042,8.333,89.583,0.0,0.0,1.042,0.0,0.0,450685.0,12729474.0,0.0,0.0,18.0,344.0
3.030,3.030,90.909,0.0,0.0,3.030,0.0,0.0,444559.0,12693747.0,0.0,0.0,18.0,342.0
1.031,6.186,89.691,0.0,0.0,3.093,0.0,8192.0,458792.0,12756091.0,0.0,0.0,18.0,385.0
2.041,4.082,91.837,0.0,0.0,2.041,0.0,0.0,446488.0,12688223.0,0.0,0.0,18.0,335.0
1.010,7.071,90.909,0.0,0.0,1.010,0.0,0.0,464043.0,13129232.0,0.0,0.0,19.0,286.0
3.191,5.319,90.426,0.0,0.0,1.064,0.0,0.0,463771.0,12961647.0,0.0,0.0,18.0,346.0
3.061,6.122,89.796,0.0,0.0,1.020,0.0,0.0,456986.0,12856064.0,0.0,0.0,18.0,309.0
0.0,9.0,90.0,0.0,0.0,1.0,0.0,0.0,450607.0,12803953.0,0.0,0.0,18.0,304.0
1.031,4.124,92.784,0.0,0.0,2.062,0.0,0.0,454493.0,12932817.0,0.0,0.0,19.0,300.0
4.040,7.071,87.879,0.0,0.0,1.010,0.0,0.0,460289.0,12864487.0,0.0,0.0,18.0,377.0
2.020,5.051,89.899,0.0,0.0,3.030,0.0,0.0,300855.0,8676088.0,0.0,0.0,18.0,259.0
