"Dstat 0.7.2 CSV output"
"Author:","Dag Wieers <dag@wieers.com>",,,,"URL:","http://dag.wieers.com/home-made/dstat/"
"Host:","Server1",,,,"User:","maki"
"Cmdline:","dstat --output server1_8_get_1_4.csv 1 70",,,,"Date:","20 Nov 2018 02:54:18 UTC"

"total cpu usage",,,,,,"dsk/total",,"net/total",,"paging",,"system",
"usr","sys","idl","wai","hiq","siq","read","writ","recv","send","in","out","int","csw"
8.018,16.605,71.159,0.602,0.0,3.616,11465.445,61622.837,0.0,0.0,0.0,0.0,18.540,1201.319
4.167,9.375,84.375,0.0,0.0,2.083,0.0,0.0,458116.0,12782428.0,0.0,0.0,18.0,1722.0
0.0,8.421,90.526,0.0,0.0,1.053,0.0,0.0,439786.0,12500389.0,0.0,0.0,19.0,1305.0
1.042,6.250,91.667,0.0,0.0,1.042,0.0,0.0,439690.0,12500295.0,0.0,0.0,18.0,1113.0
2.083,8.333,89.583,0.0,0.0,0.0,0.0,0.0,445206.0,12500375.0,0.0,0.0,18.0,1270.0
2.062,8.247,89.691,0.0,0.0,0.0,0.0,0.0,439944.0,12498932.0,0.0,0.0,18.0,1371.0
1.0,12.0,86.0,0.0,0.0,1.0,0.0,0.0,439653.0,12500260.0,0.0,0.0,18.0,1169.0
3.125,8.333,88.542,0.0,0.0,0.0,0.0,4096.0,445395.0,12500415.0,0.0,0.0,19.0,1258.0
2.128,4.255,92.553,0.0,0.0,1.064,0.0,0.0,439790.0,12500159.0,0.0,0.0,18.0,1250.0
1.042,7.292,91.667,0.0,0.0,0.0,0.0,0.0,439647.0,12498783.0,0.0,0.0,18.0,1144.0
3.125,6.250,87.500,3.125,0.0,0.0,0.0,40960.0,444993.0,12500465.0,0.0,0.0,18.0,1153.0
2.128,7.447,89.362,0.0,0.0,1.064,0.0,0.0,446951.0,12695000.0,0.0,0.0,18.0,1138.0
0.0,8.421,91.579,0.0,0.0,0.0,0.0,4096.0,439789.0,12501571.0,0.0,0.0,18.0,1104.0
6.122,5.102,87.755,0.0,0.0,1.020,0.0,0.0,445205.0,12499046.0,0.0,0.0,19.0,1185.0
1.031,7.216,91.753,0.0,0.0,0.0,0.0,0.0,439734.0,12500340.0,0.0,0.0,18.0,1072.0
0.0,7.368,92.632,0.0,0.0,0.0,0.0,0.0,439774.0,12498834.0,0.0,0.0,18.0,1073.0
3.125,9.375,87.500,0.0,0.0,0.0,0.0,0.0,445399.0,12500419.0,0.0,0.0,18.0,1232.0
1.053,6.316,92.632,0.0,0.0,0.0,0.0,0.0,439907.0,12500356.0,0.0,0.0,19.0,1113.0
1.010,10.101,88.889,0.0,0.0,0.0,0.0,0.0,440005.0,12500237.0,0.0,0.0,18.0,1072.0
3.093,5.155,89.691,0.0,0.0,2.062,0.0,0.0,445252.0,12497622.0,0.0,0.0,18.0,1131.0
1.053,5.263,93.684,0.0,0.0,0.0,0.0,0.0,439798.0,12501649.0,0.0,0.0,18.0,1087.0
2.198,4.396,93.407,0.0,0.0,0.0,0.0,0.0,439847.0,12500293.0,0.0,0.0,18.0,1105.0
3.158,6.316,90.526,0.0,0.0,0.0,0.0,0.0,445303.0,12500325.0,0.0,0.0,19.0,1152.0
1.031,8.247,88.660,0.0,0.0,2.062,0.0,0.0,439668.0,12500195.0,0.0,0.0,18.0,1267.0
2.151,2.151,95.699,0.0,0.0,0.0,0.0,0.0,439483.0,12498833.0,0.0,0.0,18.0,1128.0
4.124,7.216,88.660,0.0,0.0,0.0,0.0,0.0,445471.0,12500330.0,0.0,0.0,18.0,1183.0
2.083,8.333,88.542,0.0,0.0,1.042,0.0,0.0,439000.0,12500260.0,0.0,0.0,18.0,1069.0
2.083,5.208,91.667,0.0,0.0,1.042,0.0,0.0,440335.0,12500286.0,0.0,0.0,18.0,1168.0
2.062,8.247,89.691,0.0,0.0,0.0,0.0,0.0,445486.0,12498896.0,0.0,0.0,19.0,1199.0
1.042,6.250,92.708,0.0,0.0,0.0,0.0,0.0,439839.0,12500288.0,0.0,0.0,18.0,1077.0
1.053,4.211,93.684,0.0,0.0,1.053,0.0,0.0,439706.0,12500308.0,0.0,0.0,18.0,1071.0
2.128,7.447,89.362,0.0,0.0,1.064,0.0,0.0,445574.0,12500439.0,0.0,0.0,18.0,1127.0
2.105,5.263,92.632,0.0,0.0,0.0,0.0,16384.0,439826.0,12498885.0,0.0,0.0,19.0,1085.0
0.0,8.247,90.722,0.0,0.0,1.031,0.0,0.0,439738.0,12500347.0,0.0,0.0,18.0,1081.0
2.062,9.278,88.660,0.0,0.0,0.0,0.0,0.0,452298.0,12696467.0,0.0,0.0,18.0,1118.0
1.053,5.263,92.632,0.0,0.0,1.053,0.0,0.0,439547.0,12498972.0,0.0,0.0,18.0,1160.0
1.053,8.421,90.526,0.0,0.0,0.0,0.0,0.0,446609.0,12694821.0,0.0,0.0,18.0,1135.0
3.093,7.216,88.660,0.0,0.0,1.031,0.0,0.0,445386.0,12500328.0,0.0,0.0,19.0,1176.0
1.064,5.319,93.617,0.0,0.0,0.0,0.0,0.0,439682.0,12500286.0,0.0,0.0,18.0,1107.0
3.093,11.340,83.505,0.0,0.0,2.062,0.0,0.0,441928.0,12498548.0,0.0,0.0,23.0,1258.0
2.151,4.301,93.548,0.0,0.0,0.0,0.0,0.0,452223.0,12696394.0,0.0,0.0,18.0,1250.0
3.125,7.292,84.375,4.167,0.0,1.042,0.0,40960.0,439722.0,12500250.0,0.0,0.0,19.0,1113.0
1.064,5.319,93.617,0.0,0.0,0.0,0.0,40960.0,439867.0,12500235.0,0.0,0.0,18.0,1082.0
1.042,7.292,89.583,0.0,0.0,2.083,0.0,0.0,444890.0,12499749.0,0.0,0.0,18.0,1143.0
0.0,5.376,94.624,0.0,0.0,0.0,0.0,0.0,440151.0,12499515.0,0.0,0.0,18.0,1198.0
1.031,7.216,91.753,0.0,0.0,0.0,0.0,0.0,439709.0,12498848.0,0.0,0.0,18.0,1125.0
1.053,8.421,89.474,0.0,0.0,1.053,0.0,0.0,439775.0,12501765.0,0.0,0.0,18.0,1123.0
1.042,7.292,90.625,0.0,0.0,1.042,0.0,0.0,445437.0,12498918.0,0.0,0.0,19.0,1120.0
2.083,6.250,91.667,0.0,0.0,0.0,0.0,0.0,439698.0,12500299.0,0.0,0.0,18.0,1072.0
1.042,8.333,90.625,0.0,0.0,0.0,0.0,0.0,439790.0,12500174.0,0.0,0.0,18.0,1117.0
2.041,7.143,88.776,0.0,0.0,2.041,0.0,0.0,445608.0,12500398.0,0.0,0.0,18.0,1130.0
2.062,9.278,88.660,0.0,0.0,0.0,0.0,0.0,439739.0,12500263.0,0.0,0.0,18.0,1113.0
0.0,7.368,92.632,0.0,0.0,0.0,0.0,0.0,437551.0,12440587.0,0.0,0.0,19.0,1080.0
3.191,6.383,90.426,0.0,0.0,0.0,0.0,0.0,441135.0,12373952.0,0.0,0.0,18.0,1138.0
3.061,5.102,90.816,0.0,0.0,1.020,0.0,0.0,453190.0,12880942.0,0.0,0.0,18.0,1177.0
0.0,5.376,94.624,0.0,0.0,0.0,0.0,0.0,439567.0,12498993.0,0.0,0.0,18.0,1205.0
5.155,7.216,87.629,0.0,0.0,0.0,0.0,0.0,452320.0,12695023.0,0.0,0.0,19.0,1131.0
0.0,5.319,93.617,0.0,0.0,1.064,0.0,0.0,440045.0,12500351.0,0.0,0.0,18.0,1103.0
2.062,6.186,91.753,0.0,0.0,0.0,0.0,0.0,439781.0,12500383.0,0.0,0.0,18.0,1077.0
1.075,4.301,93.548,0.0,0.0,1.075,0.0,0.0,445659.0,12500447.0,0.0,0.0,18.0,1123.0
2.062,7.216,90.722,0.0,0.0,0.0,0.0,0.0,439544.0,12498968.0,0.0,0.0,18.0,1103.0
2.083,8.333,89.583,0.0,0.0,0.0,0.0,0.0,439853.0,12494568.0,0.0,0.0,19.0,1134.0
4.124,7.216,87.629,0.0,0.0,1.031,0.0,0.0,452782.0,12701357.0,0.0,0.0,18.0,1165.0
1.053,6.316,92.632,0.0,0.0,0.0,0.0,8192.0,439740.0,12498865.0,0.0,0.0,18.0,1093.0
1.064,6.383,92.553,0.0,0.0,0.0,0.0,0.0,439936.0,12500231.0,0.0,0.0,18.0,1154.0
1.031,8.247,88.660,0.0,0.0,2.062,0.0,0.0,445558.0,12500345.0,0.0,0.0,18.0,1125.0
3.125,6.250,89.583,0.0,0.0,1.042,0.0,0.0,439768.0,12500293.0,0.0,0.0,19.0,1111.0
1.053,6.316,92.632,0.0,0.0,0.0,0.0,0.0,439686.0,12500294.0,0.0,0.0,18.0,1147.0
2.105,8.421,88.421,0.0,0.0,1.053,0.0,0.0,445375.0,12498926.0,0.0,0.0,18.0,1251.0
2.041,8.163,89.796,0.0,0.0,0.0,0.0,0.0,439938.0,12500314.0,0.0,0.0,18.0,1120.0
2.062,5.155,91.753,0.0,0.0,1.031,0.0,0.0,385221.0,10987324.0,0.0,0.0,18.0,992.0
