"Dstat 0.7.2 CSV output"
"Author:","Dag Wieers <dag@wieers.com>",,,,"URL:","http://dag.wieers.com/home-made/dstat/"
"Host:","Server1",,,,"User:","maki"
"Cmdline:","dstat --output server1_64_set_2_2.csv 1 70",,,,"Date:","20 Nov 2018 02:11:48 UTC"

"total cpu usage",,,,,,"dsk/total",,"net/total",,"paging",,"system",
"usr","sys","idl","wai","hiq","siq","read","writ","recv","send","in","out","int","csw"
7.792,15.942,72.589,0.723,0.0,2.954,14119.764,75486.603,0.0,0.0,0.0,0.0,18.601,1259.199
6.593,8.791,79.121,0.0,0.0,5.495,0.0,0.0,18981512.0,618355.0,0.0,0.0,18.0,3100.0
5.319,11.702,75.532,0.0,0.0,7.447,0.0,0.0,20126462.0,651646.0,0.0,0.0,19.0,3429.0
8.421,10.526,74.737,0.0,0.0,6.316,0.0,4096.0,23557432.0,762614.0,0.0,0.0,18.0,3275.0
7.368,15.789,71.579,0.0,0.0,5.263,0.0,0.0,26738427.0,869159.0,0.0,0.0,18.0,3392.0
5.495,13.187,76.923,0.0,0.0,4.396,0.0,0.0,29242840.0,947134.0,0.0,0.0,18.0,3851.0
6.061,16.162,73.737,0.0,0.0,4.040,0.0,0.0,28553185.0,923894.0,0.0,0.0,18.0,3278.0
9.677,17.204,68.817,0.0,0.0,4.301,0.0,0.0,27048944.0,880359.0,0.0,0.0,19.0,3286.0
5.376,15.054,73.118,2.151,0.0,4.301,0.0,45056.0,26780648.0,866420.0,0.0,0.0,18.0,3422.0
5.435,15.217,77.174,0.0,0.0,2.174,0.0,0.0,28268172.0,914728.0,0.0,0.0,18.0,4005.0
8.421,14.737,72.632,0.0,0.0,4.211,0.0,0.0,28422549.0,922919.0,0.0,0.0,18.0,3868.0
8.247,13.402,73.196,0.0,0.0,5.155,0.0,0.0,27477398.0,890014.0,0.0,0.0,18.0,3075.0
8.511,13.830,73.404,0.0,0.0,4.255,0.0,0.0,25562252.0,827714.0,0.0,0.0,19.0,2810.0
8.696,13.043,75.0,0.0,0.0,3.261,0.0,0.0,28661496.0,932299.0,0.0,0.0,18.0,3421.0
4.598,9.195,82.759,0.0,0.0,3.448,0.0,0.0,28905375.0,936074.0,0.0,0.0,18.0,3249.0
5.376,16.129,75.269,0.0,0.0,3.226,0.0,0.0,29324849.0,949094.0,0.0,0.0,18.0,3906.0
12.632,15.789,68.421,0.0,0.0,3.158,0.0,0.0,27201601.0,884419.0,0.0,0.0,19.0,3004.0
6.186,18.557,70.103,0.0,0.0,5.155,0.0,0.0,27502128.0,890294.0,0.0,0.0,18.0,3256.0
4.301,15.054,76.344,0.0,0.0,4.301,0.0,0.0,26919978.0,870134.0,0.0,0.0,18.0,3025.0
10.0,12.222,72.222,0.0,0.0,5.556,0.0,0.0,25658418.0,835625.0,0.0,0.0,18.0,3073.0
6.316,15.789,74.737,0.0,0.0,3.158,0.0,0.0,27697730.0,896108.0,0.0,0.0,18.0,3660.0
6.383,12.766,74.468,0.0,0.0,6.383,0.0,0.0,28133855.0,909540.0,0.0,0.0,19.0,3490.0
5.376,16.129,72.043,0.0,0.0,6.452,0.0,0.0,25742826.0,838013.0,0.0,0.0,18.0,2945.0
7.292,12.500,72.917,0.0,0.0,7.292,0.0,0.0,27180480.0,880276.0,0.0,0.0,18.0,3570.0
5.495,14.286,75.824,0.0,0.0,4.396,0.0,0.0,27312809.0,882314.0,0.0,0.0,18.0,3351.0
8.421,15.789,73.684,0.0,0.0,2.105,0.0,0.0,27160221.0,884205.0,0.0,0.0,18.0,3415.0
7.609,14.130,73.913,0.0,0.0,4.348,0.0,0.0,28287177.0,914868.0,0.0,0.0,18.0,3228.0
9.375,14.583,70.833,0.0,0.0,5.208,0.0,0.0,27003835.0,874120.0,0.0,0.0,19.0,3182.0
9.574,10.638,75.532,0.0,0.0,4.255,0.0,0.0,26481209.0,859264.0,0.0,0.0,18.0,3197.0
8.602,12.903,74.194,0.0,0.0,4.301,0.0,4096.0,29907582.0,969983.0,0.0,0.0,18.0,4196.0
6.452,15.054,76.344,0.0,0.0,2.151,0.0,0.0,28777638.0,932360.0,0.0,0.0,18.0,3788.0
5.495,14.286,76.923,0.0,0.0,3.297,0.0,0.0,26162944.0,846754.0,0.0,0.0,19.0,2946.0
6.522,16.304,72.826,0.0,0.0,4.348,0.0,0.0,26034753.0,847685.0,0.0,0.0,18.0,3067.0
7.216,16.495,71.134,0.0,0.0,5.155,0.0,0.0,28009975.0,906394.0,0.0,0.0,18.0,3354.0
8.333,12.500,75.0,0.0,0.0,4.167,0.0,8192.0,25769844.0,833174.0,0.0,0.0,18.0,3361.0
7.609,13.043,73.913,0.0,0.0,5.435,0.0,0.0,27031098.0,879519.0,0.0,0.0,18.0,3545.0
6.593,12.088,76.923,0.0,0.0,4.396,0.0,0.0,27283300.0,882454.0,0.0,0.0,19.0,3457.0
6.593,15.385,73.626,0.0,0.0,4.396,0.0,0.0,25536313.0,826734.0,0.0,0.0,18.0,2935.0
10.638,11.702,72.340,1.064,0.0,4.255,0.0,20480.0,24995247.0,811339.0,0.0,0.0,18.0,3412.0
8.989,11.236,74.157,0.0,0.0,5.618,0.0,36864.0,27148344.0,879094.0,0.0,0.0,18.0,3721.0
8.889,11.111,77.778,0.0,0.0,2.222,0.0,0.0,28017679.0,907514.0,0.0,0.0,19.0,3606.0
7.216,14.433,75.258,0.0,0.0,3.093,0.0,0.0,26065884.0,846199.0,0.0,0.0,18.0,2864.0
5.618,14.607,76.404,0.0,0.0,3.371,0.0,0.0,26744758.0,866354.0,0.0,0.0,18.0,2880.0
7.216,15.464,73.196,0.0,0.0,4.124,0.0,0.0,26711474.0,865374.0,0.0,0.0,18.0,3025.0
7.447,13.830,75.532,0.0,0.0,3.191,0.0,0.0,28529487.0,928165.0,0.0,0.0,18.0,3248.0
4.301,15.054,77.419,0.0,0.0,3.226,0.0,0.0,26657599.0,861808.0,0.0,0.0,18.0,3092.0
8.791,9.890,76.923,0.0,0.0,4.396,0.0,0.0,26416134.0,855714.0,0.0,0.0,19.0,2765.0
8.511,14.894,72.340,0.0,0.0,4.255,0.0,0.0,26657212.0,867199.0,0.0,0.0,18.0,3253.0
4.396,13.187,76.923,0.0,0.0,5.495,0.0,0.0,26937469.0,870694.0,0.0,0.0,18.0,3041.0
6.818,9.091,80.682,0.0,0.0,3.409,0.0,0.0,27147837.0,878814.0,0.0,0.0,18.0,3022.0
4.494,14.607,78.652,0.0,0.0,2.247,0.0,0.0,26460237.0,861459.0,0.0,0.0,19.0,3183.0
5.435,11.957,77.174,0.0,0.0,5.435,0.0,0.0,29323955.0,948814.0,0.0,0.0,18.0,3176.0
7.447,14.894,72.340,0.0,0.0,5.319,0.0,0.0,25781073.0,834574.0,0.0,0.0,18.0,2919.0
6.818,11.364,78.409,0.0,0.0,3.409,0.0,0.0,26205483.0,850959.0,0.0,0.0,18.0,3190.0
6.383,13.830,76.596,0.0,0.0,3.191,0.0,0.0,28042173.0,908420.0,0.0,0.0,18.0,3524.0
8.696,15.217,71.739,0.0,0.0,4.348,0.0,0.0,29488745.0,953788.0,0.0,0.0,19.0,4071.0
8.511,13.830,73.404,0.0,0.0,4.255,0.0,0.0,26556865.0,864679.0,0.0,0.0,18.0,3025.0
4.255,14.894,73.404,0.0,0.0,7.447,0.0,0.0,26803268.0,867754.0,0.0,0.0,18.0,2936.0
4.396,15.385,75.824,0.0,0.0,4.396,0.0,0.0,29298405.0,947554.0,0.0,0.0,18.0,3426.0
7.368,12.632,76.842,0.0,0.0,3.158,0.0,0.0,27785107.0,903739.0,0.0,0.0,18.0,2879.0
6.250,16.667,75.0,0.0,0.0,2.083,0.0,0.0,27837256.0,901494.0,0.0,0.0,19.0,3143.0
5.556,11.111,78.889,0.0,0.0,4.444,0.0,0.0,26656807.0,863554.0,0.0,0.0,18.0,2701.0
11.340,17.526,65.979,0.0,0.0,5.155,0.0,0.0,24185621.0,787835.0,0.0,0.0,18.0,2641.0
5.435,14.130,73.913,0.0,0.0,6.522,0.0,0.0,26298210.0,852214.0,0.0,0.0,18.0,3071.0
6.452,13.978,76.344,0.0,0.0,3.226,0.0,0.0,27012289.0,872794.0,0.0,0.0,18.0,3378.0
11.828,11.828,73.118,0.0,0.0,3.226,0.0,0.0,29390516.0,957079.0,0.0,0.0,19.0,3589.0
5.495,13.187,76.923,0.0,0.0,4.396,0.0,0.0,29102323.0,941114.0,0.0,0.0,18.0,3439.0
5.618,16.854,73.034,0.0,0.0,4.494,0.0,0.0,29054922.0,940554.0,0.0,0.0,18.0,3576.0
6.316,15.789,69.474,1.053,0.0,7.368,0.0,12288.0,27251068.0,887219.0,0.0,0.0,18.0,3460.0
5.102,17.347,74.490,0.0,0.0,3.061,0.0,8192.0,27348975.0,883718.0,0.0,0.0,18.0,3697.0
6.383,7.447,82.979,0.0,0.0,3.191,0.0,0.0,19782110.0,640394.0,0.0,0.0,19.0,2700.0
