"Dstat 0.7.2 CSV output"
"Author:","Dag Wieers <dag@wieers.com>",,,,"URL:","http://dag.wieers.com/home-made/dstat/"
"Host:","Server1",,,,"User:","maki"
"Cmdline:","dstat --output server1_64_set_3_2.csv 1 70",,,,"Date:","20 Nov 2018 02:25:01 UTC"

"total cpu usage",,,,,,"dsk/total",,"net/total",,"paging",,"system",
"usr","sys","idl","wai","hiq","siq","read","writ","recv","send","in","out","int","csw"
7.913,16.260,71.919,0.680,0.0,3.228,13171.335,70535.453,0.0,0.0,0.0,0.0,18.579,1238.395
5.376,9.677,80.645,0.0,0.0,4.301,0.0,0.0,20056706.0,651667.0,0.0,0.0,19.0,3928.0
4.167,11.458,80.208,0.0,0.0,4.167,0.0,12288.0,20215571.0,652640.0,0.0,0.0,18.0,3570.0
8.421,8.421,77.895,0.0,0.0,5.263,0.0,0.0,21956969.0,709908.0,0.0,0.0,18.0,3502.0
10.417,11.458,71.875,0.0,0.0,6.250,0.0,0.0,27108899.0,880919.0,0.0,0.0,18.0,3465.0
7.609,14.130,72.826,0.0,0.0,5.435,0.0,0.0,27202482.0,880774.0,0.0,0.0,18.0,3168.0
8.602,13.978,74.194,0.0,0.0,3.226,0.0,0.0,27340280.0,885254.0,0.0,0.0,19.0,3344.0
8.163,16.327,70.408,0.0,0.0,5.102,0.0,0.0,27903371.0,906539.0,0.0,0.0,18.0,3976.0
7.368,14.737,75.789,0.0,0.0,2.105,0.0,0.0,29009080.0,939294.0,0.0,0.0,18.0,3470.0
4.301,17.204,74.194,0.0,0.0,4.301,0.0,0.0,29328448.0,950280.0,0.0,0.0,18.0,3577.0
9.677,11.828,74.194,0.0,0.0,4.301,0.0,0.0,27416570.0,890373.0,0.0,0.0,18.0,3457.0
6.316,13.684,77.895,0.0,0.0,2.105,0.0,0.0,26914814.0,871254.0,0.0,0.0,19.0,3189.0
6.522,13.043,77.174,0.0,0.0,3.261,0.0,0.0,27069903.0,875594.0,0.0,0.0,18.0,3509.0
7.692,15.385,72.527,0.0,0.0,4.396,0.0,0.0,29587234.0,963099.0,0.0,0.0,18.0,3797.0
7.216,15.464,73.196,0.0,0.0,4.124,0.0,0.0,27225386.0,881334.0,0.0,0.0,18.0,3672.0
5.556,17.778,74.444,0.0,0.0,2.222,0.0,0.0,31090802.0,1005794.0,0.0,0.0,18.0,3855.0
7.692,14.286,75.824,0.0,0.0,2.198,0.0,0.0,27777121.0,904579.0,0.0,0.0,19.0,3198.0
5.155,18.557,73.196,0.0,0.0,3.093,0.0,0.0,27800213.0,898834.0,0.0,0.0,18.0,3215.0
6.522,14.130,77.174,0.0,0.0,2.174,0.0,0.0,28144197.0,910594.0,0.0,0.0,18.0,3461.0
6.667,12.222,76.667,0.0,0.0,4.444,0.0,0.0,27102842.0,881759.0,0.0,0.0,18.0,3375.0
5.263,16.842,72.632,0.0,0.0,5.263,0.0,0.0,27084298.0,875314.0,0.0,0.0,18.0,3354.0
8.247,16.495,72.165,0.0,0.0,3.093,0.0,0.0,26823320.0,867894.0,0.0,0.0,18.0,3341.0
9.890,10.989,73.626,1.099,0.0,4.396,0.0,40960.0,26483169.0,861179.0,0.0,0.0,19.0,3362.0
6.593,10.989,78.022,0.0,0.0,4.396,0.0,8192.0,28253756.0,914374.0,0.0,0.0,18.0,3512.0
6.522,11.957,76.087,0.0,0.0,5.435,0.0,0.0,25818801.0,836534.0,0.0,0.0,18.0,2983.0
9.783,19.565,63.043,0.0,0.0,7.609,0.0,0.0,25395160.0,820550.0,0.0,0.0,19.0,3396.0
10.526,13.684,69.474,0.0,0.0,6.316,0.0,0.0,26178522.0,850283.0,0.0,0.0,19.0,3627.0
7.368,11.579,75.789,0.0,0.0,5.263,0.0,0.0,27301899.0,883714.0,0.0,0.0,18.0,3702.0
5.495,14.286,76.923,0.0,0.0,3.297,0.0,0.0,26784975.0,866774.0,0.0,0.0,18.0,3113.0
8.163,14.286,72.449,0.0,0.0,5.102,0.0,0.0,26300319.0,855159.0,0.0,0.0,18.0,3105.0
6.316,16.842,73.684,0.0,0.0,3.158,0.0,0.0,27131026.0,879078.0,0.0,0.0,18.0,3085.0
7.292,13.542,72.917,0.0,0.0,6.250,0.0,0.0,29788334.0,962534.0,0.0,0.0,19.0,4304.0
5.319,15.957,74.468,0.0,0.0,4.255,0.0,0.0,26606796.0,866499.0,0.0,0.0,18.0,3174.0
6.250,13.542,75.0,0.0,0.0,5.208,0.0,12288.0,26765919.0,865514.0,0.0,0.0,18.0,3132.0
5.495,13.187,76.923,0.0,0.0,4.396,0.0,0.0,27843459.0,901214.0,0.0,0.0,18.0,3621.0
10.870,13.043,72.826,0.0,0.0,3.261,0.0,0.0,26828478.0,873079.0,0.0,0.0,18.0,3209.0
5.319,13.830,74.468,0.0,0.0,6.383,0.0,0.0,27477936.0,889314.0,0.0,0.0,19.0,3597.0
3.448,11.494,82.759,0.0,0.0,2.299,0.0,0.0,28669755.0,927114.0,0.0,0.0,18.0,3945.0
6.593,13.187,75.824,0.0,0.0,4.396,0.0,0.0,27408316.0,892971.0,0.0,0.0,18.0,3355.0
9.184,14.286,72.449,0.0,0.0,4.082,0.0,0.0,25970847.0,840734.0,0.0,0.0,18.0,3050.0
7.447,12.766,74.468,0.0,0.0,5.319,0.0,0.0,26545810.0,858234.0,0.0,0.0,19.0,3557.0
5.376,13.978,74.194,0.0,0.0,6.452,0.0,0.0,27073690.0,880359.0,0.0,0.0,18.0,3793.0
8.511,10.638,76.596,0.0,0.0,4.255,0.0,0.0,27311852.0,883434.0,0.0,0.0,18.0,3600.0
7.609,11.957,78.261,0.0,0.0,2.174,0.0,0.0,27531236.0,890780.0,0.0,0.0,18.0,3263.0
6.593,14.286,74.725,0.0,0.0,4.396,0.0,0.0,26653127.0,866013.0,0.0,0.0,18.0,3282.0
10.870,15.217,70.652,0.0,0.0,3.261,0.0,0.0,28584186.0,925714.0,0.0,0.0,19.0,3862.0
6.593,10.989,79.121,0.0,0.0,3.297,0.0,0.0,28809186.0,932574.0,0.0,0.0,18.0,3362.0
7.368,14.737,73.684,0.0,0.0,4.211,0.0,0.0,26216106.0,852779.0,0.0,0.0,18.0,3099.0
6.522,9.783,77.174,0.0,0.0,6.522,0.0,0.0,26934799.0,871114.0,0.0,0.0,18.0,3258.0
6.522,15.217,75.0,0.0,0.0,3.261,0.0,0.0,26928810.0,871674.0,0.0,0.0,18.0,3062.0
8.791,14.286,74.725,0.0,0.0,2.198,0.0,0.0,24926940.0,810211.0,0.0,0.0,19.0,2748.0
7.216,21.649,68.041,0.0,0.0,3.093,0.0,0.0,27023851.0,876896.0,0.0,0.0,23.0,3347.0
8.163,14.286,68.367,5.102,0.0,4.082,0.0,40960.0,27975429.0,905628.0,0.0,0.0,18.0,3565.0
6.383,13.830,74.468,0.0,0.0,5.319,0.0,0.0,25434756.0,827019.0,0.0,0.0,18.0,3002.0
6.383,17.021,73.404,0.0,0.0,3.191,0.0,40960.0,27559269.0,892114.0,0.0,0.0,18.0,3211.0
6.667,12.222,77.778,0.0,0.0,3.333,0.0,0.0,24973913.0,806994.0,0.0,0.0,19.0,3088.0
4.494,12.360,78.652,0.0,0.0,4.494,0.0,0.0,27304513.0,887639.0,0.0,0.0,18.0,3689.0
8.602,10.753,77.419,0.0,0.0,3.226,0.0,0.0,27025153.0,875174.0,0.0,0.0,18.0,3251.0
11.236,7.865,80.899,0.0,0.0,0.0,0.0,0.0,27956896.0,904434.0,0.0,0.0,18.0,2994.0
6.383,12.766,74.468,0.0,0.0,6.383,0.0,0.0,25835885.0,841299.0,0.0,0.0,18.0,2948.0
6.122,16.327,74.490,0.0,0.0,3.061,0.0,0.0,26889739.0,869294.0,0.0,0.0,19.0,2918.0
6.818,9.091,81.818,0.0,0.0,2.273,0.0,0.0,28985701.0,939994.0,0.0,0.0,18.0,3468.0
6.593,13.187,74.725,0.0,0.0,5.495,0.0,0.0,25830522.0,838639.0,0.0,0.0,18.0,2970.0
4.211,16.842,74.737,0.0,0.0,4.211,0.0,0.0,26554854.0,861034.0,0.0,0.0,18.0,3196.0
9.677,11.828,74.194,0.0,0.0,4.301,0.0,16384.0,27435300.0,886654.0,0.0,0.0,18.0,3726.0
9.677,16.129,73.118,0.0,0.0,1.075,0.0,0.0,27143197.0,883445.0,0.0,0.0,19.0,3239.0
3.371,12.360,78.652,0.0,0.0,5.618,0.0,0.0,28900171.0,934114.0,0.0,0.0,18.0,3467.0
7.292,9.375,76.042,0.0,0.0,7.292,0.0,0.0,26270373.0,850472.0,0.0,0.0,18.0,3270.0
7.143,15.306,71.429,0.0,0.0,6.122,0.0,0.0,26517014.0,861879.0,0.0,0.0,18.0,3211.0
7.527,11.828,76.344,0.0,0.0,4.301,0.0,0.0,26769005.0,866494.0,0.0,0.0,18.0,3313.0
4.255,9.574,81.915,0.0,0.0,4.255,0.0,0.0,21070331.0,682394.0,0.0,0.0,19.0,2997.0
