"Dstat 0.7.2 CSV output"
"Author:","Dag Wieers <dag@wieers.com>",,,,"URL:","http://dag.wieers.com/home-made/dstat/"
"Host:","Server1",,,,"User:","maki"
"Cmdline:","dstat --output server1_16_get_1_22.csv 1 70",,,,"Date:","20 Nov 2018 03:48:55 UTC"

"total cpu usage",,,,,,"dsk/total",,"net/total",,"paging",,"system",
"usr","sys","idl","wai","hiq","siq","read","writ","recv","send","in","out","int","csw"
6.719,14.129,75.677,0.505,0.0,2.970,9234.695,49993.211,0.0,0.0,0.0,0.0,18.489,1128.205
3.125,9.375,86.458,0.0,0.0,1.042,0.0,0.0,458600.0,12727203.0,0.0,0.0,18.0,1073.0
1.031,7.216,91.753,0.0,0.0,0.0,0.0,0.0,447180.0,12695210.0,0.0,0.0,18.0,594.0
1.031,5.155,92.784,0.0,0.0,1.031,0.0,0.0,440091.0,12499075.0,0.0,0.0,18.0,550.0
4.211,4.211,91.579,0.0,0.0,0.0,0.0,0.0,445743.0,12500675.0,0.0,0.0,19.0,553.0
1.020,7.143,91.837,0.0,0.0,0.0,0.0,0.0,439569.0,12500173.0,0.0,0.0,18.0,591.0
1.031,9.278,89.691,0.0,0.0,0.0,0.0,0.0,446808.0,12694939.0,0.0,0.0,18.0,540.0
1.042,5.208,92.708,0.0,0.0,1.042,0.0,0.0,445624.0,12499101.0,0.0,0.0,18.0,568.0
0.0,6.186,92.784,0.0,0.0,1.031,0.0,0.0,440409.0,12501873.0,0.0,0.0,19.0,511.0
1.053,5.263,93.684,0.0,0.0,0.0,0.0,0.0,446611.0,12694905.0,0.0,0.0,18.0,478.0
3.191,8.511,86.170,0.0,0.0,2.128,0.0,0.0,447631.0,12499956.0,0.0,0.0,23.0,666.0
2.062,4.124,92.784,0.0,0.0,1.031,0.0,0.0,439830.0,12498810.0,0.0,0.0,18.0,466.0
2.105,6.316,91.579,0.0,0.0,0.0,0.0,0.0,439635.0,12500243.0,0.0,0.0,18.0,561.0
1.053,5.263,93.684,0.0,0.0,0.0,0.0,0.0,452314.0,12695087.0,0.0,0.0,19.0,565.0
1.042,5.208,93.750,0.0,0.0,0.0,0.0,0.0,439746.0,12500349.0,0.0,0.0,18.0,503.0
2.041,5.102,91.837,0.0,0.0,1.020,0.0,0.0,439858.0,12500309.0,0.0,0.0,18.0,527.0
2.105,4.211,92.632,0.0,0.0,1.053,0.0,0.0,445736.0,12500444.0,0.0,0.0,18.0,529.0
1.020,9.184,89.796,0.0,0.0,0.0,0.0,0.0,439523.0,12497408.0,0.0,0.0,18.0,555.0
1.053,5.263,93.684,0.0,0.0,0.0,0.0,8192.0,440040.0,12502976.0,0.0,0.0,19.0,484.0
2.105,4.211,92.632,0.0,0.0,1.053,0.0,0.0,445499.0,12497635.0,0.0,0.0,18.0,503.0
2.062,4.124,92.784,0.0,0.0,1.031,0.0,0.0,447408.0,12696119.0,0.0,0.0,18.0,542.0
0.0,7.216,91.753,0.0,0.0,1.031,0.0,0.0,439710.0,12500378.0,0.0,0.0,18.0,509.0
3.125,5.208,90.625,0.0,0.0,1.042,0.0,0.0,445577.0,12500509.0,0.0,0.0,18.0,587.0
1.042,5.208,93.750,0.0,0.0,0.0,0.0,0.0,440090.0,12498991.0,0.0,0.0,18.0,514.0
1.031,6.186,89.691,2.062,0.0,1.031,0.0,40960.0,440540.0,12500382.0,0.0,0.0,19.0,503.0
1.064,5.319,93.617,0.0,0.0,0.0,0.0,0.0,445551.0,12500420.0,0.0,0.0,18.0,560.0
0.0,7.143,90.816,0.0,0.0,2.041,0.0,0.0,439953.0,12499010.0,0.0,0.0,18.0,487.0
1.053,6.316,91.579,0.0,0.0,1.053,0.0,0.0,439735.0,12500341.0,0.0,0.0,18.0,548.0
1.053,4.211,94.737,0.0,0.0,0.0,0.0,0.0,439662.0,12500191.0,0.0,0.0,19.0,517.0
2.128,4.255,93.617,0.0,0.0,0.0,0.0,0.0,445481.0,12500345.0,0.0,0.0,18.0,552.0
0.0,5.263,93.684,0.0,0.0,1.053,0.0,0.0,439679.0,12500204.0,0.0,0.0,18.0,508.0
1.010,8.081,89.899,0.0,0.0,1.010,0.0,0.0,446882.0,12690588.0,0.0,0.0,18.0,517.0
2.041,9.184,87.755,0.0,0.0,1.020,0.0,0.0,445923.0,12501236.0,0.0,0.0,18.0,587.0
1.042,6.250,92.708,0.0,0.0,0.0,0.0,0.0,439669.0,12499016.0,0.0,0.0,19.0,522.0
1.020,6.122,91.837,0.0,0.0,1.020,0.0,16384.0,446903.0,12694957.0,0.0,0.0,18.0,537.0
1.031,7.216,90.722,0.0,0.0,1.031,0.0,0.0,445636.0,12500569.0,0.0,0.0,18.0,512.0
1.042,4.167,94.792,0.0,0.0,0.0,0.0,0.0,439937.0,12500388.0,0.0,0.0,18.0,492.0
1.031,6.186,91.753,0.0,0.0,1.031,0.0,0.0,446685.0,12694970.0,0.0,0.0,18.0,575.0
3.125,4.167,92.708,0.0,0.0,0.0,0.0,0.0,445446.0,12500314.0,0.0,0.0,19.0,545.0
0.0,4.211,94.737,0.0,0.0,1.053,0.0,0.0,439551.0,12500155.0,0.0,0.0,18.0,487.0
1.020,7.143,91.837,0.0,0.0,0.0,0.0,0.0,439460.0,12500065.0,0.0,0.0,18.0,511.0
1.042,5.208,92.708,0.0,0.0,1.042,0.0,0.0,445375.0,12498917.0,0.0,0.0,18.0,518.0
1.031,8.247,90.722,0.0,0.0,0.0,0.0,0.0,439699.0,12500149.0,0.0,0.0,18.0,502.0
0.0,6.250,92.708,0.0,0.0,1.042,0.0,0.0,439817.0,12500183.0,0.0,0.0,19.0,501.0
3.0,8.0,89.0,0.0,0.0,0.0,0.0,4096.0,445420.0,12498823.0,0.0,0.0,18.0,517.0
0.0,7.216,91.753,0.0,0.0,1.031,0.0,0.0,446872.0,12696311.0,0.0,0.0,18.0,473.0
1.042,4.167,93.750,0.0,0.0,1.042,0.0,0.0,439798.0,12500247.0,0.0,0.0,18.0,504.0
2.083,7.292,90.625,0.0,0.0,0.0,0.0,0.0,445357.0,12498833.0,0.0,0.0,19.0,575.0
1.020,6.122,91.837,0.0,0.0,1.020,0.0,0.0,439901.0,12498950.0,0.0,0.0,18.0,537.0
1.042,6.250,92.708,0.0,0.0,0.0,0.0,0.0,446629.0,12696311.0,0.0,0.0,18.0,485.0
2.062,6.186,90.722,0.0,0.0,1.031,0.0,0.0,445319.0,12500336.0,0.0,0.0,18.0,576.0
0.0,4.167,94.792,0.0,0.0,1.042,0.0,0.0,439880.0,12500329.0,0.0,0.0,18.0,545.0
2.062,7.216,90.722,0.0,0.0,0.0,0.0,0.0,439979.0,12500345.0,0.0,0.0,19.0,548.0
1.053,5.263,92.632,0.0,0.0,1.053,0.0,0.0,452481.0,12695034.0,0.0,0.0,18.0,554.0
0.0,6.316,93.684,0.0,0.0,0.0,0.0,20480.0,439985.0,12499030.0,0.0,0.0,18.0,462.0
3.030,6.061,86.869,3.030,0.0,1.010,0.0,32768.0,439768.0,12500294.0,0.0,0.0,18.0,527.0
2.083,5.208,91.667,0.0,0.0,1.042,0.0,0.0,452477.0,12695096.0,0.0,0.0,18.0,529.0
2.062,5.155,90.722,0.0,0.0,2.062,0.0,0.0,439776.0,12500301.0,0.0,0.0,19.0,519.0
0.0,6.316,93.684,0.0,0.0,0.0,0.0,0.0,439678.0,12500284.0,0.0,0.0,18.0,482.0
3.125,5.208,91.667,0.0,0.0,0.0,0.0,0.0,445211.0,12499050.0,0.0,0.0,18.0,561.0
1.042,4.167,93.750,0.0,0.0,1.042,0.0,0.0,439840.0,12500292.0,0.0,0.0,18.0,484.0
1.031,7.216,91.753,0.0,0.0,0.0,0.0,0.0,439819.0,12500261.0,0.0,0.0,18.0,484.0
1.053,6.316,91.579,0.0,0.0,1.053,0.0,0.0,451812.0,12696058.0,0.0,0.0,19.0,576.0
1.042,6.250,91.667,0.0,0.0,1.042,0.0,0.0,440285.0,12499120.0,0.0,0.0,18.0,480.0
1.031,4.124,93.814,0.0,0.0,1.031,0.0,0.0,439870.0,12500239.0,0.0,0.0,18.0,502.0
0.0,5.319,94.681,0.0,0.0,0.0,0.0,0.0,439907.0,12500277.0,0.0,0.0,18.0,497.0
2.020,7.071,90.909,0.0,0.0,0.0,0.0,0.0,452307.0,12694934.0,0.0,0.0,18.0,517.0
2.041,8.163,88.776,0.0,0.0,1.020,0.0,0.0,439686.0,12500216.0,0.0,0.0,19.0,526.0
1.020,6.122,92.857,0.0,0.0,0.0,0.0,0.0,446893.0,12694794.0,0.0,0.0,18.0,499.0
1.053,6.316,91.579,0.0,0.0,1.053,0.0,8192.0,453642.0,12694686.0,0.0,0.0,18.0,512.0
2.083,7.292,87.500,0.0,0.0,3.125,0.0,0.0,376245.0,10705476.0,0.0,0.0,24.0,538.0
