"Dstat 0.7.2 CSV output"
"Author:","Dag Wieers <dag@wieers.com>",,,,"URL:","http://dag.wieers.com/home-made/dstat/"
"Host:","Server1",,,,"User:","maki"
"Cmdline:","dstat --output server1_8_get_4_22.csv 1 70",,,,"Date:","20 Nov 2018 03:36:10 UTC"

"total cpu usage",,,,,,"dsk/total",,"net/total",,"paging",,"system",
"usr","sys","idl","wai","hiq","siq","read","writ","recv","send","in","out","int","csw"
6.974,14.614,74.805,0.525,0.0,3.082,9674.252,52293.329,0.0,0.0,0.0,0.0,18.500,1142.791
2.105,8.421,89.474,0.0,0.0,0.0,0.0,0.0,470574.0,13370128.0,0.0,0.0,18.0,1419.0
2.062,6.186,91.753,0.0,0.0,0.0,0.0,0.0,440178.0,12500320.0,0.0,0.0,18.0,1104.0
3.125,8.333,87.500,0.0,0.0,1.042,0.0,0.0,445598.0,12497907.0,0.0,0.0,18.0,891.0
1.031,8.247,90.722,0.0,0.0,0.0,0.0,0.0,446652.0,12697874.0,0.0,0.0,19.0,856.0
3.158,4.211,92.632,0.0,0.0,0.0,0.0,0.0,439411.0,12498551.0,0.0,0.0,17.0,863.0
1.031,7.216,90.722,0.0,0.0,1.031,0.0,0.0,445702.0,12500569.0,0.0,0.0,19.0,786.0
1.042,4.167,93.750,0.0,0.0,1.042,0.0,0.0,446741.0,12695028.0,0.0,0.0,18.0,751.0
2.062,7.216,90.722,0.0,0.0,0.0,0.0,0.0,440148.0,12500595.0,0.0,0.0,18.0,848.0
3.093,6.186,89.691,0.0,0.0,1.031,0.0,0.0,445409.0,12498955.0,0.0,0.0,19.0,789.0
1.064,6.383,92.553,0.0,0.0,0.0,0.0,0.0,439799.0,12500322.0,0.0,0.0,18.0,919.0
1.042,6.250,91.667,0.0,0.0,1.042,0.0,0.0,439716.0,12500326.0,0.0,0.0,18.0,787.0
2.083,7.292,90.625,0.0,0.0,0.0,0.0,0.0,445440.0,12500236.0,0.0,0.0,18.0,845.0
4.124,5.155,89.691,0.0,0.0,1.031,0.0,0.0,439748.0,12500195.0,0.0,0.0,18.0,874.0
1.031,8.247,90.722,0.0,0.0,0.0,0.0,0.0,446744.0,12695167.0,0.0,0.0,19.0,807.0
2.083,8.333,89.583,0.0,0.0,0.0,0.0,0.0,458441.0,12888891.0,0.0,0.0,18.0,853.0
2.041,8.163,88.776,0.0,0.0,1.020,0.0,0.0,440586.0,12500974.0,0.0,0.0,18.0,874.0
2.062,6.186,91.753,0.0,0.0,0.0,0.0,0.0,439622.0,12500152.0,0.0,0.0,18.0,798.0
1.042,6.250,91.667,0.0,0.0,1.042,0.0,0.0,439542.0,12500150.0,0.0,0.0,18.0,826.0
4.167,5.208,90.625,0.0,0.0,0.0,0.0,0.0,445610.0,12500469.0,0.0,0.0,19.0,803.0
2.083,5.208,92.708,0.0,0.0,0.0,0.0,0.0,439755.0,12499022.0,0.0,0.0,18.0,786.0
1.042,6.250,92.708,0.0,0.0,0.0,0.0,0.0,439662.0,12500269.0,0.0,0.0,18.0,854.0
1.020,8.163,90.816,0.0,0.0,0.0,0.0,0.0,445513.0,12500453.0,0.0,0.0,18.0,803.0
3.030,7.071,88.889,0.0,0.0,1.010,0.0,8192.0,439873.0,12499010.0,0.0,0.0,18.0,814.0
2.062,6.186,91.753,0.0,0.0,0.0,0.0,0.0,439985.0,12500513.0,0.0,0.0,19.0,757.0
1.053,6.316,92.632,0.0,0.0,0.0,0.0,0.0,445693.0,12500559.0,0.0,0.0,18.0,772.0
2.083,5.208,92.708,0.0,0.0,0.0,0.0,0.0,439847.0,12498907.0,0.0,0.0,18.0,813.0
2.062,6.186,91.753,0.0,0.0,0.0,0.0,0.0,439981.0,12500271.0,0.0,0.0,18.0,802.0
3.125,7.292,88.542,0.0,0.0,1.042,0.0,16384.0,445287.0,12500310.0,0.0,0.0,19.0,821.0
1.053,5.263,93.684,0.0,0.0,0.0,0.0,0.0,439707.0,12500159.0,0.0,0.0,18.0,770.0
2.020,8.081,88.889,0.0,0.0,1.010,0.0,0.0,439652.0,12500095.0,0.0,0.0,18.0,749.0
4.167,4.167,88.542,3.125,0.0,0.0,0.0,36864.0,459251.0,12891160.0,0.0,0.0,18.0,866.0
1.042,6.250,92.708,0.0,0.0,0.0,0.0,0.0,439826.0,12500430.0,0.0,0.0,18.0,844.0
3.093,6.186,90.722,0.0,0.0,0.0,0.0,8192.0,439745.0,12498732.0,0.0,0.0,18.0,865.0
2.105,6.316,91.579,0.0,0.0,0.0,0.0,0.0,445471.0,12500411.0,0.0,0.0,19.0,785.0
3.030,8.081,88.889,0.0,0.0,0.0,0.0,0.0,439987.0,12500435.0,0.0,0.0,18.0,788.0
1.031,6.186,91.753,0.0,0.0,1.031,0.0,0.0,439972.0,12500502.0,0.0,0.0,18.0,711.0
3.061,6.122,90.816,0.0,0.0,0.0,0.0,0.0,445402.0,12499086.0,0.0,0.0,18.0,825.0
1.042,7.292,91.667,0.0,0.0,0.0,0.0,0.0,433584.0,12322587.0,0.0,0.0,19.0,807.0
0.0,7.292,91.667,0.0,0.0,1.042,0.0,0.0,445954.0,12677781.0,0.0,0.0,18.0,754.0
2.105,6.316,90.526,0.0,0.0,1.053,0.0,0.0,445231.0,12500250.0,0.0,0.0,18.0,738.0
2.020,7.071,90.909,0.0,0.0,0.0,0.0,0.0,439426.0,12499954.0,0.0,0.0,18.0,756.0
0.0,6.250,92.708,0.0,0.0,1.042,0.0,0.0,439543.0,12498682.0,0.0,0.0,18.0,773.0
4.082,8.163,87.755,0.0,0.0,0.0,0.0,0.0,445316.0,12501800.0,0.0,0.0,19.0,783.0
1.042,5.208,92.708,0.0,0.0,1.042,0.0,0.0,439782.0,12498841.0,0.0,0.0,18.0,731.0
1.042,7.292,91.667,0.0,0.0,0.0,0.0,0.0,439578.0,12500186.0,0.0,0.0,18.0,827.0
1.042,8.333,89.583,0.0,0.0,1.042,0.0,0.0,446265.0,12500379.0,0.0,0.0,18.0,827.0
1.020,7.143,90.816,0.0,0.0,1.020,0.0,0.0,440054.0,12499702.0,0.0,0.0,18.0,783.0
5.0,6.0,87.0,0.0,0.0,2.0,0.0,0.0,440071.0,12499176.0,0.0,0.0,19.0,874.0
2.020,10.101,87.879,0.0,0.0,0.0,0.0,0.0,445747.0,12500573.0,0.0,0.0,18.0,824.0
2.041,7.143,90.816,0.0,0.0,0.0,0.0,0.0,439749.0,12500276.0,0.0,0.0,18.0,814.0
2.105,3.158,94.737,0.0,0.0,0.0,0.0,0.0,439591.0,12500270.0,0.0,0.0,18.0,723.0
3.0,9.0,88.0,0.0,0.0,0.0,0.0,0.0,445482.0,12499093.0,0.0,0.0,18.0,835.0
4.167,9.375,84.375,0.0,0.0,2.083,0.0,0.0,442041.0,12499740.0,0.0,0.0,24.0,885.0
0.0,5.319,94.681,0.0,0.0,0.0,0.0,0.0,439899.0,12500347.0,0.0,0.0,18.0,749.0
3.061,7.143,87.755,0.0,0.0,2.041,0.0,0.0,445560.0,12500503.0,0.0,0.0,18.0,790.0
3.061,6.122,90.816,0.0,0.0,0.0,0.0,0.0,439693.0,12500297.0,0.0,0.0,18.0,808.0
3.093,4.124,91.753,0.0,0.0,1.031,0.0,0.0,439746.0,12498950.0,0.0,0.0,18.0,769.0
3.093,6.186,88.660,0.0,0.0,2.062,0.0,0.0,445177.0,12500306.0,0.0,0.0,19.0,867.0
2.083,6.250,91.667,0.0,0.0,0.0,0.0,0.0,440022.0,12500361.0,0.0,0.0,18.0,794.0
2.083,5.208,92.708,0.0,0.0,0.0,0.0,0.0,439707.0,12500312.0,0.0,0.0,18.0,768.0
1.042,7.292,87.500,4.167,0.0,0.0,0.0,32768.0,439863.0,12498845.0,0.0,0.0,18.0,783.0
2.041,7.143,89.796,0.0,0.0,1.020,0.0,0.0,445898.0,12501130.0,0.0,0.0,18.0,849.0
3.061,7.143,88.776,0.0,0.0,1.020,0.0,0.0,439638.0,12498984.0,0.0,0.0,19.0,789.0
0.0,5.319,94.681,0.0,0.0,0.0,0.0,40960.0,439775.0,12500223.0,0.0,0.0,18.0,812.0
3.061,8.163,87.755,0.0,0.0,1.020,0.0,0.0,445530.0,12500331.0,0.0,0.0,18.0,841.0
1.053,4.211,94.737,0.0,0.0,0.0,0.0,0.0,439601.0,12500206.0,0.0,0.0,18.0,819.0
2.020,5.051,91.919,0.0,0.0,1.010,0.0,0.0,439673.0,12498811.0,0.0,0.0,19.0,749.0
4.211,3.158,90.526,0.0,0.0,2.105,0.0,0.0,445642.0,12500209.0,0.0,0.0,18.0,875.0
2.041,7.143,90.816,0.0,0.0,0.0,0.0,0.0,446633.0,12696311.0,0.0,0.0,18.0,813.0
0.0,5.155,93.814,0.0,0.0,1.031,0.0,0.0,359476.0,10254320.0,0.0,0.0,18.0,615.0
