"Dstat 0.7.2 CSV output"
"Author:","Dag Wieers <dag@wieers.com>",,,,"URL:","http://dag.wieers.com/home-made/dstat/"
"Host:","Server1",,,,"User:","maki"
"Cmdline:","dstat --output server1_16_set_4_64.csv 1 70",,,,"Date:","20 Nov 2018 00:59:24 UTC"

"total cpu usage",,,,,,"dsk/total",,"net/total",,"paging",,"system",
"usr","sys","idl","wai","hiq","siq","read","writ","recv","send","in","out","int","csw"
7.123,14.224,75.685,1.127,0.0,1.842,23255.023,123471.452,0.0,0.0,0.0,0.0,18.810,1405.263
9.412,41.176,47.059,0.0,0.0,2.353,0.0,0.0,46255635.0,1499642.0,0.0,0.0,18.0,2136.0
15.0,42.500,37.500,0.0,0.0,5.0,0.0,0.0,45572895.0,1476194.0,0.0,0.0,19.0,1534.0
18.293,45.122,28.049,0.0,0.0,8.537,0.0,0.0,47380971.0,1537939.0,0.0,0.0,18.0,1195.0
16.883,38.961,41.558,0.0,0.0,2.597,0.0,0.0,48601965.0,1573980.0,0.0,0.0,18.0,1482.0
11.494,47.126,32.184,0.0,0.0,9.195,0.0,0.0,46506134.0,1506294.0,0.0,0.0,18.0,1328.0
17.949,38.462,37.179,0.0,0.0,6.410,0.0,0.0,48427336.0,1572313.0,0.0,0.0,19.0,1411.0
16.0,38.667,40.0,0.0,0.0,5.333,0.0,0.0,49488826.0,1603100.0,0.0,0.0,18.0,1403.0
21.333,36.0,38.667,0.0,0.0,4.0,0.0,0.0,48363326.0,1567968.0,0.0,0.0,18.0,1364.0
16.667,41.667,35.714,0.0,0.0,5.952,0.0,0.0,47472574.0,1540739.0,0.0,0.0,18.0,1397.0
12.987,44.156,37.662,0.0,0.0,5.195,0.0,0.0,48485443.0,1570834.0,0.0,0.0,18.0,1389.0
10.390,44.156,38.961,0.0,0.0,6.494,0.0,0.0,47482545.0,1539820.0,0.0,0.0,19.0,1316.0
15.190,45.570,36.709,0.0,0.0,2.532,0.0,0.0,47653073.0,1544593.0,0.0,0.0,18.0,1345.0
17.500,40.0,36.250,0.0,0.0,6.250,0.0,0.0,47754611.0,1547314.0,0.0,0.0,18.0,1347.0
17.722,45.570,30.380,0.0,0.0,6.329,0.0,0.0,44678028.0,1449224.0,0.0,0.0,23.0,1380.0
21.795,34.615,35.897,0.0,0.0,7.692,0.0,0.0,45756287.0,1486525.0,0.0,0.0,18.0,1407.0
14.103,43.590,34.615,2.564,0.0,5.128,0.0,40960.0,51109813.0,1654480.0,0.0,0.0,19.0,1420.0
14.286,40.260,38.961,0.0,0.0,6.494,0.0,0.0,47188871.0,1531708.0,0.0,0.0,18.0,1334.0
15.190,40.506,35.443,0.0,0.0,8.861,0.0,0.0,46512472.0,1507843.0,0.0,0.0,18.0,1402.0
18.056,40.278,38.889,0.0,0.0,2.778,0.0,0.0,45624637.0,1479974.0,0.0,0.0,18.0,1344.0
14.103,38.462,39.744,0.0,0.0,7.692,0.0,0.0,46743463.0,1513368.0,0.0,0.0,19.0,1412.0
15.385,39.744,37.179,0.0,0.0,7.692,0.0,0.0,46728381.0,1516025.0,0.0,0.0,18.0,1369.0
14.667,40.0,41.333,0.0,0.0,4.0,0.0,0.0,47442763.0,1536954.0,0.0,0.0,18.0,1362.0
10.959,43.836,42.466,0.0,0.0,2.740,0.0,0.0,46562184.0,1510428.0,0.0,0.0,18.0,1321.0
15.068,41.096,36.986,0.0,0.0,6.849,0.0,0.0,47289331.0,1533228.0,0.0,0.0,18.0,1405.0
18.750,36.250,36.250,0.0,0.0,8.750,0.0,0.0,47228082.0,1532354.0,0.0,0.0,19.0,1430.0
15.584,40.260,38.961,0.0,0.0,5.195,0.0,0.0,49445754.0,1600794.0,0.0,0.0,18.0,1326.0
16.216,40.541,36.486,0.0,0.0,6.757,0.0,0.0,48689622.0,1577908.0,0.0,0.0,18.0,1338.0
23.377,36.364,32.468,0.0,0.0,7.792,0.0,0.0,46532498.0,1510005.0,0.0,0.0,18.0,1364.0
16.667,38.462,34.615,0.0,0.0,10.256,0.0,0.0,49329344.0,1599814.0,0.0,0.0,18.0,1466.0
14.286,37.662,41.558,0.0,0.0,6.494,0.0,0.0,47036609.0,1521368.0,0.0,0.0,18.0,1353.0
13.750,42.500,37.500,0.0,0.0,6.250,0.0,12288.0,46821883.0,1520785.0,0.0,0.0,19.0,1328.0
18.519,39.506,37.037,0.0,0.0,4.938,0.0,0.0,48252427.0,1562854.0,0.0,0.0,18.0,1395.0
15.278,38.889,40.278,0.0,0.0,5.556,0.0,0.0,48367892.0,1567120.0,0.0,0.0,18.0,1436.0
18.987,39.241,36.709,0.0,0.0,5.063,0.0,0.0,46964757.0,1526113.0,0.0,0.0,18.0,1384.0
16.049,44.444,34.568,0.0,0.0,4.938,0.0,0.0,48029926.0,1553554.0,0.0,0.0,18.0,1355.0
16.667,38.462,39.744,0.0,0.0,5.128,0.0,0.0,48606297.0,1574194.0,0.0,0.0,19.0,1389.0
13.924,43.038,37.975,0.0,0.0,5.063,0.0,0.0,46667053.0,1516025.0,0.0,0.0,18.0,1416.0
17.500,38.750,36.250,0.0,0.0,7.500,0.0,0.0,47862972.0,1550114.0,0.0,0.0,18.0,1363.0
17.105,38.158,38.158,0.0,0.0,6.579,0.0,0.0,47923440.0,1552008.0,0.0,0.0,18.0,1435.0
23.377,40.260,32.468,0.0,0.0,3.896,0.0,0.0,45586940.0,1481071.0,0.0,0.0,19.0,1319.0
17.073,35.366,37.805,0.0,0.0,9.756,0.0,0.0,46785357.0,1514554.0,0.0,0.0,18.0,1324.0
16.0,37.333,40.0,0.0,0.0,6.667,0.0,0.0,50508868.0,1638100.0,0.0,0.0,18.0,1439.0
16.667,41.667,36.111,0.0,0.0,5.556,0.0,0.0,46191061.0,1499233.0,0.0,0.0,18.0,1312.0
14.815,45.679,34.568,0.0,0.0,4.938,0.0,0.0,48235285.0,1560894.0,0.0,0.0,18.0,1425.0
18.750,42.500,35.0,0.0,0.0,3.750,0.0,0.0,47051257.0,1525274.0,0.0,0.0,19.0,1401.0
12.987,41.558,37.662,0.0,0.0,7.792,0.0,24576.0,47679047.0,1548859.0,0.0,0.0,18.0,1364.0
17.949,41.026,37.179,0.0,0.0,3.846,0.0,0.0,48917492.0,1583994.0,0.0,0.0,18.0,1309.0
11.111,38.272,43.210,2.469,0.0,4.938,0.0,24576.0,49488352.0,1604154.0,0.0,0.0,18.0,1423.0
19.178,41.096,34.247,0.0,0.0,5.479,0.0,0.0,46281939.0,1501959.0,0.0,0.0,18.0,1352.0
17.284,38.272,38.272,0.0,0.0,6.173,0.0,0.0,47963844.0,1553498.0,0.0,0.0,19.0,1425.0
16.667,46.154,33.333,0.0,0.0,3.846,0.0,0.0,49632859.0,1606842.0,0.0,0.0,18.0,1462.0
14.286,37.662,38.961,0.0,0.0,9.091,0.0,0.0,45607717.0,1481099.0,0.0,0.0,18.0,1387.0
19.231,38.462,38.462,0.0,0.0,3.846,0.0,0.0,46691143.0,1512520.0,0.0,0.0,18.0,1359.0
20.482,38.554,37.349,0.0,0.0,3.614,0.0,0.0,47357170.0,1533668.0,0.0,0.0,19.0,1351.0
13.415,46.341,32.927,0.0,0.0,7.317,0.0,0.0,48011830.0,1559639.0,0.0,0.0,18.0,1377.0
9.756,45.122,36.585,0.0,0.0,8.537,0.0,0.0,47035959.0,1523850.0,0.0,0.0,18.0,1417.0
18.072,39.759,33.735,0.0,0.0,8.434,0.0,0.0,49656831.0,1610174.0,0.0,0.0,18.0,1408.0
9.333,44.0,41.333,0.0,0.0,5.333,0.0,0.0,47310854.0,1532384.0,0.0,0.0,18.0,1431.0
19.231,38.462,37.179,0.0,0.0,5.128,0.0,0.0,48723547.0,1581149.0,0.0,0.0,18.0,1384.0
12.0,38.667,44.0,0.0,0.0,5.333,0.0,0.0,49444096.0,1601090.0,0.0,0.0,19.0,1458.0
17.647,42.353,34.118,0.0,0.0,5.882,0.0,0.0,50187118.0,1625110.0,0.0,0.0,18.0,1441.0
18.519,37.037,37.037,0.0,0.0,7.407,0.0,0.0,46939487.0,1524705.0,0.0,0.0,18.0,1358.0
18.750,41.250,30.0,0.0,0.0,10.0,0.0,0.0,49623017.0,1607448.0,0.0,0.0,18.0,1334.0
18.072,40.964,31.325,0.0,0.0,9.639,0.0,0.0,50543290.0,1637120.0,0.0,0.0,19.0,1427.0
16.250,38.750,36.250,0.0,0.0,8.750,0.0,0.0,46718578.0,1516379.0,0.0,0.0,18.0,1310.0
13.514,44.595,39.189,0.0,0.0,2.703,0.0,8192.0,49419378.0,1600588.0,0.0,0.0,18.0,1412.0
16.250,38.750,40.0,0.0,0.0,5.0,0.0,0.0,49693321.0,1609552.0,0.0,0.0,18.0,1453.0
14.634,35.366,41.463,0.0,0.0,8.537,0.0,0.0,46870827.0,1524499.0,0.0,0.0,18.0,1424.0
14.286,37.662,42.857,0.0,0.0,5.195,0.0,0.0,47928524.0,1550888.0,0.0,0.0,19.0,1398.0
10.127,35.443,50.633,0.0,0.0,3.797,0.0,0.0,42866948.0,1391354.0,0.0,0.0,18.0,1479.0
