"Dstat 0.7.2 CSV output"
"Author:","Dag Wieers <dag@wieers.com>",,,,"URL:","http://dag.wieers.com/home-made/dstat/"
"Host:","Server1",,,,"User:","maki"
"Cmdline:","dstat --output server1_16_set_1_14.csv 1 70",,,,"Date:","20 Nov 2018 00:12:48 UTC"

"total cpu usage",,,,,,"dsk/total",,"net/total",,"paging",,"system",
"usr","sys","idl","wai","hiq","siq","read","writ","recv","send","in","out","int","csw"
6.312,12.139,78.409,1.856,0.0,1.284,39988.866,211228.624,0.0,0.0,0.0,0.0,19.191,1541.042
15.0,36.250,43.750,0.0,0.0,5.0,0.0,0.0,45507528.0,1470876.0,0.0,0.0,19.0,1977.0
16.250,38.750,35.0,0.0,0.0,10.0,0.0,0.0,45498713.0,1476894.0,0.0,0.0,18.0,1617.0
19.231,39.744,30.769,1.282,0.0,8.974,0.0,36864.0,44772116.0,1451715.0,0.0,0.0,18.0,1455.0
17.333,42.667,36.0,0.0,0.0,4.0,0.0,0.0,46432416.0,1503560.0,0.0,0.0,18.0,1381.0
15.854,41.463,36.585,0.0,0.0,6.098,0.0,0.0,47508748.0,1538848.0,0.0,0.0,19.0,1336.0
22.222,34.722,37.500,0.0,0.0,5.556,0.0,0.0,47051944.0,1527859.0,0.0,0.0,18.0,1378.0
21.622,39.189,35.135,0.0,0.0,4.054,0.0,0.0,45539507.0,1475528.0,0.0,0.0,18.0,1379.0
17.284,40.741,35.802,0.0,0.0,6.173,0.0,0.0,48290693.0,1566140.0,0.0,0.0,18.0,1386.0
17.500,41.250,33.750,0.0,0.0,7.500,0.0,0.0,46840034.0,1518479.0,0.0,0.0,18.0,1367.0
15.190,43.038,36.709,0.0,0.0,5.063,0.0,0.0,48853095.0,1581688.0,0.0,0.0,19.0,1346.0
17.949,41.026,35.897,0.0,0.0,5.128,0.0,0.0,47279404.0,1531494.0,0.0,0.0,18.0,1341.0
19.753,40.741,30.864,0.0,0.0,8.642,0.0,0.0,46827009.0,1520785.0,0.0,0.0,18.0,1342.0
15.789,44.737,35.526,0.0,0.0,3.947,0.0,0.0,47461085.0,1537654.0,0.0,0.0,18.0,1365.0
17.500,41.250,33.750,0.0,0.0,7.500,0.0,0.0,47526058.0,1538848.0,0.0,0.0,18.0,1371.0
23.377,35.065,36.364,0.0,0.0,5.195,0.0,0.0,45573588.0,1480465.0,0.0,0.0,19.0,1222.0
16.0,40.0,38.667,0.0,0.0,5.333,0.0,0.0,46134052.0,1494534.0,0.0,0.0,18.0,1305.0
20.732,37.805,29.268,0.0,0.0,12.195,0.0,0.0,48306421.0,1566618.0,0.0,0.0,18.0,1290.0
22.667,36.0,30.667,0.0,0.0,10.667,0.0,0.0,45435120.0,1473053.0,0.0,0.0,18.0,1250.0
17.500,40.0,35.0,0.0,0.0,7.500,0.0,0.0,46713206.0,1514274.0,0.0,0.0,18.0,1335.0
14.865,41.892,39.189,0.0,0.0,4.054,0.0,0.0,47192920.0,1529254.0,0.0,0.0,19.0,1409.0
18.056,44.444,31.944,0.0,0.0,5.556,0.0,0.0,46277829.0,1501185.0,0.0,0.0,18.0,1300.0
20.0,40.0,34.667,0.0,0.0,5.333,0.0,0.0,48091919.0,1557674.0,0.0,0.0,18.0,1341.0
19.231,37.179,37.179,0.0,0.0,6.410,0.0,0.0,49799421.0,1613048.0,0.0,0.0,18.0,1371.0
19.231,34.615,34.615,0.0,0.0,11.538,0.0,0.0,47518526.0,1544445.0,0.0,0.0,19.0,1359.0
22.368,38.158,32.895,0.0,0.0,6.579,0.0,0.0,48584922.0,1572374.0,0.0,0.0,18.0,1413.0
11.842,43.421,38.158,0.0,0.0,6.579,0.0,0.0,48273739.0,1563488.0,0.0,0.0,18.0,1339.0
20.482,37.349,33.735,0.0,0.0,8.434,0.0,0.0,45975478.0,1493345.0,0.0,0.0,18.0,1327.0
17.722,44.304,34.177,0.0,0.0,3.797,0.0,0.0,48403533.0,1567754.0,0.0,0.0,18.0,1425.0
18.421,35.526,38.158,0.0,0.0,7.895,0.0,0.0,48183086.0,1561594.0,0.0,0.0,19.0,1304.0
17.568,37.838,36.486,0.0,0.0,8.108,0.0,8192.0,46840255.0,1520719.0,0.0,0.0,18.0,1288.0
19.231,44.872,32.051,0.0,0.0,3.846,0.0,0.0,47115416.0,1526034.0,0.0,0.0,18.0,1292.0
18.667,40.0,33.333,0.0,0.0,8.0,0.0,0.0,46388798.0,1502188.0,0.0,0.0,18.0,1430.0
19.048,41.667,32.143,0.0,0.0,7.143,0.0,0.0,46123480.0,1499499.0,0.0,0.0,18.0,1288.0
23.077,34.615,33.333,1.282,0.0,7.692,0.0,12288.0,46687294.0,1510914.0,0.0,0.0,18.0,1394.0
12.329,43.836,38.356,0.0,0.0,5.479,0.0,0.0,46864389.0,1517914.0,0.0,0.0,19.0,1336.0
20.0,40.0,33.333,0.0,0.0,6.667,0.0,24576.0,47310993.0,1539413.0,0.0,0.0,18.0,1310.0
25.974,35.065,31.169,0.0,0.0,7.792,0.0,0.0,47191327.0,1525880.0,0.0,0.0,18.0,1332.0
16.667,48.810,23.810,0.0,0.0,10.714,0.0,0.0,47504140.0,1539334.0,0.0,0.0,18.0,1053.0
19.277,39.759,32.530,0.0,0.0,8.434,0.0,0.0,46540154.0,1507200.0,0.0,0.0,19.0,1329.0
16.667,45.238,32.143,0.0,0.0,5.952,0.0,0.0,46883211.0,1522959.0,0.0,0.0,17.0,1345.0
17.073,40.244,36.585,0.0,0.0,6.098,0.0,0.0,46730402.0,1513434.0,0.0,0.0,19.0,1295.0
18.421,39.474,35.526,0.0,0.0,6.579,0.0,0.0,47733374.0,1545074.0,0.0,0.0,18.0,1368.0
18.987,43.038,32.911,0.0,0.0,5.063,0.0,0.0,44151819.0,1440283.0,0.0,0.0,18.0,1374.0
18.519,37.037,35.802,0.0,0.0,8.642,0.0,0.0,48165650.0,1556274.0,0.0,0.0,19.0,1311.0
18.750,40.0,31.250,0.0,0.0,10.0,0.0,0.0,47210278.0,1529394.0,0.0,0.0,18.0,1208.0
18.750,40.0,31.250,0.0,0.0,10.0,0.0,0.0,47207390.0,1532965.0,0.0,0.0,18.0,1371.0
19.481,38.961,35.065,0.0,0.0,6.494,0.0,0.0,46914624.0,1519308.0,0.0,0.0,18.0,1295.0
20.833,36.111,36.111,0.0,0.0,6.944,0.0,0.0,45723192.0,1481094.0,0.0,0.0,18.0,1321.0
18.421,40.789,34.211,0.0,0.0,6.579,0.0,0.0,45485352.0,1477269.0,0.0,0.0,19.0,1297.0
18.919,40.541,35.135,0.0,0.0,5.405,0.0,0.0,47080697.0,1524848.0,0.0,0.0,18.0,1370.0
15.190,40.506,34.177,0.0,0.0,10.127,0.0,0.0,47106604.0,1525820.0,0.0,0.0,18.0,1302.0
16.667,42.308,32.051,0.0,0.0,8.974,0.0,0.0,45184487.0,1469759.0,0.0,0.0,18.0,1297.0
23.810,41.667,28.571,0.0,0.0,5.952,0.0,0.0,49147161.0,1589734.0,0.0,0.0,19.0,1300.0
16.049,45.679,30.864,0.0,0.0,7.407,0.0,0.0,46648497.0,1510988.0,0.0,0.0,18.0,1347.0
20.0,38.750,33.750,0.0,0.0,7.500,0.0,0.0,46857838.0,1522543.0,0.0,0.0,18.0,1341.0
16.456,40.506,34.177,0.0,0.0,8.861,0.0,0.0,48645550.0,1575528.0,0.0,0.0,18.0,1266.0
23.171,36.585,31.707,0.0,0.0,8.537,0.0,0.0,45801191.0,1484240.0,0.0,0.0,18.0,1272.0
19.737,43.421,32.895,0.0,0.0,3.947,0.0,0.0,45374659.0,1474519.0,0.0,0.0,19.0,1315.0
19.231,41.026,34.615,0.0,0.0,5.128,0.0,0.0,46639696.0,1509654.0,0.0,0.0,18.0,1319.0
22.785,40.506,29.114,0.0,0.0,7.595,0.0,0.0,48610917.0,1574474.0,0.0,0.0,18.0,1267.0
20.0,45.0,31.250,0.0,0.0,3.750,0.0,0.0,47103768.0,1530585.0,0.0,0.0,18.0,1368.0
20.0,44.0,28.0,0.0,0.0,8.0,0.0,0.0,47580177.0,1540518.0,0.0,0.0,18.0,1324.0
20.0,40.0,34.667,0.0,0.0,5.333,0.0,0.0,46198690.0,1496008.0,0.0,0.0,19.0,1290.0
21.795,43.590,29.487,0.0,0.0,5.128,0.0,0.0,46105106.0,1498805.0,0.0,0.0,18.0,1273.0
20.513,37.179,34.615,0.0,0.0,7.692,0.0,0.0,46674262.0,1510494.0,0.0,0.0,18.0,1254.0
20.930,41.860,31.395,1.163,0.0,4.651,0.0,20480.0,49276685.0,1595968.0,0.0,0.0,18.0,1262.0
23.750,37.500,28.750,0.0,0.0,10.0,0.0,8192.0,46528835.0,1511479.0,0.0,0.0,18.0,1333.0
23.377,40.260,32.468,0.0,0.0,3.896,0.0,0.0,46216962.0,1497018.0,0.0,0.0,19.0,1365.0
15.854,41.463,34.146,0.0,0.0,8.537,0.0,0.0,46428001.0,1506854.0,0.0,0.0,18.0,1339.0
16.250,23.750,52.500,0.0,0.0,7.500,0.0,0.0,37867863.0,1230639.0,0.0,0.0,18.0,1146.0
