"Dstat 0.7.2 CSV output"
"Author:","Dag Wieers <dag@wieers.com>",,,,"URL:","http://dag.wieers.com/home-made/dstat/"
"Host:","Server1",,,,"User:","maki"
"Cmdline:","dstat --output server1_32_set_4_64.csv 1 70",,,,"Date:","20 Nov 2018 01:54:02 UTC"

"total cpu usage",,,,,,"dsk/total",,"net/total",,"paging",,"system",
"usr","sys","idl","wai","hiq","siq","read","writ","recv","send","in","out","int","csw"
7.696,15.656,73.265,0.792,0.0,2.591,15600.577,83375.408,0.0,0.0,0.0,0.0,18.635,1290.823
11.688,44.156,31.169,0.0,0.0,12.987,0.0,0.0,51718131.0,1671532.0,0.0,0.0,19.0,1311.0
14.474,50.0,22.368,0.0,0.0,13.158,0.0,0.0,54545297.0,1772255.0,0.0,0.0,18.0,889.0
15.385,52.564,21.795,0.0,0.0,10.256,0.0,0.0,53915314.0,1744154.0,0.0,0.0,18.0,727.0
14.667,50.667,25.333,0.0,0.0,9.333,0.0,0.0,56516022.0,1832510.0,0.0,0.0,18.0,826.0
24.390,40.244,17.073,0.0,0.0,18.293,0.0,0.0,55544206.0,1802757.0,0.0,0.0,18.0,816.0
19.481,46.753,19.481,0.0,0.0,14.286,0.0,0.0,57183691.0,1853354.0,0.0,0.0,19.0,841.0
20.0,51.765,20.0,0.0,0.0,8.235,0.0,0.0,57812501.0,1872178.0,0.0,0.0,18.0,775.0
23.529,49.412,17.647,0.0,0.0,9.412,0.0,0.0,55710200.0,1808545.0,0.0,0.0,18.0,764.0
21.795,50.0,17.949,0.0,0.0,10.256,0.0,0.0,56726380.0,1838720.0,0.0,0.0,18.0,817.0
17.722,46.835,24.051,0.0,0.0,11.392,0.0,0.0,54148793.0,1750108.0,0.0,0.0,18.0,852.0
27.273,40.260,16.883,0.0,0.0,15.584,0.0,0.0,57587934.0,1873445.0,0.0,0.0,19.0,837.0
17.722,49.367,20.253,0.0,0.0,12.658,0.0,0.0,57691805.0,1862874.0,0.0,0.0,18.0,778.0
18.987,49.367,17.722,0.0,0.0,13.924,0.0,0.0,57438175.0,1868614.0,0.0,0.0,18.0,798.0
21.795,50.0,19.231,0.0,0.0,8.974,0.0,0.0,56438657.0,1824877.0,0.0,0.0,18.0,863.0
16.0,48.0,24.0,0.0,0.0,12.0,0.0,8192.0,54748507.0,1776148.0,0.0,0.0,18.0,853.0
20.253,48.101,17.722,0.0,0.0,13.924,0.0,0.0,56134587.0,1820828.0,0.0,0.0,20.0,813.0
22.500,40.0,18.750,0.0,0.0,18.750,0.0,0.0,57582909.0,1865745.0,0.0,0.0,18.0,789.0
20.0,48.571,20.0,0.0,0.0,11.429,0.0,0.0,57961248.0,1877434.0,0.0,0.0,18.0,854.0
24.0,50.667,17.333,0.0,0.0,8.0,0.0,0.0,58138443.0,1882128.0,0.0,0.0,18.0,822.0
21.687,48.193,16.867,0.0,0.0,13.253,0.0,4096.0,54886340.0,1781617.0,0.0,0.0,19.0,825.0
22.078,44.156,19.481,0.0,0.0,14.286,0.0,0.0,56880147.0,1841248.0,0.0,0.0,18.0,826.0
26.316,42.105,21.053,0.0,0.0,10.526,0.0,0.0,58549979.0,1896260.0,0.0,0.0,18.0,874.0
20.0,46.250,20.0,0.0,0.0,13.750,0.0,0.0,55502893.0,1802061.0,0.0,0.0,18.0,719.0
27.711,45.783,12.048,0.0,0.0,14.458,0.0,0.0,58921391.0,1908152.0,0.0,0.0,18.0,650.0
20.0,47.500,21.250,0.0,0.0,11.250,0.0,0.0,56904569.0,1842638.0,0.0,0.0,18.0,756.0
17.949,52.564,17.949,0.0,0.0,11.538,0.0,0.0,59352958.0,1922094.0,0.0,0.0,19.0,806.0
23.256,46.512,17.442,0.0,0.0,12.791,0.0,0.0,57574982.0,1871979.0,0.0,0.0,18.0,828.0
15.789,44.737,19.737,0.0,0.0,19.737,0.0,0.0,56835100.0,1840754.0,0.0,0.0,18.0,786.0
18.421,46.053,21.053,0.0,0.0,14.474,0.0,0.0,59028572.0,1910754.0,0.0,0.0,18.0,849.0
24.096,43.373,20.482,0.0,0.0,12.048,0.0,36864.0,54385915.0,1768761.0,0.0,0.0,19.0,913.0
20.253,44.304,17.722,0.0,0.0,17.722,0.0,4096.0,57083802.0,1846428.0,0.0,0.0,18.0,768.0
19.231,48.718,16.667,0.0,0.0,15.385,0.0,0.0,56400506.0,1826260.0,0.0,0.0,18.0,742.0
16.250,51.250,20.0,0.0,0.0,12.500,0.0,0.0,54664632.0,1774819.0,0.0,0.0,18.0,761.0
19.753,46.914,19.753,0.0,0.0,13.580,0.0,0.0,56856241.0,1840688.0,0.0,0.0,18.0,794.0
20.0,46.250,16.250,0.0,0.0,17.500,0.0,0.0,57616618.0,1868024.0,0.0,0.0,19.0,872.0
17.073,51.220,20.732,0.0,0.0,10.976,0.0,4096.0,57386487.0,1862179.0,0.0,0.0,18.0,810.0
16.049,51.852,19.753,0.0,0.0,12.346,0.0,0.0,57037636.0,1853148.0,0.0,0.0,18.0,786.0
20.482,45.783,18.072,0.0,0.0,15.663,0.0,0.0,56548167.0,1826540.0,0.0,0.0,18.0,780.0
22.093,47.674,15.116,0.0,0.0,15.116,0.0,0.0,56312841.0,1829991.0,0.0,0.0,18.0,775.0
16.667,52.564,21.795,0.0,0.0,8.974,0.0,0.0,56772337.0,1837814.0,0.0,0.0,19.0,828.0
19.481,45.455,19.481,0.0,0.0,15.584,0.0,0.0,58639535.0,1896614.0,0.0,0.0,18.0,827.0
22.785,44.304,17.722,0.0,0.0,15.190,0.0,0.0,55728096.0,1809259.0,0.0,0.0,18.0,759.0
18.293,51.220,15.854,0.0,0.0,14.634,0.0,0.0,58346013.0,1888074.0,0.0,0.0,18.0,772.0
11.688,55.844,18.182,0.0,0.0,14.286,0.0,0.0,58752465.0,1907954.0,0.0,0.0,18.0,821.0
27.273,42.857,16.883,0.0,0.0,12.987,0.0,0.0,51581826.0,1671687.0,0.0,0.0,24.0,935.0
15.663,53.012,19.277,0.0,0.0,12.048,0.0,0.0,56262330.0,1821648.0,0.0,0.0,18.0,779.0
20.0,48.235,17.647,0.0,0.0,14.118,0.0,0.0,56898037.0,1836340.0,0.0,0.0,18.0,717.0
22.222,50.617,17.284,0.0,0.0,9.877,0.0,0.0,56765579.0,1848673.0,0.0,0.0,18.0,780.0
20.238,50.0,20.238,0.0,0.0,9.524,0.0,0.0,58443838.0,1892694.0,0.0,0.0,18.0,798.0
16.250,51.250,18.750,0.0,0.0,13.750,0.0,0.0,55500346.0,1797700.0,0.0,0.0,19.0,764.0
21.687,51.807,13.253,0.0,0.0,13.253,0.0,0.0,56486159.0,1835159.0,0.0,0.0,18.0,735.0
23.077,44.872,19.231,0.0,0.0,12.821,0.0,0.0,57239882.0,1848388.0,0.0,0.0,18.0,782.0
22.785,46.835,16.456,0.0,0.0,13.924,0.0,0.0,56647366.0,1838720.0,0.0,0.0,18.0,715.0
20.513,47.436,17.949,0.0,0.0,14.103,0.0,0.0,56598448.0,1839791.0,0.0,0.0,19.0,742.0
21.918,41.096,26.027,0.0,0.0,10.959,0.0,0.0,54701923.0,1769428.0,0.0,0.0,18.0,804.0
24.390,45.122,17.073,0.0,0.0,13.415,0.0,0.0,57079661.0,1848034.0,0.0,0.0,18.0,796.0
24.691,45.679,16.049,0.0,0.0,13.580,0.0,0.0,58379052.0,1895404.0,0.0,0.0,18.0,778.0
22.222,51.852,17.284,0.0,0.0,8.642,0.0,0.0,58094790.0,1881375.0,0.0,0.0,18.0,765.0
22.222,40.278,22.222,0.0,0.0,15.278,0.0,0.0,55003446.0,1783988.0,0.0,0.0,19.0,813.0
19.737,51.316,18.421,0.0,0.0,10.526,0.0,0.0,56763885.0,1836274.0,0.0,0.0,18.0,821.0
14.458,54.217,14.458,1.205,0.0,15.663,0.0,65536.0,55422274.0,1800439.0,0.0,0.0,18.0,716.0
23.750,43.750,18.750,0.0,0.0,13.750,0.0,0.0,58769852.0,1902280.0,0.0,0.0,18.0,755.0
20.779,51.948,16.883,0.0,0.0,10.390,0.0,0.0,56989230.0,1845028.0,0.0,0.0,18.0,731.0
23.077,47.436,19.231,0.0,0.0,10.256,0.0,0.0,56091557.0,1824099.0,0.0,0.0,19.0,818.0
20.0,51.765,17.647,0.0,0.0,10.588,0.0,0.0,55251225.0,1786954.0,0.0,0.0,18.0,705.0
20.270,45.946,18.919,0.0,0.0,14.865,0.0,0.0,57818542.0,1871702.0,0.0,0.0,18.0,863.0
24.0,49.333,17.333,0.0,0.0,9.333,0.0,0.0,56691575.0,1839219.0,0.0,0.0,18.0,779.0
26.190,46.429,14.286,0.0,0.0,13.095,0.0,0.0,59712014.0,1934966.0,0.0,0.0,18.0,799.0
19.048,48.810,17.857,0.0,0.0,14.286,0.0,0.0,56681817.0,1836142.0,0.0,0.0,18.0,749.0
15.584,45.455,24.675,0.0,0.0,14.286,0.0,0.0,52882124.0,1723725.0,0.0,0.0,19.0,967.0
