"Dstat 0.7.2 CSV output"
"Author:","Dag Wieers <dag@wieers.com>",,,,"URL:","http://dag.wieers.com/home-made/dstat/"
"Host:","Server1",,,,"User:","maki"
"Cmdline:","dstat --output server1_8_get_2_22.csv 1 70",,,,"Date:","20 Nov 2018 03:10:42 UTC"

"total cpu usage",,,,,,"dsk/total",,"net/total",,"paging",,"system",
"usr","sys","idl","wai","hiq","siq","read","writ","recv","send","in","out","int","csw"
7.563,15.737,72.749,0.569,0.0,3.383,10689.829,57587.593,0.0,0.0,0.0,0.0,18.523,1174.425
2.128,5.319,92.553,0.0,0.0,0.0,0.0,0.0,460032.0,13047754.0,0.0,0.0,19.0,1436.0
2.198,5.495,92.308,0.0,0.0,0.0,0.0,32768.0,445532.0,12499295.0,0.0,0.0,18.0,1066.0
0.0,6.316,93.684,0.0,0.0,0.0,0.0,0.0,440016.0,12500620.0,0.0,0.0,18.0,832.0
0.0,8.163,91.837,0.0,0.0,0.0,0.0,0.0,439752.0,12500356.0,0.0,0.0,18.0,883.0
2.105,5.263,92.632,0.0,0.0,0.0,0.0,0.0,445097.0,12500124.0,0.0,0.0,18.0,849.0
0.0,5.263,93.684,0.0,0.0,1.053,0.0,0.0,439956.0,12499011.0,0.0,0.0,19.0,773.0
3.0,9.0,87.0,0.0,0.0,1.0,0.0,0.0,439821.0,12500425.0,0.0,0.0,18.0,793.0
2.105,5.263,92.632,0.0,0.0,0.0,0.0,0.0,445676.0,12499230.0,0.0,0.0,18.0,804.0
1.031,6.186,92.784,0.0,0.0,0.0,0.0,0.0,439865.0,12500317.0,0.0,0.0,18.0,774.0
1.042,6.250,92.708,0.0,0.0,0.0,0.0,0.0,439777.0,12500304.0,0.0,0.0,18.0,780.0
1.064,5.319,92.553,0.0,0.0,1.064,0.0,0.0,452274.0,12695187.0,0.0,0.0,19.0,847.0
1.053,5.263,92.632,0.0,0.0,1.053,0.0,0.0,439610.0,12498745.0,0.0,0.0,18.0,836.0
1.053,6.316,92.632,0.0,0.0,0.0,0.0,0.0,446563.0,12696241.0,0.0,0.0,18.0,841.0
1.031,8.247,90.722,0.0,0.0,0.0,0.0,0.0,445762.0,12500550.0,0.0,0.0,18.0,789.0
1.064,4.255,94.681,0.0,0.0,0.0,0.0,0.0,439616.0,12500221.0,0.0,0.0,18.0,775.0
1.042,6.250,92.708,0.0,0.0,0.0,0.0,0.0,439790.0,12498926.0,0.0,0.0,18.0,761.0
8.511,9.574,81.915,0.0,0.0,0.0,0.0,0.0,447302.0,12501255.0,0.0,0.0,19.0,932.0
0.0,5.319,94.681,0.0,0.0,0.0,0.0,0.0,439517.0,12500119.0,0.0,0.0,18.0,786.0
0.0,5.263,93.684,0.0,0.0,1.053,0.0,0.0,446754.0,12694964.0,0.0,0.0,18.0,761.0
3.061,5.102,89.796,0.0,0.0,2.041,0.0,0.0,445566.0,12499045.0,0.0,0.0,18.0,831.0
1.031,7.216,91.753,0.0,0.0,0.0,0.0,0.0,439610.0,12500213.0,0.0,0.0,19.0,809.0
2.041,8.163,88.776,0.0,0.0,1.020,0.0,0.0,439753.0,12500358.0,0.0,0.0,18.0,832.0
3.125,8.333,86.458,2.083,0.0,0.0,0.0,40960.0,445522.0,12499283.0,0.0,0.0,18.0,886.0
2.0,7.0,90.0,0.0,0.0,1.0,0.0,0.0,439923.0,12499064.0,0.0,0.0,18.0,796.0
1.053,6.316,92.632,0.0,0.0,0.0,0.0,0.0,439856.0,12500458.0,0.0,0.0,18.0,793.0
2.062,6.186,91.753,0.0,0.0,0.0,0.0,0.0,445161.0,12501837.0,0.0,0.0,19.0,848.0
2.083,6.250,90.625,0.0,0.0,1.042,0.0,0.0,439935.0,12498883.0,0.0,0.0,18.0,852.0
1.031,8.247,90.722,0.0,0.0,0.0,0.0,0.0,453466.0,12890911.0,0.0,0.0,18.0,829.0
1.031,7.216,90.722,0.0,0.0,1.031,0.0,0.0,439518.0,12500122.0,0.0,0.0,18.0,820.0
3.158,3.158,93.684,0.0,0.0,0.0,0.0,0.0,445149.0,12500169.0,0.0,0.0,18.0,838.0
1.042,5.208,92.708,0.0,0.0,1.042,0.0,0.0,439566.0,12498988.0,0.0,0.0,19.0,847.0
2.105,6.316,91.579,0.0,0.0,0.0,0.0,0.0,440054.0,12500436.0,0.0,0.0,18.0,865.0
2.151,3.226,94.624,0.0,0.0,0.0,0.0,4096.0,445357.0,12500378.0,0.0,0.0,18.0,832.0
0.0,6.316,92.632,0.0,0.0,1.053,0.0,0.0,446740.0,12694877.0,0.0,0.0,18.0,847.0
2.062,5.155,92.784,0.0,0.0,0.0,0.0,0.0,439835.0,12500436.0,0.0,0.0,19.0,806.0
2.041,7.143,89.796,0.0,0.0,1.020,0.0,0.0,445578.0,12500599.0,0.0,0.0,18.0,823.0
3.093,7.216,89.691,0.0,0.0,0.0,0.0,0.0,439673.0,12499019.0,0.0,0.0,18.0,871.0
2.062,7.216,89.691,0.0,0.0,1.031,0.0,0.0,439639.0,12500247.0,0.0,0.0,18.0,814.0
2.083,4.167,92.708,0.0,0.0,1.042,0.0,0.0,445252.0,12500195.0,0.0,0.0,18.0,847.0
1.010,8.081,90.909,0.0,0.0,0.0,0.0,0.0,439674.0,12498656.0,0.0,0.0,19.0,736.0
1.042,6.250,92.708,0.0,0.0,0.0,0.0,0.0,439428.0,12501418.0,0.0,0.0,18.0,786.0
2.151,7.527,90.323,0.0,0.0,0.0,0.0,0.0,445256.0,12500279.0,0.0,0.0,18.0,793.0
1.042,5.208,92.708,0.0,0.0,1.042,0.0,0.0,439630.0,12498765.0,0.0,0.0,18.0,788.0
1.064,6.383,92.553,0.0,0.0,0.0,0.0,0.0,439963.0,12500335.0,0.0,0.0,18.0,807.0
1.064,6.383,92.553,0.0,0.0,0.0,0.0,0.0,445811.0,12500082.0,0.0,0.0,19.0,790.0
0.0,4.301,95.699,0.0,0.0,0.0,0.0,0.0,440810.0,12499828.0,0.0,0.0,18.0,819.0
2.083,8.333,89.583,0.0,0.0,0.0,0.0,0.0,439565.0,12500174.0,0.0,0.0,18.0,868.0
4.040,7.071,87.879,0.0,0.0,1.010,0.0,0.0,445344.0,12500360.0,0.0,0.0,18.0,787.0
0.0,3.226,95.699,0.0,0.0,1.075,0.0,0.0,446433.0,12695007.0,0.0,0.0,18.0,766.0
2.0,8.0,90.0,0.0,0.0,0.0,0.0,0.0,439673.0,12500281.0,0.0,0.0,19.0,719.0
2.105,6.316,91.579,0.0,0.0,0.0,0.0,0.0,445462.0,12498938.0,0.0,0.0,18.0,795.0
2.083,8.333,88.542,0.0,0.0,1.042,0.0,0.0,446868.0,12694922.0,0.0,0.0,18.0,824.0
2.041,7.143,90.816,0.0,0.0,0.0,0.0,0.0,439886.0,12500337.0,0.0,0.0,18.0,800.0
2.105,7.368,88.421,2.105,0.0,0.0,0.0,40960.0,445481.0,12499097.0,0.0,0.0,18.0,834.0
2.041,7.143,90.816,0.0,0.0,0.0,0.0,0.0,439810.0,12500414.0,0.0,0.0,19.0,762.0
1.031,7.216,91.753,0.0,0.0,0.0,0.0,0.0,439852.0,12500302.0,0.0,0.0,18.0,765.0
3.093,8.247,88.660,0.0,0.0,0.0,0.0,0.0,445756.0,12499599.0,0.0,0.0,18.0,819.0
1.053,5.263,92.632,0.0,0.0,1.053,0.0,0.0,439956.0,12501729.0,0.0,0.0,18.0,800.0
2.041,7.143,90.816,0.0,0.0,0.0,0.0,0.0,439457.0,12498878.0,0.0,0.0,18.0,769.0
1.053,5.263,93.684,0.0,0.0,0.0,0.0,0.0,445237.0,12500407.0,0.0,0.0,19.0,777.0
0.0,5.263,93.684,0.0,0.0,1.053,0.0,0.0,439922.0,12498836.0,0.0,0.0,18.0,791.0
4.082,7.143,88.776,0.0,0.0,0.0,0.0,0.0,439691.0,12500292.0,0.0,0.0,18.0,827.0
1.042,7.292,91.667,0.0,0.0,0.0,0.0,0.0,445453.0,12500396.0,0.0,0.0,18.0,790.0
1.053,3.158,94.737,0.0,0.0,1.053,0.0,8192.0,446507.0,12694798.0,0.0,0.0,18.0,800.0
2.020,8.081,89.899,0.0,0.0,0.0,0.0,0.0,439579.0,12500183.0,0.0,0.0,19.0,779.0
1.053,5.263,92.632,0.0,0.0,1.053,0.0,0.0,445430.0,12500305.0,0.0,0.0,18.0,772.0
2.128,7.447,90.426,0.0,0.0,0.0,0.0,0.0,439725.0,12500253.0,0.0,0.0,18.0,786.0
1.020,6.122,91.837,0.0,0.0,1.020,0.0,0.0,439851.0,12500220.0,0.0,0.0,18.0,735.0
2.151,3.226,94.624,0.0,0.0,0.0,0.0,0.0,445271.0,12497579.0,0.0,0.0,18.0,809.0
1.020,6.122,91.837,0.0,0.0,1.020,0.0,0.0,369231.0,10529891.0,0.0,0.0,19.0,705.0
