"Dstat 0.7.2 CSV output"
"Author:","Dag Wieers <dag@wieers.com>",,,,"URL:","http://dag.wieers.com/home-made/dstat/"
"Host:","Server1",,,,"User:","maki"
"Cmdline:","dstat --output server1_32_get_3_1.csv 1 70",,,,"Date:","20 Nov 2018 07:37:06 UTC"

"total cpu usage",,,,,,"dsk/total",,"net/total",,"paging",,"system",
"usr","sys","idl","wai","hiq","siq","read","writ","recv","send","in","out","int","csw"
4.156,8.765,84.709,0.398,0.0,1.972,7927.514,28367.597,0.0,0.0,0.0,0.0,18.397,826.463
2.105,6.316,88.421,0.0,0.0,3.158,0.0,0.0,358970.0,9926411.0,0.0,0.0,18.0,2599.0
4.167,5.208,83.333,0.0,0.0,7.292,0.0,0.0,393696.0,11109052.0,0.0,0.0,23.0,2612.0
3.093,7.216,84.536,0.0,0.0,5.155,0.0,0.0,422110.0,12001610.0,0.0,0.0,18.0,2955.0
3.093,6.186,84.536,0.0,0.0,6.186,0.0,0.0,450826.0,12645995.0,0.0,0.0,19.0,2906.0
2.083,7.292,88.542,0.0,0.0,2.083,0.0,0.0,392186.0,11162090.0,0.0,0.0,18.0,2809.0
1.042,6.250,88.542,0.0,0.0,4.167,0.0,0.0,436296.0,12397997.0,0.0,0.0,18.0,2586.0
2.041,7.143,84.694,0.0,0.0,6.122,0.0,8192.0,447326.0,12559965.0,0.0,0.0,18.0,2869.0
1.020,6.122,85.714,0.0,0.0,7.143,0.0,0.0,439403.0,12500288.0,0.0,0.0,18.0,2728.0
2.062,7.216,87.629,0.0,0.0,3.093,0.0,0.0,436193.0,12393799.0,0.0,0.0,18.0,2546.0
3.093,8.247,85.567,0.0,0.0,3.093,0.0,0.0,448740.0,12615417.0,0.0,0.0,19.0,2877.0
1.020,8.163,86.735,0.0,0.0,4.082,0.0,0.0,439727.0,12496003.0,0.0,0.0,18.0,2820.0
0.0,8.421,85.263,3.158,0.0,3.158,0.0,40960.0,439736.0,12496012.0,0.0,0.0,18.0,2678.0
6.061,7.071,82.828,0.0,0.0,4.040,0.0,0.0,444926.0,12483315.0,0.0,0.0,18.0,2658.0
1.020,7.143,85.714,0.0,0.0,6.122,0.0,0.0,437644.0,12453400.0,0.0,0.0,19.0,2871.0
2.041,8.163,85.714,0.0,0.0,4.082,0.0,0.0,441694.0,12555754.0,0.0,0.0,18.0,2897.0
2.041,5.102,83.673,0.0,0.0,9.184,0.0,0.0,444691.0,12487549.0,0.0,0.0,18.0,2740.0
3.0,9.0,84.0,0.0,0.0,4.0,0.0,0.0,432641.0,12295812.0,0.0,0.0,18.0,2762.0
2.128,6.383,88.298,0.0,0.0,3.191,0.0,0.0,447358.0,12706268.0,0.0,0.0,18.0,2860.0
2.083,6.250,88.542,0.0,0.0,3.125,0.0,0.0,439695.0,12500297.0,0.0,0.0,19.0,2736.0
2.062,7.216,85.567,0.0,0.0,5.155,0.0,0.0,443587.0,12455042.0,0.0,0.0,18.0,2806.0
2.083,6.250,87.500,0.0,0.0,4.167,0.0,0.0,436912.0,12434922.0,0.0,0.0,18.0,2832.0
1.042,8.333,86.458,0.0,0.0,4.167,0.0,0.0,444192.0,12611157.0,0.0,0.0,18.0,2976.0
2.062,9.278,82.474,0.0,0.0,6.186,0.0,0.0,445211.0,12500365.0,0.0,0.0,18.0,2718.0
1.980,9.901,82.178,0.0,0.0,5.941,0.0,0.0,433025.0,12317065.0,0.0,0.0,19.0,2602.0
1.042,6.250,87.500,0.0,0.0,5.208,0.0,0.0,445591.0,12666563.0,0.0,0.0,18.0,2791.0
2.083,8.333,86.458,0.0,0.0,3.125,0.0,0.0,443826.0,12457777.0,0.0,0.0,18.0,2709.0
0.990,8.911,83.168,0.0,0.0,6.931,0.0,0.0,441777.0,12555670.0,0.0,0.0,18.0,2842.0
2.105,5.263,87.368,0.0,0.0,5.263,0.0,0.0,438422.0,12461939.0,0.0,0.0,18.0,2663.0
2.105,7.368,88.421,0.0,0.0,2.105,0.0,0.0,442097.0,12410900.0,0.0,0.0,19.0,2550.0
2.041,8.163,86.735,0.0,0.0,3.061,0.0,0.0,442644.0,12598328.0,0.0,0.0,18.0,2654.0
2.020,7.071,85.859,0.0,0.0,5.051,0.0,0.0,441279.0,12530163.0,0.0,0.0,18.0,2622.0
1.075,5.376,89.247,0.0,0.0,4.301,0.0,0.0,444784.0,12487603.0,0.0,0.0,18.0,2809.0
1.980,9.901,82.178,0.0,0.0,5.941,0.0,16384.0,435546.0,12397997.0,0.0,0.0,19.0,2752.0
2.0,8.0,85.0,0.0,0.0,5.0,0.0,0.0,442367.0,12577004.0,0.0,0.0,18.0,2969.0
2.083,8.333,84.375,0.0,0.0,5.208,0.0,0.0,446336.0,12534453.0,0.0,0.0,18.0,2775.0
3.061,6.122,85.714,0.0,0.0,5.102,0.0,0.0,439808.0,12500298.0,0.0,0.0,18.0,2900.0
1.042,5.208,88.542,0.0,0.0,5.208,0.0,0.0,438795.0,12474727.0,0.0,0.0,18.0,2845.0
2.062,9.278,83.505,0.0,0.0,5.155,0.0,0.0,446461.0,12525958.0,0.0,0.0,19.0,2929.0
2.041,7.143,85.714,0.0,0.0,5.102,0.0,0.0,442985.0,12598316.0,0.0,0.0,18.0,2580.0
1.031,8.247,87.629,0.0,0.0,3.093,0.0,0.0,450015.0,12794370.0,0.0,0.0,18.0,2630.0
1.042,8.333,85.417,0.0,0.0,5.208,0.0,0.0,445260.0,12500415.0,0.0,0.0,18.0,2848.0
1.042,7.292,87.500,0.0,0.0,4.167,0.0,0.0,440009.0,12500361.0,0.0,0.0,18.0,2798.0
3.093,7.216,83.505,2.062,0.0,4.124,0.0,53248.0,439399.0,12496059.0,0.0,0.0,19.0,2938.0
3.093,9.278,84.536,0.0,0.0,3.093,0.0,0.0,436327.0,12244678.0,0.0,0.0,18.0,2802.0
1.031,9.278,86.598,0.0,0.0,3.093,0.0,0.0,448668.0,12760272.0,0.0,0.0,18.0,2709.0
2.0,7.0,85.0,0.0,0.0,6.0,0.0,0.0,439695.0,12500299.0,0.0,0.0,18.0,2823.0
2.083,7.292,86.458,0.0,0.0,4.167,0.0,0.0,440615.0,12368286.0,0.0,0.0,18.0,2793.0
1.087,6.522,88.043,0.0,0.0,4.348,0.0,0.0,444481.0,12632479.0,0.0,0.0,19.0,3034.0
2.062,8.247,85.567,0.0,0.0,4.124,0.0,0.0,447218.0,12693356.0,0.0,0.0,18.0,2964.0
2.062,7.216,83.505,0.0,0.0,7.216,0.0,0.0,446043.0,12501680.0,0.0,0.0,18.0,2779.0
1.053,4.211,89.474,0.0,0.0,5.263,0.0,0.0,439655.0,12496249.0,0.0,0.0,18.0,2645.0
2.105,5.263,88.421,0.0,0.0,4.211,0.0,0.0,439022.0,12479014.0,0.0,0.0,18.0,2968.0
4.167,6.250,85.417,0.0,0.0,4.167,0.0,0.0,436969.0,12257422.0,0.0,0.0,19.0,2787.0
0.980,9.804,83.333,0.0,0.0,5.882,0.0,0.0,446186.0,12700570.0,0.0,0.0,18.0,2824.0
1.031,8.247,87.629,0.0,0.0,3.093,0.0,0.0,440963.0,12521551.0,0.0,0.0,18.0,2663.0
3.093,7.216,85.567,0.0,0.0,4.124,0.0,0.0,437162.0,12261710.0,0.0,0.0,18.0,2715.0
3.061,8.163,85.714,0.0,0.0,3.061,0.0,0.0,448707.0,12761759.0,0.0,0.0,18.0,2853.0
1.042,9.375,85.417,0.0,0.0,4.167,0.0,0.0,446735.0,12699155.0,0.0,0.0,19.0,2783.0
1.053,4.211,88.421,0.0,0.0,6.316,0.0,0.0,439523.0,12508782.0,0.0,0.0,18.0,2916.0
3.0,9.0,83.0,0.0,0.0,5.0,0.0,0.0,445336.0,12497546.0,0.0,0.0,18.0,2902.0
1.042,5.208,88.542,0.0,0.0,5.208,0.0,0.0,445511.0,12669296.0,0.0,0.0,18.0,2843.0
1.064,9.574,82.979,0.0,0.0,6.383,0.0,0.0,426794.0,12059390.0,0.0,0.0,23.0,2642.0
3.191,8.511,84.043,0.0,0.0,4.255,0.0,0.0,455560.0,12820015.0,0.0,0.0,18.0,3033.0
2.0,8.0,84.0,0.0,0.0,6.0,0.0,8192.0,437372.0,12415070.0,0.0,0.0,19.0,2881.0
2.062,7.216,85.567,0.0,0.0,5.155,0.0,0.0,439071.0,12487507.0,0.0,0.0,18.0,2937.0
4.082,8.163,84.694,0.0,0.0,3.061,0.0,0.0,448499.0,12573597.0,0.0,0.0,18.0,2823.0
2.083,6.250,87.500,0.0,0.0,4.167,0.0,0.0,439770.0,12500290.0,0.0,0.0,18.0,2904.0
2.105,6.316,87.368,0.0,0.0,4.211,0.0,0.0,439390.0,12497515.0,0.0,0.0,19.0,2648.0
4.082,6.122,84.694,0.0,0.0,5.102,0.0,0.0,439324.0,12336973.0,0.0,0.0,18.0,2627.0
0.0,7.292,89.583,0.0,0.0,3.125,0.0,0.0,374689.0,10654917.0,0.0,0.0,18.0,2365.0
