"Dstat 0.7.2 CSV output"
"Author:","Dag Wieers <dag@wieers.com>",,,,"URL:","http://dag.wieers.com/home-made/dstat/"
"Host:","Server1",,,,"User:","maki"
"Cmdline:","dstat --output server1_8_get_2_4.csv 1 70",,,,"Date:","20 Nov 2018 03:07:03 UTC"

"total cpu usage",,,,,,"dsk/total",,"net/total",,"paging",,"system",
"usr","sys","idl","wai","hiq","siq","read","writ","recv","send","in","out","int","csw"
7.659,15.921,72.413,0.574,0.0,3.433,10853.126,58428.999,0.0,0.0,0.0,0.0,18.527,1182.084
1.075,7.527,91.398,0.0,0.0,0.0,0.0,4096.0,458973.0,12967521.0,0.0,0.0,19.0,1637.0
1.053,6.316,91.579,0.0,0.0,1.053,0.0,0.0,446744.0,12696564.0,0.0,0.0,18.0,1449.0
3.125,7.292,89.583,0.0,0.0,0.0,0.0,0.0,445102.0,12498957.0,0.0,0.0,18.0,1276.0
0.0,8.247,90.722,0.0,0.0,1.031,0.0,0.0,447062.0,12694897.0,0.0,0.0,18.0,1209.0
2.105,7.368,89.474,0.0,0.0,1.053,0.0,0.0,439788.0,12500395.0,0.0,0.0,18.0,1302.0
2.083,7.292,90.625,0.0,0.0,0.0,0.0,0.0,445320.0,12500337.0,0.0,0.0,19.0,1123.0
1.031,9.278,89.691,0.0,0.0,0.0,0.0,0.0,439804.0,12500332.0,0.0,0.0,18.0,1123.0
2.020,8.081,89.899,0.0,0.0,0.0,0.0,0.0,439105.0,12487373.0,0.0,0.0,18.0,1121.0
1.042,9.375,89.583,0.0,0.0,0.0,0.0,0.0,445716.0,12510421.0,0.0,0.0,18.0,1213.0
1.0,13.0,85.0,0.0,0.0,1.0,0.0,0.0,439865.0,12501786.0,0.0,0.0,18.0,1138.0
2.062,8.247,89.691,0.0,0.0,0.0,0.0,0.0,439909.0,12500214.0,0.0,0.0,19.0,1080.0
2.105,7.368,90.526,0.0,0.0,0.0,0.0,0.0,445240.0,12490338.0,0.0,0.0,18.0,1087.0
2.062,7.216,90.722,0.0,0.0,0.0,0.0,0.0,439983.0,12508808.0,0.0,0.0,18.0,1129.0
1.031,6.186,91.753,0.0,0.0,1.031,0.0,0.0,439873.0,12500325.0,0.0,0.0,18.0,1115.0
3.191,6.383,89.362,0.0,0.0,1.064,0.0,0.0,445242.0,12500409.0,0.0,0.0,18.0,1222.0
3.158,4.211,88.421,3.158,0.0,1.053,0.0,45056.0,439952.0,12500329.0,0.0,0.0,19.0,1190.0
1.053,5.263,93.684,0.0,0.0,0.0,0.0,0.0,439593.0,12499017.0,0.0,0.0,18.0,1135.0
4.301,6.452,89.247,0.0,0.0,0.0,0.0,0.0,444053.0,12447721.0,0.0,0.0,18.0,1328.0
1.042,5.208,92.708,0.0,0.0,1.042,0.0,0.0,386523.0,10990210.0,0.0,0.0,18.0,1175.0
3.158,7.368,89.474,0.0,0.0,0.0,0.0,0.0,461693.0,13123972.0,0.0,0.0,18.0,1300.0
3.158,6.316,90.526,0.0,0.0,0.0,0.0,0.0,445480.0,12500500.0,0.0,0.0,19.0,1184.0
1.053,6.316,91.579,0.0,0.0,1.053,0.0,0.0,438983.0,12493188.0,0.0,0.0,18.0,1415.0
4.124,9.278,86.598,0.0,0.0,0.0,0.0,0.0,441135.0,12506139.0,0.0,0.0,18.0,1262.0
1.075,4.301,94.624,0.0,0.0,0.0,0.0,0.0,441984.0,12432223.0,0.0,0.0,18.0,1253.0
2.151,5.376,90.323,0.0,0.0,2.151,0.0,0.0,443197.0,12567773.0,0.0,0.0,19.0,1434.0
3.125,5.208,91.667,0.0,0.0,0.0,0.0,8192.0,439641.0,12500246.0,0.0,0.0,18.0,1128.0
1.075,4.301,94.624,0.0,0.0,0.0,0.0,0.0,438530.0,12453224.0,0.0,0.0,18.0,1129.0
4.082,6.122,87.755,0.0,0.0,2.041,0.0,0.0,453563.0,12740554.0,0.0,0.0,18.0,1180.0
3.061,5.102,90.816,0.0,0.0,1.020,0.0,0.0,440139.0,12501744.0,0.0,0.0,18.0,1235.0
2.128,6.383,90.426,0.0,0.0,1.064,0.0,0.0,439799.0,12500328.0,0.0,0.0,19.0,1096.0
3.191,5.319,91.489,0.0,0.0,0.0,0.0,8192.0,445906.0,12499672.0,0.0,0.0,18.0,1115.0
1.053,6.316,92.632,0.0,0.0,0.0,0.0,0.0,439737.0,12500347.0,0.0,0.0,18.0,1129.0
1.075,3.226,94.624,0.0,0.0,1.075,0.0,0.0,439511.0,12498881.0,0.0,0.0,18.0,1164.0
2.105,8.421,89.474,0.0,0.0,0.0,0.0,0.0,452983.0,12706449.0,0.0,0.0,18.0,1139.0
3.125,6.250,89.583,0.0,0.0,1.042,0.0,0.0,437196.0,12456222.0,0.0,0.0,19.0,1176.0
2.041,8.163,89.796,0.0,0.0,0.0,0.0,0.0,442223.0,12544330.0,0.0,0.0,18.0,1143.0
2.105,6.316,90.526,0.0,0.0,1.053,0.0,0.0,445160.0,12500260.0,0.0,0.0,18.0,1216.0
0.0,7.292,91.667,0.0,0.0,1.042,0.0,0.0,453488.0,12889582.0,0.0,0.0,18.0,1159.0
1.053,6.316,92.632,0.0,0.0,0.0,0.0,0.0,439673.0,12500276.0,0.0,0.0,18.0,1136.0
3.158,8.421,88.421,0.0,0.0,0.0,0.0,0.0,444999.0,12500337.0,0.0,0.0,19.0,1215.0
1.031,7.216,90.722,0.0,0.0,1.031,0.0,0.0,440131.0,12498795.0,0.0,0.0,18.0,1061.0
2.062,7.216,90.722,0.0,0.0,0.0,0.0,0.0,436976.0,12432060.0,0.0,0.0,18.0,1190.0
1.042,7.292,90.625,0.0,0.0,1.042,0.0,0.0,448140.0,12568521.0,0.0,0.0,18.0,1183.0
1.031,8.247,90.722,0.0,0.0,0.0,0.0,0.0,439813.0,12498865.0,0.0,0.0,18.0,1152.0
3.125,8.333,88.542,0.0,0.0,0.0,0.0,0.0,445859.0,12696330.0,0.0,0.0,19.0,1286.0
2.128,6.383,91.489,0.0,0.0,0.0,0.0,0.0,444193.0,12473405.0,0.0,0.0,18.0,1204.0
0.0,7.216,87.629,3.093,0.0,2.062,0.0,61440.0,448759.0,12721922.0,0.0,0.0,18.0,1156.0
2.0,10.0,88.0,0.0,0.0,0.0,0.0,0.0,439031.0,12470454.0,0.0,0.0,18.0,1099.0
2.083,7.292,90.625,0.0,0.0,0.0,0.0,0.0,444046.0,12501358.0,0.0,0.0,18.0,1151.0
3.158,5.263,91.579,0.0,0.0,0.0,0.0,0.0,442696.0,12527293.0,0.0,0.0,19.0,1141.0
1.053,6.316,91.579,0.0,0.0,1.053,0.0,0.0,439812.0,12500270.0,0.0,0.0,18.0,1080.0
1.075,5.376,93.548,0.0,0.0,0.0,0.0,0.0,444407.0,12500327.0,0.0,0.0,18.0,1215.0
2.128,4.255,93.617,0.0,0.0,0.0,0.0,0.0,439926.0,12474725.0,0.0,0.0,18.0,1106.0
1.031,7.216,90.722,0.0,0.0,1.031,0.0,0.0,440611.0,12525887.0,0.0,0.0,19.0,1091.0
4.167,8.333,87.500,0.0,0.0,0.0,0.0,0.0,444871.0,12474891.0,0.0,0.0,18.0,1080.0
3.125,11.458,83.333,0.0,0.0,2.083,0.0,0.0,442321.0,12524011.0,0.0,0.0,23.0,1144.0
2.020,9.091,88.889,0.0,0.0,0.0,0.0,0.0,439839.0,12500359.0,0.0,0.0,18.0,1065.0
1.087,5.435,93.478,0.0,0.0,0.0,0.0,0.0,458893.0,12891208.0,0.0,0.0,18.0,1112.0
1.020,7.143,90.816,0.0,0.0,1.020,0.0,0.0,439918.0,12488861.0,0.0,0.0,19.0,1071.0
2.105,6.316,91.579,0.0,0.0,0.0,0.0,0.0,438638.0,12500327.0,0.0,0.0,18.0,1137.0
1.042,7.292,90.625,0.0,0.0,1.042,0.0,0.0,445379.0,12510409.0,0.0,0.0,18.0,1119.0
1.053,6.316,92.632,0.0,0.0,0.0,0.0,8192.0,440941.0,12496030.0,0.0,0.0,18.0,1089.0
1.031,7.216,91.753,0.0,0.0,0.0,0.0,0.0,438729.0,12477474.0,0.0,0.0,18.0,1082.0
3.191,5.319,91.489,0.0,0.0,0.0,0.0,0.0,443864.0,12474770.0,0.0,0.0,19.0,1168.0
2.062,7.216,88.660,0.0,0.0,2.062,0.0,0.0,440478.0,12521582.0,0.0,0.0,18.0,1136.0
1.031,9.278,89.691,0.0,0.0,0.0,0.0,0.0,446065.0,12658004.0,0.0,0.0,18.0,1138.0
2.105,6.316,91.579,0.0,0.0,0.0,0.0,0.0,444026.0,12514084.0,0.0,0.0,18.0,1114.0
3.030,8.081,87.879,0.0,0.0,1.010,0.0,0.0,442023.0,12529092.0,0.0,0.0,18.0,1162.0
1.053,5.263,93.684,0.0,0.0,0.0,0.0,0.0,438657.0,12461958.0,0.0,0.0,19.0,1113.0
2.062,7.216,89.691,0.0,0.0,1.031,0.0,0.0,363253.0,10348053.0,0.0,0.0,18.0,931.0
