"Dstat 0.7.2 CSV output"
"Author:","Dag Wieers <dag@wieers.com>",,,,"URL:","http://dag.wieers.com/home-made/dstat/"
"Host:","Server1",,,,"User:","maki"
"Cmdline:","dstat --output server1_32_get_3_14.csv 1 70",,,,"Date:","20 Nov 2018 07:42:51 UTC"

"total cpu usage",,,,,,"dsk/total",,"net/total",,"paging",,"system",
"usr","sys","idl","wai","hiq","siq","read","writ","recv","send","in","out","int","csw"
4.127,8.715,84.789,0.395,0.0,1.974,7838.907,28071.089,0.0,0.0,0.0,0.0,18.396,830.581
2.105,5.263,91.579,0.0,0.0,1.053,0.0,0.0,431730.0,11943412.0,0.0,0.0,18.0,969.0
2.062,4.124,91.753,0.0,0.0,2.062,0.0,0.0,447719.0,12695075.0,0.0,0.0,19.0,664.0
1.031,7.216,90.722,0.0,0.0,1.031,0.0,0.0,445989.0,12500383.0,0.0,0.0,18.0,789.0
2.062,7.216,88.660,0.0,0.0,2.062,0.0,0.0,440736.0,12499830.0,0.0,0.0,18.0,724.0
2.062,4.124,91.753,0.0,0.0,2.062,0.0,0.0,441297.0,12500209.0,0.0,0.0,18.0,746.0
1.031,6.186,90.722,0.0,0.0,2.062,0.0,0.0,446128.0,12498997.0,0.0,0.0,19.0,683.0
1.010,8.081,89.899,0.0,0.0,1.010,0.0,0.0,440355.0,12500288.0,0.0,0.0,18.0,651.0
0.0,4.255,93.617,0.0,0.0,2.128,0.0,0.0,453727.0,12891013.0,0.0,0.0,18.0,662.0
1.031,8.247,86.598,4.124,0.0,0.0,0.0,36864.0,453400.0,12694955.0,0.0,0.0,18.0,650.0
3.030,7.071,87.879,0.0,0.0,2.020,0.0,0.0,440001.0,12500244.0,0.0,0.0,18.0,631.0
1.053,5.263,92.632,0.0,0.0,1.053,0.0,0.0,440281.0,12500255.0,0.0,0.0,19.0,694.0
2.041,6.122,89.796,0.0,0.0,2.041,0.0,0.0,445829.0,12498886.0,0.0,0.0,18.0,659.0
1.020,7.143,91.837,0.0,0.0,0.0,0.0,0.0,370771.0,10667662.0,0.0,0.0,18.0,685.0
1.031,7.216,90.722,0.0,0.0,1.031,0.0,0.0,428475.0,12025877.0,0.0,0.0,18.0,738.0
3.061,8.163,87.755,0.0,0.0,1.020,0.0,0.0,445970.0,12500678.0,0.0,0.0,18.0,700.0
0.0,7.292,91.667,0.0,0.0,1.042,0.0,0.0,447338.0,12693470.0,0.0,0.0,19.0,597.0
2.041,6.122,90.816,0.0,0.0,1.020,0.0,0.0,440472.0,12500257.0,0.0,0.0,18.0,640.0
3.191,7.447,88.298,0.0,0.0,1.064,0.0,0.0,448216.0,12499787.0,0.0,0.0,18.0,755.0
1.0,10.0,88.0,0.0,0.0,1.0,0.0,0.0,440505.0,12500094.0,0.0,0.0,18.0,618.0
1.087,4.348,93.478,0.0,0.0,1.087,0.0,0.0,440516.0,12500195.0,0.0,0.0,18.0,707.0
2.020,6.061,88.889,0.0,0.0,3.030,0.0,0.0,452291.0,12695850.0,0.0,0.0,19.0,687.0
1.042,6.250,91.667,0.0,0.0,1.042,0.0,0.0,441559.0,12499492.0,0.0,0.0,18.0,657.0
1.031,5.155,91.753,0.0,0.0,2.062,0.0,0.0,440764.0,12500129.0,0.0,0.0,18.0,601.0
1.020,8.163,89.796,0.0,0.0,1.020,0.0,0.0,446460.0,12696361.0,0.0,0.0,18.0,588.0
2.083,7.292,88.542,0.0,0.0,2.083,0.0,0.0,461235.0,12889393.0,0.0,0.0,18.0,757.0
1.031,7.216,91.753,0.0,0.0,0.0,0.0,0.0,440743.0,12499778.0,0.0,0.0,19.0,641.0
2.041,7.143,89.796,0.0,0.0,1.020,0.0,0.0,440318.0,12500179.0,0.0,0.0,18.0,559.0
4.124,6.186,87.629,0.0,0.0,2.062,0.0,0.0,445551.0,12499550.0,0.0,0.0,18.0,853.0
2.083,6.250,89.583,0.0,0.0,2.083,0.0,0.0,440208.0,12500061.0,0.0,0.0,18.0,993.0
2.083,6.250,89.583,0.0,0.0,2.083,0.0,0.0,447853.0,12695993.0,0.0,0.0,19.0,720.0
3.061,8.163,88.776,0.0,0.0,0.0,0.0,12288.0,452515.0,12694923.0,0.0,0.0,18.0,687.0
1.010,7.071,89.899,0.0,0.0,2.020,0.0,0.0,440256.0,12500185.0,0.0,0.0,18.0,656.0
1.031,6.186,91.753,0.0,0.0,1.031,0.0,0.0,440308.0,12500385.0,0.0,0.0,18.0,617.0
1.042,7.292,90.625,0.0,0.0,1.042,0.0,0.0,446280.0,12500257.0,0.0,0.0,18.0,627.0
2.041,8.163,87.755,0.0,0.0,2.041,0.0,0.0,440633.0,12500167.0,0.0,0.0,18.0,659.0
2.041,6.122,90.816,0.0,0.0,1.020,0.0,0.0,440186.0,12498886.0,0.0,0.0,19.0,675.0
1.031,9.278,88.660,0.0,0.0,1.031,0.0,0.0,446449.0,12500223.0,0.0,0.0,18.0,618.0
1.031,6.186,90.722,0.0,0.0,2.062,0.0,0.0,454466.0,12890984.0,0.0,0.0,18.0,612.0
2.020,9.091,88.889,0.0,0.0,0.0,0.0,0.0,440569.0,12500254.0,0.0,0.0,18.0,624.0
4.255,5.319,89.362,0.0,0.0,1.064,0.0,0.0,445763.0,12499026.0,0.0,0.0,19.0,711.0
1.020,8.163,87.755,2.041,0.0,1.020,0.0,53248.0,440273.0,12500167.0,0.0,0.0,18.0,677.0
1.031,6.186,91.753,0.0,0.0,1.031,0.0,0.0,440730.0,12500189.0,0.0,0.0,18.0,639.0
2.062,7.216,89.691,0.0,0.0,1.031,0.0,0.0,445514.0,12500355.0,0.0,0.0,18.0,671.0
1.053,6.316,92.632,0.0,0.0,0.0,0.0,0.0,440727.0,12499756.0,0.0,0.0,18.0,631.0
1.020,8.163,88.776,0.0,0.0,2.041,0.0,0.0,446675.0,12694948.0,0.0,0.0,19.0,626.0
2.083,5.208,90.625,0.0,0.0,2.083,0.0,0.0,440418.0,12342667.0,0.0,0.0,18.0,677.0
1.031,7.216,91.753,0.0,0.0,0.0,0.0,0.0,439942.0,12500249.0,0.0,0.0,18.0,608.0
1.042,5.208,91.667,0.0,0.0,2.083,0.0,0.0,430326.0,12362439.0,0.0,0.0,18.0,1002.0
2.062,7.216,89.691,0.0,0.0,1.031,0.0,0.0,458573.0,12832961.0,0.0,0.0,18.0,1021.0
2.083,9.375,87.500,0.0,0.0,1.042,0.0,0.0,445404.0,12499806.0,0.0,0.0,19.0,656.0
1.020,7.143,90.816,0.0,0.0,1.020,0.0,0.0,440261.0,12500320.0,0.0,0.0,18.0,590.0
1.020,8.163,90.816,0.0,0.0,0.0,0.0,0.0,440168.0,12500319.0,0.0,0.0,18.0,648.0
3.922,6.863,87.255,0.0,0.0,1.961,0.0,0.0,446766.0,12498819.0,0.0,0.0,18.0,631.0
2.151,3.226,93.548,0.0,0.0,1.075,0.0,0.0,440301.0,12500231.0,0.0,0.0,18.0,621.0
3.125,7.292,89.583,0.0,0.0,0.0,0.0,0.0,441064.0,12500301.0,0.0,0.0,19.0,585.0
1.020,8.163,89.796,0.0,0.0,1.020,0.0,0.0,445805.0,12500250.0,0.0,0.0,18.0,595.0
1.020,6.122,91.837,0.0,0.0,1.020,0.0,0.0,440411.0,12500256.0,0.0,0.0,18.0,549.0
1.031,7.216,90.722,0.0,0.0,1.031,0.0,0.0,441193.0,12498909.0,0.0,0.0,18.0,596.0
1.053,6.316,91.579,0.0,0.0,1.053,0.0,0.0,453432.0,12696295.0,0.0,0.0,19.0,600.0
2.062,7.216,89.691,0.0,0.0,1.031,0.0,0.0,439931.0,12498990.0,0.0,0.0,18.0,705.0
2.020,7.071,89.899,0.0,0.0,1.010,0.0,0.0,440339.0,12500190.0,0.0,0.0,18.0,652.0
3.093,6.186,89.691,0.0,0.0,1.031,0.0,0.0,445760.0,12500591.0,0.0,0.0,18.0,629.0
0.0,5.102,91.837,0.0,0.0,3.061,0.0,0.0,439885.0,12499006.0,0.0,0.0,18.0,621.0
2.041,7.143,90.816,0.0,0.0,0.0,0.0,0.0,447430.0,12696213.0,0.0,0.0,19.0,541.0
2.062,8.247,88.660,0.0,0.0,1.031,0.0,0.0,445161.0,12500090.0,0.0,0.0,18.0,665.0
1.031,6.186,91.753,0.0,0.0,1.031,0.0,0.0,441395.0,12498917.0,0.0,0.0,18.0,591.0
2.041,6.122,90.816,0.0,0.0,1.020,0.0,8192.0,440192.0,12501715.0,0.0,0.0,18.0,614.0
2.041,6.122,90.816,0.0,0.0,1.020,0.0,0.0,450184.0,12693783.0,0.0,0.0,18.0,635.0
3.158,5.263,90.526,0.0,0.0,1.053,0.0,0.0,443543.0,12501461.0,0.0,0.0,19.0,685.0
2.020,7.071,88.889,0.0,0.0,2.020,0.0,0.0,402962.0,11581030.0,0.0,0.0,18.0,618.0
