"Dstat 0.7.2 CSV output"
"Author:","Dag Wieers <dag@wieers.com>",,,,"URL:","http://dag.wieers.com/home-made/dstat/"
"Host:","Server1",,,,"User:","maki"
"Cmdline:","dstat --output server1_8_get_1_14.csv 1 70",,,,"Date:","20 Nov 2018 02:56:06 UTC"

"total cpu usage",,,,,,"dsk/total",,"net/total",,"paging",,"system",
"usr","sys","idl","wai","hiq","siq","read","writ","recv","send","in","out","int","csw"
7.964,16.506,71.344,0.598,0.0,3.588,11375.078,61153.020,0.0,0.0,0.0,0.0,18.538,1198.025
2.041,8.163,89.796,0.0,0.0,0.0,0.0,0.0,446298.0,12618256.0,0.0,0.0,18.0,1433.0
1.031,6.186,91.753,0.0,0.0,1.031,0.0,0.0,440010.0,12500604.0,0.0,0.0,19.0,984.0
3.125,4.167,91.667,0.0,0.0,1.042,0.0,0.0,445712.0,12498891.0,0.0,0.0,18.0,816.0
2.105,7.368,90.526,0.0,0.0,0.0,0.0,0.0,439771.0,12500295.0,0.0,0.0,18.0,861.0
2.083,6.250,91.667,0.0,0.0,0.0,0.0,0.0,440153.0,12500459.0,0.0,0.0,18.0,847.0
2.128,3.191,93.617,0.0,0.0,1.064,0.0,0.0,445277.0,12499053.0,0.0,0.0,19.0,803.0
2.062,6.186,91.753,0.0,0.0,0.0,0.0,0.0,446737.0,12694953.0,0.0,0.0,18.0,844.0
1.031,5.155,91.753,0.0,0.0,2.062,0.0,0.0,441241.0,12501143.0,0.0,0.0,18.0,749.0
3.226,6.452,90.323,0.0,0.0,0.0,0.0,0.0,445512.0,12498986.0,0.0,0.0,18.0,826.0
1.031,7.216,91.753,0.0,0.0,0.0,0.0,0.0,439744.0,12500262.0,0.0,0.0,18.0,781.0
1.053,3.158,94.737,0.0,0.0,1.053,0.0,0.0,439747.0,12500205.0,0.0,0.0,19.0,800.0
3.061,6.122,89.796,0.0,0.0,1.020,0.0,0.0,445344.0,12500363.0,0.0,0.0,18.0,857.0
2.105,4.211,93.684,0.0,0.0,0.0,0.0,0.0,439763.0,12497565.0,0.0,0.0,18.0,826.0
2.105,7.368,90.526,0.0,0.0,0.0,0.0,0.0,439710.0,12501779.0,0.0,0.0,18.0,913.0
1.042,5.208,91.667,0.0,0.0,2.083,0.0,0.0,445736.0,12499808.0,0.0,0.0,18.0,814.0
0.0,6.250,92.708,0.0,0.0,1.042,0.0,0.0,440318.0,12500473.0,0.0,0.0,19.0,822.0
2.083,6.250,88.542,3.125,0.0,0.0,0.0,40960.0,460432.0,13085690.0,0.0,0.0,18.0,903.0
1.053,6.316,92.632,0.0,0.0,0.0,0.0,0.0,445279.0,12500375.0,0.0,0.0,18.0,826.0
2.062,6.186,90.722,0.0,0.0,1.031,0.0,0.0,439741.0,12500114.0,0.0,0.0,18.0,793.0
2.062,6.186,89.691,0.0,0.0,2.062,0.0,0.0,440025.0,12498852.0,0.0,0.0,19.0,809.0
1.087,6.522,92.391,0.0,0.0,0.0,0.0,0.0,452533.0,12696515.0,0.0,0.0,18.0,874.0
2.041,7.143,90.816,0.0,0.0,0.0,0.0,12288.0,439745.0,12498883.0,0.0,0.0,18.0,829.0
1.042,6.250,92.708,0.0,0.0,0.0,0.0,0.0,439925.0,12500451.0,0.0,0.0,18.0,782.0
2.105,7.368,89.474,0.0,0.0,1.053,0.0,0.0,445074.0,12500468.0,0.0,0.0,18.0,921.0
3.030,7.071,89.899,0.0,0.0,0.0,0.0,0.0,447034.0,12694720.0,0.0,0.0,18.0,843.0
2.062,6.186,91.753,0.0,0.0,0.0,0.0,0.0,439297.0,12500050.0,0.0,0.0,18.0,781.0
1.031,7.216,90.722,0.0,0.0,1.031,0.0,0.0,445493.0,12500206.0,0.0,0.0,19.0,853.0
2.041,8.163,89.796,0.0,0.0,0.0,0.0,0.0,439742.0,12500269.0,0.0,0.0,19.0,783.0
2.062,8.247,88.660,0.0,0.0,1.031,0.0,0.0,439645.0,12500248.0,0.0,0.0,18.0,767.0
3.030,8.081,88.889,0.0,0.0,0.0,0.0,0.0,452096.0,12695015.0,0.0,0.0,19.0,799.0
1.0,10.0,89.0,0.0,0.0,0.0,0.0,0.0,435922.0,12446213.0,0.0,0.0,18.0,740.0
1.0,9.0,89.0,0.0,0.0,1.0,0.0,8192.0,451960.0,12794328.0,0.0,0.0,18.0,796.0
2.062,6.186,91.753,0.0,0.0,0.0,0.0,0.0,444831.0,12499829.0,0.0,0.0,18.0,732.0
2.083,7.292,89.583,0.0,0.0,1.042,0.0,0.0,446527.0,12694166.0,0.0,0.0,18.0,804.0
1.053,6.316,92.632,0.0,0.0,0.0,0.0,0.0,440644.0,12500348.0,0.0,0.0,19.0,838.0
0.0,8.163,91.837,0.0,0.0,0.0,0.0,0.0,439718.0,12501791.0,0.0,0.0,18.0,781.0
3.061,7.143,88.776,0.0,0.0,1.020,0.0,0.0,445327.0,12498884.0,0.0,0.0,18.0,802.0
0.0,9.184,90.816,0.0,0.0,0.0,0.0,0.0,439359.0,12498793.0,0.0,0.0,18.0,777.0
4.124,5.155,89.691,0.0,0.0,1.031,0.0,0.0,445533.0,12696338.0,0.0,0.0,18.0,779.0
2.041,7.143,89.796,0.0,0.0,1.020,0.0,0.0,445950.0,12500372.0,0.0,0.0,19.0,801.0
2.062,5.155,92.784,0.0,0.0,0.0,0.0,0.0,440545.0,12500245.0,0.0,0.0,18.0,726.0
1.042,6.250,92.708,0.0,0.0,0.0,0.0,0.0,439629.0,12500234.0,0.0,0.0,18.0,749.0
2.0,8.0,88.0,0.0,0.0,2.0,0.0,0.0,445277.0,12500295.0,0.0,0.0,18.0,805.0
2.020,10.101,87.879,0.0,0.0,0.0,0.0,0.0,439306.0,12498953.0,0.0,0.0,18.0,734.0
3.030,7.071,89.899,0.0,0.0,0.0,0.0,0.0,439730.0,12498867.0,0.0,0.0,19.0,798.0
2.105,5.263,91.579,0.0,0.0,1.053,0.0,0.0,445668.0,12500389.0,0.0,0.0,18.0,794.0
3.061,4.082,91.837,0.0,0.0,1.020,0.0,20480.0,437791.0,12439205.0,0.0,0.0,18.0,716.0
1.020,8.163,87.755,3.061,0.0,0.0,0.0,32768.0,441842.0,12561483.0,0.0,0.0,18.0,777.0
4.167,6.250,88.542,0.0,0.0,1.042,0.0,0.0,445309.0,12500399.0,0.0,0.0,18.0,830.0
1.031,7.216,91.753,0.0,0.0,0.0,0.0,0.0,440141.0,12500297.0,0.0,0.0,19.0,777.0
2.020,8.081,88.889,0.0,0.0,1.010,0.0,0.0,439549.0,12498971.0,0.0,0.0,18.0,809.0
4.167,8.333,86.458,0.0,0.0,1.042,0.0,0.0,447696.0,12499816.0,0.0,0.0,23.0,930.0
1.053,5.263,93.684,0.0,0.0,0.0,0.0,0.0,446642.0,12696374.0,0.0,0.0,18.0,787.0
2.062,7.216,89.691,0.0,0.0,1.031,0.0,0.0,439732.0,12500336.0,0.0,0.0,18.0,778.0
0.0,6.383,92.553,0.0,0.0,1.064,0.0,0.0,445489.0,12498966.0,0.0,0.0,18.0,805.0
1.031,6.186,92.784,0.0,0.0,0.0,0.0,0.0,439740.0,12501815.0,0.0,0.0,19.0,785.0
1.031,6.186,91.753,0.0,0.0,1.031,0.0,0.0,439718.0,12498852.0,0.0,0.0,18.0,784.0
2.083,5.208,91.667,0.0,0.0,1.042,0.0,0.0,445533.0,12500398.0,0.0,0.0,18.0,758.0
2.020,8.081,88.889,0.0,0.0,1.010,0.0,0.0,439892.0,12497476.0,0.0,0.0,18.0,743.0
1.020,7.143,90.816,0.0,0.0,1.020,0.0,0.0,439980.0,12503153.0,0.0,0.0,19.0,744.0
2.041,7.143,89.796,0.0,0.0,1.020,0.0,0.0,444425.0,12497620.0,0.0,0.0,18.0,795.0
2.062,7.216,90.722,0.0,0.0,0.0,0.0,0.0,445622.0,12635216.0,0.0,0.0,18.0,813.0
1.010,8.081,90.909,0.0,0.0,0.0,0.0,8192.0,439961.0,12504595.0,0.0,0.0,18.0,768.0
2.105,9.474,87.368,0.0,0.0,1.053,0.0,0.0,447177.0,12555869.0,0.0,0.0,19.0,787.0
1.031,7.216,91.753,0.0,0.0,0.0,0.0,0.0,439973.0,12500352.0,0.0,0.0,18.0,839.0
2.083,5.208,92.708,0.0,0.0,0.0,0.0,0.0,440010.0,12500302.0,0.0,0.0,18.0,788.0
1.075,5.376,93.548,0.0,0.0,0.0,0.0,0.0,443818.0,12453530.0,0.0,0.0,18.0,849.0
1.053,4.211,93.684,0.0,0.0,1.053,0.0,0.0,441050.0,12545853.0,0.0,0.0,18.0,781.0
1.053,7.368,90.526,0.0,0.0,1.053,0.0,0.0,439808.0,12498794.0,0.0,0.0,19.0,834.0
3.061,7.143,89.796,0.0,0.0,0.0,0.0,0.0,381550.0,10721667.0,0.0,0.0,18.0,727.0
