"Dstat 0.7.2 CSV output"
"Author:","Dag Wieers <dag@wieers.com>",,,,"URL:","http://dag.wieers.com/home-made/dstat/"
"Host:","Server1",,,,"User:","maki"
"Cmdline:","dstat --output server1_64_set_3_1.csv 1 70",,,,"Date:","20 Nov 2018 02:23:11 UTC"

"total cpu usage",,,,,,"dsk/total",,"net/total",,"paging",,"system",
"usr","sys","idl","wai","hiq","siq","read","writ","recv","send","in","out","int","csw"
7.962,16.375,71.745,0.684,0.0,3.234,13295.409,71184.140,0.0,0.0,0.0,0.0,18.582,1233.168
4.301,3.226,90.323,0.0,0.0,2.151,0.0,0.0,10944356.0,353615.0,0.0,0.0,18.0,2553.0
3.030,9.091,84.848,0.0,0.0,3.030,0.0,0.0,11880562.0,380406.0,0.0,0.0,18.0,2639.0
3.061,9.184,82.653,0.0,0.0,5.102,0.0,0.0,13984814.0,449014.0,0.0,0.0,18.0,2966.0
4.167,5.208,85.417,0.0,0.0,5.208,0.0,0.0,12291779.0,394414.0,0.0,0.0,19.0,2884.0
6.250,10.417,80.208,0.0,0.0,3.125,0.0,0.0,14257934.0,463439.0,0.0,0.0,18.0,2991.0
2.062,9.278,84.536,0.0,0.0,4.124,0.0,0.0,15445511.0,498854.0,0.0,0.0,18.0,3015.0
4.0,6.0,84.0,0.0,0.0,6.0,0.0,0.0,13911725.0,447194.0,0.0,0.0,18.0,2595.0
5.208,9.375,83.333,0.0,0.0,2.083,0.0,0.0,14027576.0,455739.0,0.0,0.0,19.0,2718.0
5.102,9.184,82.653,0.0,0.0,3.061,0.0,0.0,13405394.0,429974.0,0.0,0.0,18.0,2510.0
5.102,7.143,81.633,0.0,0.0,6.122,0.0,0.0,12849558.0,410654.0,0.0,0.0,18.0,2597.0
5.155,7.216,82.474,0.0,0.0,5.155,0.0,0.0,13964656.0,453499.0,0.0,0.0,18.0,2830.0
3.158,8.421,85.263,0.0,0.0,3.158,0.0,0.0,14491525.0,465394.0,0.0,0.0,18.0,2770.0
4.124,6.186,84.536,0.0,0.0,5.155,0.0,0.0,14704387.0,474074.0,0.0,0.0,19.0,2834.0
3.158,9.474,83.158,0.0,0.0,4.211,0.0,0.0,14523400.0,471699.0,0.0,0.0,18.0,2767.0
7.071,8.081,79.798,0.0,0.0,5.051,0.0,8192.0,13621026.0,436554.0,0.0,0.0,18.0,2843.0
3.158,8.421,82.105,0.0,0.0,6.316,0.0,0.0,15136728.0,488214.0,0.0,0.0,18.0,3182.0
6.0,7.0,81.0,0.0,0.0,6.0,0.0,0.0,13705379.0,444119.0,0.0,0.0,18.0,2651.0
6.186,7.216,83.505,0.0,0.0,3.093,0.0,0.0,13750525.0,440894.0,0.0,0.0,18.0,2385.0
4.211,6.316,85.263,0.0,0.0,4.211,0.0,0.0,13758028.0,442294.0,0.0,0.0,19.0,2473.0
5.495,4.396,86.813,0.0,0.0,3.297,0.0,0.0,14362435.0,466659.0,0.0,0.0,18.0,2780.0
2.222,4.444,86.667,3.333,0.0,3.333,0.0,36864.0,15995972.0,516494.0,0.0,0.0,18.0,3382.0
3.158,7.368,85.263,0.0,0.0,4.211,0.0,0.0,15368615.0,495214.0,0.0,0.0,18.0,3285.0
5.155,8.247,82.474,0.0,0.0,4.124,0.0,0.0,13747308.0,445379.0,0.0,0.0,19.0,2630.0
3.061,10.204,82.653,0.0,0.0,4.082,0.0,0.0,14941867.0,481914.0,0.0,0.0,18.0,2951.0
7.071,10.101,79.798,0.0,0.0,3.030,0.0,0.0,14416781.0,464694.0,0.0,0.0,18.0,2784.0
5.208,8.333,83.333,0.0,0.0,3.125,0.0,0.0,14331500.0,465831.0,0.0,0.0,18.0,2767.0
2.151,6.452,89.247,0.0,0.0,2.151,0.0,0.0,13449270.0,431654.0,0.0,0.0,18.0,2402.0
5.155,6.186,84.536,0.0,0.0,4.124,0.0,0.0,13965371.0,449294.0,0.0,0.0,19.0,2441.0
4.301,4.301,87.097,0.0,0.0,4.301,0.0,0.0,14654790.0,477299.0,0.0,0.0,18.0,2781.0
3.093,9.278,83.505,0.0,0.0,4.124,0.0,0.0,12328723.0,396094.0,0.0,0.0,18.0,2592.0
4.301,5.376,87.097,0.0,0.0,3.226,0.0,12288.0,15620329.0,504314.0,0.0,0.0,18.0,3565.0
2.151,6.452,87.097,0.0,0.0,4.301,0.0,0.0,13725258.0,445099.0,0.0,0.0,18.0,2719.0
3.261,3.261,90.217,0.0,0.0,3.261,0.0,0.0,14032059.0,451674.0,0.0,0.0,19.0,2775.0
3.0,6.0,85.0,0.0,0.0,6.0,0.0,0.0,9919790.0,317554.0,0.0,0.0,18.0,2375.0
3.093,5.155,87.629,0.0,0.0,4.124,0.0,0.0,8862699.0,288299.0,0.0,0.0,18.0,1779.0
3.061,10.204,84.694,0.0,0.0,2.041,0.0,0.0,14433493.0,464554.0,0.0,0.0,18.0,2732.0
3.061,7.143,85.714,0.0,0.0,4.082,0.0,0.0,13726558.0,441454.0,0.0,0.0,19.0,2632.0
4.348,5.435,88.043,0.0,0.0,2.174,0.0,0.0,12516113.0,404219.0,0.0,0.0,18.0,2367.0
5.102,6.122,84.694,0.0,0.0,4.082,0.0,0.0,13186842.0,423114.0,0.0,0.0,18.0,2396.0
5.263,6.316,84.211,0.0,0.0,4.211,0.0,0.0,13679255.0,438374.0,0.0,0.0,18.0,2538.0
6.122,11.224,75.510,0.0,0.0,7.143,0.0,0.0,12384937.0,403631.0,0.0,0.0,23.0,2444.0
2.083,6.250,86.458,0.0,0.0,5.208,0.0,0.0,12247047.0,391828.0,0.0,0.0,19.0,2314.0
2.174,4.348,90.217,0.0,0.0,3.261,0.0,0.0,14189842.0,456154.0,0.0,0.0,18.0,2499.0
6.186,8.247,81.443,0.0,0.0,4.124,0.0,0.0,13704862.0,444819.0,0.0,0.0,18.0,2578.0
5.155,7.216,81.443,0.0,0.0,6.186,0.0,0.0,14175433.0,456434.0,0.0,0.0,18.0,2795.0
4.211,7.368,85.263,0.0,0.0,3.158,0.0,0.0,14193291.0,457134.0,0.0,0.0,18.0,2673.0
8.333,5.208,84.375,0.0,0.0,2.083,0.0,0.0,14064123.0,456505.0,0.0,0.0,19.0,2855.0
1.053,6.316,87.368,0.0,0.0,5.263,0.0,0.0,13772683.0,442368.0,0.0,0.0,18.0,2657.0
3.093,5.155,85.567,0.0,0.0,6.186,0.0,0.0,13442619.0,431514.0,0.0,0.0,18.0,2578.0
4.167,9.375,81.250,0.0,0.0,5.208,0.0,0.0,13543095.0,440059.0,0.0,0.0,18.0,2768.0
3.061,8.163,80.612,2.041,0.0,6.122,0.0,61440.0,15359879.0,494654.0,0.0,0.0,18.0,3082.0
4.082,8.163,83.673,0.0,0.0,4.082,0.0,0.0,14366476.0,462874.0,0.0,0.0,19.0,3010.0
4.040,11.111,81.818,0.0,0.0,3.030,0.0,0.0,13969903.0,453639.0,0.0,0.0,18.0,2870.0
6.667,11.429,77.143,0.0,0.0,4.762,0.0,0.0,14471871.0,465394.0,0.0,0.0,18.0,3009.0
4.167,11.458,82.292,0.0,0.0,2.083,0.0,0.0,13643721.0,438374.0,0.0,0.0,18.0,2663.0
4.082,9.184,81.633,0.0,0.0,5.102,0.0,0.0,14071731.0,457139.0,0.0,0.0,18.0,2706.0
4.124,8.247,84.536,0.0,0.0,3.093,0.0,0.0,14192262.0,456714.0,0.0,0.0,19.0,3070.0
4.167,6.250,85.417,0.0,0.0,4.167,0.0,0.0,13844522.0,444814.0,0.0,0.0,18.0,2749.0
5.208,7.292,84.375,0.0,0.0,3.125,0.0,0.0,13676415.0,443427.0,0.0,0.0,18.0,2599.0
4.167,7.292,83.333,0.0,0.0,5.208,0.0,0.0,14140212.0,455446.0,0.0,0.0,18.0,2916.0
4.301,4.301,89.247,0.0,0.0,2.151,0.0,0.0,13926920.0,446914.0,0.0,0.0,18.0,3094.0
3.191,6.383,87.234,0.0,0.0,3.191,0.0,0.0,13895189.0,446634.0,0.0,0.0,19.0,2912.0
4.255,7.447,85.106,0.0,0.0,3.191,0.0,0.0,14617671.0,475199.0,0.0,0.0,18.0,2846.0
3.125,8.333,84.375,0.0,0.0,4.167,0.0,0.0,14445523.0,464554.0,0.0,0.0,18.0,3148.0
5.263,6.316,83.158,0.0,0.0,5.263,0.0,0.0,14578792.0,469314.0,0.0,0.0,18.0,2963.0
6.186,10.309,80.412,0.0,0.0,3.093,0.0,0.0,15914555.0,517899.0,0.0,0.0,18.0,3493.0
3.061,6.122,84.694,0.0,0.0,6.122,0.0,8192.0,13063072.0,419614.0,0.0,0.0,19.0,2646.0
1.099,6.593,89.011,0.0,0.0,3.297,0.0,0.0,14165190.0,455100.0,0.0,0.0,18.0,3070.0
2.105,7.368,83.158,0.0,0.0,7.368,0.0,0.0,14271976.0,463093.0,0.0,0.0,18.0,2863.0
4.211,6.316,87.368,0.0,0.0,2.105,0.0,0.0,10892321.0,350594.0,0.0,0.0,18.0,2079.0
