"Dstat 0.7.2 CSV output"
"Author:","Dag Wieers <dag@wieers.com>",,,,"URL:","http://dag.wieers.com/home-made/dstat/"
"Host:","Server1",,,,"User:","maki"
"Cmdline:","dstat --output server1_32_get_1_64.csv 1 70",,,,"Date:","20 Nov 2018 07:21:41 UTC"

"total cpu usage",,,,,,"dsk/total",,"net/total",,"paging",,"system",
"usr","sys","idl","wai","hiq","siq","read","writ","recv","send","in","out","int","csw"
4.241,8.918,84.437,0.407,0.0,1.997,8175.211,29200.278,0.0,0.0,0.0,0.0,18.400,832.986
1.010,8.081,86.869,0.0,0.0,4.040,0.0,0.0,456222.0,12441039.0,0.0,0.0,18.0,846.0
1.031,5.155,91.753,0.0,0.0,2.062,0.0,4096.0,440700.0,12499992.0,0.0,0.0,19.0,400.0
2.062,5.155,91.753,0.0,0.0,1.031,0.0,0.0,440370.0,12500544.0,0.0,0.0,18.0,380.0
4.040,6.061,88.889,0.0,0.0,1.010,0.0,0.0,446300.0,12499848.0,0.0,0.0,18.0,369.0
2.062,4.124,91.753,0.0,0.0,2.062,0.0,0.0,447348.0,12693611.0,0.0,0.0,18.0,279.0
0.0,5.155,93.814,0.0,0.0,1.031,0.0,0.0,441042.0,12500452.0,0.0,0.0,18.0,290.0
2.062,7.216,89.691,0.0,0.0,1.031,0.0,0.0,453480.0,12696837.0,0.0,0.0,19.0,339.0
2.083,6.250,91.667,0.0,0.0,0.0,0.0,0.0,441318.0,12499090.0,0.0,0.0,18.0,318.0
1.020,6.122,91.837,0.0,0.0,1.020,0.0,0.0,441246.0,12500420.0,0.0,0.0,18.0,306.0
1.042,5.208,92.708,0.0,0.0,1.042,0.0,0.0,446628.0,12500305.0,0.0,0.0,18.0,373.0
1.020,6.122,90.816,0.0,0.0,2.041,0.0,0.0,447518.0,12693376.0,0.0,0.0,19.0,311.0
1.031,6.186,92.784,0.0,0.0,0.0,0.0,0.0,441147.0,12502085.0,0.0,0.0,18.0,307.0
3.061,6.122,85.714,3.061,0.0,2.041,0.0,45056.0,452415.0,12695709.0,0.0,0.0,18.0,424.0
1.031,6.186,91.753,0.0,0.0,1.031,0.0,0.0,441347.0,12498825.0,0.0,0.0,18.0,323.0
0.0,4.211,94.737,0.0,0.0,1.053,0.0,0.0,446728.0,12694559.0,0.0,0.0,18.0,304.0
1.020,6.122,91.837,0.0,0.0,1.020,0.0,0.0,454693.0,12890886.0,0.0,0.0,19.0,324.0
2.020,7.071,89.899,0.0,0.0,1.010,0.0,0.0,446094.0,12500572.0,0.0,0.0,18.0,362.0
1.031,6.186,90.722,0.0,0.0,2.062,0.0,0.0,440545.0,12498871.0,0.0,0.0,18.0,349.0
1.020,6.122,92.857,0.0,0.0,0.0,0.0,0.0,440596.0,12501889.0,0.0,0.0,18.0,309.0
3.061,5.102,90.816,0.0,0.0,1.020,0.0,0.0,445769.0,12499040.0,0.0,0.0,18.0,351.0
1.010,6.061,91.919,0.0,0.0,1.010,0.0,0.0,447817.0,12694947.0,0.0,0.0,18.0,331.0
0.0,5.263,94.737,0.0,0.0,0.0,0.0,0.0,440689.0,12500401.0,0.0,0.0,19.0,312.0
2.083,5.208,90.625,0.0,0.0,2.083,0.0,0.0,448327.0,12499232.0,0.0,0.0,18.0,355.0
1.031,6.186,92.784,0.0,0.0,0.0,0.0,0.0,441574.0,12499980.0,0.0,0.0,18.0,320.0
3.158,8.421,86.316,0.0,0.0,2.105,0.0,0.0,449875.0,12695683.0,0.0,0.0,23.0,454.0
3.061,7.143,88.776,0.0,0.0,1.020,0.0,0.0,446217.0,12500202.0,0.0,0.0,19.0,328.0
2.083,5.208,92.708,0.0,0.0,0.0,0.0,0.0,441232.0,12499959.0,0.0,0.0,18.0,343.0
0.0,6.186,91.753,0.0,0.0,2.062,0.0,0.0,440264.0,12500152.0,0.0,0.0,18.0,357.0
1.053,3.158,93.684,0.0,0.0,2.105,0.0,0.0,446757.0,12500084.0,0.0,0.0,18.0,337.0
2.062,5.155,91.753,0.0,0.0,1.031,0.0,0.0,440657.0,12498959.0,0.0,0.0,18.0,333.0
0.0,5.208,93.750,0.0,0.0,1.042,0.0,0.0,440876.0,12500172.0,0.0,0.0,19.0,345.0
4.040,6.061,88.889,0.0,0.0,1.010,0.0,0.0,445440.0,12500425.0,0.0,0.0,18.0,359.0
1.020,10.204,88.776,0.0,0.0,0.0,0.0,12288.0,446925.0,12694788.0,0.0,0.0,18.0,344.0
2.083,3.125,93.750,0.0,0.0,1.042,0.0,0.0,440103.0,12500337.0,0.0,0.0,18.0,330.0
2.062,6.186,91.753,0.0,0.0,0.0,0.0,0.0,446181.0,12500310.0,0.0,0.0,18.0,352.0
2.041,6.122,90.816,0.0,0.0,1.020,0.0,0.0,440873.0,12499978.0,0.0,0.0,19.0,334.0
0.0,6.186,92.784,0.0,0.0,1.031,0.0,0.0,462227.0,13085177.0,0.0,0.0,18.0,307.0
3.093,6.186,89.691,0.0,0.0,1.031,0.0,0.0,440479.0,12500064.0,0.0,0.0,18.0,342.0
1.031,6.186,91.753,0.0,0.0,1.031,0.0,0.0,453455.0,12694886.0,0.0,0.0,18.0,375.0
0.0,6.250,92.708,0.0,0.0,1.042,0.0,0.0,441425.0,12500207.0,0.0,0.0,19.0,337.0
1.010,6.061,90.909,0.0,0.0,2.020,0.0,0.0,441043.0,12498763.0,0.0,0.0,18.0,327.0
1.042,6.250,91.667,0.0,0.0,1.042,0.0,0.0,446390.0,12501754.0,0.0,0.0,18.0,376.0
3.061,7.143,88.776,0.0,0.0,1.020,0.0,20480.0,440004.0,12500079.0,0.0,0.0,18.0,379.0
1.031,5.155,90.722,2.062,0.0,1.031,0.0,28672.0,447816.0,12694693.0,0.0,0.0,18.0,347.0
2.970,7.921,88.119,0.0,0.0,0.990,0.0,0.0,446100.0,12500493.0,0.0,0.0,19.0,367.0
1.053,3.158,94.737,0.0,0.0,1.053,0.0,0.0,441325.0,12499926.0,0.0,0.0,18.0,330.0
1.0,7.0,89.0,0.0,0.0,3.0,0.0,0.0,454969.0,12890651.0,0.0,0.0,18.0,356.0
2.020,8.081,88.889,0.0,0.0,1.010,0.0,0.0,446130.0,12500017.0,0.0,0.0,18.0,389.0
0.0,6.186,93.814,0.0,0.0,0.0,0.0,0.0,440054.0,12500127.0,0.0,0.0,18.0,290.0
1.020,6.122,91.837,0.0,0.0,1.020,0.0,0.0,440642.0,12499826.0,0.0,0.0,18.0,302.0
2.041,5.102,90.816,0.0,0.0,2.041,0.0,0.0,445507.0,12500255.0,0.0,0.0,19.0,357.0
2.041,5.102,91.837,0.0,0.0,1.020,0.0,0.0,440626.0,12500239.0,0.0,0.0,18.0,298.0
1.042,6.250,91.667,0.0,0.0,1.042,0.0,0.0,447595.0,12694743.0,0.0,0.0,18.0,344.0
2.062,6.186,91.753,0.0,0.0,0.0,0.0,0.0,445578.0,12500430.0,0.0,0.0,18.0,351.0
0.0,4.167,94.792,0.0,0.0,1.042,0.0,0.0,440344.0,12497644.0,0.0,0.0,19.0,308.0
0.0,5.155,92.784,0.0,0.0,2.062,0.0,0.0,440577.0,12501847.0,0.0,0.0,18.0,310.0
2.041,6.122,91.837,0.0,0.0,0.0,0.0,0.0,445660.0,12500320.0,0.0,0.0,18.0,337.0
2.083,5.208,91.667,0.0,0.0,1.042,0.0,4096.0,440227.0,12500153.0,0.0,0.0,18.0,324.0
1.031,7.216,90.722,0.0,0.0,1.031,0.0,0.0,440631.0,12500243.0,0.0,0.0,18.0,318.0
0.0,5.155,92.784,0.0,0.0,2.062,0.0,0.0,445753.0,12498564.0,0.0,0.0,19.0,346.0
3.125,4.167,92.708,0.0,0.0,0.0,0.0,0.0,448190.0,12696305.0,0.0,0.0,18.0,365.0
1.020,4.082,92.857,0.0,0.0,2.041,0.0,0.0,440590.0,12500142.0,0.0,0.0,18.0,292.0
0.0,6.186,93.814,0.0,0.0,0.0,0.0,0.0,434159.0,12312627.0,0.0,0.0,18.0,298.0
4.211,4.211,90.526,0.0,0.0,1.053,0.0,8192.0,459619.0,12882705.0,0.0,0.0,18.0,361.0
2.020,5.051,90.909,0.0,0.0,2.020,0.0,0.0,447190.0,12694969.0,0.0,0.0,19.0,290.0
0.0,5.208,94.792,0.0,0.0,0.0,0.0,0.0,440419.0,12497585.0,0.0,0.0,18.0,327.0
2.083,4.167,92.708,0.0,0.0,1.042,0.0,0.0,446234.0,12502778.0,0.0,0.0,18.0,350.0
3.061,4.082,91.837,0.0,0.0,1.020,0.0,0.0,447921.0,12695103.0,0.0,0.0,18.0,329.0
2.041,6.122,89.796,0.0,0.0,2.041,0.0,0.0,448009.0,12694860.0,0.0,0.0,18.0,346.0
2.083,4.167,92.708,0.0,0.0,1.042,0.0,0.0,446749.0,12500559.0,0.0,0.0,19.0,365.0
