"Dstat 0.7.2 CSV output"
"Author:","Dag Wieers <dag@wieers.com>",,,,"URL:","http://dag.wieers.com/home-made/dstat/"
"Host:","Server1",,,,"User:","maki"
"Cmdline:","dstat --output server1_16_set_1_64.csv 1 70",,,,"Date:","20 Nov 2018 00:18:46 UTC"

"total cpu usage",,,,,,"dsk/total",,"net/total",,"paging",,"system",
"usr","sys","idl","wai","hiq","siq","read","writ","recv","send","in","out","int","csw"
6.619,12.894,77.302,1.717,0.0,1.468,36613.610,193560.465,0.0,0.0,0.0,0.0,19.114,1482.128
14.667,36.0,45.333,0.0,0.0,4.0,0.0,0.0,42938377.0,1392200.0,0.0,0.0,18.0,1913.0
17.722,34.177,40.506,0.0,0.0,7.595,0.0,0.0,44866794.0,1453103.0,0.0,0.0,18.0,1530.0
10.976,46.341,36.585,0.0,0.0,6.098,0.0,0.0,48232066.0,1562518.0,0.0,0.0,18.0,1424.0
15.663,42.169,36.145,0.0,0.0,6.024,0.0,0.0,49310841.0,1596874.0,0.0,0.0,18.0,1464.0
14.815,45.679,33.333,0.0,0.0,6.173,0.0,0.0,46853996.0,1522131.0,0.0,0.0,19.0,1373.0
16.883,40.260,36.364,0.0,0.0,6.494,0.0,0.0,49225653.0,1596594.0,0.0,0.0,18.0,1388.0
16.0,42.667,36.0,0.0,0.0,5.333,0.0,0.0,48031928.0,1553894.0,0.0,0.0,18.0,1455.0
18.421,35.526,38.158,0.0,0.0,7.895,0.0,0.0,46503041.0,1512879.0,0.0,0.0,18.0,1354.0
22.857,34.286,37.143,0.0,0.0,5.714,0.0,0.0,48632465.0,1573560.0,0.0,0.0,18.0,1366.0
17.949,43.590,35.897,0.0,0.0,2.564,0.0,0.0,50024424.0,1618994.0,0.0,0.0,19.0,1420.0
14.474,43.421,36.842,0.0,0.0,5.263,0.0,0.0,44989996.0,1461293.0,0.0,0.0,18.0,1439.0
20.253,41.772,32.911,0.0,0.0,5.063,0.0,0.0,46661446.0,1513220.0,0.0,0.0,18.0,1372.0
11.905,41.667,36.905,0.0,0.0,9.524,0.0,0.0,49362898.0,1598768.0,0.0,0.0,18.0,1380.0
24.691,40.741,29.630,0.0,0.0,4.938,0.0,0.0,47068846.0,1528625.0,0.0,0.0,18.0,1332.0
15.190,39.241,40.506,0.0,0.0,5.063,0.0,0.0,50582264.0,1637548.0,0.0,0.0,19.0,1484.0
12.500,45.833,37.500,0.0,0.0,4.167,0.0,0.0,47841732.0,1548714.0,0.0,0.0,18.0,1387.0
20.732,39.024,32.927,0.0,0.0,7.317,0.0,12288.0,46315590.0,1504281.0,0.0,0.0,18.0,1366.0
15.789,40.789,36.842,0.0,0.0,6.579,0.0,0.0,47730184.0,1545510.0,0.0,0.0,18.0,1383.0
13.158,40.789,38.158,0.0,0.0,7.895,0.0,0.0,49757366.0,1612760.0,0.0,0.0,18.0,1489.0
16.883,41.558,33.766,0.0,0.0,7.792,0.0,0.0,47112535.0,1528913.0,0.0,0.0,19.0,1317.0
13.924,45.570,35.443,0.0,0.0,5.063,0.0,0.0,48823131.0,1581334.0,0.0,0.0,18.0,1403.0
16.216,43.243,32.432,0.0,0.0,8.108,0.0,8192.0,46646071.0,1511910.0,0.0,0.0,18.0,1391.0
19.231,38.462,34.615,0.0,0.0,7.692,0.0,0.0,47142690.0,1530099.0,0.0,0.0,18.0,1441.0
13.889,38.889,38.889,0.0,0.0,8.333,0.0,0.0,49125077.0,1591134.0,0.0,0.0,19.0,1419.0
15.584,40.260,38.961,0.0,0.0,5.195,0.0,0.0,48463901.0,1569714.0,0.0,0.0,18.0,1455.0
19.277,36.145,32.530,0.0,0.0,12.048,0.0,0.0,46883801.0,1522959.0,0.0,0.0,18.0,1457.0
15.789,44.737,31.579,0.0,0.0,7.895,0.0,0.0,47117636.0,1526622.0,0.0,0.0,18.0,1347.0
10.976,46.341,35.366,0.0,0.0,7.317,0.0,0.0,49354411.0,1597854.0,0.0,0.0,18.0,1400.0
19.231,39.744,35.897,0.0,0.0,5.128,0.0,0.0,47705233.0,1548719.0,0.0,0.0,18.0,1429.0
15.068,39.726,35.616,0.0,0.0,9.589,0.0,0.0,47200884.0,1528900.0,0.0,0.0,19.0,1399.0
14.865,43.243,35.135,4.054,0.0,2.703,0.0,45056.0,46245809.0,1497828.0,0.0,0.0,18.0,1392.0
14.865,37.838,35.135,0.0,0.0,12.162,0.0,8192.0,46580805.0,1512511.0,0.0,0.0,18.0,1350.0
19.231,41.026,34.615,0.0,0.0,5.128,0.0,0.0,48999281.0,1588334.0,0.0,0.0,18.0,1398.0
17.722,39.241,37.975,0.0,0.0,5.063,0.0,0.0,49055638.0,1587560.0,0.0,0.0,18.0,1398.0
21.519,35.443,35.443,0.0,0.0,7.595,0.0,0.0,46453841.0,1508421.0,0.0,0.0,19.0,1350.0
15.789,40.789,36.842,0.0,0.0,6.579,0.0,0.0,48939603.0,1585460.0,0.0,0.0,18.0,1489.0
15.584,42.857,35.065,0.0,0.0,6.494,0.0,0.0,47966421.0,1553334.0,0.0,0.0,18.0,1433.0
12.162,45.946,37.838,0.0,0.0,4.054,0.0,0.0,48127032.0,1559634.0,0.0,0.0,18.0,1378.0
14.634,41.463,31.707,0.0,0.0,12.195,0.0,0.0,46325264.0,1503919.0,0.0,0.0,18.0,1307.0
15.190,39.241,36.709,0.0,0.0,8.861,0.0,0.0,49134261.0,1591274.0,0.0,0.0,19.0,1421.0
19.481,45.455,28.571,0.0,0.0,6.494,0.0,0.0,48088201.0,1557534.0,0.0,0.0,18.0,1281.0
17.949,41.026,35.897,0.0,0.0,5.128,0.0,0.0,45364801.0,1475575.0,0.0,0.0,18.0,1346.0
21.795,35.897,37.179,0.0,0.0,5.128,0.0,0.0,47167010.0,1526174.0,0.0,0.0,18.0,1333.0
14.667,46.667,34.667,0.0,0.0,4.0,0.0,0.0,49530189.0,1603844.0,0.0,0.0,19.0,1458.0
18.293,42.683,34.146,0.0,0.0,4.878,0.0,0.0,47613967.0,1548579.0,0.0,0.0,18.0,1454.0
21.053,42.105,31.579,0.0,0.0,5.263,0.0,0.0,44635708.0,1444900.0,0.0,0.0,23.0,1359.0
21.250,40.0,31.250,0.0,0.0,7.500,0.0,0.0,46094849.0,1496774.0,0.0,0.0,18.0,1411.0
20.482,38.554,33.735,0.0,0.0,7.229,0.0,0.0,46822567.0,1516519.0,0.0,0.0,18.0,1269.0
14.667,41.333,36.0,0.0,0.0,8.0,0.0,0.0,49375810.0,1601634.0,0.0,0.0,19.0,1450.0
12.658,41.772,37.975,0.0,0.0,7.595,0.0,0.0,48744861.0,1580074.0,0.0,0.0,18.0,1401.0
21.795,43.590,28.205,0.0,0.0,6.410,0.0,0.0,48716421.0,1579379.0,0.0,0.0,18.0,1495.0
14.474,43.421,35.526,0.0,0.0,6.579,0.0,0.0,47986901.0,1553334.0,0.0,0.0,18.0,1367.0
16.049,44.444,34.568,0.0,0.0,4.938,0.0,0.0,46355311.0,1501114.0,0.0,0.0,18.0,1370.0
22.222,38.272,30.864,0.0,0.0,8.642,0.0,0.0,47873079.0,1555719.0,0.0,0.0,19.0,1331.0
19.231,42.308,34.615,0.0,0.0,3.846,0.0,0.0,49281554.0,1595260.0,0.0,0.0,18.0,1354.0
15.068,41.096,38.356,0.0,0.0,5.479,0.0,0.0,47230476.0,1530752.0,0.0,0.0,18.0,1420.0
13.415,43.902,36.585,0.0,0.0,6.098,0.0,0.0,47120803.0,1529325.0,0.0,0.0,18.0,1456.0
13.924,44.304,35.443,0.0,0.0,6.329,0.0,0.0,47351279.0,1533542.0,0.0,0.0,18.0,1375.0
17.722,37.975,35.443,0.0,0.0,8.861,0.0,0.0,50404767.0,1632574.0,0.0,0.0,19.0,1414.0
16.667,36.111,40.278,0.0,0.0,6.944,0.0,0.0,45124240.0,1466679.0,0.0,0.0,18.0,1435.0
16.216,39.189,39.189,0.0,0.0,5.405,0.0,28672.0,47376161.0,1534574.0,0.0,0.0,18.0,1419.0
12.821,39.744,38.462,0.0,0.0,8.974,0.0,0.0,47814165.0,1548500.0,0.0,0.0,18.0,1341.0
17.808,41.096,34.247,0.0,0.0,6.849,0.0,49152.0,45898082.0,1490059.0,0.0,0.0,18.0,1402.0
21.519,34.177,37.975,0.0,0.0,6.329,0.0,0.0,47303784.0,1534590.0,0.0,0.0,19.0,1360.0
13.924,41.772,36.709,0.0,0.0,7.595,0.0,0.0,49523001.0,1605908.0,0.0,0.0,18.0,1428.0
24.359,37.179,33.333,0.0,0.0,5.128,0.0,0.0,47527749.0,1542011.0,0.0,0.0,18.0,1386.0
13.514,43.243,37.838,0.0,0.0,5.405,0.0,0.0,47634122.0,1542900.0,0.0,0.0,18.0,1378.0
21.795,41.026,30.769,0.0,0.0,6.410,0.0,0.0,46264129.0,1498528.0,0.0,0.0,18.0,1365.0
17.949,42.308,32.051,0.0,0.0,7.692,0.0,0.0,47441439.0,1539339.0,0.0,0.0,19.0,1345.0
13.333,33.333,41.333,0.0,0.0,12.0,0.0,0.0,45835940.0,1483614.0,0.0,0.0,18.0,1405.0
