"Dstat 0.7.2 CSV output"
"Author:","Dag Wieers <dag@wieers.com>",,,,"URL:","http://dag.wieers.com/home-made/dstat/"
"Host:","Server1",,,,"User:","maki"
"Cmdline:","dstat --output server1_32_set_2_42.csv 1 70",,,,"Date:","20 Nov 2018 01:24:52 UTC"

"total cpu usage",,,,,,"dsk/total",,"net/total",,"paging",,"system",
"usr","sys","idl","wai","hiq","siq","read","writ","recv","send","in","out","int","csw"
7.384,14.893,74.570,0.943,0.0,2.211,18929.229,100790.907,0.0,0.0,0.0,0.0,18.711,1350.181
18.750,45.0,27.500,0.0,0.0,8.750,0.0,0.0,53950651.0,1742740.0,0.0,0.0,18.0,1196.0
20.779,46.753,23.377,0.0,0.0,9.091,0.0,0.0,52730749.0,1703648.0,0.0,0.0,18.0,908.0
17.500,47.500,17.500,0.0,0.0,17.500,0.0,0.0,57090017.0,1857197.0,0.0,0.0,19.0,890.0
20.513,47.436,20.513,0.0,0.0,11.538,0.0,0.0,58610307.0,1899620.0,0.0,0.0,18.0,844.0
15.190,53.165,18.987,0.0,0.0,12.658,0.0,0.0,58978639.0,1903688.0,0.0,0.0,18.0,930.0
18.519,53.086,18.519,0.0,0.0,9.877,0.0,0.0,56323071.0,1833825.0,0.0,0.0,18.0,808.0
19.767,50.0,16.279,0.0,0.0,13.953,0.0,0.0,56018013.0,1812778.0,0.0,0.0,19.0,751.0
23.077,43.590,16.667,0.0,0.0,16.667,0.0,0.0,58475570.0,1891780.0,0.0,0.0,18.0,784.0
24.051,46.835,17.722,0.0,0.0,11.392,0.0,0.0,56225229.0,1824239.0,0.0,0.0,18.0,800.0
15.584,49.351,23.377,0.0,0.0,11.688,0.0,0.0,57469166.0,1861688.0,0.0,0.0,18.0,834.0
17.500,50.0,17.500,0.0,0.0,15.0,0.0,0.0,57348068.0,1855240.0,0.0,0.0,18.0,708.0
16.456,51.899,20.253,0.0,0.0,11.392,0.0,0.0,56657007.0,1839926.0,0.0,0.0,19.0,786.0
22.500,46.250,17.500,0.0,0.0,13.750,0.0,0.0,57237382.0,1854901.0,0.0,0.0,18.0,780.0
22.368,43.421,22.368,0.0,0.0,11.842,0.0,0.0,55599774.0,1796728.0,0.0,0.0,18.0,736.0
21.519,45.570,16.456,0.0,0.0,16.456,0.0,0.0,57673381.0,1873572.0,0.0,0.0,18.0,774.0
23.750,47.500,16.250,0.0,0.0,12.500,0.0,0.0,57496129.0,1869319.0,0.0,0.0,18.0,788.0
22.078,44.156,18.182,0.0,0.0,15.584,0.0,0.0,56203098.0,1816554.0,0.0,0.0,19.0,840.0
22.619,48.810,17.857,0.0,0.0,10.714,0.0,0.0,56456372.0,1831160.0,0.0,0.0,18.0,712.0
22.222,49.383,19.753,0.0,0.0,8.642,0.0,0.0,54240437.0,1765093.0,0.0,0.0,18.0,718.0
22.785,50.633,17.722,0.0,0.0,8.861,0.0,0.0,57524532.0,1853914.0,0.0,0.0,18.0,838.0
20.238,46.429,16.667,0.0,0.0,16.667,0.0,0.0,55850050.0,1811576.0,0.0,0.0,19.0,631.0
18.987,53.165,17.722,0.0,0.0,10.127,0.0,0.0,51962769.0,1688653.0,0.0,0.0,18.0,694.0
20.0,46.250,17.500,1.250,0.0,15.0,0.0,94208.0,55432606.0,1796720.0,0.0,0.0,18.0,710.0
13.514,54.054,20.270,0.0,0.0,12.162,0.0,0.0,57542032.0,1863788.0,0.0,0.0,18.0,736.0
17.105,50.0,21.053,0.0,0.0,11.842,0.0,0.0,55205460.0,1791557.0,0.0,0.0,18.0,791.0
19.753,50.617,18.519,0.0,0.0,11.111,0.0,0.0,56755113.0,1838094.0,0.0,0.0,18.0,746.0
23.457,44.444,19.753,0.0,0.0,12.346,0.0,0.0,52929723.0,1712304.0,0.0,0.0,19.0,674.0
26.506,43.373,18.072,0.0,0.0,12.048,0.0,0.0,53575235.0,1745839.0,0.0,0.0,18.0,681.0
21.687,48.193,18.072,0.0,0.0,12.048,0.0,0.0,54965363.0,1773834.0,0.0,0.0,18.0,626.0
17.073,51.220,19.512,0.0,0.0,12.195,0.0,0.0,58008807.0,1879740.0,0.0,0.0,18.0,714.0
19.753,50.617,17.284,0.0,0.0,12.346,0.0,0.0,55935571.0,1815057.0,0.0,0.0,18.0,742.0
24.390,42.683,18.293,0.0,0.0,14.634,0.0,0.0,53547603.0,1735426.0,0.0,0.0,19.0,714.0
21.429,46.429,20.238,0.0,0.0,11.905,0.0,8192.0,57591073.0,1864628.0,0.0,0.0,18.0,711.0
21.839,57.471,9.195,0.0,0.0,11.494,0.0,0.0,54919293.0,1782797.0,0.0,0.0,18.0,563.0
21.348,47.191,17.978,0.0,0.0,13.483,0.0,0.0,58739774.0,1896968.0,0.0,0.0,18.0,817.0
18.750,50.0,16.250,0.0,0.0,15.0,0.0,0.0,59772523.0,1943860.0,0.0,0.0,19.0,797.0
23.684,46.053,15.789,0.0,0.0,14.474,0.0,0.0,54246760.0,1759217.0,0.0,0.0,18.0,727.0
24.390,48.780,17.073,0.0,0.0,9.756,0.0,0.0,58138961.0,1883174.0,0.0,0.0,18.0,775.0
21.429,48.810,16.667,0.0,0.0,13.095,0.0,0.0,57641665.0,1866374.0,0.0,0.0,18.0,820.0
20.253,50.633,17.722,0.0,0.0,11.392,0.0,0.0,57093902.0,1855879.0,0.0,0.0,19.0,865.0
20.0,51.250,13.750,0.0,0.0,15.0,0.0,0.0,56694974.0,1836208.0,0.0,0.0,18.0,658.0
17.284,53.086,16.049,0.0,0.0,13.580,0.0,0.0,55921370.0,1811074.0,0.0,0.0,18.0,712.0
25.926,45.679,16.049,0.0,0.0,12.346,0.0,0.0,57132177.0,1851774.0,0.0,0.0,18.0,707.0
20.779,51.948,15.584,0.0,0.0,11.688,0.0,0.0,56306343.0,1824279.0,0.0,0.0,18.0,703.0
20.732,52.439,15.854,0.0,0.0,10.976,0.0,0.0,57044828.0,1849714.0,0.0,0.0,18.0,667.0
25.0,50.0,15.0,0.0,0.0,10.0,0.0,0.0,55622862.0,1801620.0,0.0,0.0,19.0,621.0
24.691,49.383,13.580,0.0,0.0,12.346,0.0,0.0,57995878.0,1877343.0,0.0,0.0,18.0,812.0
23.377,42.857,15.584,0.0,0.0,18.182,0.0,0.0,55207508.0,1792734.0,0.0,0.0,18.0,704.0
22.785,49.367,13.924,0.0,0.0,13.924,0.0,0.0,57360105.0,1859234.0,0.0,0.0,18.0,684.0
25.926,41.975,14.815,0.0,0.0,17.284,0.0,0.0,52096231.0,1688901.0,0.0,0.0,23.0,862.0
21.250,50.0,16.250,0.0,0.0,12.500,0.0,0.0,56971424.0,1848100.0,0.0,0.0,19.0,686.0
19.753,54.321,13.580,0.0,0.0,12.346,0.0,0.0,55453758.0,1797214.0,0.0,0.0,18.0,655.0
24.691,45.679,17.284,0.0,0.0,12.346,0.0,0.0,57711931.0,1870877.0,0.0,0.0,18.0,820.0
25.301,46.988,13.253,1.205,0.0,13.253,0.0,53248.0,58368474.0,1884574.0,0.0,0.0,18.0,638.0
25.0,46.053,14.474,0.0,0.0,14.474,0.0,0.0,54572022.0,1770474.0,0.0,0.0,18.0,594.0
28.571,44.156,12.987,0.0,0.0,14.286,0.0,0.0,57374805.0,1863571.0,0.0,0.0,19.0,699.0
27.059,43.529,15.294,0.0,0.0,14.118,0.0,0.0,57801093.0,1872468.0,0.0,0.0,18.0,635.0
20.988,53.086,12.346,0.0,0.0,13.580,0.0,0.0,56406034.0,1826478.0,0.0,0.0,18.0,729.0
22.368,43.421,17.105,0.0,0.0,17.105,0.0,0.0,58131025.0,1890319.0,0.0,0.0,18.0,798.0
27.273,42.857,18.182,0.0,0.0,11.688,0.0,0.0,57316835.0,1852168.0,0.0,0.0,18.0,678.0
19.737,48.684,21.053,0.0,0.0,10.526,0.0,0.0,54874917.0,1777334.0,0.0,0.0,19.0,767.0
20.0,48.235,17.647,0.0,0.0,14.118,0.0,0.0,55836025.0,1813879.0,0.0,0.0,18.0,774.0
23.750,50.0,16.250,0.0,0.0,10.0,0.0,0.0,56020166.0,1813240.0,0.0,0.0,18.0,703.0
19.444,51.389,20.833,0.0,0.0,8.333,0.0,0.0,59085261.0,1915094.0,0.0,0.0,18.0,823.0
22.892,48.193,18.072,0.0,0.0,10.843,0.0,0.0,55343092.0,1798491.0,0.0,0.0,19.0,833.0
21.795,46.154,17.949,0.0,0.0,14.103,0.0,0.0,58139798.0,1880234.0,0.0,0.0,18.0,817.0
25.610,43.902,19.512,0.0,0.0,10.976,0.0,0.0,57079678.0,1848734.0,0.0,0.0,18.0,741.0
22.500,47.500,17.500,0.0,0.0,12.500,0.0,0.0,55323088.0,1798343.0,0.0,0.0,18.0,853.0
15.663,51.807,20.482,0.0,0.0,12.048,0.0,0.0,55263897.0,1787274.0,0.0,0.0,18.0,749.0
13.953,31.395,44.186,0.0,0.0,10.465,0.0,0.0,40488164.0,1320234.0,0.0,0.0,18.0,601.0
