"Dstat 0.7.2 CSV output"
"Author:","Dag Wieers <dag@wieers.com>",,,,"URL:","http://dag.wieers.com/home-made/dstat/"
"Host:","Server3",,,,"User:","maki"
"Cmdline:","dstat --output server_64_multi_get_sharded_1_22.csv 1 600",,,,"Date:","28 Nov 2018 18:58:39 UTC"

"total cpu usage",,,,,,"dsk/total",,"net/total",,"paging",,"system",
"usr","sys","idl","wai","hiq","siq","read","writ","recv","send","in","out","int","csw"
46.179,11.308,9.745,32.205,0.0,0.563,994204.696,3241240.338,0.0,0.0,0.0,0.0,28.540,663.509
6.122,13.265,67.347,0.0,0.0,13.265,0.0,0.0,11950051.0,672123.0,0.0,0.0,19.0,3333.0
16.667,34.615,37.179,0.0,0.0,11.538,0.0,4096.0,20597183.0,1594283.0,0.0,0.0,17.0,1865.0
13.333,41.333,28.0,0.0,0.0,17.333,0.0,0.0,22751876.0,1851211.0,0.0,0.0,19.0,1302.0
12.346,54.321,19.753,0.0,0.0,13.580,0.0,0.0,25395503.0,2818374.0,0.0,0.0,18.0,888.0
17.333,49.333,17.333,0.0,0.0,16.0,0.0,0.0,27533075.0,2082627.0,0.0,0.0,18.0,646.0
20.732,57.317,10.976,0.0,0.0,10.976,0.0,0.0,27661421.0,2564019.0,0.0,0.0,19.0,659.0
15.0,55.0,15.0,0.0,0.0,15.0,0.0,0.0,27518203.0,3867992.0,0.0,0.0,18.0,633.0
15.584,50.649,19.481,0.0,0.0,14.286,0.0,0.0,27648795.0,3359228.0,0.0,0.0,18.0,590.0
18.182,57.143,9.091,0.0,0.0,15.584,0.0,0.0,25291932.0,4294963.0,0.0,0.0,28.0,650.0
17.284,53.086,13.580,0.0,0.0,16.049,0.0,0.0,28175230.0,4365551.0,0.0,0.0,18.0,555.0
17.500,47.500,16.250,0.0,0.0,18.750,0.0,0.0,26549399.0,4407349.0,0.0,0.0,18.0,724.0
18.182,51.948,14.286,0.0,0.0,15.584,0.0,4096.0,26343192.0,5507651.0,0.0,0.0,19.0,602.0
19.753,51.852,13.580,0.0,0.0,14.815,0.0,0.0,27708050.0,5635523.0,0.0,0.0,18.0,527.0
19.481,48.052,14.286,0.0,0.0,18.182,0.0,0.0,27696672.0,5821912.0,0.0,0.0,18.0,518.0
18.750,56.250,11.250,0.0,0.0,13.750,0.0,0.0,27120478.0,6402204.0,0.0,0.0,18.0,466.0
16.216,59.459,9.459,0.0,0.0,14.865,0.0,0.0,27786101.0,7963364.0,0.0,0.0,19.0,467.0
18.182,53.247,15.584,0.0,0.0,12.987,0.0,114688.0,26044406.0,6874487.0,0.0,0.0,18.0,623.0
20.253,50.633,11.392,0.0,0.0,17.722,0.0,0.0,27078540.0,6898820.0,0.0,0.0,18.0,603.0
15.584,53.247,14.286,0.0,0.0,16.883,0.0,0.0,26982697.0,8464753.0,0.0,0.0,18.0,553.0
19.737,53.947,11.842,0.0,0.0,14.474,0.0,0.0,27525451.0,8914260.0,0.0,0.0,18.0,391.0
21.795,51.282,10.256,0.0,0.0,16.667,0.0,0.0,26382028.0,8008476.0,0.0,0.0,19.0,543.0
15.584,50.649,15.584,0.0,0.0,18.182,0.0,86016.0,25144328.0,7429141.0,0.0,0.0,18.0,659.0
16.883,55.844,10.390,0.0,0.0,16.883,0.0,0.0,27355840.0,8278405.0,0.0,0.0,18.0,504.0
16.049,59.259,12.346,0.0,0.0,12.346,0.0,0.0,25583271.0,8604881.0,0.0,0.0,18.0,501.0
18.750,47.500,13.750,0.0,0.0,20.0,0.0,0.0,26423994.0,9223380.0,0.0,0.0,19.0,601.0
22.078,50.649,7.792,0.0,0.0,19.481,0.0,0.0,26400839.0,9457222.0,0.0,0.0,18.0,472.0
17.949,55.128,14.103,0.0,0.0,12.821,0.0,0.0,23966810.0,9079104.0,0.0,0.0,18.0,603.0
20.513,44.872,12.821,0.0,0.0,21.795,0.0,0.0,25940372.0,10303418.0,0.0,0.0,18.0,537.0
21.250,46.250,12.500,0.0,0.0,20.0,0.0,0.0,26241146.0,10837893.0,0.0,0.0,18.0,610.0
20.270,48.649,14.865,0.0,0.0,16.216,0.0,0.0,25227851.0,11066166.0,0.0,0.0,18.0,621.0
13.580,60.494,11.111,0.0,0.0,14.815,0.0,0.0,26036628.0,11576597.0,0.0,0.0,19.0,483.0
16.667,47.436,17.949,0.0,0.0,17.949,0.0,4096.0,24806487.0,10894483.0,0.0,0.0,18.0,617.0
18.987,46.835,18.987,0.0,0.0,15.190,0.0,0.0,24915809.0,11009825.0,0.0,0.0,18.0,755.0
20.253,49.367,11.392,0.0,0.0,18.987,0.0,0.0,25748128.0,12071784.0,0.0,0.0,18.0,507.0
14.474,55.263,14.474,0.0,0.0,15.789,0.0,0.0,25916050.0,12659754.0,0.0,0.0,19.0,536.0
20.988,53.086,8.642,0.0,0.0,17.284,0.0,0.0,24798338.0,12222267.0,0.0,0.0,18.0,427.0
20.988,56.790,7.407,0.0,0.0,14.815,0.0,0.0,24773408.0,12534424.0,0.0,0.0,18.0,422.0
15.584,46.753,22.078,0.0,0.0,15.584,0.0,0.0,22506925.0,12009941.0,0.0,0.0,18.0,637.0
17.722,53.165,16.456,0.0,0.0,12.658,0.0,0.0,22690447.0,12604458.0,0.0,0.0,18.0,614.0
21.795,42.308,21.795,0.0,0.0,14.103,0.0,0.0,22954738.0,12861724.0,0.0,0.0,19.0,679.0
14.634,50.0,20.732,0.0,0.0,14.634,0.0,0.0,22370764.0,12539865.0,0.0,0.0,18.0,675.0
14.286,53.571,16.667,0.0,0.0,15.476,0.0,0.0,22396377.0,11737953.0,0.0,0.0,18.0,587.0
16.456,49.367,12.658,0.0,0.0,21.519,0.0,8192.0,23669986.0,12549074.0,0.0,0.0,18.0,449.0
15.0,46.250,21.250,0.0,0.0,17.500,0.0,0.0,22751876.0,12158303.0,0.0,0.0,19.0,726.0
12.658,41.772,35.443,0.0,0.0,10.127,0.0,0.0,20460545.0,11325741.0,0.0,0.0,18.0,1060.0
15.385,41.026,25.641,0.0,0.0,17.949,0.0,0.0,21562675.0,12735828.0,0.0,0.0,18.0,755.0
12.658,41.772,29.114,0.0,0.0,16.456,0.0,0.0,20286392.0,12590010.0,0.0,0.0,18.0,1088.0
11.111,43.210,37.037,0.0,0.0,8.642,0.0,0.0,19700628.0,12537078.0,0.0,0.0,18.0,795.0
17.949,46.154,28.205,0.0,0.0,7.692,0.0,0.0,20015154.0,12461809.0,0.0,0.0,18.0,740.0
12.791,44.186,31.395,0.0,0.0,11.628,0.0,0.0,20031765.0,12633410.0,0.0,0.0,18.0,792.0
12.195,37.805,40.244,0.0,0.0,9.756,0.0,0.0,19225982.0,12495237.0,0.0,0.0,19.0,911.0
22.222,43.333,20.0,0.0,0.0,14.444,0.0,0.0,19715399.0,12527643.0,0.0,0.0,18.0,841.0
13.253,32.530,34.940,2.410,0.0,16.867,0.0,98304.0,18935958.0,12503192.0,0.0,0.0,18.0,1038.0
13.953,32.558,40.698,0.0,0.0,12.791,0.0,0.0,18632154.0,12231283.0,0.0,0.0,18.0,1048.0
13.095,40.476,35.714,0.0,0.0,10.714,0.0,0.0,18504050.0,12424247.0,0.0,0.0,18.0,1009.0
10.588,42.353,35.294,0.0,0.0,11.765,0.0,0.0,18551719.0,12671673.0,0.0,0.0,19.0,893.0
9.195,41.379,37.931,0.0,0.0,11.494,0.0,0.0,18034514.0,12136565.0,0.0,0.0,18.0,1094.0
13.415,41.463,31.707,0.0,0.0,13.415,0.0,0.0,18409311.0,12409002.0,0.0,0.0,18.0,912.0
13.580,40.741,35.802,0.0,0.0,9.877,0.0,0.0,18975738.0,13004473.0,0.0,0.0,18.0,988.0
11.392,36.709,36.709,0.0,0.0,15.190,0.0,0.0,18925982.0,12702085.0,0.0,0.0,19.0,690.0
15.116,36.047,37.209,0.0,0.0,11.628,0.0,0.0,19158306.0,12545935.0,0.0,0.0,18.0,620.0
10.959,42.466,34.247,0.0,0.0,12.329,0.0,0.0,18713590.0,12721387.0,0.0,0.0,18.0,668.0
10.465,37.209,41.860,0.0,0.0,10.465,0.0,8192.0,18530578.0,12574964.0,0.0,0.0,18.0,708.0
14.118,31.765,44.706,0.0,0.0,9.412,0.0,0.0,18004812.0,12529644.0,0.0,0.0,18.0,889.0
4.819,33.735,50.602,0.0,0.0,10.843,0.0,0.0,17699808.0,12569634.0,0.0,0.0,19.0,748.0
8.333,34.524,48.810,0.0,0.0,8.333,0.0,0.0,17934172.0,12739456.0,0.0,0.0,18.0,733.0
13.253,36.145,39.759,0.0,0.0,10.843,0.0,0.0,17040680.0,12562748.0,0.0,0.0,18.0,783.0
7.059,28.235,57.647,0.0,0.0,7.059,0.0,0.0,16788259.0,12550155.0,0.0,0.0,18.0,1031.0
14.458,31.325,38.554,0.0,0.0,15.663,0.0,0.0,16575344.0,12402566.0,0.0,0.0,23.0,1098.0
13.187,26.374,49.451,0.0,0.0,10.989,0.0,0.0,15682030.0,12113960.0,0.0,0.0,19.0,1283.0
10.112,23.596,59.551,0.0,0.0,6.742,0.0,0.0,16301190.0,12910544.0,0.0,0.0,18.0,1438.0
9.677,26.882,55.914,0.0,0.0,7.527,0.0,0.0,15711647.0,12420644.0,0.0,0.0,18.0,1209.0
9.890,25.275,56.044,0.0,0.0,8.791,0.0,0.0,15301679.0,12335003.0,0.0,0.0,18.0,1223.0
7.778,26.667,58.889,0.0,0.0,6.667,0.0,0.0,15938584.0,12497993.0,0.0,0.0,18.0,1266.0
9.195,24.138,56.322,0.0,0.0,10.345,0.0,0.0,15657496.0,12502569.0,0.0,0.0,19.0,1144.0
9.890,25.275,54.945,0.0,0.0,9.890,0.0,0.0,15327033.0,12176915.0,0.0,0.0,18.0,1272.0
6.818,20.455,60.227,0.0,0.0,12.500,0.0,0.0,15473482.0,12714368.0,0.0,0.0,18.0,1285.0
4.651,18.605,66.279,0.0,0.0,10.465,0.0,0.0,15362561.0,12274832.0,0.0,0.0,18.0,1349.0
7.778,21.111,63.333,0.0,0.0,7.778,0.0,0.0,15543242.0,12797633.0,0.0,0.0,18.0,1316.0
5.435,23.913,63.043,0.0,0.0,7.609,0.0,0.0,14878135.0,11917535.0,0.0,0.0,19.0,1230.0
8.140,25.581,55.814,0.0,0.0,10.465,0.0,0.0,15296146.0,12907789.0,0.0,0.0,18.0,1213.0
6.897,29.885,54.023,0.0,0.0,9.195,0.0,0.0,15376961.0,12596511.0,0.0,0.0,18.0,1342.0
7.778,26.667,62.222,0.0,0.0,3.333,0.0,28672.0,14854259.0,12321572.0,0.0,0.0,18.0,1459.0
5.155,22.680,60.825,0.0,0.0,11.340,0.0,0.0,14760042.0,12820832.0,0.0,0.0,19.0,1290.0
5.495,24.176,61.538,0.0,0.0,8.791,0.0,0.0,14709675.0,12210730.0,0.0,0.0,18.0,1380.0
7.692,21.978,54.945,0.0,0.0,15.385,0.0,0.0,14504203.0,12440351.0,0.0,0.0,18.0,1393.0
8.791,19.780,62.637,0.0,0.0,8.791,0.0,0.0,14085594.0,12620186.0,0.0,0.0,18.0,1233.0
7.368,25.263,56.842,0.0,0.0,10.526,0.0,0.0,14353102.0,12664773.0,0.0,0.0,18.0,1313.0
7.527,22.581,58.065,0.0,0.0,11.828,0.0,0.0,13953335.0,12488224.0,0.0,0.0,18.0,1333.0
5.376,19.355,63.441,0.0,0.0,11.828,0.0,0.0,14215565.0,12600179.0,0.0,0.0,19.0,1354.0
4.494,19.101,71.910,0.0,0.0,4.494,0.0,0.0,13563176.0,12343804.0,0.0,0.0,18.0,1217.0
8.989,22.472,59.551,0.0,0.0,8.989,0.0,0.0,13806217.0,12634208.0,0.0,0.0,18.0,1312.0
8.989,23.596,60.674,0.0,0.0,6.742,0.0,0.0,13479963.0,12368074.0,0.0,0.0,18.0,1311.0
5.376,17.204,65.591,0.0,0.0,11.828,0.0,8192.0,13149891.0,11740163.0,0.0,0.0,19.0,1457.0
7.447,21.277,62.766,0.0,0.0,8.511,0.0,0.0,13454105.0,12352903.0,0.0,0.0,18.0,1393.0
3.297,20.879,69.231,0.0,0.0,6.593,0.0,0.0,13449434.0,12703592.0,0.0,0.0,18.0,1200.0
9.574,17.021,68.085,0.0,0.0,5.319,0.0,0.0,13694684.0,12737704.0,0.0,0.0,18.0,1332.0
5.618,25.843,61.798,0.0,0.0,6.742,0.0,0.0,13500507.0,12432946.0,0.0,0.0,18.0,1220.0
2.273,21.591,68.182,0.0,0.0,7.955,0.0,12288.0,13644629.0,12595309.0,0.0,0.0,18.0,1307.0
8.889,17.778,70.0,0.0,0.0,3.333,0.0,0.0,13062527.0,12520829.0,0.0,0.0,19.0,1069.0
8.421,18.947,64.211,0.0,0.0,8.421,0.0,0.0,13541771.0,12475254.0,0.0,0.0,18.0,1125.0
6.383,20.213,67.021,0.0,0.0,6.383,0.0,0.0,13401219.0,12525183.0,0.0,0.0,18.0,1329.0
9.677,18.280,64.516,0.0,0.0,7.527,0.0,0.0,13437039.0,12513363.0,0.0,0.0,18.0,1094.0
5.376,17.204,68.817,0.0,0.0,8.602,0.0,0.0,13440844.0,12724994.0,0.0,0.0,19.0,1205.0
5.319,14.894,74.468,0.0,0.0,5.319,0.0,0.0,12858647.0,12185105.0,0.0,0.0,18.0,1238.0
6.316,18.947,66.316,0.0,0.0,8.421,0.0,0.0,13000979.0,12178833.0,0.0,0.0,18.0,1334.0
7.447,20.213,63.830,0.0,0.0,8.511,0.0,0.0,13425176.0,12979011.0,0.0,0.0,18.0,1259.0
3.371,21.348,68.539,0.0,0.0,6.742,0.0,0.0,12921503.0,12499630.0,0.0,0.0,18.0,1181.0
4.301,19.355,68.817,0.0,0.0,7.527,0.0,0.0,13118239.0,12503994.0,0.0,0.0,19.0,1503.0
6.742,22.472,59.551,0.0,0.0,11.236,0.0,0.0,12755649.0,12358913.0,0.0,0.0,18.0,1554.0
5.208,16.667,70.833,0.0,0.0,7.292,0.0,0.0,12952091.0,12512065.0,0.0,0.0,18.0,1371.0
6.522,14.130,68.478,0.0,0.0,10.870,0.0,0.0,12710896.0,12187993.0,0.0,0.0,18.0,1514.0
6.897,19.540,66.667,0.0,0.0,6.897,0.0,0.0,12971744.0,12773505.0,0.0,0.0,18.0,1305.0
6.383,18.085,71.277,0.0,0.0,4.255,0.0,32768.0,12864992.0,12796643.0,0.0,0.0,19.0,1369.0
5.319,18.085,68.085,0.0,0.0,8.511,0.0,24576.0,12819824.0,12552283.0,0.0,0.0,18.0,1360.0
6.452,16.129,69.892,0.0,0.0,7.527,0.0,0.0,12638664.0,12236253.0,0.0,0.0,18.0,1422.0
8.421,15.789,66.316,0.0,0.0,9.474,0.0,0.0,12830144.0,12787089.0,0.0,0.0,18.0,1316.0
7.527,22.581,62.366,0.0,0.0,7.527,0.0,0.0,12618676.0,12334068.0,0.0,0.0,19.0,1186.0
4.494,21.348,66.292,0.0,0.0,7.865,0.0,0.0,12943657.0,12807950.0,0.0,0.0,18.0,1346.0
6.452,17.204,70.968,0.0,0.0,5.376,0.0,0.0,12453844.0,12533689.0,0.0,0.0,18.0,1326.0
5.319,17.021,72.340,0.0,0.0,5.319,0.0,0.0,12321151.0,12121404.0,0.0,0.0,18.0,1654.0
7.368,17.895,67.368,0.0,0.0,7.368,0.0,0.0,12581939.0,12486804.0,0.0,0.0,18.0,1449.0
7.368,18.947,64.211,0.0,0.0,9.474,0.0,0.0,12534716.0,12746463.0,0.0,0.0,18.0,1258.0
5.618,11.236,77.528,0.0,0.0,5.618,0.0,0.0,12357278.0,12556760.0,0.0,0.0,19.0,1437.0
5.208,11.458,73.958,0.0,0.0,9.375,0.0,4096.0,12175371.0,12113765.0,0.0,0.0,18.0,1339.0
7.447,17.021,68.085,0.0,0.0,7.447,0.0,0.0,12478007.0,12425534.0,0.0,0.0,18.0,1323.0
7.292,13.542,70.833,0.0,0.0,8.333,0.0,0.0,12261999.0,12544522.0,0.0,0.0,18.0,1400.0
4.545,18.182,70.455,0.0,0.0,6.818,0.0,0.0,11899055.0,12457975.0,0.0,0.0,19.0,1383.0
5.435,18.478,68.478,0.0,0.0,7.609,0.0,0.0,12017698.0,12271212.0,0.0,0.0,22.0,1359.0
11.828,17.204,60.215,0.0,0.0,10.753,0.0,0.0,12589111.0,13139958.0,0.0,0.0,21.0,1452.0
5.319,14.894,71.277,0.0,0.0,8.511,0.0,0.0,11969894.0,12573022.0,0.0,0.0,18.0,1412.0
6.186,13.402,71.134,0.0,0.0,9.278,0.0,0.0,11878354.0,12118226.0,0.0,0.0,18.0,1322.0
5.208,17.708,69.792,0.0,0.0,7.292,0.0,0.0,12027817.0,12696957.0,0.0,0.0,19.0,1333.0
3.226,15.054,74.194,0.0,0.0,7.527,0.0,0.0,11942409.0,12570766.0,0.0,0.0,18.0,1275.0
7.292,13.542,71.875,0.0,0.0,7.292,0.0,0.0,11811685.0,12350451.0,0.0,0.0,18.0,1253.0
3.226,17.204,73.118,0.0,0.0,6.452,0.0,0.0,11845376.0,12446884.0,0.0,0.0,18.0,1317.0
4.124,15.464,70.103,0.0,0.0,10.309,0.0,0.0,11589300.0,12360088.0,0.0,0.0,18.0,1238.0
4.348,17.391,69.565,0.0,0.0,8.696,0.0,0.0,11535184.0,12404375.0,0.0,0.0,19.0,1565.0
6.383,15.957,69.149,0.0,0.0,8.511,0.0,0.0,11708460.0,12642174.0,0.0,0.0,18.0,1530.0
4.167,13.542,78.125,0.0,0.0,4.167,0.0,0.0,11568118.0,12545882.0,0.0,0.0,18.0,1359.0
4.082,21.429,68.367,0.0,0.0,6.122,0.0,0.0,11548289.0,12948862.0,0.0,0.0,18.0,1307.0
5.319,15.957,74.468,0.0,0.0,4.255,0.0,0.0,11440059.0,12186459.0,0.0,0.0,18.0,1284.0
5.208,16.667,70.833,0.0,0.0,7.292,0.0,0.0,11072677.0,12091249.0,0.0,0.0,19.0,1299.0
5.155,15.464,68.041,2.062,0.0,9.278,0.0,20480.0,11525577.0,12877760.0,0.0,0.0,18.0,1496.0
6.061,14.141,73.737,0.0,0.0,6.061,0.0,0.0,11432096.0,12541785.0,0.0,0.0,18.0,1428.0
5.263,14.737,74.737,0.0,0.0,5.263,0.0,0.0,11515302.0,12064364.0,0.0,0.0,18.0,1395.0
5.495,18.681,70.330,0.0,0.0,5.495,0.0,0.0,11663751.0,12789349.0,0.0,0.0,18.0,1300.0
8.791,13.187,71.429,0.0,0.0,6.593,0.0,0.0,11006661.0,12469235.0,0.0,0.0,18.0,1122.0
3.158,12.632,75.789,0.0,0.0,8.421,0.0,0.0,11248225.0,12415466.0,0.0,0.0,19.0,1272.0
6.250,12.500,75.0,0.0,0.0,6.250,0.0,0.0,11341450.0,12651158.0,0.0,0.0,18.0,1351.0
3.261,11.957,78.261,0.0,0.0,6.522,0.0,0.0,11070272.0,12517840.0,0.0,0.0,18.0,1052.0
5.556,14.444,76.667,0.0,0.0,3.333,0.0,0.0,11210850.0,12527930.0,0.0,0.0,18.0,1289.0
4.348,20.652,68.478,0.0,0.0,6.522,0.0,0.0,11247680.0,12544513.0,0.0,0.0,19.0,1182.0
4.255,15.957,75.532,0.0,0.0,4.255,0.0,0.0,11099217.0,12510603.0,0.0,0.0,18.0,1289.0
5.155,12.371,76.289,0.0,0.0,6.186,0.0,0.0,10711641.0,12187565.0,0.0,0.0,18.0,1326.0
7.216,17.526,68.041,0.0,0.0,7.216,0.0,8192.0,11061237.0,12291966.0,0.0,0.0,18.0,1323.0
4.301,16.129,73.118,0.0,0.0,6.452,0.0,0.0,11216708.0,12756869.0,0.0,0.0,18.0,1302.0
8.247,15.464,70.103,0.0,0.0,6.186,0.0,0.0,10818040.0,12481277.0,0.0,0.0,19.0,1306.0
5.319,14.894,73.404,0.0,0.0,6.383,0.0,0.0,10841309.0,12836996.0,0.0,0.0,18.0,1174.0
4.301,10.753,78.495,0.0,0.0,6.452,0.0,0.0,10699906.0,11939937.0,0.0,0.0,18.0,1423.0
3.030,16.162,74.747,0.0,0.0,6.061,0.0,8192.0,10993372.0,12562971.0,0.0,0.0,18.0,1307.0
6.522,11.957,72.826,0.0,0.0,8.696,0.0,0.0,11035392.0,12472316.0,0.0,0.0,19.0,1357.0
4.301,22.581,69.892,0.0,0.0,3.226,0.0,0.0,10858106.0,12635256.0,0.0,0.0,18.0,1161.0
3.261,14.130,79.348,0.0,0.0,3.261,0.0,0.0,10982625.0,12585639.0,0.0,0.0,18.0,1085.0
4.301,18.280,73.118,0.0,0.0,4.301,0.0,0.0,10768253.0,12537441.0,0.0,0.0,18.0,1172.0
5.319,14.894,77.660,0.0,0.0,2.128,0.0,0.0,10786841.0,12686086.0,0.0,0.0,18.0,911.0
5.376,8.602,80.645,0.0,0.0,5.376,0.0,0.0,10852430.0,12677873.0,0.0,0.0,19.0,971.0
7.447,18.085,69.149,0.0,0.0,5.319,0.0,0.0,10669487.0,12357001.0,0.0,0.0,18.0,1057.0
4.167,15.625,72.917,0.0,0.0,7.292,0.0,0.0,10733384.0,12608058.0,0.0,0.0,18.0,757.0
5.435,15.217,73.913,0.0,0.0,5.435,0.0,0.0,10947592.0,12548595.0,0.0,0.0,18.0,858.0
3.158,11.579,78.947,0.0,0.0,6.316,0.0,0.0,10806475.0,12582651.0,0.0,0.0,18.0,766.0
5.102,16.327,74.490,0.0,0.0,4.082,0.0,0.0,10327480.0,12460801.0,0.0,0.0,19.0,1214.0
5.376,17.204,72.043,0.0,0.0,5.376,0.0,0.0,10555263.0,12273503.0,0.0,0.0,18.0,1250.0
2.128,13.830,77.660,0.0,0.0,6.383,0.0,0.0,10668522.0,12726187.0,0.0,0.0,18.0,1315.0
3.261,11.957,76.087,1.087,0.0,7.609,0.0,20480.0,10755145.0,12701021.0,0.0,0.0,18.0,1258.0
5.263,11.579,74.737,0.0,0.0,8.421,0.0,0.0,10977498.0,12828333.0,0.0,0.0,19.0,1251.0
4.211,16.842,73.684,0.0,0.0,5.263,0.0,16384.0,10377899.0,12366510.0,0.0,0.0,18.0,1280.0
3.158,15.789,76.842,0.0,0.0,4.211,0.0,0.0,10764553.0,12601251.0,0.0,0.0,18.0,740.0
7.143,16.327,71.429,0.0,0.0,5.102,0.0,0.0,10371338.0,12521021.0,0.0,0.0,18.0,912.0
5.263,12.632,76.842,0.0,0.0,5.263,0.0,0.0,10551255.0,12554935.0,0.0,0.0,18.0,734.0
6.316,11.579,77.895,0.0,0.0,4.211,0.0,0.0,10310495.0,12538804.0,0.0,0.0,18.0,767.0
4.167,11.458,76.042,0.0,0.0,8.333,0.0,0.0,10640215.0,12536187.0,0.0,0.0,19.0,890.0
9.474,11.579,73.684,0.0,0.0,5.263,0.0,0.0,10166496.0,12199338.0,0.0,0.0,18.0,1276.0
6.452,10.753,75.269,0.0,0.0,7.527,0.0,0.0,10325221.0,12800832.0,0.0,0.0,18.0,1261.0
3.297,10.989,79.121,0.0,0.0,6.593,0.0,0.0,10391592.0,12499678.0,0.0,0.0,18.0,1259.0
4.348,13.043,78.261,0.0,0.0,4.348,0.0,0.0,9889419.0,12386622.0,0.0,0.0,19.0,1356.0
6.250,9.375,77.083,0.0,0.0,7.292,0.0,4096.0,10202554.0,12613803.0,0.0,0.0,18.0,1468.0
5.208,10.417,78.125,0.0,0.0,6.250,0.0,0.0,10116078.0,12500764.0,0.0,0.0,18.0,1255.0
6.383,17.021,70.213,0.0,0.0,6.383,0.0,0.0,10037249.0,12511859.0,0.0,0.0,18.0,1300.0
13.830,13.830,63.830,0.0,0.0,8.511,0.0,0.0,10129593.0,12695297.0,0.0,0.0,23.0,1119.0
6.250,15.625,73.958,0.0,0.0,4.167,0.0,0.0,9931279.0,12498721.0,0.0,0.0,19.0,1575.0
5.155,15.464,72.165,0.0,0.0,7.216,0.0,0.0,9801440.0,12214498.0,0.0,0.0,18.0,1450.0
4.167,12.500,78.125,0.0,0.0,5.208,0.0,0.0,10012551.0,12350082.0,0.0,0.0,18.0,1294.0
4.0,16.0,71.0,0.0,0.0,9.0,0.0,0.0,9996578.0,12349499.0,0.0,0.0,18.0,1344.0
5.155,12.371,76.289,0.0,0.0,6.186,0.0,0.0,9936023.0,12643177.0,0.0,0.0,18.0,1266.0
5.0,13.0,73.0,0.0,0.0,9.0,0.0,0.0,9956609.0,12785833.0,0.0,0.0,18.0,1281.0
4.301,10.753,78.495,0.0,0.0,6.452,0.0,0.0,9812556.0,12281486.0,0.0,0.0,19.0,1380.0
4.124,12.371,74.227,0.0,0.0,9.278,0.0,0.0,9985574.0,12718688.0,0.0,0.0,18.0,1502.0
8.421,16.842,70.526,0.0,0.0,4.211,0.0,0.0,9730120.0,12499099.0,0.0,0.0,18.0,1344.0
4.082,14.286,76.531,0.0,0.0,5.102,0.0,0.0,9870050.0,12517064.0,0.0,0.0,18.0,1439.0
2.174,9.783,80.435,0.0,0.0,7.609,0.0,0.0,9812394.0,12420541.0,0.0,0.0,19.0,1274.0
9.184,16.327,70.408,0.0,0.0,4.082,0.0,0.0,9773921.0,12596407.0,0.0,0.0,18.0,1255.0
3.061,14.286,75.510,0.0,0.0,7.143,0.0,0.0,9676719.0,12500215.0,0.0,0.0,18.0,1282.0
5.155,16.495,71.134,0.0,0.0,7.216,0.0,0.0,9772196.0,12540853.0,0.0,0.0,18.0,1335.0
6.452,15.054,72.043,0.0,0.0,6.452,0.0,0.0,9647832.0,12511469.0,0.0,0.0,18.0,1268.0
3.125,11.458,75.0,3.125,0.0,7.292,0.0,20480.0,9726284.0,12576360.0,0.0,0.0,19.0,1189.0
3.191,11.702,78.723,0.0,0.0,6.383,0.0,0.0,9457874.0,12607634.0,0.0,0.0,18.0,1082.0
4.396,12.088,79.121,0.0,0.0,4.396,0.0,0.0,9795028.0,12622202.0,0.0,0.0,18.0,827.0
2.041,17.347,73.469,0.0,0.0,7.143,0.0,0.0,9760149.0,12624393.0,0.0,0.0,18.0,853.0
3.125,10.417,80.208,0.0,0.0,6.250,0.0,0.0,9598430.0,12514010.0,0.0,0.0,18.0,841.0
4.255,10.638,77.660,0.0,0.0,7.447,0.0,0.0,9677497.0,12668305.0,0.0,0.0,18.0,922.0
2.105,10.526,81.053,0.0,0.0,6.316,0.0,0.0,9583805.0,12590947.0,0.0,0.0,19.0,856.0
4.301,10.753,81.720,0.0,0.0,3.226,0.0,0.0,9514654.0,12607216.0,0.0,0.0,18.0,816.0
5.155,11.340,75.258,0.0,0.0,8.247,0.0,0.0,9424860.0,12691360.0,0.0,0.0,18.0,768.0
3.158,11.579,78.947,0.0,0.0,6.316,0.0,0.0,9600973.0,12728198.0,0.0,0.0,18.0,872.0
2.105,10.526,80.0,0.0,0.0,7.368,0.0,0.0,9561015.0,12739837.0,0.0,0.0,19.0,837.0
3.191,11.702,78.723,0.0,0.0,6.383,0.0,0.0,9545705.0,12687708.0,0.0,0.0,18.0,908.0
4.167,11.458,79.167,0.0,0.0,5.208,0.0,8192.0,9523272.0,12725610.0,0.0,0.0,18.0,874.0
3.191,11.702,79.787,0.0,0.0,5.319,0.0,0.0,9339426.0,12612081.0,0.0,0.0,18.0,883.0
4.255,11.702,78.723,0.0,0.0,5.319,0.0,0.0,9274718.0,12575367.0,0.0,0.0,18.0,892.0
5.376,10.753,78.495,0.0,0.0,5.376,0.0,0.0,9399053.0,12551937.0,0.0,0.0,19.0,1078.0
4.167,11.458,80.208,0.0,0.0,4.167,0.0,0.0,9157145.0,12687016.0,0.0,0.0,18.0,885.0
7.292,14.583,73.958,0.0,0.0,4.167,0.0,8192.0,9545822.0,12709392.0,0.0,0.0,18.0,643.0
2.151,10.753,80.645,0.0,0.0,6.452,0.0,0.0,9112577.0,12621406.0,0.0,0.0,18.0,757.0
6.250,11.458,77.083,0.0,0.0,5.208,0.0,0.0,9568554.0,12801583.0,0.0,0.0,18.0,873.0
3.030,14.141,77.778,0.0,0.0,5.051,0.0,0.0,9259117.0,12606407.0,0.0,0.0,19.0,703.0
1.053,13.684,82.105,0.0,0.0,3.158,0.0,0.0,9312073.0,12532595.0,0.0,0.0,18.0,832.0
6.452,11.828,75.269,0.0,0.0,6.452,0.0,0.0,9329560.0,12844880.0,0.0,0.0,18.0,949.0
4.211,12.632,77.895,0.0,0.0,5.263,0.0,0.0,9077180.0,12531844.0,0.0,0.0,18.0,848.0
4.211,9.474,80.0,0.0,0.0,6.316,0.0,0.0,9307579.0,12759523.0,0.0,0.0,19.0,748.0
5.435,14.130,77.174,0.0,0.0,3.261,0.0,0.0,9164135.0,12577191.0,0.0,0.0,18.0,883.0
3.093,10.309,79.381,0.0,0.0,7.216,0.0,0.0,9137644.0,12681180.0,0.0,0.0,18.0,748.0
3.093,13.402,79.381,0.0,0.0,4.124,0.0,0.0,9136366.0,12741236.0,0.0,0.0,18.0,830.0
7.368,13.684,74.737,0.0,0.0,4.211,0.0,0.0,9127788.0,12617666.0,0.0,0.0,18.0,784.0
6.250,12.500,78.125,0.0,0.0,3.125,0.0,0.0,9388316.0,12769646.0,0.0,0.0,18.0,1072.0
2.041,13.265,78.571,0.0,0.0,6.122,0.0,0.0,9011428.0,12499634.0,0.0,0.0,18.0,1243.0
8.247,10.309,70.103,3.093,0.0,8.247,0.0,20480.0,9005989.0,12478698.0,0.0,0.0,19.0,1216.0
2.105,11.579,78.947,0.0,0.0,7.368,0.0,0.0,9029775.0,12473032.0,0.0,0.0,18.0,1104.0
4.124,14.433,74.227,0.0,0.0,7.216,0.0,16384.0,8998059.0,12586234.0,0.0,0.0,18.0,1286.0
4.211,9.474,78.947,0.0,0.0,7.368,0.0,0.0,8866602.0,12357244.0,0.0,0.0,18.0,1209.0
5.155,10.309,78.351,0.0,0.0,6.186,0.0,0.0,8879969.0,12300738.0,0.0,0.0,19.0,1181.0
5.155,11.340,75.258,0.0,0.0,8.247,0.0,0.0,9188329.0,12842984.0,0.0,0.0,18.0,1479.0
7.216,13.402,73.196,0.0,0.0,6.186,0.0,0.0,8927166.0,12500102.0,0.0,0.0,18.0,1161.0
4.0,10.0,74.0,0.0,0.0,12.0,0.0,0.0,8674269.0,12249882.0,0.0,0.0,18.0,1247.0
3.061,9.184,78.571,0.0,0.0,9.184,0.0,0.0,8867117.0,12273413.0,0.0,0.0,19.0,1184.0
5.102,10.204,75.510,0.0,0.0,9.184,0.0,0.0,9108240.0,12717091.0,0.0,0.0,18.0,1341.0
1.980,13.861,78.218,0.0,0.0,5.941,0.0,0.0,8819410.0,12518742.0,0.0,0.0,18.0,1240.0
3.030,12.121,76.768,0.0,0.0,8.081,0.0,0.0,8818893.0,12524620.0,0.0,0.0,18.0,1250.0
7.071,13.131,71.717,0.0,0.0,8.081,0.0,8192.0,8591108.0,12150328.0,0.0,0.0,18.0,1210.0
7.216,15.464,68.041,0.0,0.0,9.278,0.0,0.0,8958171.0,12809179.0,0.0,0.0,24.0,1351.0
2.105,13.684,81.053,0.0,0.0,3.158,0.0,0.0,8795879.0,12597178.0,0.0,0.0,18.0,1410.0
2.128,10.638,81.915,0.0,0.0,5.319,0.0,0.0,8883011.0,12325879.0,0.0,0.0,18.0,1173.0
3.061,13.265,74.490,0.0,0.0,9.184,0.0,0.0,8700181.0,12787684.0,0.0,0.0,18.0,1135.0
3.125,13.542,76.042,0.0,0.0,7.292,0.0,0.0,8895281.0,12499844.0,0.0,0.0,18.0,1335.0
4.255,9.574,81.915,0.0,0.0,4.255,0.0,0.0,8776062.0,12582348.0,0.0,0.0,19.0,1122.0
5.435,9.783,80.435,0.0,0.0,4.348,0.0,0.0,8766124.0,12553973.0,0.0,0.0,18.0,1085.0
3.261,7.609,84.783,0.0,0.0,4.348,0.0,0.0,8472639.0,12501753.0,0.0,0.0,18.0,1343.0
5.882,14.706,75.490,0.0,0.0,3.922,0.0,0.0,8770955.0,12420278.0,0.0,0.0,18.0,1362.0
7.292,15.625,71.875,0.0,0.0,5.208,0.0,0.0,8585054.0,12575677.0,0.0,0.0,18.0,1316.0
1.042,13.542,80.208,0.0,0.0,5.208,0.0,0.0,8942566.0,12697039.0,0.0,0.0,19.0,1279.0
3.158,10.526,82.105,0.0,0.0,4.211,0.0,0.0,8410574.0,12180196.0,0.0,0.0,19.0,1092.0
5.263,9.474,77.895,0.0,0.0,7.368,0.0,0.0,8647585.0,12656256.0,0.0,0.0,18.0,1285.0
3.158,9.474,81.053,0.0,0.0,6.316,0.0,0.0,8690561.0,12664162.0,0.0,0.0,18.0,1270.0
2.151,12.903,79.570,0.0,0.0,5.376,0.0,0.0,8301241.0,11987154.0,0.0,0.0,19.0,1261.0
3.125,12.500,79.167,0.0,0.0,5.208,0.0,0.0,8635093.0,12857444.0,0.0,0.0,18.0,1290.0
1.075,10.753,83.871,0.0,0.0,4.301,0.0,0.0,8350202.0,12316231.0,0.0,0.0,18.0,1404.0
2.174,9.783,82.609,0.0,0.0,5.435,0.0,0.0,8741560.0,12839011.0,0.0,0.0,18.0,1307.0
7.527,13.978,75.269,1.075,0.0,2.151,0.0,28672.0,8438254.0,12559552.0,0.0,0.0,18.0,1266.0
5.208,14.583,75.0,0.0,0.0,5.208,0.0,0.0,8426270.0,12368285.0,0.0,0.0,18.0,1308.0
3.226,9.677,80.645,0.0,0.0,6.452,0.0,0.0,8728622.0,12572275.0,0.0,0.0,19.0,1303.0
5.376,10.753,76.344,0.0,0.0,7.527,0.0,0.0,8184352.0,12499791.0,0.0,0.0,18.0,1209.0
3.333,6.667,85.556,0.0,0.0,4.444,0.0,0.0,8586834.0,12533710.0,0.0,0.0,18.0,1200.0
4.211,10.526,80.0,0.0,0.0,5.263,0.0,0.0,8686465.0,12565157.0,0.0,0.0,18.0,1046.0
4.255,13.830,77.660,0.0,0.0,4.255,0.0,0.0,8549333.0,12657319.0,0.0,0.0,18.0,866.0
2.062,12.371,80.412,0.0,0.0,5.155,0.0,0.0,8241974.0,12614827.0,0.0,0.0,19.0,861.0
4.255,7.447,82.979,0.0,0.0,5.319,0.0,0.0,8462355.0,12657840.0,0.0,0.0,18.0,783.0
3.261,11.957,82.609,0.0,0.0,2.174,0.0,0.0,8453807.0,12679280.0,0.0,0.0,18.0,822.0
4.124,10.309,81.443,0.0,0.0,4.124,0.0,0.0,8533020.0,12692999.0,0.0,0.0,18.0,698.0
6.186,12.371,77.320,0.0,0.0,4.124,0.0,0.0,8496930.0,12737435.0,0.0,0.0,19.0,884.0
7.216,10.309,78.351,0.0,0.0,4.124,0.0,12288.0,8304607.0,12861704.0,0.0,0.0,18.0,692.0
4.167,9.375,82.292,0.0,0.0,4.167,0.0,0.0,8509532.0,12631053.0,0.0,0.0,18.0,764.0
5.208,8.333,82.292,0.0,0.0,4.167,0.0,0.0,8176433.0,12562390.0,0.0,0.0,18.0,764.0
6.186,11.340,78.351,0.0,0.0,4.124,0.0,0.0,8540048.0,12798108.0,0.0,0.0,18.0,740.0
4.301,12.903,79.570,0.0,0.0,3.226,0.0,0.0,8426019.0,12638977.0,0.0,0.0,19.0,691.0
2.083,8.333,84.375,0.0,0.0,5.208,0.0,0.0,8439512.0,12570334.0,0.0,0.0,18.0,784.0
3.297,8.791,85.714,0.0,0.0,2.198,0.0,0.0,8303761.0,12771049.0,0.0,0.0,18.0,785.0
4.301,10.753,81.720,0.0,0.0,3.226,0.0,0.0,8269170.0,12645387.0,0.0,0.0,18.0,740.0
4.167,11.458,82.292,0.0,0.0,2.083,0.0,0.0,8537972.0,12597601.0,0.0,0.0,18.0,727.0
4.167,13.542,78.125,0.0,0.0,4.167,0.0,0.0,8402628.0,12594766.0,0.0,0.0,19.0,765.0
4.211,9.474,81.053,0.0,0.0,5.263,0.0,0.0,8603498.0,12773377.0,0.0,0.0,18.0,721.0
3.061,14.286,76.531,0.0,0.0,6.122,0.0,0.0,8158358.0,12740281.0,0.0,0.0,18.0,779.0
1.087,9.783,84.783,0.0,0.0,4.348,0.0,0.0,8616164.0,12676411.0,0.0,0.0,18.0,745.0
2.128,7.447,84.043,0.0,0.0,6.383,0.0,0.0,8253788.0,12616361.0,0.0,0.0,18.0,740.0
4.301,9.677,81.720,0.0,0.0,4.301,0.0,0.0,8242797.0,12641768.0,0.0,0.0,19.0,886.0
3.226,12.903,80.645,0.0,0.0,3.226,0.0,0.0,8505727.0,12894299.0,0.0,0.0,18.0,716.0
2.083,9.375,83.333,0.0,0.0,5.208,0.0,0.0,8336566.0,12719225.0,0.0,0.0,18.0,701.0
7.292,8.333,78.125,0.0,0.0,6.250,0.0,0.0,8492614.0,12896648.0,0.0,0.0,18.0,791.0
3.158,10.526,82.105,0.0,0.0,4.211,0.0,0.0,8476851.0,12663039.0,0.0,0.0,18.0,656.0
3.125,11.458,81.250,0.0,0.0,4.167,0.0,0.0,8204602.0,12655699.0,0.0,0.0,19.0,831.0
5.319,15.957,72.340,2.128,0.0,4.255,0.0,12288.0,8366737.0,12688071.0,0.0,0.0,18.0,865.0
3.158,9.474,82.105,0.0,0.0,5.263,0.0,16384.0,8540652.0,12570649.0,0.0,0.0,18.0,710.0
4.0,11.0,77.0,0.0,0.0,8.0,0.0,0.0,8134911.0,12694167.0,0.0,0.0,18.0,833.0
3.226,12.903,80.645,0.0,0.0,3.226,0.0,0.0,8244669.0,12591552.0,0.0,0.0,18.0,848.0
3.226,9.677,83.871,0.0,0.0,3.226,0.0,0.0,8223604.0,12769043.0,0.0,0.0,19.0,728.0
4.167,8.333,80.208,0.0,0.0,7.292,0.0,0.0,8224892.0,12714366.0,0.0,0.0,18.0,706.0
2.105,9.474,81.053,0.0,0.0,7.368,0.0,0.0,8355950.0,12771329.0,0.0,0.0,18.0,761.0
4.348,8.696,83.696,0.0,0.0,3.261,0.0,0.0,8066771.0,12783352.0,0.0,0.0,18.0,760.0
2.083,11.458,82.292,0.0,0.0,4.167,0.0,0.0,8212898.0,12681249.0,0.0,0.0,18.0,795.0
3.226,8.602,86.022,0.0,0.0,2.151,0.0,0.0,8277170.0,12828353.0,0.0,0.0,19.0,819.0
7.692,19.780,69.231,0.0,0.0,3.297,0.0,0.0,8325026.0,12854999.0,0.0,0.0,23.0,878.0
4.082,9.184,81.633,0.0,0.0,5.102,0.0,8192.0,8109543.0,12598106.0,0.0,0.0,18.0,802.0
4.124,11.340,80.412,0.0,0.0,4.124,0.0,0.0,8267979.0,12662920.0,0.0,0.0,18.0,773.0
3.125,10.417,80.208,0.0,0.0,6.250,0.0,0.0,8181055.0,12639638.0,0.0,0.0,19.0,861.0
2.128,10.638,82.979,0.0,0.0,4.255,0.0,0.0,8262987.0,12626100.0,0.0,0.0,18.0,908.0
3.226,11.828,80.645,0.0,0.0,4.301,0.0,0.0,8032630.0,12602718.0,0.0,0.0,18.0,919.0
5.263,9.474,78.947,0.0,0.0,6.316,0.0,0.0,8251650.0,12547245.0,0.0,0.0,18.0,1071.0
2.128,10.638,82.979,0.0,0.0,4.255,0.0,0.0,8109693.0,12444343.0,0.0,0.0,18.0,1152.0
3.093,12.371,80.412,0.0,0.0,4.124,0.0,0.0,7990524.0,12390746.0,0.0,0.0,19.0,1260.0
5.208,13.542,77.083,0.0,0.0,4.167,0.0,0.0,7946583.0,12147211.0,0.0,0.0,18.0,1193.0
5.263,9.474,77.895,0.0,0.0,7.368,0.0,0.0,8570963.0,12858775.0,0.0,0.0,18.0,1212.0
6.186,9.278,77.320,0.0,0.0,7.216,0.0,0.0,8063587.0,12501412.0,0.0,0.0,18.0,1280.0
6.383,11.702,77.660,0.0,0.0,4.255,0.0,0.0,8033135.0,12244184.0,0.0,0.0,18.0,1283.0
4.082,9.184,78.571,0.0,0.0,8.163,0.0,0.0,8038419.0,12253208.0,0.0,0.0,19.0,1494.0
3.158,10.526,81.053,0.0,0.0,5.263,0.0,0.0,7976444.0,12404288.0,0.0,0.0,18.0,1240.0
5.155,10.309,75.258,0.0,0.0,9.278,0.0,0.0,8215191.0,12941414.0,0.0,0.0,18.0,1159.0
3.125,9.375,83.333,0.0,0.0,4.167,0.0,0.0,7938981.0,12361832.0,0.0,0.0,18.0,1040.0
3.125,12.500,82.292,0.0,0.0,2.083,0.0,0.0,7996521.0,12260219.0,0.0,0.0,18.0,1139.0
4.211,10.526,77.895,0.0,0.0,7.368,0.0,0.0,7836481.0,12284160.0,0.0,0.0,19.0,1173.0
3.125,9.375,80.208,0.0,0.0,7.292,0.0,0.0,8071905.0,12453803.0,0.0,0.0,18.0,1320.0
4.124,11.340,77.320,0.0,0.0,7.216,0.0,0.0,8063903.0,12605260.0,0.0,0.0,18.0,1262.0
4.211,13.684,74.737,3.158,0.0,4.211,0.0,28672.0,7995434.0,12284369.0,0.0,0.0,18.0,1355.0
4.082,10.204,79.592,0.0,0.0,6.122,0.0,0.0,7978943.0,12517926.0,0.0,0.0,18.0,1256.0
5.051,12.121,78.788,0.0,0.0,4.040,0.0,0.0,8157037.0,12601918.0,0.0,0.0,18.0,1245.0
4.255,11.702,80.851,0.0,0.0,3.191,0.0,0.0,7752318.0,12185269.0,0.0,0.0,19.0,1241.0
2.105,14.737,77.895,0.0,0.0,5.263,0.0,0.0,8122371.0,12262010.0,0.0,0.0,18.0,1195.0
4.0,12.0,75.0,0.0,0.0,9.0,0.0,0.0,7892123.0,12119423.0,0.0,0.0,18.0,1245.0
4.124,12.371,77.320,0.0,0.0,6.186,0.0,0.0,7861171.0,12740978.0,0.0,0.0,18.0,1150.0
4.255,10.638,81.915,0.0,0.0,3.191,0.0,0.0,8095432.0,12470233.0,0.0,0.0,19.0,1314.0
5.051,9.091,78.788,0.0,0.0,7.071,0.0,0.0,8259715.0,12751322.0,0.0,0.0,18.0,1201.0
4.167,14.583,76.042,0.0,0.0,5.208,0.0,0.0,7896583.0,12499880.0,0.0,0.0,18.0,971.0
3.158,10.526,83.158,0.0,0.0,3.158,0.0,0.0,7818469.0,12499349.0,0.0,0.0,18.0,970.0
3.158,9.474,82.105,0.0,0.0,5.263,0.0,16384.0,7788762.0,12500330.0,0.0,0.0,18.0,1010.0
6.250,10.417,79.167,0.0,0.0,4.167,0.0,0.0,7790426.0,12433885.0,0.0,0.0,19.0,829.0
3.125,8.333,82.292,0.0,0.0,6.250,0.0,0.0,7902386.0,12497402.0,0.0,0.0,18.0,1158.0
5.208,8.333,79.167,0.0,0.0,7.292,0.0,0.0,7828380.0,12568222.0,0.0,0.0,18.0,1068.0
2.222,7.778,85.556,0.0,0.0,4.444,0.0,0.0,8302937.0,12493699.0,0.0,0.0,18.0,1225.0
4.167,11.458,79.167,0.0,0.0,5.208,0.0,0.0,7889212.0,12507581.0,0.0,0.0,19.0,839.0
3.191,9.574,84.043,0.0,0.0,3.191,0.0,0.0,7862862.0,12700311.0,0.0,0.0,18.0,867.0
5.208,8.333,79.167,0.0,0.0,7.292,0.0,0.0,7911695.0,12497686.0,0.0,0.0,18.0,1496.0
5.319,12.766,78.723,0.0,0.0,3.191,0.0,0.0,7811881.0,12501600.0,0.0,0.0,18.0,1045.0
3.125,10.417,79.167,0.0,0.0,7.292,0.0,0.0,8056658.0,12718507.0,0.0,0.0,18.0,1074.0
4.124,9.278,81.443,0.0,0.0,5.155,0.0,0.0,7794873.0,12694588.0,0.0,0.0,19.0,1160.0
5.0,15.0,75.0,0.0,0.0,5.0,0.0,0.0,7837282.0,12499662.0,0.0,0.0,18.0,1274.0
4.082,9.184,79.592,0.0,0.0,7.143,0.0,0.0,7791513.0,12500935.0,0.0,0.0,18.0,1184.0
4.255,12.766,79.787,0.0,0.0,3.191,0.0,0.0,7871266.0,12676814.0,0.0,0.0,18.0,922.0
6.122,12.245,76.531,0.0,0.0,5.102,0.0,0.0,7763301.0,12396231.0,0.0,0.0,18.0,1409.0
3.125,12.500,80.208,0.0,0.0,4.167,0.0,0.0,7858096.0,12710044.0,0.0,0.0,19.0,1229.0
4.167,11.458,79.167,0.0,0.0,5.208,0.0,0.0,7492670.0,12449471.0,0.0,0.0,18.0,1328.0
5.102,11.224,75.510,0.0,0.0,8.163,0.0,0.0,7992115.0,12895921.0,0.0,0.0,18.0,1384.0
4.040,12.121,75.758,0.0,0.0,8.081,0.0,0.0,7588659.0,12419975.0,0.0,0.0,18.0,1542.0
4.082,10.204,72.449,5.102,0.0,8.163,0.0,0.0,7699655.0,12465809.0,0.0,0.0,18.0,1265.0
4.211,10.526,72.632,7.368,0.0,5.263,0.0,45056.0,7709480.0,12586549.0,0.0,0.0,19.0,1227.0
4.211,9.474,81.053,0.0,0.0,5.263,0.0,0.0,7773313.0,12185160.0,0.0,0.0,18.0,1284.0
5.208,10.417,76.042,0.0,0.0,8.333,0.0,0.0,7752753.0,12785915.0,0.0,0.0,18.0,1490.0
5.208,14.583,75.0,0.0,0.0,5.208,0.0,0.0,7521203.0,12353895.0,0.0,0.0,18.0,1471.0
2.083,9.375,81.250,0.0,0.0,7.292,0.0,0.0,7829521.0,12470874.0,0.0,0.0,18.0,1425.0
3.0,13.0,77.0,0.0,0.0,7.0,0.0,0.0,7585089.0,12730926.0,0.0,0.0,19.0,1456.0
3.093,13.402,77.320,0.0,0.0,6.186,0.0,0.0,7792506.0,12500233.0,0.0,0.0,18.0,1232.0
2.151,9.677,83.871,0.0,0.0,4.301,0.0,0.0,7562419.0,12499064.0,0.0,0.0,18.0,1078.0
3.333,7.778,83.333,0.0,0.0,5.556,0.0,0.0,7503654.0,12499404.0,0.0,0.0,18.0,1083.0
8.511,13.830,69.149,0.0,0.0,8.511,0.0,0.0,7667434.0,12501746.0,0.0,0.0,26.0,1331.0
3.061,9.184,80.612,0.0,0.0,7.143,0.0,0.0,7653776.0,12457753.0,0.0,0.0,18.0,1043.0
3.191,9.574,82.979,0.0,0.0,4.255,0.0,0.0,7518482.0,12283308.0,0.0,0.0,18.0,1260.0
3.158,11.579,78.947,0.0,0.0,6.316,0.0,0.0,7660341.0,12517678.0,0.0,0.0,18.0,1294.0
3.158,12.632,78.947,0.0,0.0,5.263,0.0,0.0,7527650.0,12156698.0,0.0,0.0,18.0,1372.0
2.062,12.371,79.381,0.0,0.0,6.186,0.0,0.0,7672521.0,12374813.0,0.0,0.0,18.0,1238.0
5.155,11.340,77.320,0.0,0.0,6.186,0.0,0.0,7630131.0,12585882.0,0.0,0.0,19.0,1200.0
3.125,10.417,82.292,0.0,0.0,4.167,0.0,4096.0,7718681.0,12226928.0,0.0,0.0,18.0,1180.0
2.128,8.511,81.915,0.0,0.0,7.447,0.0,0.0,7465649.0,12303066.0,0.0,0.0,18.0,1483.0
7.368,11.579,75.789,0.0,0.0,5.263,0.0,0.0,7602582.0,12681656.0,0.0,0.0,18.0,1306.0
3.158,11.579,81.053,0.0,0.0,4.211,0.0,0.0,7703833.0,12834111.0,0.0,0.0,18.0,1034.0
3.093,11.340,79.381,0.0,0.0,6.186,0.0,0.0,7322629.0,12368241.0,0.0,0.0,19.0,1282.0
4.301,8.602,80.645,0.0,0.0,6.452,0.0,0.0,7464403.0,12444130.0,0.0,0.0,18.0,1216.0
4.301,11.828,81.720,0.0,0.0,2.151,0.0,0.0,7402113.0,12150885.0,0.0,0.0,18.0,1146.0
3.226,15.054,77.419,0.0,0.0,4.301,0.0,0.0,7580557.0,12650076.0,0.0,0.0,18.0,1312.0
9.184,11.224,71.429,0.0,0.0,8.163,0.0,0.0,7535090.0,12282011.0,0.0,0.0,19.0,1209.0
4.040,12.121,78.788,0.0,0.0,5.051,0.0,0.0,7354143.0,12232653.0,0.0,0.0,18.0,1362.0
4.124,10.309,79.381,0.0,0.0,6.186,0.0,0.0,7386435.0,12381192.0,0.0,0.0,18.0,1211.0
6.061,14.141,75.758,0.0,0.0,4.040,0.0,0.0,7576814.0,12729711.0,0.0,0.0,18.0,1254.0
3.226,9.677,77.419,0.0,0.0,9.677,0.0,0.0,7327427.0,12219971.0,0.0,0.0,18.0,1383.0
2.083,12.500,80.208,0.0,0.0,5.208,0.0,0.0,7368539.0,12345028.0,0.0,0.0,19.0,1341.0
3.093,13.402,76.289,2.062,0.0,5.155,0.0,20480.0,7292818.0,12574108.0,0.0,0.0,18.0,1322.0
3.158,11.579,80.0,0.0,0.0,5.263,0.0,0.0,7390300.0,12265294.0,0.0,0.0,18.0,1264.0
3.125,9.375,80.208,0.0,0.0,7.292,0.0,0.0,7406202.0,12698552.0,0.0,0.0,18.0,1283.0
6.061,11.111,76.768,0.0,0.0,6.061,0.0,0.0,7438337.0,12433145.0,0.0,0.0,18.0,1332.0
6.122,11.224,73.469,0.0,0.0,9.184,0.0,0.0,7446612.0,12377976.0,0.0,0.0,19.0,1240.0
2.0,9.0,78.0,0.0,0.0,11.0,0.0,0.0,7232887.0,12541456.0,0.0,0.0,18.0,1190.0
2.128,9.574,80.851,0.0,0.0,7.447,0.0,0.0,7392531.0,12218685.0,0.0,0.0,18.0,1207.0
5.263,11.579,77.895,0.0,0.0,5.263,0.0,0.0,7326143.0,12483083.0,0.0,0.0,18.0,1268.0
4.211,12.632,76.842,0.0,0.0,6.316,0.0,0.0,7281335.0,12013787.0,0.0,0.0,18.0,1096.0
4.0,12.0,79.0,0.0,0.0,5.0,0.0,0.0,7451237.0,12527093.0,0.0,0.0,19.0,1299.0
6.250,9.375,78.125,0.0,0.0,6.250,0.0,0.0,7502225.0,12323524.0,0.0,0.0,18.0,1061.0
2.105,12.632,80.0,0.0,0.0,5.263,0.0,8192.0,7375855.0,12606609.0,0.0,0.0,18.0,1039.0
3.158,9.474,81.053,0.0,0.0,6.316,0.0,0.0,7623540.0,12727890.0,0.0,0.0,18.0,1034.0
6.522,10.870,80.435,0.0,0.0,2.174,0.0,0.0,7370205.0,12446467.0,0.0,0.0,19.0,943.0
3.061,13.265,78.571,0.0,0.0,5.102,0.0,0.0,7476682.0,12553010.0,0.0,0.0,18.0,1098.0
1.087,9.783,85.870,0.0,0.0,3.261,0.0,0.0,7371441.0,12499790.0,0.0,0.0,18.0,946.0
5.263,11.579,77.895,0.0,0.0,5.263,0.0,0.0,7445626.0,12527129.0,0.0,0.0,18.0,834.0
1.042,12.500,82.292,0.0,0.0,4.167,0.0,0.0,7193170.0,12604746.0,0.0,0.0,18.0,1136.0
4.211,12.632,80.0,0.0,0.0,3.158,0.0,0.0,7521210.0,12527038.0,0.0,0.0,18.0,1168.0
7.216,13.402,74.227,0.0,0.0,5.155,0.0,0.0,7374066.0,12893108.0,0.0,0.0,19.0,953.0
4.167,8.333,83.333,0.0,0.0,4.167,0.0,0.0,7459961.0,12672079.0,0.0,0.0,18.0,752.0
3.093,7.216,81.443,0.0,0.0,8.247,0.0,8192.0,7350022.0,12690311.0,0.0,0.0,18.0,966.0
6.122,10.204,79.592,0.0,0.0,4.082,0.0,0.0,7263824.0,12633591.0,0.0,0.0,18.0,808.0
2.105,10.526,82.105,0.0,0.0,5.263,0.0,0.0,7416226.0,12536279.0,0.0,0.0,19.0,769.0
5.155,10.309,80.412,0.0,0.0,4.124,0.0,0.0,7286505.0,12683033.0,0.0,0.0,18.0,845.0
3.125,10.417,81.250,0.0,0.0,5.208,0.0,0.0,7590883.0,12797249.0,0.0,0.0,18.0,751.0
7.447,10.638,78.723,0.0,0.0,3.191,0.0,0.0,7430361.0,12883050.0,0.0,0.0,18.0,741.0
3.093,9.278,81.443,0.0,0.0,6.186,0.0,0.0,7411639.0,12630638.0,0.0,0.0,18.0,1050.0
3.125,8.333,81.250,0.0,0.0,7.292,0.0,0.0,7395270.0,12570734.0,0.0,0.0,19.0,785.0
7.368,13.684,74.737,0.0,0.0,4.211,0.0,0.0,7357098.0,12687702.0,0.0,0.0,18.0,872.0
4.124,8.247,77.320,3.093,0.0,7.216,0.0,20480.0,7479384.0,12672259.0,0.0,0.0,18.0,1123.0
2.041,9.184,81.633,0.0,0.0,7.143,0.0,0.0,7221622.0,12684893.0,0.0,0.0,18.0,831.0
2.041,9.184,82.653,0.0,0.0,6.122,0.0,16384.0,7188467.0,12558021.0,0.0,0.0,18.0,838.0
3.125,7.292,83.333,0.0,0.0,6.250,0.0,0.0,7185339.0,12655552.0,0.0,0.0,19.0,759.0
3.125,12.500,78.125,0.0,0.0,6.250,0.0,0.0,7519431.0,12604219.0,0.0,0.0,18.0,859.0
4.082,9.184,80.612,0.0,0.0,6.122,0.0,0.0,7247885.0,12540139.0,0.0,0.0,18.0,841.0
4.124,7.216,80.412,0.0,0.0,8.247,0.0,0.0,7215182.0,12575114.0,0.0,0.0,18.0,946.0
2.105,9.474,84.211,0.0,0.0,4.211,0.0,0.0,7357096.0,12819635.0,0.0,0.0,18.0,933.0
3.030,11.111,79.798,0.0,0.0,6.061,0.0,0.0,7390872.0,12542090.0,0.0,0.0,19.0,780.0
7.447,13.830,70.213,0.0,0.0,8.511,0.0,0.0,7458946.0,12670921.0,0.0,0.0,23.0,1068.0
2.041,10.204,81.633,0.0,0.0,6.122,0.0,0.0,7269761.0,12598045.0,0.0,0.0,18.0,927.0
5.0,10.0,79.0,0.0,0.0,6.0,0.0,0.0,7112856.0,12735417.0,0.0,0.0,18.0,742.0
4.301,8.602,82.796,0.0,0.0,4.301,0.0,0.0,7471468.0,12667444.0,0.0,0.0,19.0,776.0
4.255,6.383,84.043,0.0,0.0,5.319,0.0,0.0,7178539.0,12486594.0,0.0,0.0,18.0,792.0
3.125,12.500,77.083,0.0,0.0,7.292,0.0,0.0,7452392.0,12791119.0,0.0,0.0,18.0,726.0
2.062,13.402,79.381,0.0,0.0,5.155,0.0,0.0,7132739.0,12600126.0,0.0,0.0,18.0,752.0
2.105,13.684,80.0,0.0,0.0,4.211,0.0,0.0,7284413.0,12649573.0,0.0,0.0,18.0,780.0
3.093,9.278,81.443,0.0,0.0,6.186,0.0,0.0,7135196.0,12510042.0,0.0,0.0,19.0,838.0
6.186,9.278,79.381,0.0,0.0,5.155,0.0,0.0,7533849.0,12781126.0,0.0,0.0,18.0,821.0
5.208,11.458,77.083,0.0,0.0,6.250,0.0,0.0,7233331.0,12755090.0,0.0,0.0,18.0,809.0
2.151,9.677,83.871,0.0,0.0,4.301,0.0,0.0,7304684.0,12659096.0,0.0,0.0,18.0,922.0
2.062,10.309,81.443,0.0,0.0,6.186,0.0,0.0,7342529.0,12755638.0,0.0,0.0,18.0,854.0
4.211,9.474,82.105,0.0,0.0,4.211,0.0,8192.0,7238081.0,12624438.0,0.0,0.0,19.0,966.0
3.125,10.417,81.250,0.0,0.0,5.208,0.0,0.0,7106673.0,12499468.0,0.0,0.0,18.0,903.0
5.208,10.417,80.208,0.0,0.0,4.167,0.0,0.0,7118301.0,12616583.0,0.0,0.0,18.0,1061.0
4.255,10.638,81.915,0.0,0.0,3.191,0.0,0.0,7288361.0,12521143.0,0.0,0.0,18.0,861.0
5.319,6.383,84.043,0.0,0.0,4.255,0.0,0.0,7477792.0,12512434.0,0.0,0.0,18.0,915.0
3.158,9.474,83.158,0.0,0.0,4.211,0.0,0.0,7039737.0,12498979.0,0.0,0.0,19.0,1105.0
4.124,11.340,78.351,0.0,0.0,6.186,0.0,0.0,6996817.0,12499032.0,0.0,0.0,18.0,913.0
3.226,10.753,79.570,0.0,0.0,6.452,0.0,0.0,7124501.0,12533250.0,0.0,0.0,18.0,943.0
5.0,9.0,80.0,0.0,0.0,6.0,0.0,0.0,7229262.0,12501096.0,0.0,0.0,18.0,1013.0
5.263,8.421,75.789,2.105,0.0,8.421,0.0,28672.0,7083743.0,12572347.0,0.0,0.0,18.0,856.0
2.105,9.474,83.158,0.0,0.0,5.263,0.0,0.0,7184822.0,12609709.0,0.0,0.0,19.0,991.0
4.124,9.278,83.505,0.0,0.0,3.093,0.0,0.0,7136159.0,12696395.0,0.0,0.0,18.0,858.0
6.186,12.371,76.289,0.0,0.0,5.155,0.0,0.0,7195779.0,12581892.0,0.0,0.0,18.0,873.0
5.155,8.247,82.474,0.0,0.0,4.124,0.0,0.0,7099850.0,12587734.0,0.0,0.0,18.0,758.0
0.0,9.574,84.043,0.0,0.0,6.383,0.0,0.0,7199402.0,12621887.0,0.0,0.0,18.0,1012.0
4.211,7.368,81.053,0.0,0.0,7.368,0.0,0.0,7190801.0,12628854.0,0.0,0.0,19.0,897.0
1.064,9.574,85.106,0.0,0.0,4.255,0.0,0.0,7010732.0,12645944.0,0.0,0.0,18.0,820.0
3.061,13.265,79.592,0.0,0.0,4.082,0.0,0.0,7146059.0,12830830.0,0.0,0.0,18.0,826.0
5.319,10.638,79.787,0.0,0.0,4.255,0.0,0.0,7088343.0,12598124.0,0.0,0.0,18.0,771.0
2.970,11.881,79.208,0.0,0.0,5.941,0.0,0.0,7164878.0,12801884.0,0.0,0.0,18.0,718.0
3.125,10.417,84.375,0.0,0.0,2.083,0.0,0.0,7147231.0,12778741.0,0.0,0.0,19.0,669.0
5.155,7.216,80.412,0.0,0.0,7.216,0.0,8192.0,7083928.0,12678650.0,0.0,0.0,18.0,786.0
3.333,7.778,85.556,0.0,0.0,3.333,0.0,0.0,7324843.0,12937170.0,0.0,0.0,18.0,871.0
3.158,8.421,83.158,0.0,0.0,5.263,0.0,0.0,7024495.0,12532874.0,0.0,0.0,18.0,806.0
5.051,9.091,78.788,0.0,0.0,7.071,0.0,0.0,7022954.0,12499589.0,0.0,0.0,19.0,955.0
3.093,9.278,82.474,0.0,0.0,5.155,0.0,0.0,7025540.0,12500264.0,0.0,0.0,18.0,1275.0
3.125,11.458,82.292,0.0,0.0,3.125,0.0,0.0,7079079.0,12499893.0,0.0,0.0,18.0,1352.0
3.158,10.526,80.0,0.0,0.0,6.316,0.0,0.0,7201086.0,12746933.0,0.0,0.0,18.0,940.0
5.102,11.224,77.551,0.0,0.0,6.122,0.0,0.0,7209148.0,12554726.0,0.0,0.0,18.0,985.0
1.124,10.112,86.517,0.0,0.0,2.247,0.0,0.0,6962517.0,12679783.0,0.0,0.0,19.0,1019.0
3.883,10.680,78.641,0.0,0.0,6.796,0.0,0.0,7054698.0,12500568.0,0.0,0.0,18.0,974.0
4.348,8.696,82.609,0.0,0.0,4.348,0.0,4096.0,7102438.0,12677672.0,0.0,0.0,18.0,970.0
2.105,9.474,81.053,0.0,0.0,7.368,0.0,0.0,6969178.0,12531875.0,0.0,0.0,18.0,1212.0
4.396,7.692,85.714,0.0,0.0,2.198,0.0,0.0,7069049.0,12606068.0,0.0,0.0,18.0,868.0
3.261,9.783,83.696,0.0,0.0,3.261,0.0,0.0,6836413.0,12608712.0,0.0,0.0,19.0,730.0
3.030,10.101,81.818,0.0,0.0,5.051,0.0,0.0,7297539.0,12677388.0,0.0,0.0,18.0,832.0
4.301,6.452,86.022,0.0,0.0,3.226,0.0,0.0,7050642.0,12540218.0,0.0,0.0,18.0,781.0
5.102,13.265,78.571,0.0,0.0,3.061,0.0,0.0,7238993.0,12625077.0,0.0,0.0,18.0,895.0
4.082,12.245,78.571,0.0,0.0,5.102,0.0,0.0,6972041.0,12751630.0,0.0,0.0,18.0,1019.0
3.093,9.278,82.474,0.0,0.0,5.155,0.0,0.0,7136373.0,12586148.0,0.0,0.0,18.0,1043.0
4.082,9.184,80.612,2.041,0.0,4.082,0.0,12288.0,6880476.0,12622235.0,0.0,0.0,19.0,952.0
4.167,11.458,80.208,0.0,0.0,4.167,0.0,16384.0,7327126.0,12598128.0,0.0,0.0,18.0,884.0
6.316,8.421,80.0,0.0,0.0,5.263,0.0,0.0,6974663.0,12656897.0,0.0,0.0,18.0,807.0
2.083,9.375,83.333,0.0,0.0,5.208,0.0,0.0,7057173.0,12691624.0,0.0,0.0,18.0,870.0
3.158,9.474,83.158,0.0,0.0,4.211,0.0,0.0,6926741.0,12674350.0,0.0,0.0,19.0,889.0
3.125,8.333,83.333,0.0,0.0,5.208,0.0,0.0,6990494.0,12596587.0,0.0,0.0,18.0,820.0
2.083,9.375,83.333,0.0,0.0,5.208,0.0,0.0,7116723.0,12658725.0,0.0,0.0,18.0,869.0
6.522,16.304,70.652,0.0,0.0,6.522,0.0,0.0,7228476.0,12824638.0,0.0,0.0,23.0,957.0
5.208,8.333,79.167,0.0,0.0,7.292,0.0,0.0,7267645.0,12561455.0,0.0,0.0,18.0,953.0
2.174,8.696,84.783,0.0,0.0,4.348,0.0,0.0,7055936.0,12567352.0,0.0,0.0,19.0,700.0
2.174,6.522,86.957,0.0,0.0,4.348,0.0,0.0,7123183.0,12644687.0,0.0,0.0,18.0,721.0
4.124,11.340,80.412,0.0,0.0,4.124,0.0,0.0,6868910.0,12509298.0,0.0,0.0,18.0,784.0
5.263,12.632,78.947,0.0,0.0,3.158,0.0,0.0,7326887.0,12725506.0,0.0,0.0,18.0,941.0
3.093,8.247,81.443,0.0,0.0,7.216,0.0,0.0,6981271.0,12500105.0,0.0,0.0,18.0,1152.0
6.316,10.526,78.947,0.0,0.0,4.211,0.0,0.0,6997050.0,12515544.0,0.0,0.0,19.0,1132.0
2.062,10.309,82.474,0.0,0.0,5.155,0.0,0.0,6861377.0,12692951.0,0.0,0.0,18.0,989.0
4.167,10.417,81.250,0.0,0.0,4.167,0.0,0.0,6838847.0,12445348.0,0.0,0.0,18.0,1102.0
6.316,11.579,76.842,0.0,0.0,5.263,0.0,0.0,7066266.0,12302161.0,0.0,0.0,18.0,1169.0
2.128,9.574,80.851,0.0,0.0,7.447,0.0,0.0,7079083.0,12722850.0,0.0,0.0,19.0,1414.0
4.082,11.224,79.592,0.0,0.0,5.102,0.0,0.0,6672683.0,12249643.0,0.0,0.0,18.0,1421.0
8.081,10.101,74.747,0.0,0.0,7.071,0.0,0.0,6986952.0,12678612.0,0.0,0.0,18.0,1304.0
2.105,9.474,81.053,0.0,0.0,7.368,0.0,0.0,7067804.0,12596214.0,0.0,0.0,18.0,1028.0
5.208,8.333,79.167,0.0,0.0,7.292,0.0,8192.0,6911442.0,12698315.0,0.0,0.0,18.0,1257.0
4.167,9.375,78.125,0.0,0.0,8.333,0.0,0.0,7024898.0,12519742.0,0.0,0.0,18.0,1170.0
5.208,9.375,81.250,0.0,0.0,4.167,0.0,0.0,7025878.0,12287370.0,0.0,0.0,19.0,1218.0
2.105,8.421,83.158,0.0,0.0,6.316,0.0,0.0,6867457.0,12636294.0,0.0,0.0,18.0,1269.0
4.167,11.458,78.125,0.0,0.0,6.250,0.0,0.0,6993938.0,12576140.0,0.0,0.0,18.0,1237.0
3.261,10.870,80.435,0.0,0.0,5.435,0.0,0.0,7079258.0,12549474.0,0.0,0.0,18.0,1207.0
5.155,11.340,79.381,0.0,0.0,4.124,0.0,0.0,6916814.0,12515638.0,0.0,0.0,19.0,1196.0
5.155,10.309,79.381,0.0,0.0,5.155,0.0,0.0,7050196.0,12589371.0,0.0,0.0,18.0,1277.0
4.167,8.333,79.167,2.083,0.0,6.250,0.0,28672.0,6834874.0,12458370.0,0.0,0.0,18.0,1183.0
3.0,9.0,80.0,0.0,0.0,8.0,0.0,0.0,6846044.0,12583998.0,0.0,0.0,18.0,1160.0
5.155,10.309,76.289,0.0,0.0,8.247,0.0,0.0,6870191.0,12325531.0,0.0,0.0,18.0,1155.0
8.081,10.101,75.758,0.0,0.0,6.061,0.0,0.0,6820314.0,12447635.0,0.0,0.0,19.0,1142.0
3.030,10.101,78.788,0.0,0.0,8.081,0.0,0.0,7017826.0,12487992.0,0.0,0.0,18.0,1108.0
3.093,8.247,81.443,0.0,0.0,7.216,0.0,0.0,6753991.0,12326385.0,0.0,0.0,18.0,1152.0
4.167,9.375,79.167,0.0,0.0,7.292,0.0,0.0,6824174.0,12640583.0,0.0,0.0,18.0,1022.0
4.211,9.474,78.947,0.0,0.0,7.368,0.0,0.0,6890643.0,12477735.0,0.0,0.0,18.0,1233.0
4.211,7.368,82.105,0.0,0.0,6.316,0.0,0.0,7002609.0,12620824.0,0.0,0.0,19.0,1187.0
5.435,9.783,77.174,0.0,0.0,7.609,0.0,0.0,7041727.0,12538834.0,0.0,0.0,18.0,1057.0
3.093,10.309,81.443,0.0,0.0,5.155,0.0,0.0,6803476.0,12586684.0,0.0,0.0,18.0,1096.0
2.105,5.263,84.211,0.0,0.0,8.421,0.0,0.0,6833137.0,12370731.0,0.0,0.0,18.0,1103.0
4.082,11.224,79.592,0.0,0.0,5.102,0.0,8192.0,6904385.0,11932630.0,0.0,0.0,18.0,1114.0
5.208,13.542,73.958,0.0,0.0,7.292,0.0,0.0,7098567.0,12984879.0,0.0,0.0,19.0,1145.0
7.071,9.091,79.798,0.0,0.0,4.040,0.0,0.0,6955768.0,12816741.0,0.0,0.0,18.0,1148.0
4.0,10.0,79.0,0.0,0.0,7.0,0.0,0.0,6824799.0,12371733.0,0.0,0.0,18.0,1150.0
3.261,9.783,79.348,0.0,0.0,7.609,0.0,0.0,6876633.0,12425642.0,0.0,0.0,18.0,1126.0
3.061,13.265,78.571,0.0,0.0,5.102,0.0,0.0,6735795.0,12379305.0,0.0,0.0,18.0,1179.0
4.082,13.265,74.490,0.0,0.0,8.163,0.0,0.0,7036878.0,12640299.0,0.0,0.0,19.0,1243.0
5.051,10.101,77.778,0.0,0.0,7.071,0.0,0.0,6910899.0,12646065.0,0.0,0.0,18.0,1080.0
1.042,10.417,82.292,0.0,0.0,6.250,0.0,0.0,6774416.0,12159779.0,0.0,0.0,18.0,1131.0
4.167,6.250,82.292,0.0,0.0,7.292,0.0,0.0,6863345.0,12922866.0,0.0,0.0,18.0,1018.0
5.155,12.371,80.412,0.0,0.0,2.062,0.0,0.0,6855984.0,12478498.0,0.0,0.0,18.0,1064.0
5.208,10.417,79.167,0.0,0.0,5.208,0.0,0.0,6914393.0,12607744.0,0.0,0.0,19.0,1092.0
6.250,8.333,82.292,0.0,0.0,3.125,0.0,0.0,6900059.0,12469948.0,0.0,0.0,18.0,908.0
6.250,7.292,82.292,0.0,0.0,4.167,0.0,0.0,6821620.0,12847051.0,0.0,0.0,18.0,705.0
3.061,10.204,83.673,0.0,0.0,3.061,0.0,0.0,6756554.0,12901724.0,0.0,0.0,18.0,707.0
2.062,9.278,83.505,0.0,0.0,5.155,0.0,8192.0,6684011.0,12648056.0,0.0,0.0,19.0,729.0
7.292,9.375,76.042,0.0,0.0,7.292,0.0,0.0,6888818.0,12964909.0,0.0,0.0,18.0,852.0
1.010,10.101,80.808,0.0,0.0,8.081,0.0,0.0,6902880.0,12722998.0,0.0,0.0,18.0,715.0
2.151,9.677,82.796,0.0,0.0,5.376,0.0,0.0,6926363.0,12699929.0,0.0,0.0,18.0,725.0
3.158,8.421,82.105,2.105,0.0,4.211,0.0,20480.0,6726641.0,12661965.0,0.0,0.0,18.0,745.0
3.125,8.333,84.375,0.0,0.0,4.167,0.0,0.0,6802615.0,12735567.0,0.0,0.0,18.0,702.0
2.041,14.286,78.571,0.0,0.0,5.102,0.0,16384.0,6921030.0,12664048.0,0.0,0.0,19.0,752.0
5.263,7.368,82.105,0.0,0.0,5.263,0.0,0.0,6790724.0,12826730.0,0.0,0.0,18.0,888.0
2.105,11.579,84.211,0.0,0.0,2.105,0.0,0.0,6924205.0,12800552.0,0.0,0.0,18.0,684.0
2.128,7.447,85.106,0.0,0.0,5.319,0.0,0.0,6871323.0,12781626.0,0.0,0.0,18.0,606.0
4.124,9.278,82.474,0.0,0.0,4.124,0.0,0.0,6906053.0,12682841.0,0.0,0.0,19.0,646.0
4.348,18.478,70.652,0.0,0.0,6.522,0.0,0.0,6675011.0,12807056.0,0.0,0.0,23.0,837.0
2.062,10.309,82.474,0.0,0.0,5.155,0.0,0.0,6947475.0,12819267.0,0.0,0.0,18.0,688.0
4.124,9.278,83.505,0.0,0.0,3.093,0.0,0.0,6791418.0,12513393.0,0.0,0.0,18.0,662.0
6.122,8.163,80.612,0.0,0.0,5.102,0.0,0.0,6793248.0,12749231.0,0.0,0.0,18.0,727.0
3.0,11.0,82.0,0.0,0.0,4.0,0.0,0.0,6728572.0,12910424.0,0.0,0.0,19.0,658.0
1.031,12.371,79.381,0.0,0.0,7.216,0.0,0.0,6886406.0,12714507.0,0.0,0.0,18.0,761.0
4.211,10.526,83.158,0.0,0.0,2.105,0.0,0.0,6754859.0,12688296.0,0.0,0.0,18.0,704.0
3.093,10.309,82.474,0.0,0.0,4.124,0.0,0.0,6880099.0,12619041.0,0.0,0.0,18.0,751.0
3.158,8.421,85.263,0.0,0.0,3.158,0.0,0.0,6697398.0,12708077.0,0.0,0.0,18.0,823.0
2.105,7.368,84.211,0.0,0.0,6.316,0.0,0.0,6820272.0,13041451.0,0.0,0.0,19.0,654.0
3.226,12.903,77.419,0.0,0.0,6.452,0.0,0.0,6727176.0,12639444.0,0.0,0.0,18.0,715.0
3.158,10.526,84.211,0.0,0.0,2.105,0.0,0.0,6664364.0,12518645.0,0.0,0.0,18.0,713.0
4.124,10.309,81.443,0.0,0.0,4.124,0.0,0.0,7142768.0,12786790.0,0.0,0.0,18.0,730.0
3.061,8.163,80.612,0.0,0.0,8.163,0.0,0.0,6730358.0,12500412.0,0.0,0.0,18.0,1020.0
2.083,8.333,83.333,0.0,0.0,6.250,0.0,0.0,6655440.0,12501171.0,0.0,0.0,19.0,1030.0
4.255,8.511,80.851,0.0,0.0,6.383,0.0,0.0,6814739.0,12637867.0,0.0,0.0,18.0,1045.0
3.226,9.677,81.720,0.0,0.0,5.376,0.0,0.0,6660459.0,12769487.0,0.0,0.0,18.0,831.0
3.158,9.474,83.158,0.0,0.0,4.211,0.0,0.0,6723774.0,12800956.0,0.0,0.0,18.0,837.0
2.913,14.563,76.699,0.0,0.0,5.825,0.0,0.0,6723567.0,12816160.0,0.0,0.0,18.0,874.0
2.020,10.101,80.808,0.0,0.0,7.071,0.0,0.0,7048524.0,12762557.0,0.0,0.0,19.0,777.0
2.247,12.360,80.899,0.0,0.0,4.494,0.0,4096.0,6791024.0,12748671.0,0.0,0.0,19.0,1142.0
4.124,10.309,80.412,0.0,0.0,5.155,0.0,0.0,6721817.0,12499133.0,0.0,0.0,18.0,1049.0
2.0,8.0,79.0,0.0,0.0,11.0,0.0,0.0,6656231.0,12500784.0,0.0,0.0,18.0,1128.0
3.030,9.091,79.798,0.0,0.0,8.081,0.0,0.0,6630192.0,12499338.0,0.0,0.0,19.0,1163.0
2.062,9.278,78.351,2.062,0.0,8.247,0.0,20480.0,6617591.0,12500750.0,0.0,0.0,18.0,1180.0
2.151,10.753,80.645,0.0,0.0,6.452,0.0,0.0,6905431.0,12498741.0,0.0,0.0,18.0,1035.0
5.051,8.081,81.818,0.0,0.0,5.051,0.0,0.0,6741222.0,12518809.0,0.0,0.0,18.0,1163.0
2.0,14.0,75.0,0.0,0.0,9.0,0.0,0.0,6732131.0,12510264.0,0.0,0.0,18.0,1086.0
2.083,9.375,82.292,0.0,0.0,6.250,0.0,0.0,6679085.0,12533277.0,0.0,0.0,19.0,1131.0
4.167,7.292,82.292,0.0,0.0,6.250,0.0,0.0,6715415.0,12526510.0,0.0,0.0,18.0,1265.0
5.0,12.0,76.0,0.0,0.0,7.0,0.0,8192.0,6716374.0,12709921.0,0.0,0.0,18.0,1050.0
3.093,10.309,80.412,0.0,0.0,6.186,0.0,0.0,6581953.0,12388504.0,0.0,0.0,18.0,1059.0
3.093,9.278,81.443,0.0,0.0,6.186,0.0,0.0,6748774.0,12500473.0,0.0,0.0,18.0,1156.0
5.102,8.163,79.592,0.0,0.0,7.143,0.0,0.0,6776807.0,12499961.0,0.0,0.0,18.0,1044.0
1.053,7.368,84.211,0.0,0.0,7.368,0.0,0.0,6675070.0,12769701.0,0.0,0.0,19.0,909.0
1.053,14.737,81.053,0.0,0.0,3.158,0.0,0.0,6693033.0,12788495.0,0.0,0.0,18.0,851.0
2.0,12.0,78.0,0.0,0.0,8.0,0.0,0.0,6695363.0,12776751.0,0.0,0.0,18.0,772.0
3.093,7.216,83.505,0.0,0.0,6.186,0.0,0.0,6594813.0,12632231.0,0.0,0.0,18.0,840.0
3.093,6.186,83.505,0.0,0.0,7.216,0.0,0.0,6653597.0,12745547.0,0.0,0.0,19.0,689.0
4.301,6.452,84.946,0.0,0.0,4.301,0.0,0.0,6445039.0,12597669.0,0.0,0.0,18.0,715.0
2.198,7.692,84.615,0.0,0.0,5.495,0.0,0.0,6983451.0,12611878.0,0.0,0.0,18.0,819.0
8.602,26.882,59.140,0.0,0.0,5.376,4096.0,0.0,6640604.0,12731223.0,0.0,0.0,18.0,1026.0
4.082,11.224,80.612,0.0,0.0,4.082,0.0,0.0,6779861.0,12629178.0,0.0,0.0,18.0,756.0
2.083,6.250,84.375,0.0,0.0,7.292,0.0,0.0,6568753.0,12708177.0,0.0,0.0,19.0,709.0
2.105,4.211,87.368,0.0,0.0,6.316,0.0,0.0,6448300.0,12730553.0,0.0,0.0,18.0,794.0
1.053,10.526,82.105,0.0,0.0,6.316,0.0,0.0,6687639.0,12797604.0,0.0,0.0,18.0,760.0
3.093,9.278,80.412,0.0,0.0,7.216,0.0,0.0,6671869.0,12625424.0,0.0,0.0,18.0,688.0
3.125,7.292,85.417,0.0,0.0,4.167,0.0,0.0,6666698.0,12673637.0,0.0,0.0,18.0,731.0
3.158,6.316,87.368,0.0,0.0,3.158,0.0,0.0,6087981.0,12224947.0,0.0,0.0,19.0,646.0
