1         Threads
64        Connections per thread
70        Seconds


ALL STATS
========================================================================
Type        Ops/sec     Hits/sec   Misses/sec      Latency       KB/sec 
------------------------------------------------------------------------
Sets           0.00          ---          ---      0.00000         0.00 
Gets         464.33       464.33         0.00    137.81600      1880.83 
Waits          0.00          ---          ---      0.00000          --- 
Totals       464.33       464.33         0.00    137.81600      1880.83 


Request Latency Distribution
Type     <= msec         Percent
------------------------------------------------------------------------
---
GET      47.000         0.01
GET      62.000         0.02
GET      63.000         0.04
GET      70.000         0.05
GET      71.000         0.05
GET      76.000         0.06
GET      78.000         0.06
GET      79.000         0.07
GET      81.000         0.07
GET      84.000         0.08
GET      85.000         0.09
GET      87.000         0.09
GET      91.000         0.09
GET      92.000         0.10
GET      93.000         0.12
GET      94.000         0.21
GET      95.000         0.27
GET      97.000         0.28
GET      98.000         0.29
GET      99.000         0.29
GET     100.000         0.32
GET     110.000         4.52
GET     120.000        19.29
GET     130.000        40.03
GET     140.000        81.94
GET     150.000        83.36
GET     160.000        94.29
GET     170.000        97.75
GET     180.000        97.81
GET     190.000        99.11
GET     200.000        99.74
GET     210.000        99.77
GET     220.000        99.93
GET     230.000        99.96
GET     240.000        99.96
GET     250.000        99.99
GET     300.000        99.99
GET     310.000       100.00
---
