1         Threads
1         Connections per thread
70        Seconds


ALL STATS
========================================================================
Type        Ops/sec     Hits/sec   Misses/sec      Latency       KB/sec 
------------------------------------------------------------------------
Sets           0.00          ---          ---      0.00000         0.00 
Gets         481.82       481.82         0.00      2.06200      1951.64 
Waits          0.00          ---          ---      0.00000          --- 
Totals       481.82       481.82         0.00      2.06200      1951.64 


Request Latency Distribution
Type     <= msec         Percent
------------------------------------------------------------------------
---
GET       0.890         0.01
GET       0.900         0.02
GET       0.910         0.03
GET       0.920         0.04
GET       0.930         0.07
GET       0.940         0.09
GET       0.950         0.11
GET       0.960         0.14
GET       0.970         0.15
GET       0.980         0.23
GET       0.990         0.31
GET       1.000         1.01
GET       1.100         4.14
GET       1.200        10.52
GET       1.300        19.65
GET       1.400        30.09
GET       1.500        40.46
GET       1.600        48.96
GET       1.700        56.38
GET       1.800        62.27
GET       1.900        67.28
GET       2.000        71.25
GET       2.100        74.46
GET       2.200        77.14
GET       2.300        79.25
GET       2.400        81.15
GET       2.500        82.65
GET       2.600        84.08
GET       2.700        85.33
GET       2.800        86.31
GET       2.900        87.19
GET       3.000        88.08
GET       3.100        88.80
GET       3.200        89.45
GET       3.300        90.06
GET       3.400        90.56
GET       3.500        91.07
GET       3.600        91.58
GET       3.700        92.04
GET       3.800        92.46
GET       3.900        92.87
GET       4.000        93.23
GET       4.100        93.59
GET       4.200        93.94
GET       4.300        94.26
GET       4.400        94.55
GET       4.500        94.84
GET       4.600        95.17
GET       4.700        95.46
GET       4.800        95.74
GET       4.900        95.96
GET       5.000        96.21
GET       5.100        96.46
GET       5.200        96.70
GET       5.300        96.92
GET       5.400        97.09
GET       5.500        97.26
GET       5.600        97.47
GET       5.700        97.68
GET       5.800        97.86
GET       5.900        97.99
GET       6.000        98.12
GET       6.100        98.27
GET       6.200        98.40
GET       6.300        98.53
GET       6.400        98.67
GET       6.500        98.78
GET       6.600        98.86
GET       6.700        98.94
GET       6.800        99.00
GET       6.900        99.08
GET       7.000        99.17
GET       7.100        99.23
GET       7.200        99.29
GET       7.300        99.32
GET       7.400        99.36
GET       7.500        99.39
GET       7.600        99.42
GET       7.700        99.47
GET       7.800        99.50
GET       7.900        99.53
GET       8.000        99.55
GET       8.100        99.57
GET       8.200        99.59
GET       8.300        99.61
GET       8.400        99.62
GET       8.500        99.64
GET       8.600        99.65
GET       8.700        99.67
GET       8.800        99.68
GET       8.900        99.71
GET       9.000        99.72
GET       9.100        99.72
GET       9.200        99.75
GET       9.300        99.75
GET       9.400        99.75
GET       9.500        99.77
GET       9.600        99.77
GET       9.700        99.79
GET       9.800        99.80
GET       9.900        99.81
GET      10.000        99.88
GET      11.000        99.92
GET      12.000        99.93
GET      13.000        99.93
GET      14.000        99.94
GET      15.000        99.95
GET      16.000        99.95
GET      17.000        99.96
GET      18.000        99.96
GET      19.000        99.97
GET      20.000        99.99
GET      21.000        99.99
GET      22.000        99.99
GET      23.000        99.99
GET      24.000       100.00
GET     210.000       100.00
---
