1         Threads
2         Connections per thread
70        Seconds


ALL STATS
========================================================================
Type        Ops/sec     Hits/sec   Misses/sec      Latency       KB/sec 
------------------------------------------------------------------------
Sets           0.00          ---          ---      0.00000         0.00 
Gets         475.73       475.73         0.00      4.19100      1927.00 
Waits          0.00          ---          ---      0.00000          --- 
Totals       475.73       475.73         0.00      4.19100      1927.00 


Request Latency Distribution
Type     <= msec         Percent
------------------------------------------------------------------------
---
GET       0.880         0.00
GET       0.900         0.01
GET       0.960         0.01
GET       0.970         0.02
GET       0.980         0.02
GET       0.990         0.03
GET       1.000         0.07
GET       1.100         0.32
GET       1.200         1.14
GET       1.300         2.83
GET       1.400         5.99
GET       1.500        10.88
GET       1.600        16.57
GET       1.700        22.77
GET       1.800        29.50
GET       1.900        35.73
GET       2.000        41.43
GET       2.100        46.44
GET       2.200        50.55
GET       2.300        54.17
GET       2.400        56.93
GET       2.500        59.08
GET       2.600        60.77
GET       2.700        62.24
GET       2.800        63.42
GET       2.900        64.41
GET       3.000        65.25
GET       3.100        65.91
GET       3.200        66.48
GET       3.300        67.09
GET       3.400        67.63
GET       3.500        68.09
GET       3.600        68.51
GET       3.700        68.85
GET       3.800        69.19
GET       3.900        69.47
GET       4.000        69.80
GET       4.100        70.12
GET       4.200        70.37
GET       4.300        70.60
GET       4.400        70.85
GET       4.500        71.04
GET       4.600        71.23
GET       4.700        71.38
GET       4.800        71.60
GET       4.900        71.82
GET       5.000        71.97
GET       5.100        72.10
GET       5.200        72.25
GET       5.300        72.43
GET       5.400        72.58
GET       5.500        72.72
GET       5.600        72.84
GET       5.700        73.02
GET       5.800        73.14
GET       5.900        73.28
GET       6.000        73.38
GET       6.100        73.51
GET       6.200        73.66
GET       6.300        73.80
GET       6.400        73.95
GET       6.500        74.10
GET       6.600        74.25
GET       6.700        74.40
GET       6.800        74.59
GET       6.900        74.79
GET       7.000        75.00
GET       7.100        75.18
GET       7.200        75.39
GET       7.300        75.58
GET       7.400        75.77
GET       7.500        76.03
GET       7.600        76.28
GET       7.700        76.51
GET       7.800        76.78
GET       7.900        77.08
GET       8.000        77.32
GET       8.100        77.61
GET       8.200        77.92
GET       8.300        78.30
GET       8.400        78.69
GET       8.500        79.06
GET       8.600        79.51
GET       8.700        79.95
GET       8.800        80.49
GET       8.900        81.10
GET       9.000        81.65
GET       9.100        82.27
GET       9.200        82.98
GET       9.300        83.72
GET       9.400        84.46
GET       9.500        85.17
GET       9.600        85.99
GET       9.700        86.77
GET       9.800        87.63
GET       9.900        88.53
GET      10.000        93.30
GET      11.000        98.03
GET      12.000        99.36
GET      13.000        99.56
GET      14.000        99.71
GET      15.000        99.78
GET      16.000        99.83
GET      17.000        99.86
GET      18.000        99.86
GET      19.000        99.87
GET      20.000        99.89
GET      21.000        99.89
GET      22.000        99.91
GET      23.000        99.92
GET      24.000        99.95
GET      25.000        99.98
GET      26.000        99.99
GET      29.000        99.99
GET     210.000       100.00
GET     220.000       100.00
---
