1         Threads
32        Connections per thread
70        Seconds


ALL STATS
========================================================================
Type        Ops/sec     Hits/sec   Misses/sec      Latency       KB/sec 
------------------------------------------------------------------------
Sets           0.00          ---          ---      0.00000         0.00 
Gets         481.28       481.28         0.00     66.47800      1949.46 
Waits          0.00          ---          ---      0.00000          --- 
Totals       481.28       481.28         0.00     66.47800      1949.46 


Request Latency Distribution
Type     <= msec         Percent
------------------------------------------------------------------------
---
GET      33.000         0.01
GET      34.000         0.01
GET      35.000         0.03
GET      36.000         0.04
GET      37.000         0.04
GET      38.000         0.06
GET      42.000         0.07
GET      43.000         0.08
GET      44.000         0.09
GET      45.000         0.09
GET      46.000         0.14
GET      47.000         0.29
GET      48.000         0.58
GET      49.000         0.82
GET      50.000         0.93
GET      51.000         1.02
GET      52.000         1.10
GET      53.000         1.17
GET      54.000         1.21
GET      55.000         1.29
GET      56.000         1.36
GET      57.000         1.46
GET      58.000         1.62
GET      59.000         1.92
GET      60.000         2.77
GET      61.000         4.97
GET      62.000        17.01
GET      63.000        44.97
GET      64.000        65.55
GET      65.000        70.39
GET      66.000        72.41
GET      67.000        73.43
GET      68.000        74.01
GET      69.000        74.45
GET      70.000        74.83
GET      71.000        75.24
GET      72.000        75.83
GET      73.000        76.86
GET      74.000        78.60
GET      75.000        84.41
GET      76.000        94.72
GET      77.000        98.01
GET      78.000        98.91
GET      79.000        99.39
GET      80.000        99.56
GET      81.000        99.63
GET      82.000        99.68
GET      83.000        99.72
GET      84.000        99.72
GET      85.000        99.73
GET      87.000        99.73
GET      88.000        99.74
GET      89.000        99.77
GET      90.000        99.79
GET      91.000        99.84
GET      92.000        99.87
GET      93.000        99.87
GET      94.000        99.88
GET      97.000        99.88
GET     120.000        99.89
GET     130.000        99.89
GET     140.000        99.90
GET     150.000        99.91
GET     250.000        99.97
GET     260.000        99.97
GET     310.000       100.00
---
