second,availableProcessors,totalMemory,freeMemory,usedMemory,queueCapacity,queueSize,expectedArrivalRate,systemRequests
1,8,221249536,173452088,47797448,2147483647,0,1.243000,8
2,8,221249536,168838304,52411232,2147483647,0,1.463000,12
3,8,221249536,195346672,25902864,2147483647,0,1.502000,12
4,8,221249536,176587624,44661912,2147483647,0,1.480000,6
5,8,221249536,172934312,48315224,2147483647,0,1.503000,12
6,8,221249536,201266096,19983440,2147483647,0,1.481000,12
7,8,221249536,187432024,33817512,2147483647,0,1.491000,12
8,8,221249536,173790968,47458568,2147483647,0,1.481000,12
9,8,221249536,157517576,63731960,2147483647,0,1.495000,12
10,8,221249536,196738616,24510920,2147483643,4,1.536000,12
11,8,221249536,178483576,42765960,2147483647,0,1.529000,12
12,8,221249536,168015360,53234176,2147483647,0,1.494000,12
13,8,221249536,208309304,12940232,2147483647,0,1.467000,11
14,8,221249536,191741928,29507608,2147483647,0,1.540000,12
15,8,221249536,176661616,44587920,2147483647,0,1.505000,12
16,8,221249536,162368432,58881104,2147483647,0,1.527000,12
17,8,217579520,197952064,19627456,2147483647,0,1.504000,12
18,8,217579520,184046512,33533008,2147483647,0,1.506000,12
19,8,217579520,169282168,48297352,2147483647,0,1.498000,12
20,8,217579520,154381176,63198344,2147483647,0,1.505000,12
21,8,215482368,192449736,23032632,2147483647,0,1.502000,12
22,8,215482368,177980416,37501952,2147483647,0,1.494000,12
23,8,215482368,163068016,52414352,2147483647,0,1.501000,12
24,8,209190912,195429488,13761424,2147483647,0,1.525000,12
25,8,209190912,180803960,28386952,2147483647,0,1.488000,12
26,8,209190912,165750352,43440560,2147483647,0,1.521000,12
27,8,209190912,150662704,58528208,2147483647,0,1.545000,12
28,8,216006656,196276712,19729944,2147483647,0,1.510000,12
29,8,216006656,181696752,34309904,2147483647,0,1.474000,12
30,8,216006656,166912584,49094072,2147483647,0,1.487000,12
31,8,207093760,195974680,11119080,2147483647,0,1.476000,12
32,8,207093760,181388472,25705288,2147483647,0,1.497000,12
33,8,207093760,166558536,40535224,2147483647,0,1.497000,12
34,8,207093760,151575184,55518576,2147483647,0,1.500000,12
35,8,214958080,196493760,18464320,2147483647,0,1.489000,12
36,8,214958080,181216232,33741848,2147483647,0,1.538000,12
37,8,214958080,166614432,48343648,2147483647,0,1.488000,12
38,8,204996608,192694632,12301976,2147483647,0,1.484000,12
39,8,204996608,177683072,27313536,2147483647,0,1.512000,12
40,8,204996608,162807568,42189040,2147483647,0,1.512000,12
41,8,212336640,205382776,6953864,2147483647,0,1.497000,12
42,8,212336640,190274288,22062352,2147483647,0,1.501000,12
43,8,212336640,175030240,37306400,2147483647,0,1.539000,12
44,8,212336640,160010584,52326056,2147483647,0,1.518000,12
45,8,202899456,183974264,18925192,2147483647,0,1.557000,12
46,8,202899456,168964856,33934600,2147483647,0,1.499000,12
47,8,202899456,154231536,48667920,2147483647,0,1.492000,12
48,8,210239488,194544368,15695120,2147483647,0,1.495000,12
49,8,210239488,179472496,30766992,2147483647,0,1.495000,12
50,8,210239488,164321720,45917768,2147483647,0,1.512000,12
51,8,200802304,186676464,14125840,2147483647,0,1.505000,12
52,8,200802304,172110840,28691464,2147483647,0,1.469000,12
53,8,200802304,157176784,43625520,2147483647,0,1.500000,12
54,8,208666624,195154480,13512144,2147483647,0,1.563000,12
55,8,208666624,180085096,28581528,2147483647,0,1.515000,12
56,8,208666624,165006928,43659696,2147483647,0,1.526000,12
57,8,199753728,186382160,13371568,2147483647,0,1.496000,12
58,8,199753728,171685904,28067824,2147483647,0,1.493000,12
59,8,199753728,156957352,42796376,2147483647,0,1.474000,12
60,8,206045184,193178968,12866216,2147483647,0,1.491000,12
61,8,206045184,178500072,27545112,2147483647,0,1.481000,12
62,8,206045184,163584552,42460632,2147483647,0,1.495000,12
63,8,198705152,185303608,13401544,2147483647,0,1.541000,12
64,8,198705152,169933128,28772024,2147483647,0,1.553000,12
65,8,198705152,155152072,43553080,2147483647,0,1.493000,12
66,8,204472320,189628264,14844056,2147483647,0,1.506000,12
67,8,204472320,174852432,29619888,2147483647,0,1.484000,12
68,8,204472320,160180048,44292272,2147483647,0,1.485000,12
69,8,197656576,181466408,16190168,2147483647,0,1.519000,12
70,8,197656576,166455840,31200736,2147483647,0,1.499000,8
71,8,197656576,166000648,31655928,2147483647,0,0.015000,0
72,8,197656576,165983320,31673256,2147483647,0,0.000000,0
73,8,197656576,165965928,31690648,2147483647,0,0.000000,0
74,8,197656576,165948544,31708032,2147483647,0,0.000000,0
75,8,197656576,165948544,31708032,2147483647,0,0.000000,0
76,8,197656576,165931224,31725352,2147483647,0,0.000000,0
77,8,197656576,165913904,31742672,2147483647,0,0.000000,0
78,8,197656576,165913904,31742672,2147483647,0,0.000000,0
79,8,197656576,165896584,31759992,2147483647,0,0.000000,0
80,8,197656576,165879288,31777288,2147483647,0,0.000000,0
81,8,197656576,165861968,31794608,2147483647,0,0.000000,0
82,8,197656576,165861968,31794608,2147483647,0,0.000000,0
83,8,197656576,165844632,31811944,2147483647,0,0.000000,0
84,8,197656576,165827312,31829264,2147483647,0,0.000000,0
85,8,197656576,165827312,31829264,2147483647,0,0.000000,0
