"Dstat 0.7.2 CSV output"
"Author:","Dag Wieers <dag@wieers.com>",,,,"URL:","http://dag.wieers.com/home-made/dstat/"
"Host:","Server2",,,,"User:","maki"
"Cmdline:","dstat --output server_32_set_3_32.csv 1 70",,,,"Date:","02 Dec 2018 13:17:06 UTC"

"total cpu usage",,,,,,"dsk/total",,"net/total",,"paging",,"system",
"usr","sys","idl","wai","hiq","siq","read","writ","recv","send","in","out","int","csw"
1.499,1.679,95.817,0.729,0.0,0.276,30747.737,87640.254,0.0,0.0,0.0,0.0,18.536,290.104
10.112,20.225,65.169,0.0,0.0,4.494,0.0,0.0,38350246.0,1246622.0,0.0,0.0,19.0,3204.0
8.791,18.681,70.330,0.0,0.0,2.198,0.0,0.0,37845605.0,1229018.0,0.0,0.0,18.0,3375.0
8.140,29.070,56.977,0.0,0.0,5.814,0.0,0.0,45312603.0,1462350.0,0.0,0.0,18.0,2158.0
9.756,36.585,46.341,0.0,0.0,7.317,0.0,0.0,47526040.0,1540924.0,0.0,0.0,18.0,1671.0
12.644,29.885,54.023,0.0,0.0,3.448,0.0,0.0,50605122.0,1642386.0,0.0,0.0,18.0,1771.0
14.286,28.571,50.0,0.0,0.0,7.143,0.0,0.0,50975286.0,1650138.0,0.0,0.0,18.0,1892.0
16.854,41.573,34.831,0.0,0.0,6.742,0.0,0.0,49057130.0,1590344.0,0.0,0.0,19.0,1167.0
8.333,32.143,50.0,1.190,0.0,8.333,0.0,57344.0,49177995.0,1599390.0,0.0,0.0,18.0,1617.0
12.941,35.294,48.235,0.0,0.0,3.529,0.0,0.0,50552216.0,1635794.0,0.0,0.0,18.0,1544.0
15.116,32.558,47.674,0.0,0.0,4.651,0.0,0.0,48072309.0,1556398.0,0.0,0.0,18.0,1466.0
14.607,30.337,48.315,0.0,0.0,6.742,0.0,0.0,49920766.0,1617314.0,0.0,0.0,19.0,1616.0
14.815,34.568,43.210,0.0,0.0,7.407,0.0,0.0,50439196.0,1635580.0,0.0,0.0,18.0,1471.0
17.978,30.337,40.449,0.0,0.0,11.236,0.0,0.0,49468152.0,1602038.0,0.0,0.0,18.0,1472.0
15.476,35.714,44.048,0.0,0.0,4.762,0.0,0.0,49406700.0,1599608.0,0.0,0.0,18.0,1294.0
11.765,35.294,45.882,0.0,0.0,7.059,0.0,0.0,49553219.0,1609194.0,0.0,0.0,18.0,1449.0
13.333,24.444,56.667,0.0,0.0,5.556,0.0,0.0,50254064.0,1628918.0,0.0,0.0,19.0,1737.0
19.767,31.395,43.023,0.0,0.0,5.814,0.0,0.0,50187025.0,1625434.0,0.0,0.0,18.0,1412.0
13.636,35.227,44.318,0.0,0.0,6.818,0.0,0.0,48691859.0,1574460.0,0.0,0.0,18.0,1463.0
17.857,26.190,46.429,0.0,0.0,9.524,0.0,0.0,49646084.0,1617564.0,0.0,0.0,18.0,1589.0
16.667,23.333,53.333,0.0,0.0,6.667,0.0,0.0,49613950.0,1604014.0,0.0,0.0,18.0,1605.0
10.714,38.095,46.429,0.0,0.0,4.762,0.0,0.0,50611008.0,1635876.0,0.0,0.0,19.0,1420.0
16.667,32.143,45.238,0.0,0.0,5.952,0.0,0.0,49573140.0,1611636.0,0.0,0.0,18.0,1443.0
13.253,34.940,43.373,0.0,0.0,8.434,0.0,0.0,49594996.0,1602844.0,0.0,0.0,18.0,1388.0
13.793,42.529,37.931,0.0,0.0,5.747,0.0,0.0,51185658.0,1661636.0,0.0,0.0,18.0,1422.0
15.663,38.554,38.554,0.0,0.0,7.229,0.0,0.0,47989424.0,1554858.0,0.0,0.0,19.0,1326.0
13.793,36.782,42.529,0.0,0.0,6.897,0.0,0.0,50318358.0,1633628.0,0.0,0.0,18.0,1284.0
10.843,36.145,49.398,0.0,0.0,3.614,0.0,0.0,51083665.0,1646714.0,0.0,0.0,18.0,1551.0
19.767,37.209,37.209,0.0,0.0,5.814,0.0,0.0,47530695.0,1547492.0,0.0,0.0,18.0,1152.0
11.842,35.526,46.053,0.0,0.0,6.579,0.0,8192.0,48892023.0,1586160.0,0.0,0.0,18.0,1304.0
16.867,39.759,36.145,0.0,0.0,7.229,0.0,0.0,50534746.0,1630408.0,0.0,0.0,19.0,1212.0
13.636,27.273,55.682,0.0,0.0,3.409,0.0,0.0,49321547.0,1608070.0,0.0,0.0,18.0,1655.0
15.476,38.095,40.476,0.0,0.0,5.952,0.0,0.0,50915102.0,1647274.0,0.0,0.0,18.0,1387.0
14.118,35.294,45.882,0.0,0.0,4.706,0.0,0.0,49430290.0,1600260.0,0.0,0.0,18.0,1363.0
18.391,34.483,37.931,0.0,0.0,9.195,0.0,24576.0,46361227.0,1503925.0,0.0,0.0,18.0,1267.0
9.091,34.091,47.727,0.0,0.0,9.091,0.0,0.0,49034695.0,1589454.0,0.0,0.0,18.0,1552.0
13.924,37.975,43.038,0.0,0.0,5.063,0.0,0.0,51637086.0,1667088.0,0.0,0.0,19.0,1404.0
15.909,35.227,45.455,0.0,0.0,3.409,0.0,0.0,49448621.0,1605212.0,0.0,0.0,18.0,1380.0
17.284,33.333,38.272,0.0,0.0,11.111,0.0,0.0,49278456.0,1603984.0,0.0,0.0,18.0,1270.0
12.644,27.586,50.575,0.0,0.0,9.195,0.0,126976.0,50067747.0,1618500.0,0.0,0.0,18.0,1489.0
13.095,33.333,45.238,0.0,0.0,8.333,0.0,0.0,48989609.0,1585288.0,0.0,0.0,19.0,1484.0
14.286,33.333,44.048,0.0,0.0,8.333,0.0,0.0,50740702.0,1647998.0,0.0,0.0,18.0,1372.0
14.634,36.585,42.683,0.0,0.0,6.098,0.0,0.0,50328605.0,1628934.0,0.0,0.0,18.0,1318.0
14.286,30.952,48.810,0.0,0.0,5.952,0.0,0.0,49318030.0,1601374.0,0.0,0.0,18.0,1525.0
11.905,28.571,53.571,0.0,0.0,5.952,0.0,0.0,49498040.0,1605818.0,0.0,0.0,18.0,1591.0
18.072,34.940,42.169,0.0,0.0,4.819,0.0,0.0,49148092.0,1586612.0,0.0,0.0,19.0,1215.0
13.580,40.741,38.272,0.0,0.0,7.407,0.0,0.0,50423423.0,1635094.0,0.0,0.0,18.0,1206.0
16.279,31.395,44.186,0.0,0.0,8.140,0.0,0.0,49039549.0,1589718.0,0.0,0.0,18.0,1266.0
14.943,25.287,51.724,0.0,0.0,8.046,0.0,0.0,50169658.0,1629008.0,0.0,0.0,18.0,1575.0
20.690,31.034,43.678,0.0,0.0,4.598,0.0,0.0,48586853.0,1583595.0,0.0,0.0,18.0,1558.0
14.773,23.864,54.545,0.0,0.0,6.818,0.0,0.0,46359521.0,1500678.0,0.0,0.0,19.0,1512.0
7.229,34.940,53.012,0.0,0.0,4.819,0.0,0.0,48809564.0,1576574.0,0.0,0.0,18.0,1504.0
13.333,30.0,53.333,0.0,0.0,3.333,0.0,0.0,50309480.0,1637194.0,0.0,0.0,18.0,1472.0
13.924,29.114,49.367,0.0,0.0,7.595,0.0,0.0,48852537.0,1582262.0,0.0,0.0,18.0,1375.0
13.158,30.263,47.368,0.0,0.0,9.211,0.0,0.0,50134092.0,1626414.0,0.0,0.0,18.0,1343.0
12.644,31.034,49.425,0.0,0.0,6.897,0.0,0.0,50932003.0,1648146.0,0.0,0.0,19.0,1453.0
18.605,31.395,41.860,0.0,0.0,8.140,0.0,0.0,51578657.0,1675430.0,0.0,0.0,18.0,1438.0
16.250,37.500,38.750,0.0,0.0,7.500,0.0,0.0,50729060.0,1636494.0,0.0,0.0,18.0,1272.0
12.644,35.632,44.828,0.0,0.0,6.897,0.0,0.0,50800479.0,1651788.0,0.0,0.0,18.0,1654.0
16.667,34.524,42.857,0.0,0.0,5.952,0.0,0.0,48796414.0,1583648.0,0.0,0.0,19.0,1499.0
13.953,29.070,51.163,0.0,0.0,5.814,0.0,0.0,50237611.0,1625116.0,0.0,0.0,18.0,1588.0
14.458,33.735,44.578,0.0,0.0,7.229,0.0,0.0,50173048.0,1628094.0,0.0,0.0,18.0,1376.0
16.667,33.333,40.476,0.0,0.0,9.524,0.0,0.0,49084142.0,1586844.0,0.0,0.0,18.0,1304.0
15.730,26.966,52.809,0.0,0.0,4.494,0.0,0.0,49412064.0,1595968.0,0.0,0.0,18.0,1698.0
13.636,36.364,44.318,0.0,0.0,5.682,0.0,0.0,50159289.0,1631878.0,0.0,0.0,19.0,1391.0
15.909,36.364,39.773,0.0,0.0,7.955,0.0,12288.0,49214478.0,1593218.0,0.0,0.0,18.0,1315.0
9.302,26.744,59.302,0.0,0.0,4.651,0.0,0.0,51928330.0,1685074.0,0.0,0.0,19.0,1751.0
12.195,37.805,45.122,0.0,0.0,4.878,0.0,0.0,50325911.0,1629214.0,0.0,0.0,18.0,1279.0
20.732,36.585,36.585,0.0,0.0,6.098,0.0,0.0,50216117.0,1625558.0,0.0,0.0,18.0,1370.0
13.253,42.169,39.759,0.0,0.0,4.819,0.0,0.0,48869090.0,1586654.0,0.0,0.0,19.0,1317.0
13.793,28.736,52.874,0.0,0.0,4.598,0.0,40960.0,43805148.0,1421734.0,0.0,0.0,18.0,1195.0
