2         Threads
22        Connections per thread
70        Seconds


ALL STATS
========================================================================
Type        Ops/sec     Hits/sec   Misses/sec      Latency       KB/sec 
------------------------------------------------------------------------
Sets        5833.05          ---          ---      7.53900     23542.32 
Gets           0.00         0.00         0.00      0.00000         0.00 
Waits          0.00          ---          ---      0.00000          --- 
Totals      5833.05         0.00         0.00      7.53900     23542.32 


Request Latency Distribution
Type     <= msec         Percent
------------------------------------------------------------------------
SET       0.300         0.00
SET       0.310         0.00
SET       0.360         0.00
SET       0.370         0.00
SET       0.410         0.00
SET       0.420         0.00
SET       0.430         0.00
SET       0.440         0.00
SET       0.450         0.01
SET       0.460         0.01
SET       0.470         0.01
SET       0.480         0.01
SET       0.490         0.01
SET       0.500         0.02
SET       0.510         0.02
SET       0.520         0.02
SET       0.530         0.03
SET       0.540         0.03
SET       0.550         0.04
SET       0.560         0.04
SET       0.570         0.05
SET       0.580         0.06
SET       0.590         0.07
SET       0.600         0.08
SET       0.610         0.09
SET       0.620         0.10
SET       0.630         0.11
SET       0.640         0.13
SET       0.650         0.15
SET       0.660         0.17
SET       0.670         0.18
SET       0.680         0.21
SET       0.690         0.23
SET       0.700         0.25
SET       0.710         0.27
SET       0.720         0.29
SET       0.730         0.31
SET       0.740         0.34
SET       0.750         0.36
SET       0.760         0.39
SET       0.770         0.42
SET       0.780         0.45
SET       0.790         0.48
SET       0.800         0.52
SET       0.810         0.54
SET       0.820         0.58
SET       0.830         0.62
SET       0.840         0.65
SET       0.850         0.68
SET       0.860         0.73
SET       0.870         0.77
SET       0.880         0.81
SET       0.890         0.85
SET       0.900         0.89
SET       0.910         0.92
SET       0.920         0.97
SET       0.930         1.02
SET       0.940         1.07
SET       0.950         1.11
SET       0.960         1.16
SET       0.970         1.21
SET       0.980         1.27
SET       0.990         1.33
SET       1.000         1.69
SET       1.100         2.59
SET       1.200         3.88
SET       1.300         5.29
SET       1.400         6.53
SET       1.500         7.76
SET       1.600         9.08
SET       1.700        10.60
SET       1.800        12.25
SET       1.900        13.90
SET       2.000        15.28
SET       2.100        16.41
SET       2.200        17.42
SET       2.300        18.23
SET       2.400        18.91
SET       2.500        19.52
SET       2.600        20.11
SET       2.700        20.65
SET       2.800        21.14
SET       2.900        21.58
SET       3.000        21.99
SET       3.100        22.38
SET       3.200        22.82
SET       3.300        23.28
SET       3.400        23.75
SET       3.500        24.20
SET       3.600        24.68
SET       3.700        25.11
SET       3.800        25.43
SET       3.900        25.71
SET       4.000        25.98
SET       4.100        26.23
SET       4.200        26.50
SET       4.300        26.79
SET       4.400        27.06
SET       4.500        27.34
SET       4.600        27.64
SET       4.700        27.92
SET       4.800        28.23
SET       4.900        28.55
SET       5.000        28.90
SET       5.100        29.23
SET       5.200        29.57
SET       5.300        29.95
SET       5.400        30.30
SET       5.500        30.66
SET       5.600        31.03
SET       5.700        31.42
SET       5.800        31.82
SET       5.900        32.20
SET       6.000        32.56
SET       6.100        32.98
SET       6.200        33.40
SET       6.300        33.84
SET       6.400        34.32
SET       6.500        34.85
SET       6.600        35.40
SET       6.700        36.03
SET       6.800        36.69
SET       6.900        37.40
SET       7.000        38.16
SET       7.100        38.99
SET       7.200        39.89
SET       7.300        40.87
SET       7.400        41.88
SET       7.500        43.00
SET       7.600        44.20
SET       7.700        45.54
SET       7.800        47.02
SET       7.900        48.64
SET       8.000        50.42
SET       8.100        52.28
SET       8.200        54.15
SET       8.300        56.12
SET       8.400        58.12
SET       8.500        60.15
SET       8.600        62.20
SET       8.700        64.16
SET       8.800        66.07
SET       8.900        67.83
SET       9.000        69.58
SET       9.100        71.25
SET       9.200        72.66
SET       9.300        73.89
SET       9.400        75.05
SET       9.500        76.12
SET       9.600        77.12
SET       9.700        78.02
SET       9.800        78.90
SET       9.900        79.66
SET      10.000        82.74
SET      11.000        85.84
SET      12.000        88.04
SET      13.000        90.50
SET      14.000        93.36
SET      15.000        95.89
SET      16.000        97.69
SET      17.000        98.90
SET      18.000        99.49
SET      19.000        99.72
SET      20.000        99.78
SET      21.000        99.81
SET      22.000        99.82
SET      23.000        99.83
SET      24.000        99.85
SET      25.000        99.87
SET      26.000        99.89
SET      27.000        99.91
SET      28.000        99.92
SET      29.000        99.92
SET      30.000        99.92
SET      31.000        99.92
SET      33.000        99.93
SET      34.000        99.93
SET      35.000        99.93
SET      36.000        99.94
SET      37.000        99.94
SET      38.000        99.95
SET      39.000        99.95
SET      41.000        99.95
SET      42.000        99.96
SET      43.000        99.96
SET      44.000        99.96
SET      45.000        99.96
SET      50.000        99.96
SET      52.000        99.97
SET      53.000        99.98
SET      54.000        99.98
SET      55.000        99.98
SET      72.000        99.98
SET      78.000        99.98
SET      79.000        99.99
SET      80.000        99.99
SET      81.000        99.99
SET     360.000       100.00
---
---
