"Dstat 0.7.2 CSV output"
"Author:","Dag Wieers <dag@wieers.com>",,,,"URL:","http://dag.wieers.com/home-made/dstat/"
"Host:","Server3",,,,"User:","maki"
"Cmdline:","dstat --output server_32_get_2_32.csv 1 70",,,,"Date:","02 Dec 2018 12:58:12 UTC"

"total cpu usage",,,,,,"dsk/total",,"net/total",,"paging",,"system",
"usr","sys","idl","wai","hiq","siq","read","writ","recv","send","in","out","int","csw"
1.247,0.982,96.512,1.137,0.0,0.122,34326.142,97755.688,0.0,0.0,0.0,0.0,18.568,178.872
1.0,7.0,87.0,0.0,0.0,5.0,0.0,0.0,397498.0,10977256.0,0.0,0.0,18.0,2966.0
4.082,7.143,82.653,0.0,0.0,6.122,0.0,0.0,443952.0,12500370.0,0.0,0.0,18.0,2325.0
2.062,7.216,87.629,0.0,0.0,3.093,0.0,0.0,451106.0,12694758.0,0.0,0.0,18.0,2021.0
1.042,6.250,89.583,0.0,0.0,3.125,0.0,0.0,446350.0,12794574.0,0.0,0.0,19.0,2309.0
1.020,8.163,87.755,0.0,0.0,3.061,0.0,0.0,440072.0,12504554.0,0.0,0.0,18.0,2071.0
2.083,7.292,86.458,0.0,0.0,4.167,0.0,0.0,445213.0,12503047.0,0.0,0.0,18.0,2050.0
0.0,7.292,87.500,0.0,0.0,5.208,0.0,0.0,439943.0,12508855.0,0.0,0.0,18.0,2582.0
1.0,12.0,84.0,0.0,0.0,3.0,0.0,0.0,443798.0,12581294.0,0.0,0.0,18.0,2249.0
4.0,7.0,85.0,0.0,0.0,4.0,0.0,0.0,444925.0,12500164.0,0.0,0.0,19.0,2383.0
1.020,7.143,86.735,0.0,0.0,5.102,0.0,0.0,439493.0,12498881.0,0.0,0.0,18.0,2272.0
3.0,7.0,86.0,0.0,0.0,4.0,0.0,0.0,439608.0,12498960.0,0.0,0.0,18.0,2226.0
5.051,7.071,83.838,0.0,0.0,4.040,0.0,0.0,447080.0,12501772.0,0.0,0.0,18.0,1957.0
1.010,6.061,87.879,0.0,0.0,5.051,0.0,0.0,440102.0,12500232.0,0.0,0.0,18.0,1823.0
1.031,4.124,88.660,0.0,0.0,6.186,0.0,0.0,439558.0,12498918.0,0.0,0.0,19.0,1858.0
2.083,5.208,88.542,0.0,0.0,4.167,0.0,0.0,445497.0,12501491.0,0.0,0.0,18.0,1924.0
2.0,8.0,86.0,0.0,0.0,4.0,0.0,0.0,444264.0,12693581.0,0.0,0.0,18.0,2186.0
2.0,9.0,84.0,0.0,0.0,5.0,0.0,0.0,442205.0,12501770.0,0.0,0.0,18.0,2108.0
1.053,6.316,89.474,0.0,0.0,3.158,0.0,0.0,450098.0,12693580.0,0.0,0.0,19.0,2145.0
2.041,5.102,87.755,0.0,0.0,5.102,0.0,0.0,444992.0,12677728.0,0.0,0.0,18.0,1970.0
1.031,4.124,88.660,0.0,0.0,6.186,0.0,0.0,440860.0,12518574.0,0.0,0.0,18.0,1869.0
2.128,6.383,89.362,0.0,0.0,2.128,0.0,0.0,445373.0,12522788.0,0.0,0.0,18.0,2158.0
2.062,9.278,86.598,0.0,0.0,2.062,0.0,0.0,439602.0,12524355.0,0.0,0.0,18.0,2128.0
2.041,6.122,86.735,0.0,0.0,5.102,0.0,0.0,440560.0,12508758.0,0.0,0.0,18.0,2392.0
2.105,5.263,89.474,0.0,0.0,3.158,0.0,0.0,444886.0,12490300.0,0.0,0.0,19.0,2461.0
2.020,6.061,85.859,0.0,0.0,6.061,0.0,0.0,445092.0,12648065.0,0.0,0.0,18.0,2433.0
0.0,7.216,87.629,0.0,0.0,5.155,0.0,0.0,439013.0,12503193.0,0.0,0.0,18.0,2404.0
4.167,5.208,86.458,0.0,0.0,4.167,0.0,0.0,449104.0,12605423.0,0.0,0.0,18.0,1893.0
1.042,4.167,90.625,0.0,0.0,4.167,0.0,0.0,439578.0,12500266.0,0.0,0.0,19.0,1633.0
1.031,7.216,89.691,0.0,0.0,2.062,0.0,0.0,440506.0,12500266.0,0.0,0.0,18.0,1664.0
2.0,9.0,83.0,3.0,0.0,3.0,0.0,57344.0,447589.0,12579802.0,0.0,0.0,18.0,1920.0
1.042,6.250,89.583,0.0,0.0,3.125,0.0,0.0,441731.0,12505973.0,0.0,0.0,18.0,1913.0
2.041,6.122,87.755,0.0,0.0,4.082,0.0,0.0,440134.0,12559892.0,0.0,0.0,18.0,1736.0
4.124,6.186,84.536,0.0,0.0,5.155,0.0,0.0,448137.0,12591049.0,0.0,0.0,19.0,2065.0
2.020,5.051,86.869,0.0,0.0,6.061,0.0,0.0,440513.0,12517355.0,0.0,0.0,18.0,2331.0
2.041,5.102,88.776,0.0,0.0,4.082,0.0,4096.0,441629.0,12527363.0,0.0,0.0,18.0,2019.0
2.062,6.186,88.660,0.0,0.0,3.093,0.0,0.0,436561.0,12356902.0,0.0,0.0,18.0,1767.0
3.226,5.376,88.172,0.0,0.0,3.226,0.0,0.0,449024.0,12643778.0,0.0,0.0,18.0,2459.0
1.020,8.163,87.755,0.0,0.0,3.061,0.0,0.0,439205.0,12498851.0,0.0,0.0,19.0,2310.0
1.0,8.0,86.0,0.0,0.0,5.0,0.0,0.0,439857.0,12500294.0,0.0,0.0,18.0,2445.0
2.062,8.247,84.536,0.0,0.0,5.155,0.0,0.0,445654.0,12500954.0,0.0,0.0,18.0,2520.0
1.042,6.250,88.542,0.0,0.0,4.167,0.0,0.0,439701.0,12498926.0,0.0,0.0,18.0,2776.0
3.093,7.216,86.598,0.0,0.0,3.093,0.0,0.0,439666.0,12500347.0,0.0,0.0,18.0,2790.0
2.041,7.143,84.694,0.0,0.0,6.122,0.0,0.0,444331.0,12500306.0,0.0,0.0,19.0,2734.0
4.0,7.0,85.0,0.0,0.0,4.0,0.0,0.0,442359.0,12588370.0,0.0,0.0,18.0,2596.0
2.062,6.186,86.598,0.0,0.0,5.155,0.0,0.0,438601.0,12470505.0,0.0,0.0,18.0,2597.0
2.062,6.186,87.629,0.0,0.0,4.124,0.0,0.0,449594.0,12636727.0,0.0,0.0,18.0,2219.0
1.031,9.278,87.629,0.0,0.0,2.062,0.0,0.0,441411.0,12500293.0,0.0,0.0,18.0,1872.0
1.031,7.216,88.660,0.0,0.0,3.093,0.0,0.0,439951.0,12500304.0,0.0,0.0,19.0,1796.0
2.041,6.122,87.755,0.0,0.0,4.082,0.0,0.0,446492.0,12498789.0,0.0,0.0,18.0,1690.0
2.020,6.061,87.879,0.0,0.0,4.040,0.0,0.0,439929.0,12500370.0,0.0,0.0,18.0,1699.0
1.042,6.250,87.500,0.0,0.0,5.208,0.0,0.0,439948.0,12501774.0,0.0,0.0,18.0,1909.0
3.125,6.250,86.458,0.0,0.0,4.167,0.0,0.0,445164.0,12498796.0,0.0,0.0,19.0,2027.0
0.0,7.447,90.426,0.0,0.0,2.128,0.0,0.0,441047.0,12498796.0,0.0,0.0,18.0,2056.0
2.128,5.319,90.426,0.0,0.0,2.128,0.0,0.0,440977.0,12500106.0,0.0,0.0,18.0,2135.0
0.0,10.309,85.567,0.0,0.0,4.124,0.0,0.0,447276.0,12500339.0,0.0,0.0,18.0,2151.0
1.0,9.0,86.0,0.0,0.0,4.0,0.0,0.0,446006.0,12694780.0,0.0,0.0,18.0,2089.0
2.083,6.250,87.500,0.0,0.0,4.167,0.0,0.0,439938.0,12500262.0,0.0,0.0,18.0,1949.0
1.042,5.208,88.542,0.0,0.0,5.208,0.0,0.0,445547.0,12500176.0,0.0,0.0,19.0,2078.0
1.042,6.250,89.583,0.0,0.0,3.125,0.0,0.0,445501.0,12694661.0,0.0,0.0,18.0,2151.0
2.020,7.071,86.869,0.0,0.0,4.040,0.0,0.0,441686.0,12589709.0,0.0,0.0,18.0,2328.0
2.105,5.263,86.316,2.105,0.0,4.211,0.0,57344.0,447467.0,12605255.0,0.0,0.0,18.0,2105.0
3.061,10.204,81.633,0.0,0.0,5.102,0.0,0.0,444797.0,12501385.0,0.0,0.0,18.0,2422.0
2.062,4.124,88.660,0.0,0.0,5.155,0.0,0.0,439772.0,12500140.0,0.0,0.0,19.0,2396.0
4.124,8.247,85.567,0.0,0.0,2.062,0.0,0.0,446681.0,12595156.0,0.0,0.0,18.0,2515.0
1.0,8.0,86.0,0.0,0.0,5.0,0.0,0.0,445018.0,12599622.0,0.0,0.0,18.0,2218.0
3.158,5.263,89.474,0.0,0.0,2.105,0.0,8192.0,442942.0,12500139.0,0.0,0.0,18.0,2203.0
4.124,8.247,85.567,0.0,0.0,2.062,0.0,0.0,445272.0,12498799.0,0.0,0.0,19.0,2277.0
2.083,8.333,87.500,0.0,0.0,2.083,0.0,0.0,440654.0,12500328.0,0.0,0.0,18.0,2263.0
0.0,8.511,90.426,0.0,0.0,1.064,0.0,0.0,446772.0,12694805.0,0.0,0.0,18.0,2345.0
1.053,6.316,88.421,0.0,0.0,4.211,0.0,0.0,419333.0,11882119.0,0.0,0.0,18.0,2218.0
