"Dstat 0.7.2 CSV output"
"Author:","Dag Wieers <dag@wieers.com>",,,,"URL:","http://dag.wieers.com/home-made/dstat/"
"Host:","Server3",,,,"User:","maki"
"Cmdline:","dstat --output server_32_set_3_32.csv 1 70",,,,"Date:","02 Dec 2018 13:17:06 UTC"

"total cpu usage",,,,,,"dsk/total",,"net/total",,"paging",,"system",
"usr","sys","idl","wai","hiq","siq","read","writ","recv","send","in","out","int","csw"
1.511,1.743,95.426,1.032,0.0,0.288,30732.045,87685.880,0.0,0.0,0.0,0.0,18.530,308.990
9.524,27.381,54.762,0.0,0.0,8.333,0.0,0.0,38832164.0,1259134.0,0.0,0.0,18.0,3124.0
7.059,31.765,54.118,2.353,0.0,4.706,0.0,53248.0,37333980.0,1208142.0,0.0,0.0,18.0,3184.0
11.765,36.471,45.882,0.0,0.0,5.882,0.0,49152.0,45540882.0,1469926.0,0.0,0.0,19.0,1963.0
15.584,31.169,48.052,0.0,0.0,5.195,0.0,0.0,47442429.0,1542830.0,0.0,0.0,18.0,1964.0
15.190,40.506,36.709,0.0,0.0,7.595,0.0,0.0,50694518.0,1642234.0,0.0,0.0,18.0,1619.0
17.500,35.0,41.250,0.0,0.0,6.250,0.0,0.0,50923790.0,1651960.0,0.0,0.0,18.0,1627.0
8.046,35.632,48.276,0.0,0.0,8.046,0.0,0.0,48954729.0,1584044.0,0.0,0.0,18.0,1504.0
20.0,36.471,35.294,0.0,0.0,8.235,0.0,0.0,49191926.0,1596286.0,0.0,0.0,19.0,1442.0
13.953,41.860,38.372,0.0,0.0,5.814,0.0,0.0,50807270.0,1643420.0,0.0,0.0,18.0,1474.0
15.854,30.488,45.122,0.0,0.0,8.537,0.0,0.0,47954492.0,1554528.0,0.0,0.0,18.0,1402.0
20.0,41.250,30.0,0.0,0.0,8.750,0.0,0.0,49647882.0,1615518.0,0.0,0.0,18.0,1394.0
12.941,42.353,37.647,0.0,0.0,7.059,0.0,0.0,50659659.0,1636988.0,0.0,0.0,18.0,1462.0
15.476,40.476,38.095,0.0,0.0,5.952,0.0,0.0,49233618.0,1597434.0,0.0,0.0,18.0,1776.0
19.767,37.209,31.395,0.0,0.0,11.628,0.0,0.0,49399151.0,1604418.0,0.0,0.0,19.0,1464.0
15.0,32.500,46.250,0.0,0.0,6.250,0.0,0.0,49847173.0,1612834.0,0.0,0.0,18.0,1544.0
14.458,43.373,36.145,0.0,0.0,6.024,0.0,0.0,50192447.0,1628720.0,0.0,0.0,18.0,1467.0
15.0,41.250,35.0,0.0,0.0,8.750,0.0,0.0,49969037.0,1619752.0,0.0,0.0,18.0,1425.0
12.500,31.818,47.727,0.0,0.0,7.955,0.0,0.0,48822402.0,1582828.0,0.0,0.0,19.0,1686.0
12.941,35.294,44.706,0.0,0.0,7.059,0.0,0.0,49574626.0,1604606.0,0.0,0.0,18.0,1634.0
17.500,42.500,33.750,0.0,0.0,6.250,0.0,0.0,49711533.0,1609804.0,0.0,0.0,18.0,1347.0
8.750,41.250,37.500,0.0,0.0,12.500,0.0,0.0,50547729.0,1643008.0,0.0,0.0,18.0,1498.0
16.867,32.530,43.373,0.0,0.0,7.229,0.0,0.0,49704671.0,1605974.0,0.0,0.0,19.0,1675.0
17.105,30.263,38.158,0.0,0.0,14.474,0.0,0.0,49508780.0,1608238.0,0.0,0.0,18.0,1299.0
14.118,35.294,42.353,0.0,0.0,8.235,0.0,0.0,51001338.0,1650354.0,0.0,0.0,18.0,1542.0
18.391,29.885,45.977,0.0,0.0,5.747,0.0,0.0,48217441.0,1559634.0,0.0,0.0,18.0,1587.0
9.877,34.568,50.617,0.0,0.0,4.938,0.0,0.0,50336746.0,1631504.0,0.0,0.0,18.0,1557.0
18.293,35.366,37.805,0.0,0.0,8.537,0.0,0.0,51222002.0,1662188.0,0.0,0.0,19.0,1470.0
10.843,27.711,54.217,0.0,0.0,7.229,0.0,8192.0,47471716.0,1538114.0,0.0,0.0,18.0,1645.0
13.953,32.558,44.186,0.0,0.0,9.302,0.0,0.0,49156823.0,1593638.0,0.0,0.0,18.0,1334.0
11.765,35.294,43.529,0.0,0.0,9.412,0.0,0.0,50206206.0,1627254.0,0.0,0.0,18.0,1533.0
11.765,38.824,40.0,0.0,0.0,9.412,0.0,0.0,49332993.0,1596734.0,0.0,0.0,18.0,1421.0
14.118,38.824,42.353,0.0,0.0,4.706,0.0,0.0,50792214.0,1640896.0,0.0,0.0,19.0,1567.0
15.385,38.462,41.026,0.0,0.0,5.128,0.0,36864.0,49539016.0,1604458.0,0.0,0.0,18.0,1520.0
7.778,30.0,56.667,0.0,0.0,5.556,0.0,0.0,46268181.0,1506994.0,0.0,0.0,18.0,1494.0
14.943,36.782,40.230,0.0,0.0,8.046,0.0,0.0,49126572.0,1591884.0,0.0,0.0,18.0,1512.0
22.222,35.802,35.802,0.0,0.0,6.173,0.0,0.0,51569301.0,1672346.0,0.0,0.0,19.0,1317.0
18.987,29.114,48.101,0.0,0.0,3.797,0.0,0.0,49471448.0,1597014.0,0.0,0.0,18.0,1446.0
15.217,34.783,41.304,0.0,0.0,8.696,0.0,0.0,49213069.0,1598538.0,0.0,0.0,18.0,1449.0
15.190,31.646,40.506,0.0,0.0,12.658,0.0,0.0,49808370.0,1612554.0,0.0,0.0,18.0,1522.0
11.538,30.769,50.0,0.0,0.0,7.692,0.0,0.0,49259365.0,1595334.0,0.0,0.0,18.0,1459.0
16.867,34.940,37.349,0.0,0.0,10.843,0.0,0.0,50743295.0,1650058.0,0.0,0.0,18.0,1490.0
11.905,38.095,44.048,0.0,0.0,5.952,0.0,0.0,50314163.0,1627254.0,0.0,0.0,19.0,1456.0
12.195,37.805,41.463,0.0,0.0,8.537,0.0,0.0,49328335.0,1597154.0,0.0,0.0,18.0,1457.0
15.294,47.059,30.588,0.0,0.0,7.059,0.0,0.0,49863029.0,1613176.0,0.0,0.0,18.0,1370.0
15.294,40.0,36.471,0.0,0.0,8.235,0.0,0.0,48885958.0,1588424.0,0.0,0.0,18.0,1587.0
13.043,30.435,50.0,0.0,0.0,6.522,0.0,0.0,50530024.0,1636494.0,0.0,0.0,18.0,1709.0
14.634,36.585,42.683,0.0,0.0,6.098,0.0,0.0,48966060.0,1588244.0,0.0,0.0,19.0,1549.0
13.253,33.735,43.373,0.0,0.0,9.639,0.0,0.0,50197065.0,1624948.0,0.0,0.0,18.0,1458.0
17.045,38.636,39.773,0.0,0.0,4.545,0.0,0.0,48688154.0,1570404.0,0.0,0.0,18.0,1468.0
11.628,24.419,59.302,0.0,0.0,4.651,0.0,0.0,46492004.0,1510336.0,0.0,0.0,18.0,1832.0
18.056,34.722,36.111,0.0,0.0,11.111,0.0,20480.0,48623715.0,1581847.0,0.0,0.0,19.0,1380.0
12.987,38.961,37.662,0.0,0.0,10.390,0.0,0.0,50358407.0,1629000.0,0.0,0.0,18.0,1245.0
13.953,36.047,43.023,0.0,0.0,6.977,0.0,0.0,48723163.0,1581688.0,0.0,0.0,18.0,1348.0
15.476,39.286,38.095,0.0,0.0,7.143,0.0,0.0,50228826.0,1626398.0,0.0,0.0,18.0,1516.0
13.415,24.390,57.317,0.0,0.0,4.878,0.0,0.0,50847204.0,1648892.0,0.0,0.0,18.0,1660.0
14.458,32.530,49.398,0.0,0.0,3.614,0.0,0.0,51522921.0,1666190.0,0.0,0.0,19.0,1532.0
11.250,36.250,47.500,0.0,0.0,5.0,0.0,0.0,50939037.0,1652236.0,0.0,0.0,18.0,1436.0
13.580,44.444,34.568,0.0,0.0,7.407,0.0,0.0,50331410.0,1631034.0,0.0,0.0,18.0,1325.0
16.471,31.765,41.176,0.0,0.0,10.588,0.0,0.0,48965100.0,1589222.0,0.0,0.0,18.0,1394.0
16.049,37.037,41.975,0.0,0.0,4.938,0.0,0.0,50332620.0,1630944.0,0.0,0.0,18.0,1464.0
12.791,29.070,55.814,0.0,0.0,2.326,0.0,0.0,50024690.0,1614654.0,0.0,0.0,19.0,1641.0
14.634,24.390,56.098,0.0,0.0,4.878,0.0,0.0,49191516.0,1601484.0,0.0,0.0,18.0,1678.0
18.750,30.0,42.500,1.250,0.0,7.500,0.0,57344.0,49552026.0,1608008.0,0.0,0.0,18.0,1458.0
14.458,37.349,38.554,1.205,0.0,8.434,0.0,53248.0,50258086.0,1622494.0,0.0,0.0,18.0,1269.0
13.750,35.0,47.500,0.0,0.0,3.750,0.0,0.0,48913716.0,1585114.0,0.0,0.0,18.0,1499.0
11.688,33.766,50.649,0.0,0.0,3.896,0.0,0.0,52178687.0,1690378.0,0.0,0.0,19.0,1504.0
12.821,35.897,46.154,0.0,0.0,5.128,0.0,0.0,50115564.0,1627954.0,0.0,0.0,18.0,1409.0
9.877,30.864,56.790,0.0,0.0,2.469,0.0,0.0,50259625.0,1626698.0,0.0,0.0,18.0,1602.0
10.588,32.941,47.059,0.0,0.0,9.412,0.0,0.0,48486271.0,1571874.0,0.0,0.0,18.0,1419.0
10.465,27.907,55.814,0.0,0.0,5.814,0.0,0.0,44024235.0,1430694.0,0.0,0.0,19.0,1289.0
