"Dstat 0.7.2 CSV output"
"Author:","Dag Wieers <dag@wieers.com>",,,,"URL:","http://dag.wieers.com/home-made/dstat/"
"Host:","Server2",,,,"User:","maki"
"Cmdline:","dstat --output server_32_set_2_32.csv 1 70",,,,"Date:","02 Dec 2018 13:40:02 UTC"

"total cpu usage",,,,,,"dsk/total",,"net/total",,"paging",,"system",
"usr","sys","idl","wai","hiq","siq","read","writ","recv","send","in","out","int","csw"
1.645,2.118,95.213,0.659,0.0,0.365,27282.916,77962.712,0.0,0.0,0.0,0.0,18.499,440.440
4.494,10.112,84.270,0.0,0.0,1.124,0.0,0.0,22972613.0,744622.0,0.0,0.0,18.0,3439.0
7.527,15.054,77.419,0.0,0.0,0.0,0.0,0.0,28281105.0,915634.0,0.0,0.0,18.0,3545.0
7.778,16.667,73.333,0.0,0.0,2.222,0.0,0.0,28095905.0,910998.0,0.0,0.0,19.0,3635.0
4.348,15.217,77.174,0.0,0.0,3.261,0.0,0.0,32342334.0,1048650.0,0.0,0.0,18.0,3835.0
9.091,17.045,73.864,0.0,0.0,0.0,0.0,0.0,33762341.0,1094694.0,0.0,0.0,18.0,3867.0
8.791,17.582,71.429,0.0,0.0,2.198,0.0,0.0,33849533.0,1098598.0,0.0,0.0,18.0,3477.0
7.778,14.444,75.556,0.0,0.0,2.222,0.0,0.0,34578830.0,1118354.0,0.0,0.0,18.0,3660.0
9.890,16.484,71.429,0.0,0.0,2.198,0.0,0.0,34604764.0,1122974.0,0.0,0.0,19.0,3278.0
8.602,19.355,70.968,0.0,0.0,1.075,0.0,0.0,34225529.0,1108464.0,0.0,0.0,18.0,3533.0
6.522,19.565,71.739,0.0,0.0,2.174,0.0,0.0,36147960.0,1171628.0,0.0,0.0,18.0,3176.0
6.742,14.607,76.404,0.0,0.0,2.247,0.0,0.0,35162341.0,1140894.0,0.0,0.0,18.0,3285.0
12.222,21.111,64.444,0.0,0.0,2.222,0.0,0.0,34982165.0,1134718.0,0.0,0.0,19.0,3298.0
6.667,18.889,73.333,0.0,0.0,1.111,0.0,0.0,34220313.0,1108974.0,0.0,0.0,18.0,3057.0
9.474,24.211,64.211,0.0,0.0,2.105,0.0,0.0,35890494.0,1162952.0,0.0,0.0,18.0,3053.0
9.091,13.636,73.864,0.0,0.0,3.409,0.0,4096.0,35180987.0,1141998.0,0.0,0.0,18.0,3256.0
4.598,16.092,79.310,0.0,0.0,0.0,0.0,0.0,34019495.0,1102130.0,0.0,0.0,18.0,3253.0
9.783,16.304,69.565,0.0,0.0,4.348,0.0,0.0,36035485.0,1166514.0,0.0,0.0,19.0,2944.0
8.140,19.767,72.093,0.0,0.0,0.0,0.0,0.0,34760991.0,1124358.0,0.0,0.0,18.0,3138.0
8.889,13.333,75.556,0.0,0.0,2.222,0.0,0.0,34960836.0,1136526.0,0.0,0.0,18.0,3009.0
6.522,18.478,69.565,1.087,0.0,4.348,0.0,40960.0,34665480.0,1123394.0,0.0,0.0,18.0,3062.0
12.088,18.681,67.033,0.0,0.0,2.198,0.0,0.0,36097277.0,1171678.0,0.0,0.0,18.0,3110.0
9.474,16.842,71.579,0.0,0.0,2.105,0.0,0.0,34539585.0,1117794.0,0.0,0.0,19.0,3179.0
4.494,17.978,76.404,0.0,0.0,1.124,0.0,0.0,35591373.0,1152032.0,0.0,0.0,18.0,3047.0
11.364,15.909,71.591,0.0,0.0,1.136,0.0,0.0,33883624.0,1099504.0,0.0,0.0,18.0,3345.0
9.783,16.304,72.826,0.0,0.0,1.087,0.0,0.0,35447624.0,1150768.0,0.0,0.0,18.0,3476.0
7.059,15.294,76.471,0.0,0.0,1.176,0.0,0.0,34090267.0,1101134.0,0.0,0.0,18.0,3098.0
9.091,20.455,68.182,0.0,0.0,2.273,0.0,0.0,36114525.0,1175458.0,0.0,0.0,19.0,3280.0
10.989,16.484,70.330,0.0,0.0,2.198,0.0,0.0,35331051.0,1142714.0,0.0,0.0,18.0,3315.0
10.227,19.318,65.909,0.0,0.0,4.545,0.0,0.0,35806668.0,1159550.0,0.0,0.0,18.0,3054.0
9.302,18.605,69.767,0.0,0.0,2.326,0.0,12288.0,35755837.0,1162298.0,0.0,0.0,18.0,2757.0
5.319,20.213,73.404,0.0,0.0,1.064,0.0,0.0,35246039.0,1142792.0,0.0,0.0,18.0,2917.0
10.753,19.355,67.742,0.0,0.0,2.151,0.0,0.0,35257561.0,1138374.0,0.0,0.0,19.0,2776.0
9.783,15.217,73.913,0.0,0.0,1.087,0.0,0.0,35156011.0,1139844.0,0.0,0.0,18.0,3093.0
7.778,17.778,72.222,0.0,0.0,2.222,0.0,0.0,34309337.0,1114162.0,0.0,0.0,18.0,3249.0
7.692,16.484,71.429,0.0,0.0,4.396,0.0,4096.0,35101842.0,1138794.0,0.0,0.0,18.0,2775.0
5.682,15.909,77.273,0.0,0.0,1.136,0.0,0.0,34971967.0,1131822.0,0.0,0.0,19.0,2804.0
10.0,21.111,66.667,0.0,0.0,2.222,0.0,0.0,36136153.0,1173144.0,0.0,0.0,18.0,3003.0
6.742,16.854,75.281,0.0,0.0,1.124,0.0,0.0,34941915.0,1133268.0,0.0,0.0,18.0,3057.0
10.870,17.391,71.739,0.0,0.0,0.0,0.0,0.0,34271709.0,1108470.0,0.0,0.0,18.0,3178.0
6.897,13.793,75.862,0.0,0.0,3.448,0.0,0.0,34459398.0,1118466.0,0.0,0.0,18.0,3013.0
9.783,17.391,70.652,0.0,0.0,2.174,0.0,0.0,35192762.0,1138728.0,0.0,0.0,18.0,2873.0
6.667,17.778,74.444,0.0,0.0,1.111,0.0,0.0,36161172.0,1173094.0,0.0,0.0,19.0,2913.0
8.602,18.280,69.892,0.0,0.0,3.226,0.0,0.0,34165012.0,1110078.0,0.0,0.0,18.0,2522.0
11.957,18.478,67.391,0.0,0.0,2.174,0.0,0.0,34860896.0,1129120.0,0.0,0.0,18.0,2994.0
6.897,14.943,77.011,0.0,0.0,1.149,0.0,0.0,35041465.0,1132494.0,0.0,0.0,18.0,2811.0
8.511,18.085,72.340,0.0,0.0,1.064,0.0,0.0,34204004.0,1113298.0,0.0,0.0,19.0,2830.0
10.753,15.054,70.968,0.0,0.0,3.226,0.0,0.0,35287920.0,1142994.0,0.0,0.0,17.0,2944.0
7.447,15.957,75.532,0.0,0.0,1.064,0.0,0.0,35633773.0,1154054.0,0.0,0.0,19.0,2741.0
10.345,16.092,72.414,0.0,0.0,1.149,0.0,0.0,34264501.0,1111618.0,0.0,0.0,18.0,2883.0
6.593,17.582,74.725,0.0,0.0,1.099,0.0,20480.0,35192583.0,1140790.0,0.0,0.0,18.0,2978.0
4.651,16.279,70.930,4.651,0.0,3.488,0.0,32768.0,35357097.0,1144394.0,0.0,0.0,19.0,3165.0
11.957,20.652,65.217,0.0,0.0,2.174,0.0,0.0,35194428.0,1142430.0,0.0,0.0,18.0,2950.0
10.0,16.667,72.222,0.0,0.0,1.111,0.0,0.0,35426222.0,1149154.0,0.0,0.0,18.0,2858.0
8.791,18.681,71.429,0.0,0.0,1.099,0.0,0.0,34330685.0,1112024.0,0.0,0.0,18.0,3371.0
13.978,19.355,63.441,0.0,0.0,3.226,0.0,0.0,33661349.0,1097380.0,0.0,0.0,18.0,3128.0
10.989,15.385,72.527,0.0,0.0,1.099,0.0,0.0,35019647.0,1132588.0,0.0,0.0,19.0,3066.0
4.494,20.225,73.034,0.0,0.0,2.247,0.0,0.0,34864191.0,1131794.0,0.0,0.0,18.0,3206.0
8.235,14.118,74.118,0.0,0.0,3.529,0.0,0.0,35081419.0,1136604.0,0.0,0.0,18.0,3098.0
4.348,25.0,67.391,0.0,0.0,3.261,0.0,0.0,34142202.0,1108208.0,0.0,0.0,18.0,3117.0
7.865,14.607,73.034,0.0,0.0,4.494,0.0,0.0,35455210.0,1147824.0,0.0,0.0,18.0,3090.0
7.447,17.021,73.404,0.0,0.0,2.128,0.0,0.0,34415565.0,1119178.0,0.0,0.0,19.0,3178.0
8.989,14.607,74.157,0.0,0.0,2.247,0.0,0.0,34691119.0,1121854.0,0.0,0.0,18.0,3040.0
5.747,13.793,80.460,0.0,0.0,0.0,0.0,0.0,35673797.0,1156652.0,0.0,0.0,18.0,3052.0
11.111,20.0,65.556,0.0,0.0,3.333,0.0,0.0,35135932.0,1139642.0,0.0,0.0,18.0,2838.0
6.593,15.385,78.022,0.0,0.0,0.0,0.0,0.0,35168024.0,1137534.0,0.0,0.0,18.0,2819.0
7.692,17.582,73.626,0.0,0.0,1.099,0.0,8192.0,34970563.0,1135294.0,0.0,0.0,19.0,2838.0
8.889,21.111,67.778,0.0,0.0,2.222,0.0,0.0,35327573.0,1147318.0,0.0,0.0,18.0,2998.0
9.091,13.636,75.0,0.0,0.0,2.273,0.0,0.0,34431618.0,1114080.0,0.0,0.0,18.0,2892.0
6.818,18.182,75.0,0.0,0.0,0.0,0.0,0.0,35045519.0,1135228.0,0.0,0.0,18.0,3174.0
5.435,10.870,81.522,0.0,0.0,2.174,0.0,0.0,27500978.0,895038.0,0.0,0.0,18.0,2171.0
