2         Threads
1         Connections per thread
70        Seconds


ALL STATS
========================================================================
Type        Ops/sec     Hits/sec   Misses/sec      Latency       KB/sec 
------------------------------------------------------------------------
Sets           0.00          ---          ---      0.00000         0.00 
Gets         921.48       921.48         0.00      2.15800      3732.53 
Waits          0.00          ---          ---      0.00000          --- 
Totals       921.48       921.48         0.00      2.15800      3732.53 


Request Latency Distribution
Type     <= msec         Percent
------------------------------------------------------------------------
---
GET       0.780         0.00
GET       0.790         0.00
GET       0.810         0.00
GET       0.820         0.01
GET       0.830         0.01
GET       0.840         0.02
GET       0.850         0.03
GET       0.860         0.03
GET       0.870         0.04
GET       0.880         0.05
GET       0.890         0.06
GET       0.900         0.08
GET       0.910         0.09
GET       0.920         0.12
GET       0.930         0.16
GET       0.940         0.20
GET       0.950         0.25
GET       0.960         0.31
GET       0.970         0.36
GET       0.980         0.41
GET       0.990         0.50
GET       1.000         1.22
GET       1.100         4.12
GET       1.200         9.15
GET       1.300        16.58
GET       1.400        25.48
GET       1.500        34.53
GET       1.600        42.95
GET       1.700        50.32
GET       1.800        56.92
GET       1.900        62.73
GET       2.000        67.57
GET       2.100        71.53
GET       2.200        74.76
GET       2.300        77.61
GET       2.400        79.96
GET       2.500        81.95
GET       2.600        83.70
GET       2.700        85.41
GET       2.800        86.77
GET       2.900        87.95
GET       3.000        88.97
GET       3.100        89.90
GET       3.200        90.66
GET       3.300        91.37
GET       3.400        91.97
GET       3.500        92.53
GET       3.600        93.06
GET       3.700        93.51
GET       3.800        93.97
GET       3.900        94.34
GET       4.000        94.71
GET       4.100        95.00
GET       4.200        95.29
GET       4.300        95.57
GET       4.400        95.80
GET       4.500        96.03
GET       4.600        96.29
GET       4.700        96.48
GET       4.800        96.68
GET       4.900        96.88
GET       5.000        97.09
GET       5.100        97.26
GET       5.200        97.41
GET       5.300        97.55
GET       5.400        97.67
GET       5.500        97.77
GET       5.600        97.88
GET       5.700        98.00
GET       5.800        98.11
GET       5.900        98.21
GET       6.000        98.28
GET       6.100        98.39
GET       6.200        98.48
GET       6.300        98.56
GET       6.400        98.65
GET       6.500        98.72
GET       6.600        98.80
GET       6.700        98.87
GET       6.800        98.93
GET       6.900        98.99
GET       7.000        99.04
GET       7.100        99.08
GET       7.200        99.12
GET       7.300        99.17
GET       7.400        99.21
GET       7.500        99.25
GET       7.600        99.30
GET       7.700        99.33
GET       7.800        99.36
GET       7.900        99.40
GET       8.000        99.43
GET       8.100        99.46
GET       8.200        99.50
GET       8.300        99.54
GET       8.400        99.57
GET       8.500        99.59
GET       8.600        99.60
GET       8.700        99.63
GET       8.800        99.65
GET       8.900        99.66
GET       9.000        99.68
GET       9.100        99.69
GET       9.200        99.70
GET       9.300        99.72
GET       9.400        99.72
GET       9.500        99.73
GET       9.600        99.74
GET       9.700        99.75
GET       9.800        99.76
GET       9.900        99.78
GET      10.000        99.82
GET      11.000        99.87
GET      12.000        99.88
GET      13.000        99.89
GET      14.000        99.90
GET      15.000        99.90
GET      16.000        99.91
GET      17.000        99.91
GET      19.000        99.91
GET      20.000        99.92
GET      21.000        99.92
GET      22.000        99.93
GET      26.000        99.93
GET      27.000        99.93
GET      30.000        99.93
GET      40.000        99.93
GET      43.000        99.93
GET      44.000        99.94
GET      50.000        99.94
GET      51.000        99.94
GET      54.000        99.94
GET      55.000        99.95
GET      56.000        99.95
GET      57.000        99.95
GET      58.000        99.95
GET      59.000        99.95
GET      60.000        99.96
GET      61.000        99.96
GET      85.000        99.96
GET      86.000        99.96
GET     100.000        99.97
GET     110.000        99.97
GET     120.000        99.97
GET     130.000        99.98
GET     160.000        99.98
GET     170.000        99.98
GET     190.000        99.98
GET     210.000        99.99
GET     220.000        99.99
GET     230.000        99.99
GET     250.000        99.99
GET     270.000        99.99
GET     320.000       100.00
GET     340.000       100.00
GET     360.000       100.00
GET     370.000       100.00
---
