2         Threads
42        Connections per thread
70        Seconds


ALL STATS
========================================================================
Type        Ops/sec     Hits/sec   Misses/sec      Latency       KB/sec 
------------------------------------------------------------------------
Sets           0.00          ---          ---      0.00000         0.00 
Gets         973.05       973.05         0.00     86.31900      3941.42 
Waits          0.00          ---          ---      0.00000          --- 
Totals       973.05       973.05         0.00     86.31900      3941.42 


Request Latency Distribution
Type     <= msec         Percent
------------------------------------------------------------------------
---
GET       1.200         0.00
GET       1.400         0.01
GET       1.500         0.02
GET       1.600         0.02
GET       1.700         0.02
GET       1.800         0.04
GET       1.900         0.06
GET       2.000         0.07
GET       2.100         0.08
GET       2.200         0.09
GET       2.300         0.10
GET       2.400         0.10
GET       2.500         0.11
GET       2.600         0.12
GET       2.700         0.13
GET       2.800         0.13
GET       2.900         0.13
GET       3.000         0.14
GET       3.100         0.15
GET       3.200         0.15
GET       3.300         0.15
GET       3.400         0.15
GET       3.500         0.16
GET       3.600         0.16
GET       3.700         0.17
GET       3.800         0.17
GET       3.900         0.17
GET       4.000         0.18
GET       4.100         0.18
GET       4.200         0.18
GET       4.300         0.19
GET       4.400         0.19
GET       4.500         0.20
GET       4.600         0.20
GET       4.700         0.20
GET       4.800         0.21
GET       5.200         0.21
GET       5.300         0.22
GET       5.400         0.22
GET       5.500         0.22
GET       5.700         0.22
GET       5.800         0.22
GET       5.900         0.23
GET       6.100         0.23
GET       6.300         0.23
GET       6.600         0.23
GET       6.700         0.24
GET       6.800         0.25
GET       6.900         0.25
GET       7.000         0.25
GET       7.100         0.25
GET       7.200         0.26
GET       7.300         0.26
GET       7.500         0.26
GET       7.700         0.26
GET       7.800         0.27
GET       7.900         0.27
GET       8.000         0.28
GET       8.100         0.28
GET       8.200         0.29
GET       8.300         0.29
GET       8.400         0.29
GET       9.000         0.29
GET       9.300         0.29
GET       9.500         0.30
GET       9.800         0.30
GET       9.900         0.30
GET      10.000         0.30
GET      11.000         0.31
GET      12.000         0.31
GET      13.000         0.32
GET      14.000         0.33
GET      15.000         0.33
GET      16.000         0.33
GET      17.000         0.34
GET      18.000         0.34
GET      19.000         0.35
GET      20.000         0.36
GET      21.000         0.37
GET      22.000         0.37
GET      23.000         0.39
GET      24.000         0.39
GET      25.000         0.41
GET      29.000         0.41
GET      30.000         0.43
GET      31.000         0.46
GET      32.000         0.47
GET      33.000         0.50
GET      34.000         0.51
GET      35.000         0.53
GET      36.000         0.53
GET      37.000         0.54
GET      38.000         0.55
GET      39.000         0.58
GET      40.000         0.60
GET      41.000         0.60
GET      42.000         0.62
GET      43.000         0.63
GET      44.000         0.65
GET      45.000         0.69
GET      46.000         0.76
GET      47.000         0.85
GET      48.000         0.92
GET      49.000         1.00
GET      50.000         1.06
GET      51.000         1.11
GET      52.000         1.14
GET      53.000         1.16
GET      54.000         1.19
GET      55.000         1.22
GET      56.000         1.25
GET      57.000         1.30
GET      58.000         1.35
GET      59.000         1.41
GET      60.000         1.47
GET      61.000         1.53
GET      62.000         1.59
GET      63.000         1.68
GET      64.000         1.75
GET      65.000         1.87
GET      66.000         2.01
GET      67.000         2.15
GET      68.000         2.28
GET      69.000         2.37
GET      70.000         2.42
GET      71.000         2.51
GET      72.000         2.64
GET      73.000         2.82
GET      74.000         3.00
GET      75.000         3.34
GET      76.000         3.76
GET      77.000         4.28
GET      78.000         4.94
GET      79.000         6.55
GET      80.000        12.15
GET      81.000        24.87
GET      82.000        36.63
GET      83.000        43.66
GET      84.000        47.64
GET      85.000        50.36
GET      86.000        52.74
GET      87.000        55.72
GET      88.000        60.55
GET      89.000        68.63
GET      90.000        80.95
GET      91.000        91.71
GET      92.000        95.77
GET      93.000        97.05
GET      94.000        97.59
GET      95.000        97.95
GET      96.000        98.27
GET      97.000        98.49
GET      98.000        98.61
GET      99.000        98.70
GET     100.000        98.96
GET     110.000        99.16
GET     120.000        99.27
GET     130.000        99.31
GET     140.000        99.34
GET     150.000        99.36
GET     160.000        99.41
GET     170.000        99.46
GET     180.000        99.49
GET     190.000        99.51
GET     200.000        99.54
GET     210.000        99.55
GET     230.000        99.58
GET     240.000        99.58
GET     250.000        99.60
GET     260.000        99.61
GET     270.000        99.63
GET     280.000        99.67
GET     290.000        99.73
GET     300.000        99.77
GET     310.000        99.79
GET     330.000        99.81
GET     340.000        99.83
GET     350.000        99.85
GET     360.000        99.87
GET     370.000        99.88
GET     380.000        99.89
GET     390.000        99.90
GET     400.000        99.91
GET     410.000        99.92
GET     430.000        99.93
GET     440.000        99.96
GET     450.000        99.96
GET     460.000        99.97
GET     470.000        99.98
GET     480.000        99.98
GET     500.000        99.99
GET     510.000        99.99
GET     600.000       100.00
GET     610.000       100.00
---
