1         Threads
14        Connections per thread
70        Seconds


ALL STATS
========================================================================
Type        Ops/sec     Hits/sec   Misses/sec      Latency       KB/sec 
------------------------------------------------------------------------
Sets        1560.35          ---          ---      8.96700      6297.60 
Gets           0.00         0.00         0.00      0.00000         0.00 
Waits          0.00          ---          ---      0.00000          --- 
Totals      1560.35         0.00         0.00      8.96700      6297.60 


Request Latency Distribution
Type     <= msec         Percent
------------------------------------------------------------------------
SET       2.000         0.00
SET       2.100         0.00
SET       2.300         0.00
SET       2.500         0.00
SET       2.600         0.01
SET       2.700         0.01
SET       2.800         0.01
SET       2.900         0.01
SET       3.000         0.02
SET       3.100         0.03
SET       3.200         0.04
SET       3.300         0.06
SET       3.400         0.06
SET       3.500         0.09
SET       3.600         0.12
SET       3.700         0.16
SET       3.800         0.21
SET       3.900         0.28
SET       4.000         0.37
SET       4.100         0.49
SET       4.200         0.64
SET       4.300         0.85
SET       4.400         1.13
SET       4.500         1.47
SET       4.600         1.88
SET       4.700         2.32
SET       4.800         2.92
SET       4.900         3.57
SET       5.000         4.36
SET       5.100         5.24
SET       5.200         6.23
SET       5.300         7.36
SET       5.400         8.52
SET       5.500         9.78
SET       5.600        11.14
SET       5.700        12.56
SET       5.800        13.99
SET       5.900        15.56
SET       6.000        17.16
SET       6.100        18.87
SET       6.200        20.60
SET       6.300        22.30
SET       6.400        24.03
SET       6.500        25.74
SET       6.600        27.52
SET       6.700        29.22
SET       6.800        30.90
SET       6.900        32.58
SET       7.000        34.16
SET       7.100        35.77
SET       7.200        37.32
SET       7.300        38.81
SET       7.400        40.27
SET       7.500        41.60
SET       7.600        42.96
SET       7.700        44.24
SET       7.800        45.50
SET       7.900        46.65
SET       8.000        47.80
SET       8.100        48.86
SET       8.200        49.86
SET       8.300        50.85
SET       8.400        51.84
SET       8.500        52.72
SET       8.600        53.59
SET       8.700        54.40
SET       8.800        55.18
SET       8.900        55.93
SET       9.000        56.63
SET       9.100        57.32
SET       9.200        57.99
SET       9.300        58.68
SET       9.400        59.34
SET       9.500        59.99
SET       9.600        60.65
SET       9.700        61.37
SET       9.800        62.08
SET       9.900        62.81
SET      10.000        67.56
SET      11.000        78.75
SET      12.000        88.21
SET      13.000        93.59
SET      14.000        96.16
SET      15.000        97.50
SET      16.000        98.34
SET      17.000        98.81
SET      18.000        99.10
SET      19.000        99.32
SET      20.000        99.49
SET      21.000        99.63
SET      22.000        99.74
SET      23.000        99.81
SET      24.000        99.85
SET      25.000        99.88
SET      26.000        99.90
SET      27.000        99.92
SET      28.000        99.93
SET      29.000        99.94
SET      30.000        99.96
SET      31.000        99.96
SET      32.000        99.97
SET      33.000        99.97
SET      34.000        99.98
SET      35.000        99.98
SET      38.000        99.98
SET      39.000        99.98
SET      41.000        99.98
SET      42.000        99.99
SET      43.000        99.99
SET      44.000        99.99
SET      45.000        99.99
SET      47.000        99.99
SET      48.000        99.99
SET      53.000       100.00
SET      68.000       100.00
SET      84.000       100.00
SET      96.000       100.00
SET      97.000       100.00
---
---
