1         Threads
1         Connections per thread
70        Seconds


ALL STATS
========================================================================
Type        Ops/sec     Hits/sec   Misses/sec      Latency       KB/sec 
------------------------------------------------------------------------
Sets         531.07          ---          ---      1.87700      2143.40 
Gets           0.00         0.00         0.00      0.00000         0.00 
Waits          0.00          ---          ---      0.00000          --- 
Totals       531.07         0.00         0.00      1.87700      2143.40 


Request Latency Distribution
Type     <= msec         Percent
------------------------------------------------------------------------
SET       0.840         0.00
SET       0.850         0.01
SET       0.860         0.01
SET       0.870         0.01
SET       0.880         0.02
SET       0.890         0.04
SET       0.900         0.05
SET       0.910         0.06
SET       0.920         0.07
SET       0.930         0.09
SET       0.940         0.11
SET       0.950         0.14
SET       0.960         0.19
SET       0.970         0.24
SET       0.980         0.31
SET       0.990         0.40
SET       1.000         1.26
SET       1.100         5.09
SET       1.200        12.65
SET       1.300        22.87
SET       1.400        33.92
SET       1.500        44.48
SET       1.600        53.51
SET       1.700        61.15
SET       1.800        67.30
SET       1.900        72.46
SET       2.000        76.78
SET       2.100        80.04
SET       2.200        82.67
SET       2.300        84.99
SET       2.400        86.77
SET       2.500        88.28
SET       2.600        89.66
SET       2.700        90.80
SET       2.800        91.63
SET       2.900        92.37
SET       3.000        92.99
SET       3.100        93.62
SET       3.200        94.21
SET       3.300        94.65
SET       3.400        94.99
SET       3.500        95.37
SET       3.600        95.67
SET       3.700        95.98
SET       3.800        96.24
SET       3.900        96.49
SET       4.000        96.71
SET       4.100        96.87
SET       4.200        97.02
SET       4.300        97.14
SET       4.400        97.28
SET       4.500        97.44
SET       4.600        97.57
SET       4.700        97.68
SET       4.800        97.77
SET       4.900        97.88
SET       5.000        97.97
SET       5.100        98.08
SET       5.200        98.16
SET       5.300        98.23
SET       5.400        98.31
SET       5.500        98.40
SET       5.600        98.47
SET       5.700        98.53
SET       5.800        98.61
SET       5.900        98.67
SET       6.000        98.74
SET       6.100        98.80
SET       6.200        98.86
SET       6.300        98.91
SET       6.400        98.98
SET       6.500        99.04
SET       6.600        99.07
SET       6.700        99.11
SET       6.800        99.16
SET       6.900        99.23
SET       7.000        99.26
SET       7.100        99.30
SET       7.200        99.34
SET       7.300        99.36
SET       7.400        99.40
SET       7.500        99.46
SET       7.600        99.48
SET       7.700        99.51
SET       7.800        99.53
SET       7.900        99.57
SET       8.000        99.59
SET       8.100        99.62
SET       8.200        99.63
SET       8.300        99.64
SET       8.400        99.67
SET       8.500        99.69
SET       8.600        99.69
SET       8.700        99.70
SET       8.800        99.71
SET       8.900        99.73
SET       9.000        99.76
SET       9.100        99.79
SET       9.200        99.80
SET       9.300        99.82
SET       9.400        99.83
SET       9.500        99.84
SET       9.600        99.85
SET       9.700        99.86
SET       9.800        99.87
SET       9.900        99.88
SET      10.000        99.91
SET      11.000        99.95
SET      12.000        99.97
SET      13.000        99.98
SET      15.000        99.99
SET      16.000        99.99
SET      18.000        99.99
SET      20.000       100.00
SET      23.000       100.00
---
---
