1         Threads
22        Connections per thread
70        Seconds


ALL STATS
========================================================================
Type        Ops/sec     Hits/sec   Misses/sec      Latency       KB/sec 
------------------------------------------------------------------------
Sets        2212.61          ---          ---      9.93800      8930.13 
Gets           0.00         0.00         0.00      0.00000         0.00 
Waits          0.00          ---          ---      0.00000          --- 
Totals      2212.61         0.00         0.00      9.93800      8930.13 


Request Latency Distribution
Type     <= msec         Percent
------------------------------------------------------------------------
SET       1.100         0.00
SET       1.200         0.01
SET       1.300         0.01
SET       1.400         0.02
SET       1.500         0.04
SET       1.600         0.07
SET       1.700         0.09
SET       1.800         0.13
SET       1.900         0.20
SET       2.000         0.28
SET       2.100         0.38
SET       2.200         0.52
SET       2.300         0.69
SET       2.400         0.92
SET       2.500         1.22
SET       2.600         1.55
SET       2.700         1.96
SET       2.800         2.49
SET       2.900         3.06
SET       3.000         3.69
SET       3.100         4.32
SET       3.200         4.96
SET       3.300         5.50
SET       3.400         6.04
SET       3.500         6.52
SET       3.600         6.95
SET       3.700         7.31
SET       3.800         7.66
SET       3.900         7.95
SET       4.000         8.23
SET       4.100         8.48
SET       4.200         8.72
SET       4.300         8.95
SET       4.400         9.19
SET       4.500         9.41
SET       4.600         9.63
SET       4.700         9.85
SET       4.800        10.06
SET       4.900        10.30
SET       5.000        10.52
SET       5.100        10.76
SET       5.200        11.01
SET       5.300        11.25
SET       5.400        11.51
SET       5.500        11.80
SET       5.600        12.06
SET       5.700        12.31
SET       5.800        12.60
SET       5.900        12.89
SET       6.000        13.18
SET       6.100        13.47
SET       6.200        13.77
SET       6.300        14.06
SET       6.400        14.34
SET       6.500        14.67
SET       6.600        15.00
SET       6.700        15.33
SET       6.800        15.67
SET       6.900        16.04
SET       7.000        16.46
SET       7.100        16.90
SET       7.200        17.34
SET       7.300        17.81
SET       7.400        18.29
SET       7.500        18.83
SET       7.600        19.39
SET       7.700        20.00
SET       7.800        20.68
SET       7.900        21.43
SET       8.000        22.28
SET       8.100        23.16
SET       8.200        24.13
SET       8.300        25.23
SET       8.400        26.39
SET       8.500        27.77
SET       8.600        29.27
SET       8.700        30.94
SET       8.800        32.73
SET       8.900        34.62
SET       9.000        36.58
SET       9.100        38.68
SET       9.200        40.81
SET       9.300        42.99
SET       9.400        45.22
SET       9.500        47.40
SET       9.600        49.61
SET       9.700        51.70
SET       9.800        53.75
SET       9.900        55.71
SET      10.000        64.95
SET      11.000        76.21
SET      12.000        84.44
SET      13.000        89.87
SET      14.000        92.98
SET      15.000        94.81
SET      16.000        96.06
SET      17.000        97.08
SET      18.000        97.85
SET      19.000        98.51
SET      20.000        98.96
SET      21.000        99.18
SET      22.000        99.38
SET      23.000        99.53
SET      24.000        99.62
SET      25.000        99.68
SET      26.000        99.72
SET      27.000        99.74
SET      28.000        99.77
SET      29.000        99.78
SET      30.000        99.79
SET      31.000        99.80
SET      32.000        99.81
SET      33.000        99.81
SET      34.000        99.82
SET      35.000        99.83
SET      36.000        99.83
SET      37.000        99.83
SET      38.000        99.84
SET      39.000        99.84
SET      40.000        99.84
SET      41.000        99.85
SET      42.000        99.85
SET      43.000        99.85
SET      44.000        99.85
SET      45.000        99.85
SET      46.000        99.85
SET      47.000        99.85
SET      48.000        99.86
SET      49.000        99.86
SET      50.000        99.86
SET      51.000        99.86
SET      52.000        99.86
SET      53.000        99.87
SET      54.000        99.87
SET      55.000        99.88
SET      56.000        99.88
SET      57.000        99.88
SET      58.000        99.89
SET      60.000        99.89
SET      61.000        99.89
SET      62.000        99.89
SET      63.000        99.89
SET      64.000        99.89
SET      66.000        99.89
SET      70.000        99.89
SET      71.000        99.90
SET      72.000        99.90
SET      76.000        99.90
SET      77.000        99.90
SET      79.000        99.90
SET      81.000        99.90
SET      82.000        99.90
SET      83.000        99.90
SET      84.000        99.90
SET      85.000        99.90
SET      87.000        99.91
SET      88.000        99.91
SET      90.000        99.91
SET      93.000        99.91
SET      94.000        99.91
SET      95.000        99.91
SET      97.000        99.92
SET      98.000        99.92
SET      99.000        99.92
SET     100.000        99.92
SET     110.000        99.93
SET     120.000        99.93
SET     140.000        99.94
SET     150.000        99.94
SET     160.000        99.95
SET     170.000        99.96
SET     180.000        99.97
SET     190.000        99.97
SET     200.000        99.97
SET     210.000        99.98
SET     240.000        99.98
SET     280.000        99.98
SET     300.000        99.99
SET     310.000        99.99
SET     340.000       100.00
SET     360.000       100.00
SET     380.000       100.00
SET     390.000       100.00
---
---
