2         Threads
4         Connections per thread
70        Seconds


ALL STATS
========================================================================
Type        Ops/sec     Hits/sec   Misses/sec      Latency       KB/sec 
------------------------------------------------------------------------
Sets           0.00          ---          ---      0.00000         0.00 
Gets         961.74       961.74         0.00      8.30500      3895.58 
Waits          0.00          ---          ---      0.00000          --- 
Totals       961.74       961.74         0.00      8.30500      3895.58 


Request Latency Distribution
Type     <= msec         Percent
------------------------------------------------------------------------
---
GET       1.100         0.01
GET       1.200         0.06
GET       1.300         0.14
GET       1.400         0.33
GET       1.500         0.71
GET       1.600         1.29
GET       1.700         2.08
GET       1.800         3.06
GET       1.900         4.21
GET       2.000         5.66
GET       2.100         7.11
GET       2.200         8.71
GET       2.300        10.57
GET       2.400        12.40
GET       2.500        14.49
GET       2.600        16.69
GET       2.700        18.99
GET       2.800        21.31
GET       2.900        23.44
GET       3.000        25.65
GET       3.100        27.67
GET       3.200        29.58
GET       3.300        31.33
GET       3.400        32.91
GET       3.500        34.20
GET       3.600        35.48
GET       3.700        36.52
GET       3.800        37.43
GET       3.900        38.26
GET       4.000        38.97
GET       4.100        39.74
GET       4.200        40.36
GET       4.300        40.92
GET       4.400        41.39
GET       4.500        41.85
GET       4.600        42.23
GET       4.700        42.58
GET       4.800        42.84
GET       4.900        43.10
GET       5.000        43.36
GET       5.100        43.62
GET       5.200        43.90
GET       5.300        44.12
GET       5.400        44.32
GET       5.500        44.49
GET       5.600        44.66
GET       5.700        44.80
GET       5.800        44.92
GET       5.900        45.07
GET       6.000        45.20
GET       6.100        45.35
GET       6.200        45.48
GET       6.300        45.60
GET       6.400        45.70
GET       6.500        45.81
GET       6.600        45.92
GET       6.700        45.99
GET       6.800        46.09
GET       6.900        46.19
GET       7.000        46.28
GET       7.100        46.40
GET       7.200        46.52
GET       7.300        46.66
GET       7.400        46.75
GET       7.500        46.87
GET       7.600        46.99
GET       7.700        47.11
GET       7.800        47.22
GET       7.900        47.31
GET       8.000        47.45
GET       8.100        47.54
GET       8.200        47.66
GET       8.300        47.77
GET       8.400        47.90
GET       8.500        48.02
GET       8.600        48.12
GET       8.700        48.24
GET       8.800        48.34
GET       8.900        48.43
GET       9.000        48.55
GET       9.100        48.68
GET       9.200        48.81
GET       9.300        48.94
GET       9.400        49.05
GET       9.500        49.18
GET       9.600        49.34
GET       9.700        49.47
GET       9.800        49.65
GET       9.900        49.82
GET      10.000        51.01
GET      11.000        55.37
GET      12.000        68.11
GET      13.000        85.15
GET      14.000        92.35
GET      15.000        96.55
GET      16.000        99.34
GET      17.000        99.60
GET      18.000        99.76
GET      19.000        99.82
GET      20.000        99.84
GET      21.000        99.87
GET      22.000        99.88
GET      23.000        99.88
GET      24.000        99.89
GET      25.000        99.92
GET      26.000        99.94
GET      27.000        99.97
GET      28.000        99.98
GET      29.000        99.99
GET      30.000        99.99
GET      37.000       100.00
GET      40.000       100.00
GET      43.000       100.00
---
