1         Threads
14        Connections per thread
70        Seconds


ALL STATS
========================================================================
Type        Ops/sec     Hits/sec   Misses/sec      Latency       KB/sec 
------------------------------------------------------------------------
Sets        2824.83          ---          ---      4.88300     11401.09 
Gets           0.00         0.00         0.00      0.00000         0.00 
Waits          0.00          ---          ---      0.00000          --- 
Totals      2824.83         0.00         0.00      4.88300     11401.09 


Request Latency Distribution
Type     <= msec         Percent
------------------------------------------------------------------------
SET       0.230         0.00
SET       0.240         0.00
SET       0.250         0.00
SET       0.260         0.00
SET       0.270         0.00
SET       0.280         0.01
SET       0.290         0.01
SET       0.300         0.02
SET       0.310         0.02
SET       0.320         0.03
SET       0.330         0.04
SET       0.340         0.06
SET       0.350         0.08
SET       0.360         0.11
SET       0.370         0.14
SET       0.380         0.20
SET       0.390         0.26
SET       0.400         0.34
SET       0.410         0.43
SET       0.420         0.55
SET       0.430         0.67
SET       0.440         0.83
SET       0.450         1.01
SET       0.460         1.21
SET       0.470         1.44
SET       0.480         1.70
SET       0.490         1.99
SET       0.500         2.30
SET       0.510         2.65
SET       0.520         3.01
SET       0.530         3.44
SET       0.540         3.86
SET       0.550         4.33
SET       0.560         4.85
SET       0.570         5.39
SET       0.580         5.95
SET       0.590         6.55
SET       0.600         7.16
SET       0.610         7.76
SET       0.620         8.38
SET       0.630         9.08
SET       0.640         9.80
SET       0.650        10.53
SET       0.660        11.28
SET       0.670        12.04
SET       0.680        12.79
SET       0.690        13.58
SET       0.700        14.34
SET       0.710        15.13
SET       0.720        15.98
SET       0.730        16.77
SET       0.740        17.58
SET       0.750        18.43
SET       0.760        19.28
SET       0.770        20.11
SET       0.780        20.98
SET       0.790        21.86
SET       0.800        22.81
SET       0.810        23.73
SET       0.820        24.62
SET       0.830        25.52
SET       0.840        26.44
SET       0.850        27.33
SET       0.860        28.24
SET       0.870        29.19
SET       0.880        30.10
SET       0.890        31.07
SET       0.900        31.96
SET       0.910        32.85
SET       0.920        33.79
SET       0.930        34.76
SET       0.940        35.65
SET       0.950        36.53
SET       0.960        37.45
SET       0.970        38.37
SET       0.980        39.23
SET       0.990        40.11
SET       1.000        44.55
SET       1.100        51.01
SET       1.200        55.49
SET       1.300        58.73
SET       1.400        61.00
SET       1.500        62.54
SET       1.600        63.63
SET       1.700        64.34
SET       1.800        64.87
SET       1.900        65.28
SET       2.000        65.65
SET       2.100        65.95
SET       2.200        66.18
SET       2.300        66.40
SET       2.400        66.58
SET       2.500        66.79
SET       2.600        66.95
SET       2.700        67.10
SET       2.800        67.23
SET       2.900        67.37
SET       3.000        67.49
SET       3.100        67.59
SET       3.200        67.66
SET       3.300        67.73
SET       3.400        67.79
SET       3.500        67.84
SET       3.600        67.89
SET       3.700        67.93
SET       3.800        67.96
SET       3.900        68.00
SET       4.000        68.04
SET       4.100        68.06
SET       4.200        68.11
SET       4.300        68.16
SET       4.400        68.20
SET       4.500        68.23
SET       4.600        68.26
SET       4.700        68.29
SET       4.800        68.31
SET       4.900        68.33
SET       5.000        68.35
SET       5.100        68.38
SET       5.200        68.41
SET       5.300        68.43
SET       5.400        68.46
SET       5.500        68.49
SET       5.600        68.50
SET       5.700        68.51
SET       5.800        68.53
SET       5.900        68.56
SET       6.000        68.57
SET       6.100        68.59
SET       6.200        68.62
SET       6.300        68.64
SET       6.400        68.65
SET       6.500        68.66
SET       6.600        68.68
SET       6.700        68.70
SET       6.800        68.73
SET       6.900        68.76
SET       7.000        68.78
SET       7.100        68.81
SET       7.200        68.83
SET       7.300        68.85
SET       7.400        68.88
SET       7.500        68.91
SET       7.600        68.95
SET       7.700        68.99
SET       7.800        69.04
SET       7.900        69.07
SET       8.000        69.11
SET       8.100        69.15
SET       8.200        69.18
SET       8.300        69.22
SET       8.400        69.26
SET       8.500        69.28
SET       8.600        69.31
SET       8.700        69.35
SET       8.800        69.39
SET       8.900        69.44
SET       9.000        69.47
SET       9.100        69.50
SET       9.200        69.55
SET       9.300        69.59
SET       9.400        69.63
SET       9.500        69.69
SET       9.600        69.74
SET       9.700        69.78
SET       9.800        69.84
SET       9.900        69.90
SET      10.000        70.28
SET      11.000        71.53
SET      12.000        74.27
SET      13.000        84.09
SET      14.000        97.63
SET      15.000        99.23
SET      16.000        99.52
SET      17.000        99.69
SET      18.000        99.79
SET      19.000        99.85
SET      20.000        99.90
SET      21.000        99.92
SET      22.000        99.92
SET      23.000        99.92
SET      24.000        99.93
SET      25.000        99.93
SET      26.000        99.94
SET      27.000        99.96
SET      28.000        99.97
SET      29.000        99.99
SET      30.000       100.00
SET      31.000       100.00
SET      52.000       100.00
---
---
