second,availableProcessors,totalMemory,freeMemory,usedMemory,queueCapacity,queueSize,expectedArrivalRate,systemRequests
1,8,221249536,173534632,47714904,2147483613,34,1.158000,66
2,8,221249536,168920824,52328712,2147483613,34,1.366000,66
3,8,221249536,195207680,26041856,2147483616,31,1.393000,63
4,8,221249536,192731816,28517720,2147483613,34,1.401000,66
5,8,221249536,174044024,47205512,2147483614,33,1.341000,65
6,8,221249536,157042216,64207320,2147483635,12,1.367000,44
7,8,221249536,195658032,25591504,2147483613,34,1.455000,66
8,8,221249536,182210608,39038928,2147483616,31,1.365000,63
9,8,221249536,167335192,53914344,2147483613,34,1.442000,66
10,8,221249536,205784424,15465112,2147483614,33,1.423000,65
11,8,221249536,194133560,27115976,2147483614,33,1.401000,65
12,8,221249536,177398040,43851496,2147483613,34,1.465000,66
13,8,221249536,165528512,55721024,2147483613,34,1.403000,66
14,8,221249536,208116224,13133312,2147483613,34,1.355000,66
15,8,221249536,192588048,28661488,2147483613,34,1.338000,66
16,8,221249536,179041176,42208360,2147483615,32,1.354000,64
17,8,221249536,165697560,55551976,2147483613,34,1.341000,66
18,8,217579520,204059848,13519672,2147483613,34,1.394000,66
19,8,217579520,190956832,26622688,2147483613,34,1.378000,66
20,8,217579520,177230080,40349440,2147483613,34,1.374000,66
21,8,217579520,162938200,54641320,2147483613,34,1.458000,66
22,8,216530944,202940872,13590072,2147483614,33,1.470000,65
23,8,216530944,188836216,27694728,2147483613,34,1.360000,66
24,8,216530944,175371792,41159152,2147483613,34,1.376000,66
25,8,216530944,160980024,55550920,2147483613,34,1.433000,66
26,8,209190912,194576152,14614760,2147483613,34,1.386000,66
27,8,209190912,181064472,28126440,2147483613,34,1.362000,66
28,8,209190912,167050080,42140832,2147483614,33,1.382000,66
29,8,209190912,152957896,56233016,2147483614,33,1.438000,65
30,8,216006656,199421904,16584752,2147483613,34,1.433000,66
31,8,216006656,185077416,30929240,2147483613,34,1.421000,66
32,8,216006656,171087864,44918792,2147483613,34,1.396000,66
33,8,216006656,157653184,58353472,2147483615,32,1.373000,65
34,8,207093760,187133720,19960040,2147483614,33,1.446000,65
35,8,207093760,173862328,33231432,2147483613,34,1.335000,66
36,8,207093760,160279760,46814000,2147483613,34,1.357000,66
37,8,214433792,206093712,8340080,2147483613,34,1.380000,66
38,8,214433792,191793456,22640336,2147483613,34,1.416000,66
39,8,214433792,177998944,36434848,2147483613,34,1.392000,66
40,8,214433792,163941112,50492680,2147483613,34,1.411000,66
41,8,204996608,191528544,13468064,2147483613,34,1.392000,66
42,8,204996608,177681296,27315312,2147483613,34,1.400000,66
43,8,204996608,163670560,41326048,2147483613,34,1.397000,66
44,8,204996608,149914672,55081936,2147483613,34,1.389000,66
45,8,212336640,193070984,19265656,2147483613,34,1.417000,66
46,8,212336640,179401240,32935400,2147483613,34,1.373000,66
47,8,212336640,166029264,46307376,2147483613,34,1.341000,66
48,8,202899456,190921048,11978408,2147483613,34,1.441000,66
49,8,202899456,176766144,26133312,2147483613,34,1.388000,66
50,8,202899456,162568616,40330840,2147483613,34,1.415000,66
51,8,202899456,148726720,54172736,2147483613,34,1.401000,66
52,8,210239488,189710824,20528664,2147483613,34,1.419000,66
53,8,210239488,176002304,34237184,2147483613,34,1.383000,66
54,8,210239488,162150040,48089448,2147483613,34,1.390000,66
55,8,200802304,185446680,15355624,2147483613,34,1.415000,66
56,8,200802304,171822280,28980024,2147483613,34,1.366000,66
57,8,200802304,157945344,42856960,2147483613,34,1.390000,66
58,8,208666624,197651056,11015568,2147483613,34,1.387000,66
59,8,208666624,184097808,24568816,2147483613,34,1.371000,66
60,8,208666624,170706712,37959912,2147483613,34,1.346000,66
61,8,208666624,156819616,51847008,2147483613,34,1.401000,66
62,8,199753728,179266304,20487424,2147483613,34,1.381000,66
63,8,199753728,165562320,34191408,2147483613,34,1.379000,66
64,8,199753728,151488064,48265664,2147483613,34,1.413000,66
65,8,206045184,188649768,17395416,2147483613,34,1.387000,66
66,8,206045184,174657936,31387248,2147483613,34,1.405000,66
67,8,206045184,160985968,45059216,2147483613,34,1.361000,66
68,8,198705152,183678464,15026688,2147483613,34,1.429000,66
69,8,198705152,169831288,28873864,2147483613,34,1.394000,66
70,8,198705152,155744648,42960504,2147483617,30,1.407000,62
71,8,198705152,153776504,44928648,2147483647,0,0.112000,0
72,8,198705152,153738304,44966848,2147483647,0,0.000000,0
73,8,198705152,153701144,45004008,2147483647,0,0.000000,0
74,8,198705152,153701144,45004008,2147483647,0,0.000000,0
75,8,198705152,153682568,45022584,2147483647,0,0.000000,0
76,8,198705152,153664008,45041144,2147483647,0,0.000000,0
77,8,198705152,153664008,45041144,2147483647,0,0.000000,0
78,8,198705152,153645432,45059720,2147483647,0,0.000000,0
79,8,198705152,153626832,45078320,2147483647,0,0.000000,0
80,8,198705152,153626832,45078320,2147483647,0,0.000000,0
81,8,198705152,153608216,45096936,2147483647,0,0.000000,0
82,8,198705152,153589600,45115552,2147483647,0,0.000000,0
83,8,198705152,153589600,45115552,2147483647,0,0.000000,0
84,8,198705152,153571024,45134128,2147483647,0,0.000000,0
85,8,198705152,153552448,45152704,2147483647,0,0.000000,0
86,8,198705152,153552448,45152704,2147483647,0,0.000000,0
87,8,198705152,153347792,45357360,2147483647,0,0.000000,0
