"Dstat 0.7.2 CSV output"
"Author:","Dag Wieers <dag@wieers.com>",,,,"URL:","http://dag.wieers.com/home-made/dstat/"
"Host:","Server1",,,,"User:","maki"
"Cmdline:","dstat --output server_32_get_2_32.csv 1 70",,,,"Date:","02 Dec 2018 13:52:54 UTC"

"total cpu usage",,,,,,"dsk/total",,"net/total",,"paging",,"system",
"usr","sys","idl","wai","hiq","siq","read","writ","recv","send","in","out","int","csw"
1.751,2.488,94.713,0.640,0.0,0.408,25640.495,73532.524,0.0,0.0,0.0,0.0,18.479,469.890
2.020,6.061,88.889,0.0,0.0,3.030,0.0,0.0,467218.0,12770004.0,0.0,0.0,19.0,946.0
0.0,7.143,91.837,0.0,0.0,1.020,0.0,0.0,441239.0,12500080.0,0.0,0.0,18.0,406.0
2.020,6.061,89.899,0.0,0.0,2.020,0.0,0.0,440371.0,12500524.0,0.0,0.0,18.0,359.0
2.020,7.071,90.909,0.0,0.0,0.0,0.0,0.0,445738.0,12499010.0,0.0,0.0,18.0,368.0
0.0,7.071,91.919,0.0,0.0,1.010,0.0,8192.0,455386.0,12890960.0,0.0,0.0,18.0,365.0
0.0,7.071,91.919,0.0,0.0,1.010,0.0,0.0,445301.0,12696369.0,0.0,0.0,19.0,289.0
4.167,6.250,89.583,0.0,0.0,0.0,0.0,0.0,449512.0,12498488.0,0.0,0.0,18.0,424.0
1.031,6.186,91.753,0.0,0.0,1.031,0.0,0.0,440145.0,12501607.0,0.0,0.0,18.0,320.0
1.020,6.122,92.857,0.0,0.0,0.0,0.0,0.0,440988.0,12500157.0,0.0,0.0,18.0,312.0
1.0,7.0,89.0,2.0,0.0,1.0,0.0,40960.0,446177.0,12499980.0,0.0,0.0,18.0,324.0
1.020,6.122,91.837,0.0,0.0,1.020,0.0,0.0,441760.0,12499029.0,0.0,0.0,19.0,316.0
1.010,6.061,90.909,0.0,0.0,2.020,0.0,0.0,440251.0,12500417.0,0.0,0.0,18.0,324.0
1.010,8.081,89.899,0.0,0.0,1.010,0.0,0.0,441464.0,12500093.0,0.0,0.0,18.0,341.0
2.020,5.051,90.909,0.0,0.0,2.020,0.0,0.0,446134.0,12500184.0,0.0,0.0,18.0,377.0
0.0,5.263,94.737,0.0,0.0,0.0,0.0,0.0,447560.0,12693408.0,0.0,0.0,18.0,311.0
1.020,5.102,92.857,0.0,0.0,1.020,0.0,0.0,434931.0,12308407.0,0.0,0.0,19.0,298.0
1.042,4.167,93.750,0.0,0.0,1.042,0.0,0.0,452495.0,12692490.0,0.0,0.0,18.0,362.0
0.0,5.263,93.684,0.0,0.0,1.053,0.0,0.0,441547.0,12500152.0,0.0,0.0,18.0,327.0
1.042,4.167,94.792,0.0,0.0,0.0,0.0,0.0,437415.0,12498696.0,0.0,0.0,18.0,294.0
1.031,5.155,92.784,0.0,0.0,1.031,0.0,0.0,450653.0,12501488.0,0.0,0.0,19.0,372.0
2.041,6.122,90.816,0.0,0.0,1.020,0.0,0.0,440895.0,12500325.0,0.0,0.0,18.0,302.0
1.020,5.102,92.857,0.0,0.0,1.020,0.0,0.0,439560.0,12500383.0,0.0,0.0,18.0,305.0
4.167,6.250,89.583,0.0,0.0,0.0,0.0,0.0,446017.0,12500215.0,0.0,0.0,18.0,360.0
0.0,4.124,93.814,0.0,0.0,2.062,0.0,0.0,441427.0,12498777.0,0.0,0.0,18.0,296.0
1.010,5.051,91.919,0.0,0.0,2.020,0.0,0.0,440459.0,12498590.0,0.0,0.0,18.0,283.0
2.020,5.051,90.909,0.0,0.0,2.020,0.0,0.0,459910.0,12893372.0,0.0,0.0,19.0,336.0
0.0,5.208,92.708,0.0,0.0,2.083,0.0,0.0,440551.0,12498814.0,0.0,0.0,18.0,303.0
2.020,7.071,89.899,0.0,0.0,1.010,0.0,0.0,440511.0,12500254.0,0.0,0.0,18.0,321.0
1.020,8.163,89.796,0.0,0.0,1.020,0.0,0.0,443837.0,12498931.0,0.0,0.0,18.0,309.0
1.020,5.102,91.837,0.0,0.0,2.041,0.0,8192.0,442362.0,12501762.0,0.0,0.0,19.0,281.0
1.031,5.155,91.753,0.0,0.0,2.062,0.0,0.0,438559.0,12500210.0,0.0,0.0,18.0,321.0
1.020,6.122,91.837,0.0,0.0,1.020,0.0,0.0,448973.0,12498595.0,0.0,0.0,18.0,346.0
2.041,6.122,90.816,0.0,0.0,1.020,0.0,0.0,440669.0,12500346.0,0.0,0.0,18.0,289.0
0.0,5.208,93.750,0.0,0.0,1.042,0.0,0.0,440692.0,12500397.0,0.0,0.0,18.0,300.0
2.020,6.061,90.909,0.0,0.0,1.010,0.0,4096.0,445724.0,12500324.0,0.0,0.0,19.0,325.0
0.0,6.250,93.750,0.0,0.0,0.0,0.0,0.0,440422.0,12497461.0,0.0,0.0,18.0,292.0
1.020,4.082,92.857,0.0,0.0,2.041,0.0,0.0,437318.0,12501591.0,0.0,0.0,18.0,340.0
1.020,8.163,88.776,0.0,0.0,2.041,0.0,0.0,441897.0,12500865.0,0.0,0.0,18.0,343.0
3.061,5.102,91.837,0.0,0.0,0.0,0.0,0.0,455295.0,12695366.0,0.0,0.0,18.0,302.0
1.010,4.040,91.919,0.0,0.0,3.030,0.0,24576.0,433306.0,12500134.0,0.0,0.0,19.0,289.0
2.041,5.102,90.816,1.020,0.0,1.020,0.0,20480.0,440539.0,12498662.0,0.0,0.0,18.0,341.0
1.042,4.167,93.750,0.0,0.0,1.042,0.0,0.0,452049.0,12500110.0,0.0,0.0,18.0,324.0
1.020,8.163,89.796,0.0,0.0,1.020,0.0,0.0,433961.0,12305408.0,0.0,0.0,18.0,359.0
2.062,5.155,92.784,0.0,0.0,0.0,0.0,0.0,448717.0,12873670.0,0.0,0.0,18.0,322.0
1.0,8.0,89.0,0.0,0.0,2.0,0.0,0.0,453208.0,12711616.0,0.0,0.0,19.0,356.0
1.020,5.102,92.857,0.0,0.0,1.020,0.0,0.0,440683.0,12500025.0,0.0,0.0,18.0,303.0
1.980,7.921,90.099,0.0,0.0,0.0,0.0,0.0,439932.0,12352478.0,0.0,0.0,18.0,314.0
0.0,6.250,91.667,0.0,0.0,2.083,0.0,0.0,453400.0,12703399.0,0.0,0.0,18.0,387.0
1.031,6.186,92.784,0.0,0.0,0.0,0.0,0.0,447507.0,12669305.0,0.0,0.0,18.0,323.0
0.0,4.167,94.792,0.0,0.0,1.042,0.0,0.0,449321.0,12860935.0,0.0,0.0,19.0,317.0
2.020,6.061,89.899,0.0,0.0,2.020,0.0,0.0,446209.0,12385455.0,0.0,0.0,18.0,345.0
1.042,3.125,94.792,0.0,0.0,1.042,0.0,0.0,448660.0,12787145.0,0.0,0.0,18.0,313.0
1.031,7.216,91.753,0.0,0.0,0.0,0.0,0.0,440571.0,12484598.0,0.0,0.0,18.0,325.0
1.031,6.186,91.753,0.0,0.0,1.031,0.0,0.0,445625.0,12413369.0,0.0,0.0,19.0,334.0
1.042,4.167,94.792,0.0,0.0,0.0,0.0,0.0,440039.0,12535854.0,0.0,0.0,18.0,286.0
0.0,5.102,92.857,0.0,0.0,2.041,0.0,0.0,446883.0,12643608.0,0.0,0.0,18.0,295.0
1.010,6.061,90.909,0.0,0.0,2.020,0.0,0.0,452551.0,12694601.0,0.0,0.0,18.0,341.0
2.020,7.071,88.889,0.0,0.0,2.020,0.0,0.0,439930.0,12670612.0,0.0,0.0,18.0,322.0
0.0,6.122,91.837,0.0,0.0,2.041,0.0,0.0,440944.0,12455911.0,0.0,0.0,18.0,360.0
2.0,6.0,90.0,0.0,0.0,2.0,0.0,0.0,445576.0,12409227.0,0.0,0.0,19.0,336.0
0.0,6.186,92.784,0.0,0.0,1.031,0.0,0.0,440097.0,12464528.0,0.0,0.0,18.0,309.0
2.020,4.040,92.929,0.0,0.0,1.010,0.0,0.0,447744.0,12852335.0,0.0,0.0,18.0,302.0
1.020,7.143,89.796,0.0,0.0,2.041,0.0,0.0,440537.0,12342528.0,0.0,0.0,18.0,339.0
2.041,5.102,90.816,0.0,0.0,2.041,0.0,0.0,445337.0,12694650.0,0.0,0.0,19.0,357.0
2.041,5.102,92.857,0.0,0.0,0.0,0.0,0.0,447595.0,12501532.0,0.0,0.0,18.0,299.0
1.031,4.124,92.784,0.0,0.0,2.062,0.0,8192.0,447914.0,12693379.0,0.0,0.0,18.0,297.0
4.124,5.155,88.660,0.0,0.0,2.062,0.0,0.0,448512.0,12538482.0,0.0,0.0,18.0,465.0
1.0,7.0,89.0,0.0,0.0,3.0,0.0,0.0,440799.0,12461542.0,0.0,0.0,18.0,363.0
1.031,5.155,92.784,0.0,0.0,1.031,0.0,0.0,440536.0,12500176.0,0.0,0.0,19.0,319.0
2.941,7.843,89.216,0.0,0.0,0.0,0.0,0.0,405659.0,11462990.0,0.0,0.0,18.0,344.0
