1         Threads
32        Connections per thread
70        Seconds


ALL STATS
========================================================================
Type        Ops/sec     Hits/sec   Misses/sec      Latency       KB/sec 
------------------------------------------------------------------------
Sets           0.00          ---          ---      0.00000         0.00 
Gets         494.07       494.07         0.00     64.75800      2001.25 
Waits          0.00          ---          ---      0.00000          --- 
Totals       494.07       494.07         0.00     64.75800      2001.25 


Request Latency Distribution
Type     <= msec         Percent
------------------------------------------------------------------------
---
GET      25.000         0.00
GET      26.000         0.03
GET      27.000         0.04
GET      28.000         0.05
GET      29.000         0.06
GET      30.000         0.08
GET      31.000         0.09
GET      32.000         0.10
GET      33.000         0.14
GET      34.000         0.15
GET      35.000         0.16
GET      36.000         0.18
GET      37.000         0.21
GET      38.000         0.22
GET      39.000         0.24
GET      40.000         0.27
GET      41.000         0.28
GET      42.000         0.32
GET      43.000         0.35
GET      44.000         0.37
GET      45.000         0.40
GET      46.000         0.54
GET      47.000         0.99
GET      48.000         1.36
GET      49.000         1.81
GET      50.000         2.19
GET      51.000         2.36
GET      52.000         2.49
GET      53.000         2.55
GET      54.000         2.59
GET      55.000         2.66
GET      56.000         2.71
GET      57.000         2.89
GET      58.000         3.16
GET      59.000         3.63
GET      60.000         4.81
GET      61.000         7.57
GET      62.000        28.17
GET      63.000        62.93
GET      64.000        78.28
GET      65.000        81.17
GET      66.000        82.41
GET      67.000        83.06
GET      68.000        83.45
GET      69.000        83.70
GET      70.000        83.86
GET      71.000        84.05
GET      72.000        84.34
GET      73.000        84.79
GET      74.000        85.81
GET      75.000        90.44
GET      76.000        97.59
GET      77.000        98.99
GET      78.000        99.55
GET      79.000        99.74
GET      80.000        99.80
GET      81.000        99.83
GET      82.000        99.85
GET      84.000        99.86
GET      89.000        99.86
GET      90.000        99.86
GET      91.000        99.89
GET      92.000        99.90
GET      93.000        99.91
GET     250.000        99.97
GET     260.000       100.00
---
