2         Threads
32        Connections per thread
70        Seconds


ALL STATS
========================================================================
Type        Ops/sec     Hits/sec   Misses/sec      Latency       KB/sec 
------------------------------------------------------------------------
Sets           0.00          ---          ---      0.00000         0.00 
Gets        2867.36      2867.36         0.00     22.30900     11614.41 
Waits          0.00          ---          ---      0.00000          --- 
Totals      2867.36      2867.36         0.00     22.30900     11614.41 


Request Latency Distribution
Type     <= msec         Percent
------------------------------------------------------------------------
---
GET       5.600         0.00
GET       6.100         0.00
GET       6.200         0.00
GET       6.300         0.00
GET       6.400         0.00
GET       6.500         0.00
GET       6.600         0.01
GET       6.700         0.01
GET       6.800         0.01
GET       6.900         0.01
GET       7.000         0.01
GET       7.200         0.01
GET       7.300         0.02
GET       7.400         0.02
GET       7.500         0.02
GET       7.600         0.03
GET       7.700         0.03
GET       7.800         0.03
GET       7.900         0.04
GET       8.000         0.04
GET       8.100         0.05
GET       8.200         0.06
GET       8.300         0.06
GET       8.400         0.07
GET       8.500         0.08
GET       8.600         0.09
GET       8.700         0.10
GET       8.800         0.11
GET       8.900         0.12
GET       9.000         0.13
GET       9.100         0.14
GET       9.200         0.16
GET       9.300         0.17
GET       9.400         0.17
GET       9.500         0.18
GET       9.600         0.20
GET       9.700         0.21
GET       9.800         0.21
GET       9.900         0.23
GET      10.000         0.28
GET      11.000         0.45
GET      12.000         0.71
GET      13.000         1.05
GET      14.000         1.51
GET      15.000         2.21
GET      16.000         3.70
GET      17.000        11.62
GET      18.000        29.98
GET      19.000        41.48
GET      20.000        47.96
GET      21.000        53.75
GET      22.000        58.74
GET      23.000        63.24
GET      24.000        67.61
GET      25.000        72.27
GET      26.000        77.41
GET      27.000        81.70
GET      28.000        85.84
GET      29.000        90.16
GET      30.000        94.36
GET      31.000        97.55
GET      32.000        98.58
GET      33.000        99.00
GET      34.000        99.23
GET      35.000        99.35
GET      36.000        99.44
GET      37.000        99.50
GET      38.000        99.55
GET      39.000        99.60
GET      40.000        99.64
GET      41.000        99.68
GET      42.000        99.72
GET      43.000        99.75
GET      44.000        99.78
GET      45.000        99.81
GET      46.000        99.84
GET      47.000        99.86
GET      48.000        99.87
GET      49.000        99.87
GET      50.000        99.88
GET      51.000        99.88
GET      52.000        99.89
GET      53.000        99.90
GET      54.000        99.90
GET      55.000        99.90
GET      56.000        99.91
GET      57.000        99.91
GET      58.000        99.91
GET      59.000        99.91
GET      60.000        99.92
GET      61.000        99.92
GET      62.000        99.92
GET      63.000        99.92
GET      64.000        99.93
GET      65.000        99.93
GET      66.000        99.93
GET      67.000        99.94
GET      68.000        99.94
GET      69.000        99.94
GET      70.000        99.94
GET      71.000        99.94
GET      72.000        99.94
GET      73.000        99.94
GET      74.000        99.95
GET      75.000        99.95
GET      76.000        99.95
GET      77.000        99.95
GET      78.000        99.95
GET      79.000        99.95
GET      82.000        99.95
GET      83.000        99.95
GET     100.000        99.95
GET     110.000        99.96
GET     120.000        99.96
GET     130.000        99.97
GET     180.000        99.97
GET     190.000        99.97
GET     200.000        99.99
GET     210.000       100.00
GET     220.000       100.00
GET     240.000       100.00
GET     250.000       100.00
---
