2         Threads
22        Connections per thread
70        Seconds


ALL STATS
========================================================================
Type        Ops/sec     Hits/sec   Misses/sec      Latency       KB/sec 
------------------------------------------------------------------------
Sets           0.00          ---          ---      0.00000         0.00 
Gets         989.77       989.77         0.00     44.44200      4009.12 
Waits          0.00          ---          ---      0.00000          --- 
Totals       989.77       989.77         0.00     44.44200      4009.12 


Request Latency Distribution
Type     <= msec         Percent
------------------------------------------------------------------------
---
GET      12.000         0.00
GET      13.000         0.01
GET      14.000         0.01
GET      16.000         0.02
GET      17.000         0.05
GET      18.000         0.09
GET      19.000         0.11
GET      20.000         0.12
GET      21.000         0.14
GET      22.000         0.14
GET      23.000         0.15
GET      24.000         0.17
GET      25.000         0.19
GET      26.000         0.20
GET      27.000         0.21
GET      28.000         0.25
GET      29.000         0.29
GET      30.000         0.41
GET      31.000         0.87
GET      32.000         6.64
GET      33.000        17.07
GET      34.000        20.09
GET      35.000        20.92
GET      36.000        21.27
GET      37.000        21.53
GET      38.000        21.73
GET      39.000        21.86
GET      40.000        22.02
GET      41.000        22.23
GET      42.000        22.59
GET      43.000        23.32
GET      44.000        25.29
GET      45.000        32.74
GET      46.000        53.72
GET      47.000        87.23
GET      48.000        92.03
GET      49.000        93.10
GET      50.000        93.64
GET      51.000        93.94
GET      52.000        94.10
GET      53.000        94.23
GET      54.000        94.34
GET      55.000        94.43
GET      56.000        94.54
GET      57.000        94.71
GET      58.000        94.90
GET      59.000        95.23
GET      60.000        96.49
GET      61.000        98.89
GET      62.000        99.68
GET      63.000        99.85
GET      64.000        99.89
GET      65.000        99.91
GET      66.000        99.92
GET      67.000        99.92
GET      68.000        99.93
GET      69.000        99.93
GET      75.000        99.93
GET      78.000        99.94
GET     240.000        99.94
GET     250.000        99.97
GET     260.000        99.97
GET     270.000        99.98
GET     280.000       100.00
GET     290.000       100.00
---
