1         Threads
6         Connections per thread
70        Seconds


ALL STATS
========================================================================
Type        Ops/sec     Hits/sec   Misses/sec      Latency       KB/sec 
------------------------------------------------------------------------
Sets        3095.79          ---          ---      1.93500     12494.67 
Gets           0.00         0.00         0.00      0.00000         0.00 
Waits          0.00          ---          ---      0.00000          --- 
Totals      3095.79         0.00         0.00      1.93500     12494.67 


Request Latency Distribution
Type     <= msec         Percent
------------------------------------------------------------------------
SET       0.190         0.00
SET       0.200         0.00
SET       0.210         0.01
SET       0.220         0.03
SET       0.230         0.06
SET       0.240         0.12
SET       0.250         0.21
SET       0.260         0.34
SET       0.270         0.54
SET       0.280         0.80
SET       0.290         1.09
SET       0.300         1.49
SET       0.310         1.93
SET       0.320         2.47
SET       0.330         3.10
SET       0.340         3.80
SET       0.350         4.55
SET       0.360         5.39
SET       0.370         6.32
SET       0.380         7.33
SET       0.390         8.42
SET       0.400         9.60
SET       0.410        10.85
SET       0.420        12.20
SET       0.430        13.62
SET       0.440        15.14
SET       0.450        16.69
SET       0.460        18.36
SET       0.470        20.06
SET       0.480        21.85
SET       0.490        23.70
SET       0.500        25.54
SET       0.510        27.49
SET       0.520        29.47
SET       0.530        31.50
SET       0.540        33.55
SET       0.550        35.63
SET       0.560        37.78
SET       0.570        39.81
SET       0.580        41.84
SET       0.590        43.91
SET       0.600        45.92
SET       0.610        47.90
SET       0.620        49.79
SET       0.630        51.66
SET       0.640        53.44
SET       0.650        55.16
SET       0.660        56.86
SET       0.670        58.43
SET       0.680        59.96
SET       0.690        61.46
SET       0.700        62.85
SET       0.710        64.19
SET       0.720        65.41
SET       0.730        66.59
SET       0.740        67.67
SET       0.750        68.67
SET       0.760        69.64
SET       0.770        70.50
SET       0.780        71.29
SET       0.790        72.07
SET       0.800        72.76
SET       0.810        73.42
SET       0.820        74.05
SET       0.830        74.59
SET       0.840        75.15
SET       0.850        75.65
SET       0.860        76.10
SET       0.870        76.51
SET       0.880        76.89
SET       0.890        77.25
SET       0.900        77.58
SET       0.910        77.87
SET       0.920        78.17
SET       0.930        78.45
SET       0.940        78.70
SET       0.950        78.95
SET       0.960        79.18
SET       0.970        79.38
SET       0.980        79.57
SET       0.990        79.76
SET       1.000        80.59
SET       1.100        81.62
SET       1.200        82.24
SET       1.300        82.72
SET       1.400        83.10
SET       1.500        83.39
SET       1.600        83.63
SET       1.700        83.83
SET       1.800        84.06
SET       1.900        84.22
SET       2.000        84.39
SET       2.100        84.54
SET       2.200        84.68
SET       2.300        84.84
SET       2.400        84.96
SET       2.500        85.06
SET       2.600        85.14
SET       2.700        85.24
SET       2.800        85.34
SET       2.900        85.42
SET       3.000        85.52
SET       3.100        85.60
SET       3.200        85.69
SET       3.300        85.76
SET       3.400        85.82
SET       3.500        85.88
SET       3.600        85.94
SET       3.700        86.01
SET       3.800        86.08
SET       3.900        86.17
SET       4.000        86.25
SET       4.100        86.35
SET       4.200        86.43
SET       4.300        86.53
SET       4.400        86.63
SET       4.500        86.73
SET       4.600        86.83
SET       4.700        86.94
SET       4.800        87.03
SET       4.900        87.11
SET       5.000        87.18
SET       5.100        87.25
SET       5.200        87.31
SET       5.300        87.36
SET       5.400        87.42
SET       5.500        87.48
SET       5.600        87.53
SET       5.700        87.58
SET       5.800        87.63
SET       5.900        87.68
SET       6.000        87.72
SET       6.100        87.77
SET       6.200        87.82
SET       6.300        87.87
SET       6.400        87.92
SET       6.500        87.97
SET       6.600        88.01
SET       6.700        88.07
SET       6.800        88.13
SET       6.900        88.19
SET       7.000        88.24
SET       7.100        88.31
SET       7.200        88.37
SET       7.300        88.44
SET       7.400        88.53
SET       7.500        88.62
SET       7.600        88.69
SET       7.700        88.77
SET       7.800        88.86
SET       7.900        88.94
SET       8.000        89.03
SET       8.100        89.11
SET       8.200        89.20
SET       8.300        89.31
SET       8.400        89.41
SET       8.500        89.52
SET       8.600        89.63
SET       8.700        89.76
SET       8.800        89.88
SET       8.900        90.02
SET       9.000        90.16
SET       9.100        90.29
SET       9.200        90.44
SET       9.300        90.59
SET       9.400        90.76
SET       9.500        90.93
SET       9.600        91.10
SET       9.700        91.28
SET       9.800        91.49
SET       9.900        91.71
SET      10.000        93.30
SET      11.000        97.77
SET      12.000        99.45
SET      13.000        99.65
SET      14.000        99.76
SET      15.000        99.83
SET      16.000        99.87
SET      17.000        99.89
SET      18.000        99.90
SET      19.000        99.90
SET      20.000        99.90
SET      21.000        99.91
SET      22.000        99.92
SET      23.000        99.93
SET      24.000        99.94
SET      25.000        99.95
SET      26.000        99.96
SET      27.000        99.96
SET      28.000        99.97
SET      29.000        99.97
SET      30.000        99.97
SET      32.000        99.98
SET      33.000        99.99
SET      34.000        99.99
SET      36.000        99.99
SET      39.000       100.00
SET      40.000       100.00
---
---
