2         Threads
42        Connections per thread
70        Seconds


ALL STATS
========================================================================
Type        Ops/sec     Hits/sec   Misses/sec      Latency       KB/sec 
------------------------------------------------------------------------
Sets        5295.65          ---          ---     15.85900     21373.38 
Gets           0.00         0.00         0.00      0.00000         0.00 
Waits          0.00          ---          ---      0.00000          --- 
Totals      5295.65         0.00         0.00     15.85900     21373.38 


Request Latency Distribution
Type     <= msec         Percent
------------------------------------------------------------------------
SET       0.260         0.00
SET       0.360         0.00
SET       0.370         0.00
SET       0.440         0.00
SET       0.460         0.00
SET       0.470         0.00
SET       0.490         0.00
SET       0.500         0.00
SET       0.520         0.00
SET       0.540         0.00
SET       0.550         0.01
SET       0.560         0.01
SET       0.570         0.01
SET       0.580         0.01
SET       0.590         0.01
SET       0.610         0.01
SET       0.620         0.01
SET       0.630         0.01
SET       0.640         0.01
SET       0.650         0.01
SET       0.660         0.01
SET       0.670         0.01
SET       0.680         0.01
SET       0.690         0.02
SET       0.700         0.02
SET       0.710         0.02
SET       0.720         0.02
SET       0.730         0.02
SET       0.740         0.02
SET       0.750         0.02
SET       0.760         0.02
SET       0.770         0.03
SET       0.780         0.03
SET       0.790         0.03
SET       0.800         0.04
SET       0.810         0.04
SET       0.820         0.04
SET       0.830         0.05
SET       0.840         0.05
SET       0.850         0.05
SET       0.860         0.05
SET       0.870         0.06
SET       0.880         0.06
SET       0.890         0.06
SET       0.900         0.06
SET       0.910         0.07
SET       0.920         0.07
SET       0.930         0.07
SET       0.940         0.07
SET       0.950         0.07
SET       0.960         0.08
SET       0.970         0.08
SET       0.980         0.08
SET       0.990         0.08
SET       1.000         0.10
SET       1.100         0.14
SET       1.200         0.18
SET       1.300         0.21
SET       1.400         0.26
SET       1.500         0.32
SET       1.600         0.39
SET       1.700         0.47
SET       1.800         0.51
SET       1.900         0.58
SET       2.000         0.69
SET       2.100         0.80
SET       2.200         0.93
SET       2.300         1.06
SET       2.400         1.16
SET       2.500         1.24
SET       2.600         1.29
SET       2.700         1.34
SET       2.800         1.36
SET       2.900         1.39
SET       3.000         1.41
SET       3.100         1.43
SET       3.200         1.45
SET       3.300         1.46
SET       3.400         1.48
SET       3.500         1.50
SET       3.600         1.52
SET       3.700         1.53
SET       3.800         1.54
SET       3.900         1.55
SET       4.000         1.56
SET       4.100         1.57
SET       4.200         1.58
SET       4.300         1.59
SET       4.400         1.60
SET       4.500         1.61
SET       4.600         1.63
SET       4.700         1.64
SET       4.800         1.65
SET       4.900         1.66
SET       5.000         1.67
SET       5.100         1.69
SET       5.200         1.70
SET       5.300         1.72
SET       5.400         1.73
SET       5.500         1.74
SET       5.600         1.75
SET       5.700         1.77
SET       5.800         1.78
SET       5.900         1.80
SET       6.000         1.82
SET       6.100         1.84
SET       6.200         1.87
SET       6.300         1.89
SET       6.400         1.92
SET       6.500         1.93
SET       6.600         1.95
SET       6.700         1.98
SET       6.800         2.03
SET       6.900         2.06
SET       7.000         2.10
SET       7.100         2.15
SET       7.200         2.20
SET       7.300         2.25
SET       7.400         2.32
SET       7.500         2.42
SET       7.600         2.51
SET       7.700         2.62
SET       7.800         2.77
SET       7.900         2.93
SET       8.000         3.15
SET       8.100         3.42
SET       8.200         3.77
SET       8.300         4.17
SET       8.400         4.65
SET       8.500         5.25
SET       8.600         5.89
SET       8.700         6.64
SET       8.800         7.61
SET       8.900         8.73
SET       9.000        10.03
SET       9.100        11.44
SET       9.200        13.00
SET       9.300        14.69
SET       9.400        16.63
SET       9.500        18.82
SET       9.600        21.11
SET       9.700        23.31
SET       9.800        25.44
SET       9.900        27.47
SET      10.000        36.56
SET      11.000        42.27
SET      12.000        43.52
SET      13.000        44.00
SET      14.000        44.87
SET      15.000        47.66
SET      16.000        55.28
SET      17.000        67.06
SET      18.000        77.27
SET      19.000        85.90
SET      20.000        89.75
SET      21.000        90.60
SET      22.000        90.82
SET      23.000        91.09
SET      24.000        91.69
SET      25.000        92.91
SET      26.000        95.11
SET      27.000        97.11
SET      28.000        98.28
SET      29.000        98.66
SET      30.000        98.77
SET      31.000        98.81
SET      32.000        98.85
SET      33.000        98.94
SET      34.000        99.01
SET      35.000        99.12
SET      36.000        99.24
SET      37.000        99.34
SET      38.000        99.40
SET      39.000        99.44
SET      40.000        99.45
SET      41.000        99.46
SET      42.000        99.47
SET      43.000        99.51
SET      44.000        99.51
SET      45.000        99.53
SET      46.000        99.55
SET      47.000        99.55
SET      48.000        99.55
SET      49.000        99.56
SET      50.000        99.56
SET      51.000        99.57
SET      52.000        99.58
SET      53.000        99.58
SET      54.000        99.59
SET      55.000        99.59
SET      56.000        99.59
SET      57.000        99.60
SET      58.000        99.60
SET      59.000        99.60
SET      60.000        99.61
SET      61.000        99.61
SET      62.000        99.62
SET      63.000        99.62
SET      64.000        99.64
SET      65.000        99.64
SET      66.000        99.65
SET      67.000        99.65
SET      68.000        99.65
SET      69.000        99.65
SET      70.000        99.65
SET      71.000        99.66
SET      72.000        99.66
SET      73.000        99.67
SET      74.000        99.68
SET      75.000        99.68
SET      76.000        99.69
SET      77.000        99.69
SET      78.000        99.69
SET      79.000        99.69
SET      80.000        99.69
SET      81.000        99.69
SET      82.000        99.70
SET      83.000        99.71
SET      84.000        99.71
SET      85.000        99.71
SET      86.000        99.71
SET      88.000        99.71
SET      89.000        99.72
SET      90.000        99.73
SET      91.000        99.74
SET      92.000        99.74
SET      93.000        99.74
SET      95.000        99.75
SET      97.000        99.75
SET      98.000        99.75
SET      99.000        99.75
SET     100.000        99.76
SET     110.000        99.78
SET     120.000        99.79
SET     130.000        99.80
SET     140.000        99.80
SET     150.000        99.82
SET     160.000        99.82
SET     170.000        99.82
SET     180.000        99.83
SET     190.000        99.83
SET     220.000        99.83
SET     230.000        99.84
SET     240.000        99.84
SET     250.000        99.85
SET     260.000        99.85
SET     270.000        99.86
SET     280.000        99.86
SET     290.000        99.86
SET     300.000        99.87
SET     310.000        99.87
SET     320.000        99.87
SET     330.000        99.87
SET     340.000        99.88
SET     350.000        99.88
SET     360.000        99.88
SET     370.000        99.89
SET     380.000        99.89
SET     390.000        99.89
SET     400.000        99.89
SET     410.000        99.89
SET     420.000        99.89
SET     430.000        99.90
SET     440.000        99.90
SET     450.000        99.91
SET     460.000        99.91
SET     470.000        99.92
SET     480.000        99.92
SET     490.000        99.92
SET     500.000        99.93
SET     510.000        99.93
SET     520.000        99.93
SET     530.000        99.93
SET     540.000        99.93
SET     550.000        99.94
SET     560.000        99.94
SET     570.000        99.95
SET     580.000        99.95
SET     590.000        99.95
SET     600.000        99.96
SET     610.000        99.96
SET     620.000        99.96
SET     630.000        99.96
SET     640.000        99.96
SET     650.000        99.97
SET     660.000        99.97
SET     670.000        99.97
SET     680.000        99.97
SET     690.000        99.97
SET     700.000        99.98
SET     710.000        99.98
SET     720.000        99.98
SET     740.000        99.98
SET     750.000        99.98
SET     760.000        99.98
SET     770.000        99.98
SET     780.000        99.98
SET     790.000        99.99
SET     800.000        99.99
SET     810.000        99.99
SET     820.000        99.99
SET     830.000        99.99
SET     840.000        99.99
SET     850.000        99.99
SET     870.000        99.99
SET     880.000        99.99
SET     940.000       100.00
SET     960.000       100.00
SET     970.000       100.00
SET     980.000       100.00
SET    1100.000       100.00
SET    1400.000       100.00
---
---
