1         Threads
32        Connections per thread
70        Seconds


ALL STATS
========================================================================
Type        Ops/sec     Hits/sec   Misses/sec      Latency       KB/sec 
------------------------------------------------------------------------
Sets        1665.45          ---          ---     19.20900      6721.79 
Gets           0.00         0.00         0.00      0.00000         0.00 
Waits          0.00          ---          ---      0.00000          --- 
Totals      1665.45         0.00         0.00     19.20900      6721.79 


Request Latency Distribution
Type     <= msec         Percent
------------------------------------------------------------------------
SET       6.000         0.00
SET       6.100         0.00
SET       7.000         0.00
SET       7.300         0.00
SET       7.500         0.00
SET       7.800         0.01
SET       8.400         0.01
SET       8.700         0.01
SET       8.800         0.01
SET       9.000         0.01
SET       9.100         0.01
SET       9.200         0.02
SET       9.300         0.02
SET       9.400         0.02
SET       9.500         0.02
SET       9.600         0.03
SET       9.700         0.04
SET       9.800         0.04
SET       9.900         0.04
SET      10.000         0.09
SET      11.000         0.32
SET      12.000         1.50
SET      13.000         5.61
SET      14.000        13.50
SET      15.000        23.04
SET      16.000        31.00
SET      17.000        38.21
SET      18.000        46.95
SET      19.000        57.65
SET      20.000        67.20
SET      21.000        74.02
SET      22.000        78.99
SET      23.000        83.19
SET      24.000        88.01
SET      25.000        92.45
SET      26.000        95.41
SET      27.000        96.96
SET      28.000        97.78
SET      29.000        98.25
SET      30.000        98.52
SET      31.000        98.77
SET      32.000        98.95
SET      33.000        99.09
SET      34.000        99.26
SET      35.000        99.37
SET      36.000        99.51
SET      37.000        99.63
SET      38.000        99.68
SET      39.000        99.72
SET      40.000        99.77
SET      41.000        99.81
SET      42.000        99.85
SET      43.000        99.89
SET      44.000        99.94
SET      45.000        99.95
SET      46.000        99.96
SET      47.000        99.97
SET      48.000        99.97
SET      54.000        99.97
SET     110.000        99.98
SET     120.000        99.98
SET     130.000        99.98
SET     140.000        99.98
SET     150.000        99.98
SET     160.000        99.99
SET     170.000       100.00
---
---
