second,get,set,multiget,multigetsharded,cachemisses
1,1205,0,0,0,0
2,2591,0,0,0,0
3,4087,0,0,0,0
4,5612,0,0,0,0
5,7031,0,0,0,0
6,8560,0,0,0,0
7,10054,0,0,0,0
8,11571,0,0,0,0
9,13057,0,0,0,0
10,14557,0,0,0,0
11,16026,0,0,0,0
12,17501,0,0,0,0
13,18984,0,0,0,0
14,20493,0,0,0,0
15,22004,0,0,0,0
16,23522,0,0,0,0
17,25001,0,0,0,0
18,26511,0,0,0,0
19,28006,0,0,0,0
20,29475,0,0,0,0
21,31047,0,0,0,0
22,32520,0,0,0,0
23,34003,0,0,0,0
24,35459,0,0,0,0
25,36950,0,0,0,0
26,38451,0,0,0,0
27,39921,0,0,0,0
28,41391,0,0,0,0
29,42856,0,0,0,0
30,44320,0,0,0,0
31,45777,0,0,0,0
32,47247,0,0,0,0
33,48738,0,0,0,0
34,50193,0,0,0,0
35,51699,0,0,0,0
36,53209,0,0,0,0
37,54683,0,0,0,0
38,56225,0,0,0,0
39,57733,0,0,0,0
40,59257,0,0,0,0
41,60774,0,0,0,0
42,62245,0,0,0,0
43,63741,0,0,0,0
44,65225,0,0,0,0
45,66698,0,0,0,0
46,68188,0,0,0,0
47,69675,0,0,0,0
48,71142,0,0,0,0
49,72601,0,0,0,0
50,74049,0,0,0,0
51,75506,0,0,0,0
52,76996,0,0,0,0
53,78465,0,0,0,0
54,79896,0,0,0,0
55,81342,0,0,0,0
56,82779,0,0,0,0
57,84223,0,0,0,0
58,85702,0,0,0,0
59,87211,0,0,0,0
60,88704,0,0,0,0
61,90193,0,0,0,0
62,91669,0,0,0,0
63,93179,0,0,0,0
64,94667,0,0,0,0
65,96202,0,0,0,0
66,97691,0,0,0,0
67,99221,0,0,0,0
68,100756,0,0,0,0
69,102284,0,0,0,0
70,103840,0,0,0,0
71,103938,0,0,0,0
72,103938,0,0,0,0
73,103938,0,0,0,0
74,103938,0,0,0,0
75,103938,0,0,0,0
76,103938,0,0,0,0
77,103938,0,0,0,0
78,103938,0,0,0,0
79,103938,0,0,0,0
80,103938,0,0,0,0
81,103938,0,0,0,0
82,103938,0,0,0,0
83,103938,0,0,0,0
84,103938,0,0,0,0
84,103938,0,0,0,0
