1         Threads
2         Connections per thread
70        Seconds


ALL STATS
========================================================================
Type        Ops/sec     Hits/sec   Misses/sec      Latency       KB/sec 
------------------------------------------------------------------------
Sets         439.78          ---          ---      2.46900      1774.97 
Gets         439.77       439.77         0.00      2.06300      1781.31 
Waits          0.00          ---          ---      0.00000          --- 
Totals       879.55       439.77         0.00      2.26600      3556.28 


Request Latency Distribution
Type     <= msec         Percent
------------------------------------------------------------------------
SET       1.100         0.03
SET       1.200         0.24
SET       1.300         1.32
SET       1.400         4.15
SET       1.500         9.27
SET       1.600        16.30
SET       1.700        24.48
SET       1.800        32.78
SET       1.900        40.99
SET       2.000        48.18
SET       2.100        54.55
SET       2.200        60.14
SET       2.300        64.98
SET       2.400        68.95
SET       2.500        72.37
SET       2.600        75.24
SET       2.700        77.70
SET       2.800        79.71
SET       2.900        81.58
SET       3.000        83.16
SET       3.100        84.51
SET       3.200        85.68
SET       3.300        86.75
SET       3.400        87.78
SET       3.500        88.62
SET       3.600        89.37
SET       3.700        90.06
SET       3.800        90.68
SET       3.900        91.26
SET       4.000        91.82
SET       4.100        92.23
SET       4.200        92.62
SET       4.300        93.00
SET       4.400        93.41
SET       4.500        93.74
SET       4.600        94.00
SET       4.700        94.25
SET       4.800        94.54
SET       4.900        94.82
SET       5.000        95.10
SET       5.100        95.32
SET       5.200        95.59
SET       5.300        95.80
SET       5.400        96.02
SET       5.500        96.17
SET       5.600        96.32
SET       5.700        96.52
SET       5.800        96.70
SET       5.900        96.86
SET       6.000        96.98
SET       6.100        97.14
SET       6.200        97.26
SET       6.300        97.39
SET       6.400        97.51
SET       6.500        97.64
SET       6.600        97.77
SET       6.700        97.89
SET       6.800        98.01
SET       6.900        98.11
SET       7.000        98.21
SET       7.100        98.30
SET       7.200        98.39
SET       7.300        98.47
SET       7.400        98.55
SET       7.500        98.59
SET       7.600        98.70
SET       7.700        98.77
SET       7.800        98.83
SET       7.900        98.87
SET       8.000        98.92
SET       8.100        98.94
SET       8.200        99.00
SET       8.300        99.09
SET       8.400        99.14
SET       8.500        99.20
SET       8.600        99.25
SET       8.700        99.30
SET       8.800        99.34
SET       8.900        99.38
SET       9.000        99.40
SET       9.100        99.44
SET       9.200        99.47
SET       9.300        99.49
SET       9.400        99.52
SET       9.500        99.56
SET       9.600        99.58
SET       9.700        99.59
SET       9.800        99.62
SET       9.900        99.65
SET      10.000        99.79
SET      11.000        99.90
SET      12.000        99.95
SET      13.000        99.98
SET      14.000        99.99
SET      16.000       100.00
SET      17.000       100.00
---
GET       1.000         0.02
GET       1.100         0.47
GET       1.200         2.68
GET       1.300         8.13
GET       1.400        16.49
GET       1.500        26.97
GET       1.600        37.42
GET       1.700        46.83
GET       1.800        55.19
GET       1.900        62.06
GET       2.000        68.08
GET       2.100        72.87
GET       2.200        76.84
GET       2.300        80.11
GET       2.400        82.75
GET       2.500        84.99
GET       2.600        86.78
GET       2.700        88.26
GET       2.800        89.49
GET       2.900        90.51
GET       3.000        91.46
GET       3.100        92.30
GET       3.200        92.98
GET       3.300        93.53
GET       3.400        94.00
GET       3.500        94.53
GET       3.600        94.91
GET       3.700        95.26
GET       3.800        95.52
GET       3.900        95.89
GET       4.000        96.13
GET       4.100        96.36
GET       4.200        96.59
GET       4.300        96.76
GET       4.400        96.91
GET       4.500        97.06
GET       4.600        97.21
GET       4.700        97.35
GET       4.800        97.49
GET       4.900        97.64
GET       5.000        97.77
GET       5.100        97.91
GET       5.200        98.02
GET       5.300        98.12
GET       5.400        98.22
GET       5.500        98.30
GET       5.600        98.40
GET       5.700        98.49
GET       5.800        98.58
GET       5.900        98.65
GET       6.000        98.72
GET       6.100        98.79
GET       6.200        98.86
GET       6.300        98.90
GET       6.400        98.96
GET       6.500        99.02
GET       6.600        99.06
GET       6.700        99.10
GET       6.800        99.16
GET       6.900        99.19
GET       7.000        99.26
GET       7.100        99.29
GET       7.200        99.31
GET       7.300        99.36
GET       7.400        99.39
GET       7.500        99.42
GET       7.600        99.45
GET       7.700        99.47
GET       7.800        99.49
GET       7.900        99.52
GET       8.000        99.54
GET       8.100        99.55
GET       8.200        99.58
GET       8.300        99.62
GET       8.400        99.63
GET       8.500        99.66
GET       8.600        99.67
GET       8.700        99.70
GET       8.800        99.72
GET       8.900        99.73
GET       9.000        99.75
GET       9.100        99.76
GET       9.200        99.78
GET       9.300        99.80
GET       9.400        99.81
GET       9.500        99.83
GET       9.600        99.83
GET       9.700        99.83
GET       9.800        99.85
GET       9.900        99.85
GET      10.000        99.90
GET      11.000        99.94
GET      12.000        99.97
GET      13.000        99.98
GET      15.000        99.99
GET      16.000        99.99
GET      17.000        99.99
GET     150.000       100.00
GET     160.000       100.00
---
