1         Threads
32        Connections per thread
70        Seconds


ALL STATS
========================================================================
Type        Ops/sec     Hits/sec   Misses/sec      Latency       KB/sec 
------------------------------------------------------------------------
Sets           0.00          ---          ---      0.00000         0.00 
Gets        1440.17      1440.17         0.00     22.20800      5833.51 
Waits          0.00          ---          ---      0.00000          --- 
Totals      1440.17      1440.17         0.00     22.20800      5833.51 


Request Latency Distribution
Type     <= msec         Percent
------------------------------------------------------------------------
---
GET       3.600         0.00
GET       3.700         0.00
GET       3.800         0.00
GET       3.900         0.00
GET       4.100         0.01
GET       4.200         0.01
GET       4.300         0.01
GET       4.400         0.02
GET       4.500         0.02
GET       4.600         0.03
GET       4.700         0.04
GET       4.800         0.06
GET       4.900         0.06
GET       5.000         0.07
GET       5.100         0.08
GET       5.200         0.09
GET       5.300         0.09
GET       5.400         0.10
GET       5.500         0.11
GET       5.600         0.12
GET       5.700         0.14
GET       5.800         0.14
GET       5.900         0.16
GET       6.000         0.17
GET       6.100         0.18
GET       6.200         0.20
GET       6.300         0.21
GET       6.400         0.23
GET       6.500         0.25
GET       6.600         0.27
GET       6.700         0.28
GET       6.800         0.30
GET       6.900         0.31
GET       7.000         0.33
GET       7.100         0.34
GET       7.200         0.36
GET       7.300         0.39
GET       7.400         0.40
GET       7.500         0.42
GET       7.600         0.44
GET       7.700         0.46
GET       7.800         0.48
GET       7.900         0.51
GET       8.000         0.54
GET       8.100         0.55
GET       8.200         0.58
GET       8.300         0.61
GET       8.400         0.63
GET       8.500         0.66
GET       8.600         0.69
GET       8.700         0.73
GET       8.800         0.76
GET       8.900         0.80
GET       9.000         0.85
GET       9.100         0.89
GET       9.200         0.93
GET       9.300         0.97
GET       9.400         1.02
GET       9.500         1.06
GET       9.600         1.10
GET       9.700         1.15
GET       9.800         1.22
GET       9.900         1.29
GET      10.000         1.60
GET      11.000         2.40
GET      12.000         3.55
GET      13.000         5.12
GET      14.000         7.66
GET      15.000        13.55
GET      16.000        30.82
GET      17.000        45.94
GET      18.000        50.43
GET      19.000        53.84
GET      20.000        58.75
GET      21.000        63.55
GET      22.000        66.05
GET      23.000        67.30
GET      24.000        68.91
GET      25.000        71.57
GET      26.000        74.83
GET      27.000        76.66
GET      28.000        78.09
GET      29.000        80.25
GET      30.000        83.64
GET      31.000        90.05
GET      32.000        92.48
GET      33.000        92.92
GET      34.000        93.19
GET      35.000        93.49
GET      36.000        93.82
GET      37.000        94.23
GET      38.000        94.42
GET      39.000        94.56
GET      40.000        94.72
GET      41.000        94.99
GET      42.000        95.32
GET      43.000        95.59
GET      44.000        95.99
GET      45.000        96.57
GET      46.000        97.33
GET      47.000        98.06
GET      48.000        98.20
GET      49.000        98.27
GET      50.000        98.32
GET      51.000        98.38
GET      52.000        98.46
GET      53.000        98.53
GET      54.000        98.57
GET      55.000        98.59
GET      56.000        98.63
GET      57.000        98.68
GET      58.000        98.76
GET      59.000        98.84
GET      60.000        98.98
GET      61.000        99.14
GET      62.000        99.32
GET      63.000        99.40
GET      64.000        99.42
GET      65.000        99.43
GET      66.000        99.44
GET      67.000        99.47
GET      68.000        99.49
GET      69.000        99.51
GET      70.000        99.52
GET      71.000        99.53
GET      72.000        99.55
GET      73.000        99.57
GET      74.000        99.61
GET      75.000        99.64
GET      76.000        99.68
GET      77.000        99.73
GET      78.000        99.79
GET      79.000        99.79
GET      80.000        99.80
GET      81.000        99.81
GET      82.000        99.81
GET      83.000        99.82
GET      84.000        99.83
GET      85.000        99.83
GET      86.000        99.83
GET      87.000        99.84
GET      88.000        99.84
GET      89.000        99.85
GET      90.000        99.86
GET      91.000        99.87
GET      92.000        99.89
GET      93.000        99.90
GET      94.000        99.91
GET      95.000        99.91
GET      96.000        99.91
GET      98.000        99.92
GET      99.000        99.92
GET     100.000        99.92
GET     110.000        99.95
GET     120.000        99.96
GET     130.000        99.96
GET     140.000        99.97
GET     150.000        99.97
GET     220.000        99.97
GET     230.000        99.99
GET     240.000       100.00
---
