2         Threads
8         Connections per thread
70        Seconds


ALL STATS
========================================================================
Type        Ops/sec     Hits/sec   Misses/sec      Latency       KB/sec 
------------------------------------------------------------------------
Sets        2766.74          ---          ---      5.77800     11166.62 
Gets           0.00         0.00         0.00      0.00000         0.00 
Waits          0.00          ---          ---      0.00000          --- 
Totals      2766.74         0.00         0.00      5.77800     11166.62 


Request Latency Distribution
Type     <= msec         Percent
------------------------------------------------------------------------
SET       1.300         0.00
SET       1.400         0.00
SET       1.500         0.01
SET       1.600         0.02
SET       1.700         0.04
SET       1.800         0.09
SET       1.900         0.20
SET       2.000         0.34
SET       2.100         0.58
SET       2.200         0.91
SET       2.300         1.47
SET       2.400         2.29
SET       2.500         3.44
SET       2.600         5.04
SET       2.700         7.15
SET       2.800         9.74
SET       2.900        12.63
SET       3.000        15.94
SET       3.100        19.54
SET       3.200        23.34
SET       3.300        27.05
SET       3.400        30.72
SET       3.500        34.26
SET       3.600        37.61
SET       3.700        40.70
SET       3.800        43.55
SET       3.900        46.02
SET       4.000        48.28
SET       4.100        50.24
SET       4.200        51.86
SET       4.300        53.33
SET       4.400        54.61
SET       4.500        55.73
SET       4.600        56.77
SET       4.700        57.60
SET       4.800        58.39
SET       4.900        59.07
SET       5.000        59.73
SET       5.100        60.33
SET       5.200        60.88
SET       5.300        61.40
SET       5.400        61.83
SET       5.500        62.24
SET       5.600        62.61
SET       5.700        62.96
SET       5.800        63.28
SET       5.900        63.57
SET       6.000        63.82
SET       6.100        64.06
SET       6.200        64.29
SET       6.300        64.51
SET       6.400        64.72
SET       6.500        64.90
SET       6.600        65.09
SET       6.700        65.28
SET       6.800        65.46
SET       6.900        65.64
SET       7.000        65.83
SET       7.100        65.98
SET       7.200        66.16
SET       7.300        66.35
SET       7.400        66.53
SET       7.500        66.74
SET       7.600        67.00
SET       7.700        67.30
SET       7.800        67.72
SET       7.900        68.23
SET       8.000        68.89
SET       8.100        69.73
SET       8.200        70.72
SET       8.300        71.93
SET       8.400        73.26
SET       8.500        74.75
SET       8.600        76.42
SET       8.700        78.09
SET       8.800        79.81
SET       8.900        81.45
SET       9.000        83.12
SET       9.100        84.71
SET       9.200        86.12
SET       9.300        87.50
SET       9.400        88.76
SET       9.500        89.83
SET       9.600        90.84
SET       9.700        91.69
SET       9.800        92.47
SET       9.900        93.16
SET      10.000        95.80
SET      11.000        97.80
SET      12.000        98.68
SET      13.000        99.13
SET      14.000        99.35
SET      15.000        99.50
SET      16.000        99.61
SET      17.000        99.67
SET      18.000        99.75
SET      19.000        99.81
SET      20.000        99.85
SET      21.000        99.86
SET      22.000        99.87
SET      23.000        99.87
SET      24.000        99.87
SET      25.000        99.88
SET      26.000        99.89
SET      27.000        99.89
SET      28.000        99.90
SET      29.000        99.90
SET      30.000        99.91
SET      31.000        99.91
SET      44.000        99.91
SET      45.000        99.92
SET      46.000        99.92
SET      51.000        99.92
SET      52.000        99.92
SET      53.000        99.93
SET      66.000        99.93
SET      70.000        99.93
SET      73.000        99.93
SET      75.000        99.93
SET      76.000        99.93
SET      77.000        99.93
SET      80.000        99.93
SET      81.000        99.93
SET      82.000        99.93
SET      85.000        99.94
SET      86.000        99.94
SET     100.000        99.95
SET     110.000        99.97
SET     120.000        99.97
SET     130.000        99.97
SET     210.000        99.98
SET     260.000        99.98
SET     350.000        99.99
SET     580.000       100.00
SET     590.000       100.00
---
---
