2         Threads
8         Connections per thread
70        Seconds


ALL STATS
========================================================================
Type        Ops/sec     Hits/sec   Misses/sec      Latency       KB/sec 
------------------------------------------------------------------------
Sets        3144.78          ---          ---      5.08300     12692.42 
Gets           0.00         0.00         0.00      0.00000         0.00 
Waits          0.00          ---          ---      0.00000          --- 
Totals      3144.78         0.00         0.00      5.08300     12692.42 


Request Latency Distribution
Type     <= msec         Percent
------------------------------------------------------------------------
SET       1.200         0.00
SET       1.300         0.01
SET       1.400         0.08
SET       1.500         0.39
SET       1.600         1.14
SET       1.700         2.47
SET       1.800         4.44
SET       1.900         6.97
SET       2.000         9.91
SET       2.100        13.29
SET       2.200        16.87
SET       2.300        20.69
SET       2.400        24.44
SET       2.500        28.10
SET       2.600        31.52
SET       2.700        34.73
SET       2.800        37.69
SET       2.900        40.25
SET       3.000        42.65
SET       3.100        44.74
SET       3.200        46.57
SET       3.300        48.22
SET       3.400        49.64
SET       3.500        50.88
SET       3.600        51.92
SET       3.700        52.82
SET       3.800        53.54
SET       3.900        54.22
SET       4.000        54.82
SET       4.100        55.30
SET       4.200        55.74
SET       4.300        56.17
SET       4.400        56.53
SET       4.500        56.85
SET       4.600        57.14
SET       4.700        57.43
SET       4.800        57.70
SET       4.900        57.96
SET       5.000        58.21
SET       5.100        58.43
SET       5.200        58.63
SET       5.300        58.84
SET       5.400        59.07
SET       5.500        59.25
SET       5.600        59.42
SET       5.700        59.63
SET       5.800        59.81
SET       5.900        60.01
SET       6.000        60.22
SET       6.100        60.43
SET       6.200        60.64
SET       6.300        60.88
SET       6.400        61.14
SET       6.500        61.45
SET       6.600        61.80
SET       6.700        62.23
SET       6.800        62.78
SET       6.900        63.49
SET       7.000        64.35
SET       7.100        65.33
SET       7.200        66.49
SET       7.300        67.69
SET       7.400        68.99
SET       7.500        70.31
SET       7.600        71.75
SET       7.700        73.29
SET       7.800        74.94
SET       7.900        76.67
SET       8.000        78.34
SET       8.100        80.08
SET       8.200        81.74
SET       8.300        83.33
SET       8.400        84.84
SET       8.500        86.26
SET       8.600        87.53
SET       8.700        88.69
SET       8.800        89.71
SET       8.900        90.62
SET       9.000        91.49
SET       9.100        92.24
SET       9.200        92.87
SET       9.300        93.44
SET       9.400        93.95
SET       9.500        94.39
SET       9.600        94.79
SET       9.700        95.15
SET       9.800        95.46
SET       9.900        95.74
SET      10.000        96.91
SET      11.000        98.09
SET      12.000        98.78
SET      13.000        99.21
SET      14.000        99.45
SET      15.000        99.59
SET      16.000        99.68
SET      17.000        99.78
SET      18.000        99.85
SET      19.000        99.87
SET      20.000        99.89
SET      21.000        99.90
SET      22.000        99.91
SET      23.000        99.92
SET      24.000        99.93
SET      25.000        99.93
SET      26.000        99.94
SET      27.000        99.95
SET      28.000        99.95
SET      29.000        99.96
SET      30.000        99.96
SET      31.000        99.96
SET      32.000        99.96
SET      33.000        99.96
SET      38.000        99.96
SET      39.000        99.96
SET      40.000        99.97
SET      41.000        99.97
SET      42.000        99.97
SET      43.000        99.97
SET      44.000        99.97
SET      46.000        99.97
SET      48.000        99.98
SET      49.000        99.98
SET      50.000        99.98
SET      53.000        99.98
SET      55.000        99.98
SET      56.000        99.98
SET      94.000        99.98
SET      95.000        99.99
SET     100.000        99.99
SET     110.000       100.00
---
---
