"Dstat 0.7.2 CSV output"
"Author:","Dag Wieers <dag@wieers.com>",,,,"URL:","http://dag.wieers.com/home-made/dstat/"
"Host:","Server3",,,,"User:","maki"
"Cmdline:","dstat --output server_8_multi_get_sharded_4_2_3.csv 1 70",,,,"Date:","30 Nov 2018 21:09:12 UTC"

"total cpu usage",,,,,,"dsk/total",,"net/total",,"paging",,"system",
"usr","sys","idl","wai","hiq","siq","read","writ","recv","send","in","out","int","csw"
3.272,4.270,89.652,2.515,0.0,0.291,67796.971,359255.396,0.0,0.0,0.0,0.0,19.757,1510.768
6.122,4.082,88.776,0.0,0.0,1.020,0.0,0.0,6089926.0,6004762.0,0.0,0.0,18.0,3249.0
4.124,5.155,89.691,0.0,0.0,1.031,0.0,0.0,6870726.0,6746785.0,0.0,0.0,19.0,3515.0
1.053,8.421,90.526,0.0,0.0,0.0,0.0,0.0,7751958.0,7641679.0,0.0,0.0,18.0,3731.0
4.301,5.376,89.247,0.0,0.0,1.075,0.0,8192.0,9316705.0,9160108.0,0.0,0.0,18.0,4324.0
5.208,6.250,87.500,0.0,0.0,1.042,0.0,0.0,10847387.0,10665133.0,0.0,0.0,18.0,4785.0
3.158,8.421,88.421,0.0,0.0,0.0,0.0,0.0,10811420.0,10665260.0,0.0,0.0,18.0,4540.0
2.105,8.421,88.421,0.0,0.0,1.053,0.0,0.0,10957575.0,10758693.0,0.0,0.0,19.0,4642.0
4.444,5.556,87.778,2.222,0.0,0.0,0.0,36864.0,11004435.0,10827956.0,0.0,0.0,18.0,4692.0
4.396,8.791,86.813,0.0,0.0,0.0,0.0,0.0,9992056.0,9815907.0,0.0,0.0,18.0,4258.0
6.316,7.368,86.316,0.0,0.0,0.0,0.0,0.0,11027548.0,10885452.0,0.0,0.0,18.0,4584.0
4.494,4.494,91.011,0.0,0.0,0.0,0.0,0.0,11460053.0,11267546.0,0.0,0.0,18.0,4841.0
4.167,6.250,89.583,0.0,0.0,0.0,0.0,0.0,10144580.0,9974988.0,0.0,0.0,19.0,4258.0
4.255,7.447,88.298,0.0,0.0,0.0,0.0,0.0,11772410.0,11590339.0,0.0,0.0,18.0,4929.0
4.348,8.696,85.870,0.0,0.0,1.087,0.0,0.0,11447300.0,11275923.0,0.0,0.0,18.0,4778.0
3.158,8.421,88.421,0.0,0.0,0.0,0.0,0.0,11745152.0,11550883.0,0.0,0.0,18.0,4811.0
2.273,3.409,93.182,0.0,0.0,1.136,0.0,0.0,11702100.0,11507080.0,0.0,0.0,19.0,5092.0
3.297,6.593,90.110,0.0,0.0,0.0,0.0,0.0,10991004.0,10822637.0,0.0,0.0,18.0,4395.0
6.452,7.527,86.022,0.0,0.0,0.0,0.0,0.0,10812510.0,10642412.0,0.0,0.0,18.0,4373.0
2.247,10.112,85.393,0.0,0.0,2.247,0.0,0.0,10915996.0,10729464.0,0.0,0.0,18.0,4394.0
3.261,8.696,88.043,0.0,0.0,0.0,0.0,0.0,11446852.0,11258454.0,0.0,0.0,18.0,4547.0
3.125,9.375,87.500,0.0,0.0,0.0,0.0,0.0,10918174.0,10758380.0,0.0,0.0,19.0,4626.0
2.151,8.602,89.247,0.0,0.0,0.0,0.0,0.0,11549423.0,11387583.0,0.0,0.0,18.0,4828.0
5.263,8.421,86.316,0.0,0.0,0.0,0.0,0.0,12005411.0,11782824.0,0.0,0.0,18.0,5096.0
1.075,9.677,88.172,0.0,0.0,1.075,0.0,12288.0,11266909.0,11101768.0,0.0,0.0,18.0,4785.0
6.250,7.292,86.458,0.0,0.0,0.0,0.0,0.0,11580044.0,11392412.0,0.0,0.0,18.0,4830.0
2.198,6.593,90.110,0.0,0.0,1.099,0.0,0.0,11706736.0,11531096.0,0.0,0.0,19.0,4967.0
1.099,4.396,94.505,0.0,0.0,0.0,0.0,0.0,9626345.0,9477197.0,0.0,0.0,18.0,3973.0
3.226,5.376,90.323,0.0,0.0,1.075,0.0,0.0,11879413.0,11683586.0,0.0,0.0,18.0,5032.0
6.383,7.447,85.106,0.0,0.0,1.064,0.0,0.0,11514369.0,11333415.0,0.0,0.0,18.0,4964.0
4.211,8.421,87.368,0.0,0.0,0.0,0.0,0.0,11780895.0,11581820.0,0.0,0.0,18.0,4827.0
2.128,7.447,90.426,0.0,0.0,0.0,0.0,0.0,11231340.0,11061530.0,0.0,0.0,19.0,4635.0
3.261,8.696,88.043,0.0,0.0,0.0,0.0,0.0,11035483.0,10866831.0,0.0,0.0,18.0,4517.0
5.319,4.255,89.362,0.0,0.0,1.064,0.0,0.0,11700374.0,11484698.0,0.0,0.0,18.0,4880.0
2.174,8.696,89.130,0.0,0.0,0.0,0.0,0.0,11669627.0,11498298.0,0.0,0.0,18.0,4617.0
3.226,8.602,87.097,0.0,0.0,1.075,0.0,8192.0,12042160.0,11861354.0,0.0,0.0,18.0,5061.0
3.158,7.368,89.474,0.0,0.0,0.0,0.0,0.0,10448152.0,10269968.0,0.0,0.0,19.0,4443.0
2.174,6.522,91.304,0.0,0.0,0.0,0.0,0.0,10788934.0,10639174.0,0.0,0.0,18.0,4631.0
3.158,9.474,87.368,0.0,0.0,0.0,0.0,0.0,11281303.0,11087478.0,0.0,0.0,18.0,4642.0
3.261,5.435,88.043,2.174,0.0,1.087,0.0,49152.0,10381306.0,10208736.0,0.0,0.0,18.0,4248.0
1.075,3.226,94.624,0.0,0.0,1.075,0.0,40960.0,7835998.0,7721009.0,0.0,0.0,18.0,3498.0
4.040,6.061,88.889,0.0,0.0,1.010,0.0,0.0,6214368.0,6127687.0,0.0,0.0,19.0,3190.0
1.099,4.396,93.407,0.0,0.0,1.099,0.0,0.0,9816213.0,9662331.0,0.0,0.0,18.0,4039.0
4.211,6.316,89.474,0.0,0.0,0.0,0.0,0.0,11222291.0,11031595.0,0.0,0.0,18.0,4613.0
2.151,9.677,86.022,0.0,0.0,2.151,0.0,0.0,10619231.0,10452605.0,0.0,0.0,18.0,4445.0
5.208,7.292,87.500,0.0,0.0,0.0,0.0,0.0,11428022.0,11243189.0,0.0,0.0,18.0,5003.0
1.064,8.511,89.362,0.0,0.0,1.064,0.0,0.0,10488062.0,10300470.0,0.0,0.0,19.0,4540.0
3.191,5.319,90.426,0.0,0.0,1.064,0.0,0.0,8612434.0,8491420.0,0.0,0.0,18.0,3827.0
2.198,2.198,95.604,0.0,0.0,0.0,0.0,0.0,8231374.0,8092488.0,0.0,0.0,18.0,3869.0
5.208,10.417,84.375,0.0,0.0,0.0,0.0,0.0,10861758.0,10704040.0,0.0,0.0,18.0,4648.0
1.136,3.409,94.318,0.0,0.0,1.136,0.0,0.0,11384785.0,11214265.0,0.0,0.0,18.0,4733.0
2.083,9.375,87.500,0.0,0.0,1.042,0.0,0.0,10528622.0,10349303.0,0.0,0.0,18.0,4535.0
3.261,5.435,91.304,0.0,0.0,0.0,0.0,0.0,11052137.0,10873105.0,0.0,0.0,19.0,4992.0
3.226,7.527,88.172,0.0,0.0,1.075,0.0,0.0,12166874.0,11967286.0,0.0,0.0,18.0,5213.0
4.255,8.511,87.234,0.0,0.0,0.0,0.0,0.0,10686376.0,10541977.0,0.0,0.0,18.0,4637.0
3.158,8.421,88.421,0.0,0.0,0.0,0.0,0.0,11226430.0,11040200.0,0.0,0.0,19.0,4614.0
6.250,8.333,84.375,0.0,0.0,1.042,0.0,0.0,11231647.0,11025553.0,0.0,0.0,18.0,4726.0
0.0,5.747,94.253,0.0,0.0,0.0,0.0,0.0,11187047.0,11043807.0,0.0,0.0,18.0,4768.0
4.167,7.292,88.542,0.0,0.0,0.0,0.0,0.0,10667488.0,10494690.0,0.0,0.0,18.0,4442.0
3.297,7.692,89.011,0.0,0.0,0.0,0.0,0.0,10355017.0,10167610.0,0.0,0.0,18.0,4485.0
3.125,9.375,87.500,0.0,0.0,0.0,0.0,0.0,11419448.0,11246691.0,0.0,0.0,18.0,4661.0
4.040,11.111,84.848,0.0,0.0,0.0,0.0,0.0,11087945.0,10916686.0,0.0,0.0,19.0,4595.0
4.167,5.208,89.583,0.0,0.0,1.042,0.0,0.0,8825195.0,8683187.0,0.0,0.0,18.0,3755.0
4.301,3.226,92.473,0.0,0.0,0.0,0.0,0.0,9348852.0,9205631.0,0.0,0.0,18.0,4114.0
3.158,8.421,87.368,0.0,0.0,1.053,0.0,0.0,10734725.0,10556287.0,0.0,0.0,18.0,4197.0
4.301,9.677,84.946,0.0,0.0,1.075,0.0,0.0,11384471.0,11197380.0,0.0,0.0,19.0,4616.0
5.376,8.602,84.946,0.0,0.0,1.075,0.0,0.0,10715036.0,10538037.0,0.0,0.0,18.0,4575.0
3.125,7.292,88.542,0.0,0.0,1.042,0.0,0.0,10680838.0,10516435.0,0.0,0.0,18.0,4237.0
3.226,8.602,88.172,0.0,0.0,0.0,0.0,0.0,11393535.0,11210279.0,0.0,0.0,18.0,4759.0
3.191,8.511,87.234,0.0,0.0,1.064,0.0,0.0,10359108.0,10208038.0,0.0,0.0,18.0,4295.0
0.0,5.319,91.489,2.128,0.0,1.064,0.0,28672.0,8508383.0,8389589.0,0.0,0.0,19.0,3608.0
