"Dstat 0.7.2 CSV output"
"Author:","Dag Wieers <dag@wieers.com>",,,,"URL:","http://dag.wieers.com/home-made/dstat/"
"Host:","Server3",,,,"User:","maki"
"Cmdline:","dstat --output server_8_multi_get_4_2_6.csv 1 70",,,,"Date:","30 Nov 2018 21:44:34 UTC"

"total cpu usage",,,,,,"dsk/total",,"net/total",,"paging",,"system",
"usr","sys","idl","wai","hiq","siq","read","writ","recv","send","in","out","int","csw"
2.638,3.680,92.025,1.348,0.0,0.309,35087.816,187021.071,0.0,0.0,0.0,0.0,19.011,1639.904
2.105,4.211,92.632,0.0,0.0,1.053,0.0,0.0,5867208.0,11345840.0,0.0,0.0,19.0,2688.0
2.128,2.128,94.681,0.0,0.0,1.064,0.0,0.0,6524892.0,12525002.0,0.0,0.0,18.0,2746.0
2.128,7.447,87.234,0.0,0.0,3.191,0.0,0.0,6510537.0,12553827.0,0.0,0.0,18.0,2658.0
2.062,5.155,91.753,0.0,0.0,1.031,0.0,0.0,6474952.0,12487747.0,0.0,0.0,18.0,2734.0
2.083,4.167,93.750,0.0,0.0,0.0,0.0,0.0,6488254.0,12500668.0,0.0,0.0,18.0,2697.0
2.151,3.226,94.624,0.0,0.0,0.0,0.0,0.0,6523864.0,12520267.0,0.0,0.0,19.0,2690.0
1.075,3.226,95.699,0.0,0.0,0.0,0.0,0.0,6501607.0,12501769.0,0.0,0.0,18.0,2577.0
2.083,2.083,93.750,0.0,0.0,2.083,0.0,0.0,6473987.0,12459850.0,0.0,0.0,18.0,2569.0
3.061,6.122,90.816,0.0,0.0,0.0,0.0,0.0,6494331.0,12527772.0,0.0,0.0,18.0,2587.0
1.064,3.191,94.681,0.0,0.0,1.064,0.0,0.0,6516202.0,12511991.0,0.0,0.0,18.0,2672.0
1.053,5.263,92.632,0.0,0.0,1.053,0.0,0.0,6491841.0,12498075.0,0.0,0.0,19.0,2619.0
2.083,5.208,91.667,0.0,0.0,1.042,0.0,0.0,6482757.0,12501528.0,0.0,0.0,18.0,2617.0
1.020,6.122,91.837,0.0,0.0,1.020,0.0,0.0,6483923.0,12498381.0,0.0,0.0,18.0,2516.0
3.061,4.082,92.857,0.0,0.0,0.0,0.0,0.0,6485573.0,12498269.0,0.0,0.0,18.0,2602.0
3.191,4.255,91.489,0.0,0.0,1.064,0.0,0.0,6478069.0,12419584.0,0.0,0.0,18.0,2625.0
5.155,5.155,88.660,0.0,0.0,1.031,0.0,0.0,6505243.0,12579806.0,0.0,0.0,19.0,2653.0
2.083,5.208,91.667,0.0,0.0,1.042,0.0,0.0,6503472.0,12486034.0,0.0,0.0,18.0,2577.0
3.226,3.226,92.473,0.0,0.0,1.075,0.0,0.0,6493820.0,12513664.0,0.0,0.0,18.0,2602.0
1.053,4.211,93.684,0.0,0.0,1.053,0.0,0.0,6481414.0,12504473.0,0.0,0.0,18.0,2715.0
2.062,5.155,92.784,0.0,0.0,0.0,0.0,0.0,6509581.0,12484917.0,0.0,0.0,18.0,2550.0
3.093,5.155,90.722,0.0,0.0,1.031,0.0,0.0,6490298.0,12481012.0,0.0,0.0,19.0,2593.0
5.263,2.105,91.579,0.0,0.0,1.053,0.0,0.0,6467317.0,12481309.0,0.0,0.0,18.0,2435.0
2.105,4.211,92.632,0.0,0.0,1.053,0.0,16384.0,6499309.0,12529797.0,0.0,0.0,18.0,2641.0
5.155,3.093,89.691,0.0,0.0,2.062,0.0,0.0,6606244.0,12693763.0,0.0,0.0,18.0,2767.0
4.167,3.125,92.708,0.0,0.0,0.0,0.0,0.0,6501658.0,12518967.0,0.0,0.0,19.0,2561.0
2.128,4.255,93.617,0.0,0.0,0.0,0.0,0.0,6482837.0,12500623.0,0.0,0.0,18.0,2671.0
1.042,6.250,92.708,0.0,0.0,0.0,0.0,0.0,6495163.0,12469667.0,0.0,0.0,18.0,2501.0
3.093,4.124,89.691,3.093,0.0,0.0,0.0,61440.0,6496407.0,12533772.0,0.0,0.0,18.0,2601.0
0.0,7.143,91.837,0.0,0.0,1.020,0.0,0.0,6563278.0,12679431.0,0.0,0.0,18.0,2748.0
2.105,4.211,93.684,0.0,0.0,0.0,0.0,0.0,6484380.0,12533510.0,0.0,0.0,19.0,2585.0
1.053,5.263,92.632,0.0,0.0,1.053,0.0,0.0,6540660.0,12568337.0,0.0,0.0,18.0,2619.0
2.105,4.211,93.684,0.0,0.0,0.0,0.0,0.0,6499533.0,12495852.0,0.0,0.0,18.0,2538.0
4.082,4.082,89.796,0.0,0.0,2.041,0.0,8192.0,6488101.0,12497634.0,0.0,0.0,18.0,2589.0
2.083,4.167,93.750,0.0,0.0,0.0,0.0,0.0,6539261.0,12595548.0,0.0,0.0,18.0,2770.0
2.062,4.124,92.784,0.0,0.0,1.031,0.0,0.0,6488395.0,12470371.0,0.0,0.0,18.0,2558.0
3.226,3.226,93.548,0.0,0.0,0.0,0.0,0.0,6496235.0,12494336.0,0.0,0.0,19.0,2710.0
2.062,4.124,92.784,0.0,0.0,1.031,0.0,0.0,6496831.0,12520680.0,0.0,0.0,18.0,2617.0
3.030,4.040,90.909,0.0,0.0,2.020,0.0,0.0,6478546.0,12494055.0,0.0,0.0,18.0,2732.0
2.105,4.211,92.632,0.0,0.0,1.053,0.0,0.0,6468932.0,12472547.0,0.0,0.0,18.0,2634.0
2.041,6.122,91.837,0.0,0.0,0.0,0.0,0.0,6487136.0,12476025.0,0.0,0.0,18.0,2709.0
2.083,5.208,90.625,0.0,0.0,2.083,0.0,0.0,6509385.0,12513529.0,0.0,0.0,19.0,2703.0
4.124,4.124,91.753,0.0,0.0,0.0,0.0,0.0,6439918.0,12417686.0,0.0,0.0,18.0,2601.0
0.0,5.155,93.814,0.0,0.0,1.031,0.0,0.0,6505241.0,12547795.0,0.0,0.0,18.0,2685.0
1.053,4.211,94.737,0.0,0.0,0.0,0.0,0.0,6548274.0,12568603.0,0.0,0.0,18.0,2738.0
3.191,2.128,93.617,0.0,0.0,1.064,0.0,0.0,6501485.0,12513759.0,0.0,0.0,19.0,2682.0
2.105,4.211,92.632,0.0,0.0,1.053,0.0,0.0,6510936.0,12528955.0,0.0,0.0,18.0,2553.0
1.053,4.211,94.737,0.0,0.0,0.0,0.0,0.0,6473976.0,12439771.0,0.0,0.0,18.0,2597.0
3.125,3.125,92.708,0.0,0.0,1.042,0.0,0.0,6487166.0,12511090.0,0.0,0.0,18.0,2621.0
2.128,2.128,94.681,0.0,0.0,1.064,0.0,0.0,6527592.0,12510675.0,0.0,0.0,18.0,2603.0
2.041,6.122,91.837,0.0,0.0,0.0,0.0,0.0,6489733.0,12538012.0,0.0,0.0,19.0,2543.0
5.263,5.263,89.474,0.0,0.0,0.0,0.0,0.0,6508079.0,12461055.0,0.0,0.0,18.0,2560.0
4.211,2.105,92.632,0.0,0.0,1.053,0.0,0.0,6469177.0,12520190.0,0.0,0.0,18.0,2633.0
3.093,4.124,91.753,0.0,0.0,1.031,0.0,0.0,6488421.0,12496165.0,0.0,0.0,18.0,2642.0
0.0,4.255,95.745,0.0,0.0,0.0,0.0,4096.0,6481378.0,12487120.0,0.0,0.0,18.0,2678.0
3.093,5.155,91.753,0.0,0.0,0.0,0.0,0.0,6504596.0,12532577.0,0.0,0.0,19.0,2537.0
1.053,6.316,91.579,0.0,0.0,1.053,0.0,0.0,6490820.0,12506260.0,0.0,0.0,18.0,2589.0
2.105,2.105,94.737,0.0,0.0,1.053,0.0,0.0,6524344.0,12497388.0,0.0,0.0,18.0,2651.0
2.105,4.211,92.632,0.0,0.0,1.053,0.0,0.0,6477806.0,12490313.0,0.0,0.0,18.0,2524.0
4.167,2.083,90.625,3.125,0.0,0.0,0.0,86016.0,6568465.0,12655626.0,0.0,0.0,18.0,2610.0
3.061,5.102,91.837,0.0,0.0,0.0,0.0,0.0,6479581.0,12483954.0,0.0,0.0,19.0,2640.0
3.061,8.163,88.776,0.0,0.0,0.0,0.0,0.0,6502728.0,12535629.0,0.0,0.0,18.0,2718.0
3.883,6.796,87.379,0.0,0.0,1.942,0.0,0.0,6476392.0,12499806.0,0.0,0.0,18.0,2663.0
2.198,3.297,93.407,0.0,0.0,1.099,0.0,0.0,6524684.0,12532527.0,0.0,0.0,18.0,2703.0
2.062,6.186,89.691,0.0,0.0,2.062,0.0,8192.0,6518685.0,12609123.0,0.0,0.0,18.0,2723.0
4.082,4.082,91.837,0.0,0.0,0.0,0.0,0.0,6481940.0,12462241.0,0.0,0.0,19.0,2700.0
2.105,5.263,92.632,0.0,0.0,0.0,0.0,0.0,6468303.0,12474750.0,0.0,0.0,18.0,2804.0
4.082,4.082,89.796,0.0,0.0,2.041,0.0,0.0,6501983.0,12509067.0,0.0,0.0,18.0,2642.0
1.087,1.087,97.826,0.0,0.0,0.0,0.0,0.0,6482453.0,12501813.0,0.0,0.0,18.0,2546.0
1.053,3.158,94.737,0.0,0.0,1.053,0.0,0.0,6499227.0,12509551.0,0.0,0.0,19.0,2640.0
2.041,5.102,91.837,0.0,0.0,1.020,0.0,0.0,5497134.0,10595026.0,0.0,0.0,18.0,2306.0
