"Dstat 0.7.2 CSV output"
"Author:","Dag Wieers <dag@wieers.com>",,,,"URL:","http://dag.wieers.com/home-made/dstat/"
"Host:","Server3",,,,"User:","maki"
"Cmdline:","dstat --output server_8_multi_get_sharded_4_2_9.csv 1 70",,,,"Date:","30 Nov 2018 21:13:34 UTC"

"total cpu usage",,,,,,"dsk/total",,"net/total",,"paging",,"system",
"usr","sys","idl","wai","hiq","siq","read","writ","recv","send","in","out","int","csw"
3.143,4.163,90.147,2.261,0.0,0.286,60794.528,322370.639,0.0,0.0,0.0,0.0,19.598,1557.190
2.020,4.040,93.939,0.0,0.0,0.0,0.0,0.0,3685775.0,10451331.0,0.0,0.0,19.0,1967.0
2.105,2.105,95.789,0.0,0.0,0.0,0.0,0.0,4453797.0,12498414.0,0.0,0.0,18.0,2262.0
3.093,4.124,91.753,0.0,0.0,1.031,0.0,0.0,4453391.0,12478381.0,0.0,0.0,18.0,2071.0
1.042,2.083,96.875,0.0,0.0,0.0,0.0,0.0,4463846.0,12582353.0,0.0,0.0,18.0,2077.0
0.0,4.124,94.845,0.0,0.0,1.031,0.0,4096.0,4468723.0,12503146.0,0.0,0.0,19.0,2020.0
2.083,3.125,94.792,0.0,0.0,0.0,0.0,0.0,4453769.0,12502149.0,0.0,0.0,18.0,1938.0
2.083,2.083,95.833,0.0,0.0,0.0,0.0,0.0,4452013.0,12499499.0,0.0,0.0,18.0,2134.0
2.020,6.061,91.919,0.0,0.0,0.0,0.0,0.0,4449189.0,12499105.0,0.0,0.0,18.0,2064.0
1.042,5.208,93.750,0.0,0.0,0.0,0.0,0.0,4452018.0,12499902.0,0.0,0.0,18.0,2166.0
2.0,6.0,90.0,2.0,0.0,0.0,0.0,49152.0,4445763.0,12501216.0,0.0,0.0,19.0,2034.0
1.020,4.082,93.878,0.0,0.0,1.020,0.0,0.0,4437263.0,12495776.0,0.0,0.0,18.0,1962.0
3.030,5.051,91.919,0.0,0.0,0.0,0.0,0.0,4467658.0,12503616.0,0.0,0.0,18.0,2004.0
2.128,2.128,95.745,0.0,0.0,0.0,0.0,0.0,4454926.0,12498903.0,0.0,0.0,18.0,2081.0
1.042,3.125,95.833,0.0,0.0,0.0,0.0,0.0,4451104.0,12498402.0,0.0,0.0,18.0,2124.0
2.062,3.093,93.814,0.0,0.0,1.031,0.0,0.0,4451034.0,12503924.0,0.0,0.0,18.0,2024.0
2.041,3.061,94.898,0.0,0.0,0.0,0.0,0.0,4451464.0,12497744.0,0.0,0.0,19.0,1994.0
0.0,2.128,97.872,0.0,0.0,0.0,0.0,0.0,4429883.0,12497857.0,0.0,0.0,18.0,1893.0
3.093,6.186,90.722,0.0,0.0,0.0,0.0,0.0,4474745.0,12504302.0,0.0,0.0,18.0,2018.0
1.053,2.105,96.842,0.0,0.0,0.0,0.0,0.0,4437736.0,12498980.0,0.0,0.0,18.0,2004.0
3.061,4.082,92.857,0.0,0.0,0.0,0.0,8192.0,4460842.0,12499112.0,0.0,0.0,19.0,1956.0
3.158,2.105,93.684,0.0,0.0,1.053,0.0,0.0,4455899.0,12495222.0,0.0,0.0,18.0,2056.0
1.031,5.155,93.814,0.0,0.0,0.0,0.0,0.0,4450855.0,12505805.0,0.0,0.0,18.0,1877.0
2.083,3.125,94.792,0.0,0.0,0.0,0.0,0.0,4449572.0,12500042.0,0.0,0.0,18.0,1980.0
2.062,2.062,93.814,0.0,0.0,2.062,0.0,0.0,4452817.0,12499798.0,0.0,0.0,19.0,1938.0
2.083,2.083,95.833,0.0,0.0,0.0,0.0,0.0,4450628.0,12496054.0,0.0,0.0,18.0,1920.0
1.020,5.102,93.878,0.0,0.0,0.0,0.0,0.0,4446362.0,12498043.0,0.0,0.0,18.0,1949.0
2.062,3.093,94.845,0.0,0.0,0.0,0.0,0.0,4460040.0,12504384.0,0.0,0.0,18.0,2026.0
1.053,3.158,94.737,0.0,0.0,1.053,0.0,0.0,4449811.0,12495830.0,0.0,0.0,18.0,2010.0
1.053,2.105,96.842,0.0,0.0,0.0,0.0,0.0,4447202.0,12506396.0,0.0,0.0,18.0,1942.0
2.083,3.125,94.792,0.0,0.0,0.0,0.0,4096.0,4457673.0,12499931.0,0.0,0.0,19.0,2091.0
1.064,1.064,97.872,0.0,0.0,0.0,0.0,0.0,4445529.0,12499885.0,0.0,0.0,18.0,1991.0
2.062,2.062,94.845,0.0,0.0,1.031,0.0,0.0,4448830.0,12499768.0,0.0,0.0,18.0,1940.0
1.042,5.208,93.750,0.0,0.0,0.0,0.0,0.0,4456201.0,12499086.0,0.0,0.0,18.0,2092.0
2.105,2.105,95.789,0.0,0.0,0.0,0.0,0.0,4460401.0,12500931.0,0.0,0.0,19.0,1921.0
1.064,0.0,97.872,0.0,0.0,1.064,0.0,4096.0,4461121.0,12499125.0,0.0,0.0,18.0,2054.0
1.020,5.102,93.878,0.0,0.0,0.0,0.0,0.0,4446672.0,12500855.0,0.0,0.0,18.0,1870.0
3.061,2.041,93.878,0.0,0.0,1.020,0.0,0.0,4447539.0,12499964.0,0.0,0.0,18.0,1993.0
3.061,5.102,91.837,0.0,0.0,0.0,0.0,0.0,4447623.0,12495847.0,0.0,0.0,18.0,1891.0
1.053,3.158,94.737,0.0,0.0,1.053,0.0,0.0,4447428.0,12504298.0,0.0,0.0,18.0,1996.0
1.053,4.211,93.684,0.0,0.0,1.053,0.0,0.0,4454510.0,12499871.0,0.0,0.0,19.0,1920.0
1.031,3.093,81.443,14.433,0.0,0.0,0.0,53248.0,4457397.0,12498240.0,0.0,0.0,18.0,1955.0
1.075,1.075,97.849,0.0,0.0,0.0,0.0,0.0,4450822.0,12497867.0,0.0,0.0,18.0,1965.0
0.0,5.208,93.750,0.0,0.0,1.042,0.0,0.0,4456144.0,12499111.0,0.0,0.0,18.0,1912.0
2.105,2.105,95.789,0.0,0.0,0.0,0.0,0.0,4502675.0,12698515.0,0.0,0.0,18.0,1952.0
0.0,5.102,94.898,0.0,0.0,0.0,0.0,0.0,4461630.0,12501226.0,0.0,0.0,19.0,1973.0
1.031,4.124,93.814,0.0,0.0,1.031,0.0,0.0,4442782.0,12500004.0,0.0,0.0,18.0,1854.0
2.062,2.062,94.845,0.0,0.0,1.031,0.0,0.0,4459061.0,12499396.0,0.0,0.0,18.0,1965.0
1.031,5.155,93.814,0.0,0.0,0.0,0.0,0.0,4441499.0,12496600.0,0.0,0.0,19.0,1950.0
1.031,5.155,92.784,0.0,0.0,1.031,0.0,0.0,4459723.0,12502318.0,0.0,0.0,18.0,2113.0
1.020,4.082,93.878,0.0,0.0,1.020,0.0,0.0,4452838.0,12501360.0,0.0,0.0,18.0,2036.0
2.083,2.083,95.833,0.0,0.0,0.0,0.0,0.0,4447044.0,12498252.0,0.0,0.0,18.0,2061.0
2.083,3.125,94.792,0.0,0.0,0.0,0.0,0.0,4460332.0,12497595.0,0.0,0.0,18.0,2018.0
1.031,5.155,93.814,0.0,0.0,0.0,0.0,0.0,4437971.0,12503903.0,0.0,0.0,19.0,1958.0
1.020,5.102,93.878,0.0,0.0,0.0,0.0,0.0,4513683.0,12689726.0,0.0,0.0,18.0,2063.0
2.041,4.082,92.857,0.0,0.0,1.020,0.0,0.0,4468275.0,12506872.0,0.0,0.0,18.0,1915.0
0.0,2.105,97.895,0.0,0.0,0.0,0.0,12288.0,4446922.0,12499210.0,0.0,0.0,18.0,1995.0
1.042,3.125,95.833,0.0,0.0,0.0,0.0,0.0,4446714.0,12497847.0,0.0,0.0,18.0,1951.0
2.105,4.211,93.684,0.0,0.0,0.0,0.0,0.0,4452822.0,12501738.0,0.0,0.0,19.0,2033.0
3.093,5.155,90.722,0.0,0.0,1.031,0.0,0.0,4444491.0,12497906.0,0.0,0.0,18.0,2066.0
0.0,3.158,96.842,0.0,0.0,0.0,0.0,0.0,4523859.0,12697894.0,0.0,0.0,18.0,2012.0
2.083,3.125,93.750,0.0,0.0,1.042,0.0,0.0,4460047.0,12500343.0,0.0,0.0,18.0,1965.0
2.105,4.211,92.632,0.0,0.0,1.053,0.0,0.0,4445930.0,12498555.0,0.0,0.0,18.0,2011.0
2.062,4.124,92.784,0.0,0.0,1.031,0.0,0.0,4444601.0,12496428.0,0.0,0.0,19.0,1897.0
2.062,5.155,92.784,0.0,0.0,0.0,0.0,0.0,4460553.0,12501603.0,0.0,0.0,18.0,1999.0
0.0,1.064,97.872,0.0,0.0,1.064,0.0,0.0,4446231.0,12503311.0,0.0,0.0,18.0,2066.0
2.062,3.093,94.845,0.0,0.0,0.0,0.0,8192.0,4451481.0,12498383.0,0.0,0.0,18.0,1910.0
0.0,6.122,92.857,0.0,0.0,1.020,0.0,0.0,4443431.0,12494437.0,0.0,0.0,18.0,2018.0
2.105,3.158,94.737,0.0,0.0,0.0,0.0,0.0,4455949.0,12503273.0,0.0,0.0,19.0,2023.0
1.042,3.125,95.833,0.0,0.0,0.0,0.0,0.0,4457913.0,12503904.0,0.0,0.0,18.0,2044.0
0.0,3.158,96.842,0.0,0.0,0.0,0.0,0.0,4028117.0,11416958.0,0.0,0.0,18.0,1770.0
