"Dstat 0.7.2 CSV output"
"Author:","Dag Wieers <dag@wieers.com>",,,,"URL:","http://dag.wieers.com/home-made/dstat/"
"Host:","Server3",,,,"User:","maki"
"Cmdline:","dstat --output server_8_multi_get_1_2_9.csv 1 70",,,,"Date:","30 Nov 2018 21:22:10 UTC"

"total cpu usage",,,,,,"dsk/total",,"net/total",,"paging",,"system",
"usr","sys","idl","wai","hiq","siq","read","writ","recv","send","in","out","int","csw"
2.922,3.938,90.959,1.895,0.0,0.285,50527.651,268320.092,0.0,0.0,0.0,0.0,19.363,1575.920
1.064,1.064,97.872,0.0,0.0,0.0,0.0,0.0,4206806.0,11935647.0,0.0,0.0,18.0,1935.0
1.042,2.083,95.833,0.0,0.0,1.042,0.0,0.0,4386516.0,12504124.0,0.0,0.0,18.0,1986.0
0.0,4.211,95.789,0.0,0.0,0.0,0.0,0.0,4394762.0,12495949.0,0.0,0.0,19.0,1953.0
2.062,3.093,92.784,0.0,0.0,2.062,0.0,0.0,4392596.0,12511867.0,0.0,0.0,18.0,1882.0
2.062,5.155,91.753,0.0,0.0,1.031,0.0,0.0,4394439.0,12503549.0,0.0,0.0,18.0,2005.0
2.083,3.125,94.792,0.0,0.0,0.0,0.0,0.0,4402936.0,12501018.0,0.0,0.0,18.0,2046.0
4.255,2.128,93.617,0.0,0.0,0.0,0.0,0.0,4416852.0,12499328.0,0.0,0.0,18.0,2016.0
2.041,2.041,94.898,0.0,0.0,1.020,0.0,0.0,4375202.0,12500057.0,0.0,0.0,19.0,1824.0
2.041,6.122,90.816,0.0,0.0,1.020,0.0,0.0,4413043.0,12499811.0,0.0,0.0,18.0,1913.0
2.105,2.105,95.789,0.0,0.0,0.0,0.0,0.0,4393359.0,12501280.0,0.0,0.0,18.0,1906.0
1.031,4.124,94.845,0.0,0.0,0.0,0.0,0.0,4425616.0,12691940.0,0.0,0.0,18.0,1875.0
1.053,3.158,95.789,0.0,0.0,0.0,0.0,0.0,4402006.0,12509126.0,0.0,0.0,18.0,1888.0
1.010,4.040,90.909,2.020,0.0,2.020,0.0,36864.0,4385273.0,12493736.0,0.0,0.0,19.0,1912.0
1.042,4.167,93.750,0.0,0.0,1.042,0.0,0.0,4424240.0,12500983.0,0.0,0.0,18.0,1864.0
2.041,3.061,93.878,0.0,0.0,1.020,0.0,0.0,4385994.0,12494695.0,0.0,0.0,18.0,1947.0
1.031,3.093,94.845,0.0,0.0,1.031,0.0,0.0,4401941.0,12500946.0,0.0,0.0,18.0,1856.0
1.064,2.128,95.745,0.0,0.0,1.064,0.0,8192.0,4388288.0,12503323.0,0.0,0.0,19.0,1938.0
2.083,3.125,94.792,0.0,0.0,0.0,0.0,0.0,4406214.0,12498164.0,0.0,0.0,18.0,1952.0
2.020,4.040,91.919,0.0,0.0,2.020,0.0,0.0,4392312.0,12501574.0,0.0,0.0,18.0,1880.0
1.020,4.082,94.898,0.0,0.0,0.0,0.0,0.0,4407533.0,12499742.0,0.0,0.0,18.0,1904.0
2.105,1.053,95.789,0.0,0.0,1.053,0.0,0.0,4381668.0,12498964.0,0.0,0.0,18.0,1862.0
1.031,3.093,94.845,0.0,0.0,1.031,0.0,0.0,4412865.0,12497597.0,0.0,0.0,19.0,1918.0
2.083,1.042,96.875,0.0,0.0,0.0,0.0,0.0,4371345.0,12504816.0,0.0,0.0,18.0,1823.0
4.301,7.527,87.097,0.0,0.0,1.075,0.0,0.0,4412630.0,12499071.0,0.0,0.0,18.0,2025.0
1.020,4.082,93.878,0.0,0.0,1.020,0.0,0.0,4434009.0,12691542.0,0.0,0.0,18.0,1870.0
1.042,3.125,95.833,0.0,0.0,0.0,0.0,0.0,4399641.0,12502051.0,0.0,0.0,18.0,1976.0
3.061,5.102,91.837,0.0,0.0,0.0,0.0,0.0,4390536.0,12502367.0,0.0,0.0,18.0,1962.0
3.093,3.093,93.814,0.0,0.0,0.0,0.0,0.0,4397009.0,12489927.0,0.0,0.0,19.0,1883.0
2.083,3.125,93.750,0.0,0.0,1.042,0.0,0.0,4396474.0,12506946.0,0.0,0.0,18.0,1873.0
3.093,2.062,93.814,0.0,0.0,1.031,0.0,0.0,4392890.0,12501707.0,0.0,0.0,18.0,2042.0
1.020,4.082,93.878,0.0,0.0,1.020,0.0,0.0,4393810.0,12501084.0,0.0,0.0,18.0,1983.0
1.042,2.083,96.875,0.0,0.0,0.0,0.0,8192.0,4384902.0,12500066.0,0.0,0.0,19.0,1887.0
1.042,3.125,94.792,0.0,0.0,1.042,0.0,0.0,4411877.0,12498955.0,0.0,0.0,18.0,1977.0
2.105,3.158,94.737,0.0,0.0,0.0,0.0,0.0,4392859.0,12500306.0,0.0,0.0,18.0,1945.0
0.0,1.053,97.895,0.0,0.0,1.053,0.0,0.0,4394105.0,12500670.0,0.0,0.0,18.0,1872.0
2.020,4.040,91.919,0.0,0.0,2.020,0.0,0.0,4390766.0,12499416.0,0.0,0.0,18.0,1988.0
1.020,3.061,94.898,0.0,0.0,1.020,0.0,0.0,4399324.0,12500792.0,0.0,0.0,19.0,1838.0
3.061,3.061,93.878,0.0,0.0,0.0,0.0,0.0,4386782.0,12492233.0,0.0,0.0,18.0,1881.0
2.083,3.125,93.750,0.0,0.0,1.042,0.0,0.0,4398622.0,12506274.0,0.0,0.0,18.0,1980.0
1.042,3.125,95.833,0.0,0.0,0.0,0.0,0.0,4404359.0,12496343.0,0.0,0.0,18.0,1913.0
2.083,2.083,95.833,0.0,0.0,0.0,0.0,0.0,4385257.0,12505753.0,0.0,0.0,18.0,1873.0
3.922,3.922,90.196,0.0,0.0,1.961,0.0,0.0,4385844.0,12499558.0,0.0,0.0,19.0,1893.0
1.031,4.124,94.845,0.0,0.0,0.0,0.0,4096.0,4399687.0,12499068.0,0.0,0.0,18.0,1913.0
2.083,4.167,91.667,2.083,0.0,0.0,0.0,49152.0,4393714.0,12500062.0,0.0,0.0,18.0,1893.0
2.062,3.093,93.814,0.0,0.0,1.031,0.0,0.0,4397429.0,12495456.0,0.0,0.0,18.0,1843.0
2.041,3.061,93.878,0.0,0.0,1.020,0.0,0.0,4448559.0,12699121.0,0.0,0.0,18.0,1952.0
0.0,2.105,96.842,0.0,0.0,1.053,0.0,0.0,4394020.0,12497849.0,0.0,0.0,19.0,1920.0
3.061,3.061,92.857,0.0,0.0,1.020,0.0,16384.0,4398325.0,12501727.0,0.0,0.0,18.0,1968.0
4.124,3.093,89.691,0.0,0.0,3.093,0.0,0.0,4390062.0,12487464.0,0.0,0.0,18.0,1967.0
1.053,3.158,94.737,0.0,0.0,1.053,0.0,0.0,4405197.0,12510491.0,0.0,0.0,18.0,2018.0
2.128,2.128,95.745,0.0,0.0,0.0,0.0,0.0,4392587.0,12476032.0,0.0,0.0,18.0,1925.0
4.124,5.155,89.691,0.0,0.0,1.031,0.0,0.0,4430173.0,12528052.0,0.0,0.0,19.0,2034.0
4.211,2.105,92.632,0.0,0.0,1.053,0.0,0.0,4386630.0,12497595.0,0.0,0.0,18.0,2022.0
1.053,4.211,93.684,0.0,0.0,1.053,0.0,0.0,4396988.0,12502515.0,0.0,0.0,18.0,1914.0
1.031,3.093,95.876,0.0,0.0,0.0,0.0,0.0,4405626.0,12498852.0,0.0,0.0,18.0,1848.0
0.0,2.128,97.872,0.0,0.0,0.0,0.0,0.0,4398961.0,12499813.0,0.0,0.0,19.0,1861.0
2.083,1.042,95.833,0.0,0.0,1.042,0.0,0.0,4395919.0,12501071.0,0.0,0.0,18.0,1828.0
0.0,3.125,95.833,0.0,0.0,1.042,0.0,0.0,4378171.0,12499166.0,0.0,0.0,18.0,1920.0
1.053,3.158,94.737,0.0,0.0,1.053,0.0,0.0,4399233.0,12500173.0,0.0,0.0,18.0,1913.0
1.031,3.093,94.845,0.0,0.0,1.031,0.0,0.0,4342565.0,12479113.0,0.0,0.0,18.0,1837.0
2.062,3.093,93.814,0.0,0.0,1.031,0.0,0.0,4465002.0,12521513.0,0.0,0.0,19.0,1843.0
2.0,4.0,93.0,0.0,0.0,1.0,0.0,0.0,4366672.0,12499303.0,0.0,0.0,18.0,1829.0
2.041,4.082,93.878,0.0,0.0,0.0,0.0,8192.0,4408553.0,12498812.0,0.0,0.0,18.0,1812.0
2.083,3.125,93.750,0.0,0.0,1.042,0.0,0.0,4394535.0,12501089.0,0.0,0.0,18.0,1805.0
2.041,2.041,94.898,0.0,0.0,1.020,0.0,0.0,4397647.0,12500722.0,0.0,0.0,19.0,1856.0
1.064,2.128,96.809,0.0,0.0,0.0,0.0,0.0,4385290.0,12499694.0,0.0,0.0,19.0,1805.0
2.0,5.0,92.0,0.0,0.0,1.0,0.0,0.0,4380878.0,12500000.0,0.0,0.0,18.0,1878.0
0.0,4.082,94.898,0.0,0.0,1.020,0.0,0.0,4377490.0,12420960.0,0.0,0.0,18.0,1812.0
3.061,4.082,91.837,0.0,0.0,1.020,0.0,0.0,4409992.0,12577064.0,0.0,0.0,18.0,1843.0
2.083,2.083,95.833,0.0,0.0,0.0,0.0,0.0,3805208.0,10964286.0,0.0,0.0,18.0,1726.0
