"Dstat 0.7.2 CSV output"
"Author:","Dag Wieers <dag@wieers.com>",,,,"URL:","http://dag.wieers.com/home-made/dstat/"
"Host:","Server3",,,,"User:","maki"
"Cmdline:","dstat --output server_8_multi_get_sharded_2_2_6.csv 1 70",,,,"Date:","30 Nov 2018 20:55:01 UTC"

"total cpu usage",,,,,,"dsk/total",,"net/total",,"paging",,"system",
"usr","sys","idl","wai","hiq","siq","read","writ","recv","send","in","out","int","csw"
4.096,4.956,86.668,3.961,0.0,0.318,108329.110,572818.222,0.0,0.0,0.0,0.0,20.683,1345.564
3.158,3.158,93.684,0.0,0.0,0.0,0.0,0.0,5265614.0,10065997.0,0.0,0.0,18.0,2819.0
2.105,6.316,91.579,0.0,0.0,0.0,0.0,0.0,5637839.0,10677710.0,0.0,0.0,18.0,3093.0
2.083,6.250,90.625,0.0,0.0,1.042,0.0,0.0,6899969.0,13148564.0,0.0,0.0,19.0,3365.0
1.075,5.376,93.548,0.0,0.0,0.0,0.0,0.0,6586218.0,12528445.0,0.0,0.0,18.0,3044.0
1.075,3.226,95.699,0.0,0.0,0.0,0.0,0.0,6567439.0,12491910.0,0.0,0.0,18.0,2737.0
2.083,5.208,91.667,0.0,0.0,1.042,0.0,0.0,6588346.0,12517654.0,0.0,0.0,18.0,2529.0
1.053,7.368,91.579,0.0,0.0,0.0,0.0,0.0,6528785.0,12365587.0,0.0,0.0,18.0,2560.0
3.061,5.102,90.816,0.0,0.0,1.020,0.0,0.0,6626163.0,12622449.0,0.0,0.0,18.0,2612.0
2.128,2.128,92.553,2.128,0.0,1.064,0.0,110592.0,6576075.0,12441352.0,0.0,0.0,19.0,2600.0
2.105,4.211,93.684,0.0,0.0,0.0,0.0,0.0,6572218.0,12534381.0,0.0,0.0,18.0,2547.0
1.064,4.255,94.681,0.0,0.0,0.0,0.0,0.0,6581465.0,12494821.0,0.0,0.0,18.0,2599.0
3.158,4.211,92.632,0.0,0.0,0.0,0.0,0.0,6572634.0,12542236.0,0.0,0.0,18.0,2493.0
1.053,5.263,93.684,0.0,0.0,0.0,0.0,0.0,6580598.0,12475505.0,0.0,0.0,19.0,2671.0
3.125,4.167,91.667,0.0,0.0,1.042,0.0,0.0,6577407.0,12486375.0,0.0,0.0,18.0,2570.0
2.105,4.211,93.684,0.0,0.0,0.0,0.0,0.0,6576499.0,12517246.0,0.0,0.0,18.0,2578.0
1.053,4.211,94.737,0.0,0.0,0.0,0.0,0.0,6589079.0,12458354.0,0.0,0.0,18.0,2508.0
3.191,5.319,90.426,0.0,0.0,1.064,0.0,0.0,6595599.0,12562948.0,0.0,0.0,19.0,2852.0
1.064,3.191,95.745,0.0,0.0,0.0,0.0,0.0,6569953.0,12483746.0,0.0,0.0,18.0,2687.0
0.0,3.261,96.739,0.0,0.0,0.0,0.0,0.0,6585377.0,12477925.0,0.0,0.0,18.0,2728.0
4.167,5.208,90.625,0.0,0.0,0.0,0.0,0.0,6583362.0,12568253.0,0.0,0.0,18.0,2603.0
2.105,3.158,94.737,0.0,0.0,0.0,0.0,0.0,6574476.0,12492323.0,0.0,0.0,18.0,2570.0
2.105,5.263,91.579,0.0,0.0,1.053,0.0,0.0,6576198.0,12485093.0,0.0,0.0,19.0,2850.0
4.082,5.102,90.816,0.0,0.0,0.0,0.0,0.0,6581686.0,12453713.0,0.0,0.0,18.0,2754.0
1.053,4.211,94.737,0.0,0.0,0.0,0.0,0.0,6576956.0,12556862.0,0.0,0.0,18.0,2674.0
1.053,5.263,93.684,0.0,0.0,0.0,0.0,0.0,6576330.0,12525814.0,0.0,0.0,18.0,2695.0
2.083,5.208,92.708,0.0,0.0,0.0,0.0,0.0,6577106.0,12486542.0,0.0,0.0,18.0,2614.0
2.128,5.319,91.489,0.0,0.0,1.064,0.0,0.0,6579456.0,12492597.0,0.0,0.0,18.0,2863.0
5.319,6.383,88.298,0.0,0.0,0.0,0.0,0.0,6578216.0,12440158.0,0.0,0.0,19.0,2611.0
1.087,2.174,96.739,0.0,0.0,0.0,0.0,0.0,6577691.0,12546728.0,0.0,0.0,18.0,2624.0
1.053,4.211,94.737,0.0,0.0,0.0,0.0,0.0,6581972.0,12469724.0,0.0,0.0,18.0,2542.0
2.062,4.124,92.784,0.0,0.0,1.031,0.0,0.0,6576411.0,12517871.0,0.0,0.0,18.0,2481.0
3.297,3.297,93.407,0.0,0.0,0.0,0.0,0.0,6577582.0,12544985.0,0.0,0.0,19.0,2606.0
1.053,4.211,94.737,0.0,0.0,0.0,0.0,0.0,6580517.0,12509311.0,0.0,0.0,18.0,2569.0
1.064,2.128,95.745,0.0,0.0,1.064,0.0,16384.0,6576058.0,12452994.0,0.0,0.0,18.0,2534.0
4.082,5.102,90.816,0.0,0.0,0.0,0.0,0.0,6576887.0,12454588.0,0.0,0.0,18.0,2585.0
2.128,4.255,93.617,0.0,0.0,0.0,0.0,0.0,6578679.0,12565789.0,0.0,0.0,18.0,2613.0
3.261,3.261,93.478,0.0,0.0,0.0,0.0,0.0,6577156.0,12470449.0,0.0,0.0,19.0,2474.0
3.093,4.124,91.753,0.0,0.0,1.031,0.0,0.0,6583979.0,12476461.0,0.0,0.0,18.0,2659.0
1.064,4.255,94.681,0.0,0.0,0.0,0.0,0.0,6648420.0,12646016.0,0.0,0.0,18.0,2753.0
1.042,4.167,91.667,2.083,0.0,1.042,0.0,49152.0,6582274.0,12551017.0,0.0,0.0,18.0,2480.0
1.031,7.216,91.753,0.0,0.0,0.0,0.0,0.0,6604691.0,12531045.0,0.0,0.0,18.0,2517.0
3.061,6.122,89.796,0.0,0.0,1.020,0.0,0.0,6576112.0,12524386.0,0.0,0.0,19.0,2515.0
2.128,3.191,94.681,0.0,0.0,0.0,0.0,0.0,6586681.0,12467935.0,0.0,0.0,18.0,2652.0
2.083,4.167,92.708,0.0,0.0,1.042,0.0,0.0,6581071.0,12492361.0,0.0,0.0,18.0,2601.0
0.0,4.255,94.681,0.0,0.0,1.064,0.0,0.0,6578870.0,12472736.0,0.0,0.0,18.0,2701.0
2.041,6.122,91.837,0.0,0.0,0.0,0.0,0.0,6583132.0,12543083.0,0.0,0.0,18.0,2504.0
4.348,3.261,92.391,0.0,0.0,0.0,0.0,0.0,6577533.0,12520006.0,0.0,0.0,19.0,2628.0
2.062,6.186,91.753,0.0,0.0,0.0,0.0,0.0,6580741.0,12436044.0,0.0,0.0,18.0,2635.0
2.083,4.167,93.750,0.0,0.0,0.0,0.0,0.0,6576096.0,12565130.0,0.0,0.0,18.0,2574.0
2.083,6.250,91.667,0.0,0.0,0.0,0.0,0.0,6581675.0,12444211.0,0.0,0.0,18.0,2651.0
0.0,4.211,94.737,0.0,0.0,1.053,0.0,0.0,6573302.0,12527018.0,0.0,0.0,18.0,2818.0
1.087,4.348,94.565,0.0,0.0,0.0,0.0,0.0,6580186.0,12516510.0,0.0,0.0,19.0,2744.0
1.031,6.186,91.753,0.0,0.0,1.031,0.0,0.0,6587366.0,12505370.0,0.0,0.0,18.0,2641.0
2.020,8.081,89.899,0.0,0.0,0.0,0.0,0.0,6575902.0,12442441.0,0.0,0.0,18.0,2664.0
2.128,2.128,95.745,0.0,0.0,0.0,0.0,0.0,6581634.0,12549690.0,0.0,0.0,18.0,2578.0
5.102,4.082,89.796,0.0,0.0,1.020,0.0,0.0,6563951.0,12447956.0,0.0,0.0,19.0,2679.0
2.128,4.255,93.617,0.0,0.0,0.0,0.0,0.0,6661487.0,12650507.0,0.0,0.0,18.0,2720.0
1.064,4.255,94.681,0.0,0.0,0.0,0.0,0.0,6580855.0,12542542.0,0.0,0.0,18.0,2698.0
3.158,4.211,92.632,0.0,0.0,0.0,0.0,0.0,6590850.0,12537054.0,0.0,0.0,18.0,2759.0
1.031,6.186,92.784,0.0,0.0,0.0,0.0,0.0,6600347.0,12510236.0,0.0,0.0,18.0,2515.0
4.082,4.082,91.837,0.0,0.0,0.0,0.0,0.0,6577799.0,12478481.0,0.0,0.0,18.0,2809.0
4.301,2.151,92.473,0.0,0.0,1.075,0.0,0.0,6581766.0,12478933.0,0.0,0.0,19.0,2549.0
1.053,5.263,93.684,0.0,0.0,0.0,0.0,0.0,6576541.0,12548801.0,0.0,0.0,18.0,2766.0
1.031,7.216,91.753,0.0,0.0,0.0,0.0,0.0,6576330.0,12461004.0,0.0,0.0,18.0,2782.0
2.128,2.128,94.681,0.0,0.0,1.064,0.0,8192.0,6581011.0,12526276.0,0.0,0.0,18.0,2589.0
3.093,5.155,91.753,0.0,0.0,0.0,0.0,0.0,6576173.0,12508972.0,0.0,0.0,19.0,2530.0
3.125,4.167,91.667,0.0,0.0,1.042,0.0,0.0,6576358.0,12483622.0,0.0,0.0,18.0,2681.0
2.174,3.261,94.565,0.0,0.0,0.0,0.0,0.0,6586130.0,12537308.0,0.0,0.0,18.0,2721.0
2.105,3.158,93.684,0.0,0.0,1.053,0.0,0.0,6580555.0,12484116.0,0.0,0.0,18.0,2749.0
1.053,2.105,96.842,0.0,0.0,0.0,0.0,36864.0,5788924.0,11008320.0,0.0,0.0,18.0,2216.0
