1         Threads
1         Connections per thread
70        Seconds


ALL STATS
========================================================================
Type        Ops/sec     Hits/sec   Misses/sec      Latency       KB/sec 
------------------------------------------------------------------------
Sets        1791.05          ---          ---      0.55200      7228.72 
Gets           0.00         0.00         0.00      0.00000         0.00 
Waits          0.00          ---          ---      0.00000          --- 
Totals      1791.05         0.00         0.00      0.55200      7228.72 


Request Latency Distribution
Type     <= msec         Percent
------------------------------------------------------------------------
SET       0.180         0.00
SET       0.190         0.02
SET       0.200         0.07
SET       0.210         0.16
SET       0.220         0.36
SET       0.230         0.73
SET       0.240         1.38
SET       0.250         2.36
SET       0.260         3.75
SET       0.270         5.62
SET       0.280         7.83
SET       0.290        10.49
SET       0.300        13.41
SET       0.310        16.66
SET       0.320        19.89
SET       0.330        23.23
SET       0.340        26.62
SET       0.350        30.10
SET       0.360        33.64
SET       0.370        37.27
SET       0.380        40.58
SET       0.390        43.98
SET       0.400        47.19
SET       0.410        50.24
SET       0.420        53.14
SET       0.430        55.83
SET       0.440        58.37
SET       0.450        60.79
SET       0.460        63.09
SET       0.470        65.17
SET       0.480        67.20
SET       0.490        69.13
SET       0.500        70.85
SET       0.510        72.46
SET       0.520        73.98
SET       0.530        75.36
SET       0.540        76.69
SET       0.550        77.90
SET       0.560        79.06
SET       0.570        80.09
SET       0.580        81.12
SET       0.590        82.04
SET       0.600        82.91
SET       0.610        83.76
SET       0.620        84.55
SET       0.630        85.25
SET       0.640        85.87
SET       0.650        86.48
SET       0.660        87.07
SET       0.670        87.62
SET       0.680        88.11
SET       0.690        88.57
SET       0.700        89.02
SET       0.710        89.43
SET       0.720        89.82
SET       0.730        90.18
SET       0.740        90.52
SET       0.750        90.82
SET       0.760        91.11
SET       0.770        91.36
SET       0.780        91.62
SET       0.790        91.87
SET       0.800        92.08
SET       0.810        92.30
SET       0.820        92.47
SET       0.830        92.68
SET       0.840        92.85
SET       0.850        93.01
SET       0.860        93.18
SET       0.870        93.33
SET       0.880        93.47
SET       0.890        93.62
SET       0.900        93.74
SET       0.910        93.87
SET       0.920        93.98
SET       0.930        94.10
SET       0.940        94.22
SET       0.950        94.32
SET       0.960        94.41
SET       0.970        94.49
SET       0.980        94.59
SET       0.990        94.68
SET       1.000        95.13
SET       1.100        95.70
SET       1.200        96.11
SET       1.300        96.45
SET       1.400        96.72
SET       1.500        96.94
SET       1.600        97.11
SET       1.700        97.27
SET       1.800        97.42
SET       1.900        97.56
SET       2.000        97.68
SET       2.100        97.80
SET       2.200        97.91
SET       2.300        98.00
SET       2.400        98.06
SET       2.500        98.14
SET       2.600        98.21
SET       2.700        98.28
SET       2.800        98.36
SET       2.900        98.44
SET       3.000        98.52
SET       3.100        98.59
SET       3.200        98.67
SET       3.300        98.75
SET       3.400        98.81
SET       3.500        98.87
SET       3.600        98.92
SET       3.700        98.96
SET       3.800        99.00
SET       3.900        99.05
SET       4.000        99.10
SET       4.100        99.16
SET       4.200        99.20
SET       4.300        99.27
SET       4.400        99.33
SET       4.500        99.38
SET       4.600        99.42
SET       4.700        99.46
SET       4.800        99.49
SET       4.900        99.52
SET       5.000        99.54
SET       5.100        99.56
SET       5.200        99.57
SET       5.300        99.59
SET       5.400        99.61
SET       5.500        99.62
SET       5.600        99.64
SET       5.700        99.65
SET       5.800        99.67
SET       5.900        99.68
SET       6.000        99.70
SET       6.100        99.71
SET       6.200        99.72
SET       6.300        99.73
SET       6.400        99.75
SET       6.500        99.75
SET       6.600        99.77
SET       6.700        99.78
SET       6.800        99.79
SET       6.900        99.80
SET       7.000        99.80
SET       7.100        99.81
SET       7.200        99.82
SET       7.300        99.83
SET       7.400        99.84
SET       7.500        99.84
SET       7.600        99.84
SET       7.700        99.85
SET       7.800        99.86
SET       7.900        99.86
SET       8.000        99.87
SET       8.100        99.88
SET       8.200        99.89
SET       8.300        99.89
SET       8.400        99.90
SET       8.500        99.91
SET       8.600        99.91
SET       8.700        99.91
SET       8.800        99.92
SET       8.900        99.92
SET       9.000        99.92
SET       9.100        99.92
SET       9.200        99.93
SET       9.300        99.93
SET       9.400        99.94
SET       9.500        99.94
SET       9.600        99.94
SET       9.700        99.94
SET       9.800        99.94
SET       9.900        99.95
SET      10.000        99.96
SET      11.000        99.97
SET      12.000        99.97
SET      13.000        99.97
SET      14.000        99.98
SET      15.000        99.98
SET      16.000        99.98
SET      17.000        99.98
SET      18.000        99.99
SET      24.000        99.99
SET      25.000        99.99
SET      27.000        99.99
SET      29.000        99.99
SET      31.000        99.99
SET      33.000       100.00
SET      34.000       100.00
SET      35.000       100.00
SET      38.000       100.00
SET      40.000       100.00
SET      41.000       100.00
---
---
