1         Threads
32        Connections per thread
70        Seconds


ALL STATS
========================================================================
Type        Ops/sec     Hits/sec   Misses/sec      Latency       KB/sec 
------------------------------------------------------------------------
Sets           0.00          ---          ---      0.00000         0.00 
Gets         470.44       470.44         0.00     68.01100      1905.55 
Waits          0.00          ---          ---      0.00000          --- 
Totals       470.44       470.44         0.00     68.01100      1905.55 


Request Latency Distribution
Type     <= msec         Percent
------------------------------------------------------------------------
---
GET      30.000         0.01
GET      32.000         0.01
GET      33.000         0.02
GET      34.000         0.03
GET      35.000         0.03
GET      36.000         0.04
GET      37.000         0.05
GET      38.000         0.07
GET      39.000         0.09
GET      40.000         0.09
GET      41.000         0.10
GET      42.000         0.12
GET      43.000         0.12
GET      44.000         0.14
GET      45.000         0.16
GET      46.000         0.23
GET      47.000         0.62
GET      48.000         1.26
GET      49.000         1.54
GET      50.000         1.71
GET      51.000         1.85
GET      52.000         1.93
GET      53.000         1.97
GET      54.000         2.02
GET      55.000         2.09
GET      56.000         2.16
GET      57.000         2.31
GET      58.000         2.57
GET      59.000         3.03
GET      60.000         4.04
GET      61.000         5.68
GET      62.000        15.34
GET      63.000        43.33
GET      64.000        65.95
GET      65.000        70.49
GET      66.000        71.99
GET      67.000        72.98
GET      68.000        73.59
GET      69.000        73.99
GET      70.000        74.32
GET      71.000        74.70
GET      72.000        75.41
GET      73.000        76.22
GET      74.000        77.84
GET      75.000        84.37
GET      76.000        95.02
GET      77.000        97.69
GET      78.000        98.52
GET      79.000        98.88
GET      80.000        99.03
GET      81.000        99.11
GET      82.000        99.12
GET      83.000        99.15
GET      84.000        99.18
GET      85.000        99.19
GET      86.000        99.19
GET      87.000        99.20
GET      88.000        99.24
GET      89.000        99.24
GET      90.000        99.25
GET      91.000        99.30
GET      92.000        99.35
GET      93.000        99.36
GET     100.000        99.36
GET     110.000        99.44
GET     120.000        99.51
GET     130.000        99.54
GET     140.000        99.58
GET     150.000        99.62
GET     160.000        99.65
GET     170.000        99.65
GET     180.000        99.66
GET     200.000        99.68
GET     210.000        99.68
GET     220.000        99.71
GET     230.000        99.80
GET     240.000        99.81
GET     270.000        99.83
GET     340.000        99.83
GET     350.000        99.83
GET     360.000        99.85
GET     370.000        99.85
GET     390.000        99.86
GET     560.000        99.86
GET     580.000        99.87
GET     620.000        99.88
GET     630.000        99.89
GET     650.000        99.90
GET     840.000        99.92
GET     920.000        99.92
GET     930.000        99.93
GET    1000.000        99.95
GET    1100.000        99.95
GET    1200.000        99.97
GET    1400.000        99.99
GET    1600.000       100.00
---
