"Dstat 0.7.2 CSV output"
"Author:","Dag Wieers <dag@wieers.com>",,,,"URL:","http://dag.wieers.com/home-made/dstat/"
"Host:","Middleware2",,,,"User:","maki"
"Cmdline:","dstat --output dstat.csv 1 70",,,,"Date:","20 Nov 2018 07:52:20 UTC"

"total cpu usage",,,,,,"dsk/total",,"net/total",,"paging",,"system",
"usr","sys","idl","wai","hiq","siq","read","writ","recv","send","in","out","int","csw"
1.994,1.764,95.683,0.095,0.0,0.464,8764.853,183819.565,0.0,0.0,0.0,0.0,1827.774,5328.348
25.131,3.534,70.288,0.0,0.0,1.047,0.0,0.0,5673188.0,5484289.0,0.0,0.0,3663.0,9748.0
17.677,2.323,79.484,0.0,0.0,0.516,0.0,0.0,6797774.0,6618367.0,0.0,0.0,2564.0,8380.0
5.563,1.940,92.238,0.0,0.0,0.259,0.0,0.0,6309436.0,6118777.0,0.0,0.0,2386.0,7672.0
3.165,2.658,94.051,0.0,0.0,0.127,0.0,12288.0,6398821.0,6204784.0,0.0,0.0,2537.0,7635.0
7.702,2.182,89.730,0.0,0.0,0.385,0.0,0.0,6806406.0,6594855.0,0.0,0.0,2930.0,8163.0
5.155,2.191,92.397,0.0,0.0,0.258,0.0,0.0,6260302.0,6088360.0,0.0,0.0,2703.0,7692.0
1.267,2.535,96.071,0.0,0.0,0.127,0.0,0.0,6463248.0,6266852.0,0.0,0.0,2616.0,7689.0
1.030,1.673,97.169,0.0,0.0,0.129,0.0,0.0,6543079.0,6349498.0,0.0,0.0,2751.0,7895.0
0.774,1.677,97.419,0.0,0.0,0.129,0.0,0.0,6478575.0,6292885.0,0.0,0.0,2635.0,7618.0
1.660,1.660,96.552,0.0,0.0,0.128,0.0,0.0,6451970.0,6262466.0,0.0,0.0,2669.0,7665.0
1.158,1.544,97.297,0.0,0.0,0.0,0.0,0.0,6530332.0,6331986.0,0.0,0.0,2697.0,7688.0
1.280,2.177,96.543,0.0,0.0,0.0,0.0,0.0,6559929.0,6371152.0,0.0,0.0,2703.0,7777.0
1.405,1.788,96.679,0.0,0.0,0.128,0.0,0.0,6462723.0,6262663.0,0.0,0.0,2636.0,7598.0
1.662,1.790,96.419,0.0,0.0,0.128,0.0,0.0,6377292.0,6183931.0,0.0,0.0,2606.0,7591.0
1.019,2.675,96.178,0.0,0.0,0.127,0.0,0.0,6385956.0,6205840.0,0.0,0.0,2610.0,7577.0
1.533,2.043,96.296,0.0,0.0,0.128,0.0,0.0,6335730.0,6153830.0,0.0,0.0,2516.0,7603.0
2.038,1.911,95.796,0.0,0.0,0.255,0.0,0.0,6486196.0,6293799.0,0.0,0.0,2730.0,7929.0
1.908,2.036,96.056,0.0,0.0,0.0,0.0,0.0,6358859.0,6171647.0,0.0,0.0,2579.0,7606.0
1.416,1.544,96.396,0.386,0.0,0.257,0.0,69632.0,6478411.0,6262339.0,0.0,0.0,2631.0,7616.0
1.282,2.051,96.667,0.0,0.0,0.0,0.0,69632.0,6499483.0,6327668.0,0.0,0.0,2585.0,7724.0
1.154,2.179,96.538,0.0,0.0,0.128,0.0,0.0,6384673.0,6202447.0,0.0,0.0,2556.0,7627.0
1.667,1.538,96.538,0.0,0.0,0.256,0.0,0.0,6511008.0,6318990.0,0.0,0.0,2603.0,7840.0
1.781,2.417,95.674,0.0,0.0,0.127,0.0,0.0,6471954.0,6266992.0,0.0,0.0,2645.0,7769.0
1.030,1.544,97.426,0.0,0.0,0.0,0.0,0.0,6644816.0,6445140.0,0.0,0.0,2694.0,7805.0
1.280,2.433,96.287,0.0,0.0,0.0,0.0,1060864.0,6421960.0,6249515.0,0.0,0.0,2625.0,7792.0
1.399,2.417,96.056,0.0,0.0,0.127,0.0,0.0,6457766.0,6257881.0,0.0,0.0,2527.0,7528.0
1.906,2.033,95.934,0.0,0.0,0.127,0.0,0.0,6553620.0,6353943.0,0.0,0.0,2661.0,7722.0
1.022,2.299,96.424,0.0,0.0,0.255,0.0,0.0,6542289.0,6345144.0,0.0,0.0,2584.0,7733.0
1.650,2.157,95.812,0.0,0.0,0.381,0.0,0.0,6562066.0,6383956.0,0.0,0.0,2662.0,7931.0
1.407,1.918,96.547,0.0,0.0,0.128,0.0,0.0,6572913.0,6367362.0,0.0,0.0,2625.0,7809.0
1.155,1.926,96.919,0.0,0.0,0.0,0.0,0.0,6604834.0,6410254.0,0.0,0.0,2720.0,7823.0
1.410,1.923,96.538,0.0,0.0,0.128,0.0,0.0,6510776.0,6324875.0,0.0,0.0,2719.0,7922.0
1.410,1.667,96.795,0.0,0.0,0.128,0.0,0.0,6501580.0,6310090.0,0.0,0.0,2672.0,7654.0
1.146,2.166,96.433,0.0,0.0,0.255,0.0,0.0,6609268.0,6414461.0,0.0,0.0,2706.0,7835.0
1.527,2.163,96.183,0.0,0.0,0.127,0.0,8192.0,6413652.0,6223532.0,0.0,0.0,2672.0,7670.0
1.405,2.171,96.296,0.0,0.0,0.128,0.0,0.0,6375864.0,6166958.0,0.0,0.0,2652.0,7679.0
1.529,2.420,96.051,0.0,0.0,0.0,0.0,0.0,6515672.0,6344766.0,0.0,0.0,2679.0,7881.0
1.410,1.923,96.538,0.0,0.0,0.128,0.0,0.0,6413906.0,6223469.0,0.0,0.0,2699.0,7704.0
1.026,1.923,97.051,0.0,0.0,0.0,0.0,0.0,6366754.0,6175376.0,0.0,0.0,2584.0,7499.0
1.022,2.171,96.679,0.0,0.0,0.128,0.0,0.0,6341366.0,6158428.0,0.0,0.0,2648.0,7615.0
2.152,2.278,95.570,0.0,0.0,0.0,0.0,0.0,6332224.0,6144643.0,0.0,0.0,2665.0,7552.0
2.030,2.538,94.924,0.0,0.0,0.508,0.0,0.0,6556389.0,6358220.0,0.0,0.0,2779.0,7819.0
1.272,2.290,96.438,0.0,0.0,0.0,0.0,0.0,6434385.0,6241194.0,0.0,0.0,2667.0,7720.0
1.285,1.414,97.044,0.0,0.0,0.257,0.0,0.0,6489506.0,6301201.0,0.0,0.0,2681.0,7671.0
1.918,2.174,95.780,0.0,0.0,0.128,0.0,0.0,6534813.0,6345235.0,0.0,0.0,2682.0,7775.0
1.777,2.411,95.685,0.0,0.0,0.127,0.0,0.0,6452845.0,6262609.0,0.0,0.0,2736.0,7793.0
1.525,2.922,95.299,0.0,0.0,0.254,0.0,0.0,6480429.0,6288466.0,0.0,0.0,2754.0,7894.0
1.525,2.033,96.188,0.0,0.0,0.254,0.0,0.0,6574518.0,6375571.0,0.0,0.0,2714.0,7754.0
1.407,2.046,96.036,0.512,0.0,0.0,0.0,49152.0,6576942.0,6388672.0,0.0,0.0,2777.0,7874.0
1.656,2.166,95.924,0.0,0.0,0.255,0.0,4096.0,6654898.0,6449315.0,0.0,0.0,2812.0,8068.0
1.669,1.412,96.662,0.0,0.0,0.257,0.0,0.0,6579732.0,6388830.0,0.0,0.0,2706.0,7938.0
1.416,1.416,97.169,0.0,0.0,0.0,0.0,0.0,6437787.0,6252235.0,0.0,0.0,2642.0,7773.0
1.158,1.544,97.040,0.0,0.0,0.257,0.0,0.0,6610166.0,6410007.0,0.0,0.0,2778.0,8047.0
1.533,1.788,96.679,0.0,0.0,0.0,0.0,0.0,6721034.0,6514403.0,0.0,0.0,2677.0,7922.0
1.146,2.548,96.306,0.0,0.0,0.0,0.0,0.0,6659110.0,6475264.0,0.0,0.0,2744.0,7987.0
1.525,2.287,95.934,0.0,0.0,0.254,0.0,1396736.0,6704203.0,6505785.0,0.0,0.0,2728.0,8035.0
1.408,1.536,96.671,0.0,0.0,0.384,0.0,0.0,6658780.0,6462622.0,0.0,0.0,2643.0,8017.0
1.022,2.299,96.552,0.0,0.0,0.128,0.0,0.0,6528362.0,6336014.0,0.0,0.0,2608.0,7770.0
1.272,2.417,96.056,0.0,0.0,0.254,0.0,0.0,6382353.0,6193135.0,0.0,0.0,2628.0,7709.0
1.414,1.414,97.044,0.0,0.0,0.129,0.0,0.0,6416469.0,6202280.0,0.0,0.0,2665.0,7665.0
1.279,2.046,96.547,0.0,0.0,0.128,0.0,0.0,6479460.0,6314004.0,0.0,0.0,2622.0,7689.0
1.662,2.046,96.292,0.0,0.0,0.0,0.0,0.0,6525596.0,6332009.0,0.0,0.0,2697.0,7879.0
0.773,1.675,97.423,0.0,0.0,0.129,0.0,0.0,6573464.0,6375534.0,0.0,0.0,2701.0,7761.0
1.149,1.916,96.807,0.0,0.0,0.128,0.0,0.0,6471060.0,6280080.0,0.0,0.0,2570.0,7667.0
1.282,1.923,96.667,0.0,0.0,0.128,0.0,0.0,6444812.0,6249321.0,0.0,0.0,2659.0,7755.0
1.020,2.168,96.684,0.0,0.0,0.128,0.0,8192.0,6461934.0,6280060.0,0.0,0.0,2562.0,7757.0
1.285,1.414,97.044,0.0,0.0,0.257,0.0,0.0,6308516.0,6118620.0,0.0,0.0,2586.0,7658.0
1.412,1.540,96.919,0.0,0.0,0.128,0.0,0.0,6458076.0,6256229.0,0.0,0.0,2676.0,7786.0
1.781,2.036,96.056,0.0,0.0,0.127,0.0,0.0,6484705.0,6307999.0,0.0,0.0,2692.0,7687.0
1.399,2.036,96.565,0.0,0.0,0.0,0.0,0.0,6132045.0,5949803.0,0.0,0.0,2518.0,7297.0
