2         Threads
8         Connections per thread
70        Seconds


ALL STATS
========================================================================
Type        Ops/sec     Hits/sec   Misses/sec      Latency       KB/sec 
------------------------------------------------------------------------
Sets        5795.93          ---          ---      2.75700     23392.51 
Gets           0.00         0.00         0.00      0.00000         0.00 
Waits          0.00          ---          ---      0.00000          --- 
Totals      5795.93         0.00         0.00      2.75700     23392.51 


Request Latency Distribution
Type     <= msec         Percent
------------------------------------------------------------------------
SET       0.220         0.00
SET       0.230         0.00
SET       0.240         0.00
SET       0.250         0.01
SET       0.260         0.01
SET       0.270         0.02
SET       0.280         0.02
SET       0.290         0.03
SET       0.300         0.03
SET       0.310         0.04
SET       0.320         0.05
SET       0.330         0.06
SET       0.340         0.08
SET       0.350         0.10
SET       0.360         0.12
SET       0.370         0.14
SET       0.380         0.17
SET       0.390         0.20
SET       0.400         0.23
SET       0.410         0.27
SET       0.420         0.31
SET       0.430         0.36
SET       0.440         0.41
SET       0.450         0.49
SET       0.460         0.56
SET       0.470         0.64
SET       0.480         0.73
SET       0.490         0.84
SET       0.500         0.96
SET       0.510         1.10
SET       0.520         1.25
SET       0.530         1.42
SET       0.540         1.61
SET       0.550         1.85
SET       0.560         2.09
SET       0.570         2.37
SET       0.580         2.67
SET       0.590         2.99
SET       0.600         3.32
SET       0.610         3.67
SET       0.620         4.04
SET       0.630         4.40
SET       0.640         4.83
SET       0.650         5.26
SET       0.660         5.67
SET       0.670         6.12
SET       0.680         6.54
SET       0.690         6.97
SET       0.700         7.41
SET       0.710         7.85
SET       0.720         8.28
SET       0.730         8.67
SET       0.740         9.09
SET       0.750         9.46
SET       0.760         9.85
SET       0.770        10.24
SET       0.780        10.61
SET       0.790        10.98
SET       0.800        11.34
SET       0.810        11.72
SET       0.820        12.10
SET       0.830        12.48
SET       0.840        12.86
SET       0.850        13.26
SET       0.860        13.68
SET       0.870        14.11
SET       0.880        14.54
SET       0.890        14.98
SET       0.900        15.44
SET       0.910        15.92
SET       0.920        16.42
SET       0.930        16.89
SET       0.940        17.42
SET       0.950        17.94
SET       0.960        18.49
SET       0.970        19.06
SET       0.980        19.62
SET       0.990        20.19
SET       1.000        23.53
SET       1.100        29.49
SET       1.200        35.07
SET       1.300        40.09
SET       1.400        45.00
SET       1.500        49.37
SET       1.600        53.55
SET       1.700        57.98
SET       1.800        61.74
SET       1.900        64.27
SET       2.000        65.86
SET       2.100        66.78
SET       2.200        67.43
SET       2.300        67.89
SET       2.400        68.25
SET       2.500        68.60
SET       2.600        68.89
SET       2.700        69.12
SET       2.800        69.30
SET       2.900        69.50
SET       3.000        69.71
SET       3.100        69.90
SET       3.200        70.07
SET       3.300        70.28
SET       3.400        70.49
SET       3.500        70.69
SET       3.600        70.89
SET       3.700        71.10
SET       3.800        71.32
SET       3.900        71.56
SET       4.000        71.80
SET       4.100        72.08
SET       4.200        72.35
SET       4.300        72.62
SET       4.400        72.96
SET       4.500        73.33
SET       4.600        73.77
SET       4.700        74.29
SET       4.800        74.94
SET       4.900        75.63
SET       5.000        76.42
SET       5.100        77.33
SET       5.200        78.32
SET       5.300        79.39
SET       5.400        80.57
SET       5.500        81.85
SET       5.600        83.10
SET       5.700        84.39
SET       5.800        85.79
SET       5.900        87.18
SET       6.000        88.58
SET       6.100        89.91
SET       6.200        91.18
SET       6.300        92.35
SET       6.400        93.44
SET       6.500        94.40
SET       6.600        95.29
SET       6.700        96.02
SET       6.800        96.67
SET       6.900        97.18
SET       7.000        97.60
SET       7.100        97.95
SET       7.200        98.25
SET       7.300        98.48
SET       7.400        98.68
SET       7.500        98.82
SET       7.600        98.92
SET       7.700        99.01
SET       7.800        99.08
SET       7.900        99.15
SET       8.000        99.20
SET       8.100        99.29
SET       8.200        99.34
SET       8.300        99.40
SET       8.400        99.45
SET       8.500        99.48
SET       8.600        99.51
SET       8.700        99.53
SET       8.800        99.56
SET       8.900        99.58
SET       9.000        99.62
SET       9.100        99.64
SET       9.200        99.66
SET       9.300        99.68
SET       9.400        99.70
SET       9.500        99.72
SET       9.600        99.72
SET       9.700        99.73
SET       9.800        99.74
SET       9.900        99.74
SET      10.000        99.76
SET      11.000        99.77
SET      12.000        99.78
SET      13.000        99.80
SET      14.000        99.82
SET      15.000        99.86
SET      16.000        99.91
SET      17.000        99.93
SET      18.000        99.94
SET      19.000        99.94
SET      20.000        99.94
SET      22.000        99.94
SET      23.000        99.94
SET      24.000        99.94
SET      25.000        99.95
SET      28.000        99.95
SET      29.000        99.95
SET      35.000        99.95
SET      38.000        99.95
SET      39.000        99.95
SET      40.000        99.95
SET      41.000        99.95
SET      44.000        99.95
SET      47.000        99.95
SET      49.000        99.95
SET      51.000        99.95
SET      53.000        99.96
SET      54.000        99.96
SET      55.000        99.96
SET      56.000        99.96
SET      57.000        99.96
SET      58.000        99.96
SET      60.000        99.96
SET      61.000        99.96
SET      62.000        99.96
SET      63.000        99.97
SET      64.000        99.97
SET      67.000        99.97
SET      70.000        99.97
SET      75.000        99.97
SET      76.000        99.97
SET      77.000        99.97
SET      83.000        99.97
SET      84.000        99.97
SET      96.000        99.97
SET      98.000        99.97
SET      99.000        99.97
SET     100.000        99.97
SET     110.000        99.97
SET     120.000        99.97
SET     130.000        99.98
SET     140.000        99.98
SET     150.000        99.98
SET     160.000        99.98
SET     190.000        99.98
SET     200.000        99.98
SET     210.000        99.98
SET     220.000        99.98
SET     230.000        99.98
SET     270.000        99.98
SET     280.000        99.98
SET     320.000        99.99
SET     330.000        99.99
SET     340.000        99.99
SET     350.000        99.99
SET     360.000        99.99
SET     380.000        99.99
SET     400.000        99.99
SET     430.000        99.99
SET     440.000        99.99
SET     460.000        99.99
SET     470.000        99.99
SET     510.000        99.99
SET     530.000        99.99
SET     550.000       100.00
SET     570.000       100.00
SET     580.000       100.00
SET     600.000       100.00
SET     630.000       100.00
SET     660.000       100.00
SET     740.000       100.00
SET     790.000       100.00
SET     870.000       100.00
---
---
