"Dstat 0.7.2 CSV output"
"Author:","Dag Wieers <dag@wieers.com>",,,,"URL:","http://dag.wieers.com/home-made/dstat/"
"Host:","Server1",,,,"User:","maki"
"Cmdline:","dstat --output server1_set_3_42.csv 1 60",,,,"Date:","13 Nov 2018 13:04:01 UTC"

"total cpu usage",,,,,,"dsk/total",,"net/total",,"paging",,"system",
"usr","sys","idl","wai","hiq","siq","read","writ","recv","send","in","out","int","csw"
17.845,38.478,31.040,2.378,0.0,10.258,61446.492,326292.134,0.0,0.0,0.0,0.0,19.688,1952.825
22.667,58.667,0.0,0.0,0.0,18.667,0.0,0.0,75257952.0,2438268.0,0.0,0.0,18.0,131.0
20.253,56.962,0.0,0.0,0.0,22.785,0.0,0.0,73518392.0,2376332.0,0.0,0.0,18.0,128.0
24.0,60.0,0.0,0.0,0.0,16.0,0.0,0.0,71883433.0,2334069.0,0.0,0.0,18.0,150.0
26.829,62.195,0.0,0.0,0.0,10.976,0.0,0.0,70380926.0,2277286.0,0.0,0.0,18.0,143.0
15.190,63.291,0.0,0.0,0.0,21.519,0.0,0.0,72863969.0,2354072.0,0.0,0.0,18.0,144.0
26.923,57.692,0.0,0.0,0.0,15.385,0.0,0.0,69445645.0,2260973.0,0.0,0.0,19.0,157.0
23.377,54.545,0.0,0.0,0.0,22.078,0.0,0.0,72094639.0,2337474.0,0.0,0.0,18.0,130.0
18.667,65.333,0.0,0.0,0.0,16.0,0.0,0.0,74181686.0,2400894.0,0.0,0.0,18.0,147.0
26.316,59.211,0.0,0.0,0.0,14.474,0.0,0.0,67302125.0,2182407.0,0.0,0.0,19.0,208.0
24.675,54.545,0.0,0.0,0.0,20.779,0.0,0.0,72550055.0,2348588.0,0.0,0.0,18.0,122.0
15.0,62.500,0.0,0.0,0.0,22.500,0.0,0.0,70735819.0,2295334.0,0.0,0.0,18.0,166.0
16.883,67.532,0.0,0.0,0.0,15.584,0.0,0.0,74012529.0,2392634.0,0.0,0.0,18.0,125.0
26.667,49.333,0.0,0.0,0.0,24.0,0.0,0.0,70812846.0,2298181.0,0.0,0.0,18.0,181.0
18.667,60.0,0.0,0.0,0.0,21.333,0.0,0.0,70823865.0,2292422.0,0.0,0.0,19.0,191.0
19.481,63.636,0.0,0.0,0.0,16.883,0.0,0.0,73785780.0,2390040.0,0.0,0.0,18.0,145.0
22.368,57.895,0.0,0.0,0.0,19.737,0.0,0.0,69409738.0,2253487.0,0.0,0.0,18.0,180.0
20.513,57.692,1.282,0.0,0.0,20.513,0.0,0.0,74575764.0,2414272.0,0.0,0.0,18.0,125.0
22.078,55.844,1.299,0.0,0.0,20.779,0.0,0.0,75639821.0,2458750.0,0.0,0.0,18.0,151.0
18.919,52.703,2.703,0.0,0.0,25.676,0.0,0.0,72783626.0,2360087.0,0.0,0.0,18.0,249.0
21.918,57.534,0.0,0.0,0.0,20.548,0.0,40960.0,77717355.0,2524322.0,0.0,0.0,19.0,176.0
25.0,56.579,0.0,0.0,0.0,18.421,0.0,45056.0,73468961.0,2379126.0,0.0,0.0,18.0,129.0
25.316,51.899,0.0,0.0,0.0,22.785,0.0,0.0,70182388.0,2273937.0,0.0,0.0,18.0,178.0
19.737,59.211,0.0,0.0,0.0,21.053,0.0,0.0,75016874.0,2435400.0,0.0,0.0,18.0,136.0
25.0,50.0,0.0,0.0,0.0,25.0,0.0,0.0,75117535.0,2429218.0,0.0,0.0,19.0,151.0
22.973,63.514,0.0,0.0,0.0,13.514,0.0,0.0,72441723.0,2350569.0,0.0,0.0,18.0,174.0
26.923,56.410,0.0,0.0,0.0,16.667,0.0,0.0,71793375.0,2322428.0,0.0,0.0,18.0,129.0
22.667,62.667,0.0,0.0,0.0,14.667,0.0,0.0,73366423.0,2378018.0,0.0,0.0,18.0,120.0
18.182,57.143,0.0,0.0,0.0,24.675,0.0,0.0,75768896.0,2456659.0,0.0,0.0,18.0,179.0
20.270,59.459,1.351,0.0,0.0,18.919,0.0,0.0,76649491.0,2481708.0,0.0,0.0,18.0,158.0
23.077,58.974,0.0,0.0,0.0,17.949,0.0,0.0,73266015.0,2373828.0,0.0,0.0,19.0,178.0
24.0,53.333,0.0,0.0,0.0,22.667,0.0,4096.0,73330703.0,2382355.0,0.0,0.0,18.0,176.0
22.368,57.895,0.0,0.0,0.0,19.737,0.0,0.0,75011034.0,2429108.0,0.0,0.0,18.0,133.0
14.865,55.405,6.757,0.0,0.0,22.973,0.0,0.0,77369947.0,2535380.0,0.0,0.0,18.0,305.0
25.333,56.0,5.333,0.0,0.0,13.333,0.0,0.0,75767002.0,2445277.0,0.0,0.0,19.0,270.0
26.027,53.425,0.0,0.0,0.0,20.548,0.0,0.0,75717738.0,2440212.0,0.0,0.0,18.0,167.0
18.421,59.211,0.0,0.0,0.0,22.368,0.0,0.0,72717808.0,2358784.0,0.0,0.0,18.0,258.0
21.250,57.500,0.0,0.0,0.0,21.250,0.0,0.0,73800560.0,2395197.0,0.0,0.0,18.0,188.0
22.667,54.667,0.0,0.0,0.0,22.667,0.0,0.0,76491536.0,2506466.0,0.0,0.0,18.0,166.0
19.481,53.247,9.091,0.0,0.0,18.182,0.0,0.0,72930374.0,2345136.0,0.0,0.0,19.0,263.0
26.027,56.164,2.740,0.0,0.0,15.068,0.0,0.0,74753021.0,2426635.0,0.0,0.0,18.0,237.0
20.253,56.962,1.266,0.0,0.0,21.519,0.0,0.0,75310677.0,2444304.0,0.0,0.0,18.0,172.0
22.973,54.054,2.703,0.0,0.0,20.270,0.0,0.0,77750180.0,2538078.0,0.0,0.0,18.0,223.0
19.481,49.351,14.286,0.0,0.0,16.883,0.0,0.0,74808652.0,2410567.0,0.0,0.0,18.0,480.0
19.737,55.263,0.0,0.0,0.0,25.0,0.0,0.0,75599387.0,2449064.0,0.0,0.0,19.0,148.0
16.216,64.865,0.0,0.0,0.0,18.919,0.0,0.0,74674960.0,2413736.0,0.0,0.0,18.0,207.0
22.667,62.667,0.0,0.0,0.0,14.667,0.0,0.0,76497393.0,2492593.0,0.0,0.0,18.0,183.0
19.737,60.526,0.0,0.0,0.0,19.737,0.0,0.0,75708296.0,2446410.0,0.0,0.0,18.0,154.0
28.947,48.684,6.579,0.0,0.0,15.789,0.0,0.0,77558951.0,2531006.0,0.0,0.0,18.0,343.0
21.250,46.250,17.500,0.0,0.0,15.0,0.0,0.0,76126256.0,2478494.0,0.0,0.0,19.0,528.0
21.622,62.162,0.0,0.0,0.0,16.216,0.0,0.0,75861636.0,2434967.0,0.0,0.0,18.0,229.0
22.368,60.526,1.316,0.0,0.0,15.789,0.0,40960.0,76537152.0,2509338.0,0.0,0.0,18.0,212.0
18.421,63.158,5.263,0.0,0.0,13.158,0.0,0.0,76569919.0,2471176.0,0.0,0.0,18.0,277.0
18.987,45.570,17.722,0.0,0.0,17.722,0.0,0.0,76156971.0,2486769.0,0.0,0.0,18.0,461.0
26.250,48.750,12.500,0.0,0.0,12.500,0.0,0.0,76554937.0,2483628.0,0.0,0.0,19.0,361.0
20.548,61.644,4.110,0.0,0.0,13.699,0.0,0.0,75755495.0,2419876.0,0.0,0.0,18.0,264.0
22.368,56.579,0.0,0.0,0.0,21.053,0.0,0.0,72302453.0,2351275.0,0.0,0.0,18.0,182.0
22.222,55.556,0.0,0.0,0.0,22.222,0.0,0.0,73286294.0,2371370.0,0.0,0.0,18.0,184.0
20.779,55.844,0.0,0.0,0.0,23.377,0.0,0.0,76425876.0,2480894.0,0.0,0.0,19.0,182.0
20.548,58.904,0.0,0.0,0.0,20.548,0.0,0.0,71866731.0,2325743.0,0.0,0.0,18.0,176.0
22.368,57.895,0.0,0.0,0.0,19.737,0.0,0.0,74272843.0,2408486.0,0.0,0.0,18.0,195.0
