"Dstat 0.7.2 CSV output"
"Author:","Dag Wieers <dag@wieers.com>",,,,"URL:","http://dag.wieers.com/home-made/dstat/"
"Host:","Server1",,,,"User:","maki"
"Cmdline:","dstat --output server1_get_3_22.csv 1 60",,,,"Date:","13 Nov 2018 13:41:28 UTC"

"total cpu usage",,,,,,"dsk/total",,"net/total",,"paging",,"system",
"usr","sys","idl","wai","hiq","siq","read","writ","recv","send","in","out","int","csw"
10.025,22.067,60.655,1.238,0.0,6.016,32481.308,173160.123,0.0,0.0,0.0,0.0,18.989,1345.255
0.0,4.124,94.845,0.0,0.0,1.031,0.0,0.0,469177.0,13256574.0,0.0,0.0,18.0,315.0
2.0,5.0,90.0,0.0,0.0,3.0,0.0,0.0,450213.0,12887773.0,0.0,0.0,18.0,350.0
2.020,5.051,91.919,0.0,0.0,1.010,0.0,16384.0,465375.0,12877865.0,0.0,0.0,19.0,360.0
0.0,3.061,93.878,0.0,0.0,3.061,0.0,0.0,458083.0,12877579.0,0.0,0.0,18.0,303.0
1.010,4.040,93.939,0.0,0.0,1.010,0.0,0.0,454963.0,13064341.0,0.0,0.0,18.0,294.0
2.020,4.040,91.919,0.0,0.0,2.020,0.0,0.0,457808.0,12791971.0,0.0,0.0,18.0,315.0
2.041,3.061,91.837,0.0,0.0,3.061,0.0,0.0,456449.0,12808108.0,0.0,0.0,18.0,365.0
1.010,3.030,93.939,0.0,0.0,2.020,0.0,0.0,464313.0,13187070.0,0.0,0.0,18.0,376.0
1.020,2.041,94.898,0.0,0.0,2.041,0.0,0.0,446808.0,12727220.0,0.0,0.0,19.0,283.0
1.020,4.082,92.857,0.0,0.0,2.041,0.0,0.0,459942.0,12676940.0,0.0,0.0,18.0,335.0
2.0,4.0,92.0,0.0,0.0,2.0,0.0,0.0,450242.0,12868606.0,0.0,0.0,18.0,316.0
1.042,4.167,93.750,0.0,0.0,1.042,0.0,0.0,452260.0,12774812.0,0.0,0.0,18.0,316.0
3.061,2.041,91.837,0.0,0.0,3.061,0.0,0.0,451768.0,12816652.0,0.0,0.0,19.0,324.0
0.0,4.040,93.939,0.0,0.0,2.020,0.0,0.0,462262.0,12926661.0,0.0,0.0,18.0,311.0
1.042,3.125,94.792,0.0,0.0,1.042,0.0,0.0,458134.0,12928978.0,0.0,0.0,18.0,279.0
2.941,3.922,90.196,0.0,0.0,2.941,0.0,0.0,452977.0,12647596.0,0.0,0.0,18.0,333.0
1.031,4.124,91.753,0.0,0.0,3.093,0.0,0.0,451927.0,12993737.0,0.0,0.0,18.0,359.0
0.0,3.125,95.833,0.0,0.0,1.042,0.0,0.0,448068.0,12730753.0,0.0,0.0,19.0,275.0
1.031,3.093,94.845,0.0,0.0,1.031,0.0,0.0,454945.0,12762851.0,0.0,0.0,18.0,348.0
1.020,3.061,94.898,0.0,0.0,1.020,0.0,0.0,450944.0,12764784.0,0.0,0.0,18.0,324.0
0.0,6.0,92.0,0.0,0.0,2.0,0.0,0.0,463355.0,12958511.0,0.0,0.0,18.0,318.0
1.031,4.124,93.814,0.0,0.0,1.031,0.0,0.0,447745.0,12608619.0,0.0,0.0,18.0,312.0
1.020,4.082,87.755,6.122,0.0,1.020,0.0,49152.0,458713.0,12718947.0,0.0,0.0,19.0,334.0
1.020,4.082,93.878,0.0,0.0,1.020,0.0,40960.0,459702.0,12932415.0,0.0,0.0,18.0,291.0
1.031,2.062,95.876,0.0,0.0,1.031,0.0,0.0,455511.0,13045339.0,0.0,0.0,18.0,289.0
3.061,2.041,91.837,0.0,0.0,3.061,0.0,0.0,461808.0,12781972.0,0.0,0.0,18.0,345.0
2.062,3.093,93.814,0.0,0.0,1.031,0.0,0.0,446806.0,12799649.0,0.0,0.0,18.0,323.0
1.020,3.061,94.898,0.0,0.0,1.020,0.0,0.0,447399.0,12687624.0,0.0,0.0,19.0,332.0
1.020,4.082,92.857,0.0,0.0,2.041,0.0,0.0,458177.0,12829994.0,0.0,0.0,18.0,318.0
0.0,2.062,94.845,0.0,0.0,3.093,0.0,0.0,464906.0,13073805.0,0.0,0.0,18.0,288.0
1.0,4.0,93.0,0.0,0.0,2.0,0.0,0.0,447954.0,12667434.0,0.0,0.0,18.0,295.0
2.062,4.124,91.753,0.0,0.0,2.062,0.0,0.0,454581.0,12662364.0,0.0,0.0,18.0,370.0
2.020,4.040,91.919,0.0,0.0,2.020,0.0,0.0,453502.0,12730734.0,0.0,0.0,19.0,335.0
1.010,4.040,92.929,0.0,0.0,2.020,0.0,0.0,439329.0,12686132.0,0.0,0.0,18.0,328.0
3.030,7.071,89.899,0.0,0.0,0.0,0.0,0.0,463548.0,12778476.0,0.0,0.0,18.0,421.0
1.020,3.061,93.878,0.0,0.0,2.041,0.0,0.0,455515.0,12933669.0,0.0,0.0,18.0,315.0
2.041,4.082,91.837,0.0,0.0,2.041,0.0,0.0,456608.0,12993532.0,0.0,0.0,19.0,322.0
0.0,3.061,94.898,0.0,0.0,2.041,0.0,0.0,460391.0,12767321.0,0.0,0.0,18.0,358.0
2.062,3.093,93.814,0.0,0.0,1.031,0.0,0.0,451978.0,12771448.0,0.0,0.0,18.0,319.0
1.020,2.041,94.898,0.0,0.0,2.041,0.0,0.0,453407.0,12750460.0,0.0,0.0,18.0,338.0
0.0,5.0,93.0,0.0,0.0,2.0,0.0,0.0,443759.0,12658069.0,0.0,0.0,18.0,306.0
1.042,5.208,91.667,0.0,0.0,2.083,0.0,0.0,463866.0,12814760.0,0.0,0.0,19.0,378.0
1.010,4.040,93.939,0.0,0.0,1.010,0.0,0.0,442813.0,12692998.0,0.0,0.0,18.0,323.0
1.020,2.041,93.878,0.0,0.0,3.061,0.0,0.0,458929.0,12868087.0,0.0,0.0,18.0,291.0
1.010,4.040,92.929,0.0,0.0,2.020,0.0,0.0,446318.0,12679029.0,0.0,0.0,18.0,320.0
0.0,4.082,94.898,0.0,0.0,1.020,0.0,0.0,462694.0,13010335.0,0.0,0.0,18.0,353.0
1.010,5.051,91.919,0.0,0.0,2.020,0.0,0.0,453728.0,12986901.0,0.0,0.0,19.0,347.0
0.0,2.128,96.809,0.0,0.0,1.064,0.0,0.0,467538.0,12891675.0,0.0,0.0,18.0,381.0
1.010,4.040,93.939,0.0,0.0,1.010,0.0,0.0,449985.0,12946234.0,0.0,0.0,18.0,318.0
1.020,3.061,94.898,0.0,0.0,1.020,0.0,0.0,447658.0,12644321.0,0.0,0.0,18.0,302.0
0.0,3.093,95.876,0.0,0.0,1.031,0.0,0.0,456052.0,12807686.0,0.0,0.0,18.0,314.0
2.020,5.051,90.909,0.0,0.0,2.020,0.0,0.0,449568.0,12668376.0,0.0,0.0,19.0,405.0
2.062,2.062,95.876,0.0,0.0,0.0,0.0,0.0,454360.0,12934486.0,0.0,0.0,18.0,368.0
0.0,4.040,91.919,2.020,0.0,2.020,0.0,32768.0,461835.0,13073498.0,0.0,0.0,18.0,347.0
0.0,4.124,94.845,0.0,0.0,1.031,0.0,8192.0,461861.0,12965866.0,0.0,0.0,18.0,305.0
3.0,4.0,91.0,0.0,0.0,2.0,0.0,0.0,448718.0,12612574.0,0.0,0.0,18.0,464.0
0.0,4.124,93.814,0.0,0.0,2.062,0.0,0.0,456323.0,12881598.0,0.0,0.0,19.0,362.0
1.020,3.061,93.878,0.0,0.0,2.041,0.0,0.0,459027.0,13005168.0,0.0,0.0,18.0,342.0
1.010,4.040,93.939,0.0,0.0,1.010,0.0,0.0,451641.0,12629627.0,0.0,0.0,18.0,305.0
2.0,4.0,93.0,0.0,0.0,1.0,0.0,0.0,453638.0,12997374.0,0.0,0.0,18.0,285.0
