"Dstat 0.7.2 CSV output"
"Author:","Dag Wieers <dag@wieers.com>",,,,"URL:","http://dag.wieers.com/home-made/dstat/"
"Host:","Server1",,,,"User:","maki"
"Cmdline:","dstat --output server1_set_2_22.csv 1 60",,,,"Date:","13 Nov 2018 12:48:29 UTC"

"total cpu usage",,,,,,"dsk/total",,"net/total",,"paging",,"system",
"usr","sys","idl","wai","hiq","siq","read","writ","recv","send","in","out","int","csw"
17.142,35.666,34.224,3.734,0.0,9.233,97809.973,518125.451,0.0,0.0,0.0,0.0,20.562,2023.794
17.105,46.053,27.632,0.0,0.0,9.211,0.0,0.0,80264011.0,2605706.0,0.0,0.0,19.0,782.0
22.973,54.054,9.459,0.0,0.0,13.514,0.0,0.0,75892717.0,2462969.0,0.0,0.0,18.0,488.0
15.385,51.282,19.231,0.0,0.0,14.103,0.0,0.0,75249970.0,2440372.0,0.0,0.0,18.0,622.0
17.722,58.228,8.861,0.0,0.0,15.190,0.0,0.0,76168618.0,2463692.0,0.0,0.0,18.0,236.0
19.178,53.425,6.849,0.0,0.0,20.548,0.0,0.0,72213478.0,2349249.0,0.0,0.0,19.0,452.0
20.482,46.988,9.639,0.0,0.0,22.892,0.0,0.0,74725846.0,2420008.0,0.0,0.0,18.0,254.0
18.987,54.430,8.861,0.0,0.0,17.722,0.0,53248.0,73969579.0,2396158.0,0.0,0.0,18.0,335.0
23.171,56.098,7.317,0.0,0.0,13.415,0.0,0.0,76321662.0,2475385.0,0.0,0.0,18.0,305.0
16.456,56.962,7.595,0.0,0.0,18.987,0.0,0.0,76723030.0,2485314.0,0.0,0.0,18.0,304.0
24.0,44.0,18.667,0.0,0.0,13.333,0.0,0.0,77859514.0,2536324.0,0.0,0.0,19.0,560.0
24.324,47.297,10.811,0.0,0.0,17.568,0.0,40960.0,74847631.0,2414863.0,0.0,0.0,18.0,531.0
20.270,52.703,8.108,0.0,0.0,18.919,0.0,0.0,77051545.0,2501122.0,0.0,0.0,18.0,406.0
24.675,57.143,5.195,0.0,0.0,12.987,0.0,0.0,74575610.0,2418166.0,0.0,0.0,18.0,222.0
21.333,50.667,10.667,0.0,0.0,17.333,0.0,0.0,75319107.0,2437475.0,0.0,0.0,18.0,387.0
21.795,52.564,7.692,0.0,0.0,17.949,0.0,0.0,78584574.0,2547938.0,0.0,0.0,18.0,288.0
21.053,48.684,14.474,0.0,0.0,15.789,0.0,0.0,76104755.0,2472304.0,0.0,0.0,19.0,497.0
26.316,52.632,3.947,0.0,0.0,17.105,0.0,0.0,73210997.0,2365770.0,0.0,0.0,18.0,272.0
18.519,55.556,8.642,0.0,0.0,17.284,0.0,0.0,73190816.0,2372321.0,0.0,0.0,18.0,277.0
21.622,45.946,8.108,0.0,0.0,24.324,0.0,0.0,76852549.0,2486574.0,0.0,0.0,18.0,299.0
17.105,51.316,9.211,0.0,0.0,22.368,0.0,0.0,71308598.0,2312060.0,0.0,0.0,18.0,249.0
18.421,56.579,9.211,0.0,0.0,15.789,0.0,12288.0,73647402.0,2390201.0,0.0,0.0,19.0,270.0
15.942,56.522,10.145,0.0,0.0,17.391,0.0,0.0,75934429.0,2460072.0,0.0,0.0,18.0,351.0
20.779,51.948,9.091,0.0,0.0,18.182,0.0,0.0,74195984.0,2407404.0,0.0,0.0,18.0,459.0
22.500,50.0,10.0,0.0,0.0,17.500,0.0,0.0,73358590.0,2381787.0,0.0,0.0,18.0,667.0
22.785,50.633,8.861,0.0,0.0,17.722,0.0,0.0,71188712.0,2310658.0,0.0,0.0,19.0,315.0
21.053,55.263,6.579,0.0,0.0,17.105,0.0,0.0,76044547.0,2463782.0,0.0,0.0,18.0,237.0
18.919,52.703,8.108,0.0,0.0,20.270,0.0,0.0,75123669.0,2439835.0,0.0,0.0,18.0,476.0
18.919,52.703,9.459,0.0,0.0,18.919,0.0,0.0,72939097.0,2367866.0,0.0,0.0,18.0,260.0
23.171,51.220,7.317,0.0,0.0,18.293,0.0,0.0,75919133.0,2444080.0,0.0,0.0,18.0,253.0
21.918,49.315,9.589,0.0,0.0,19.178,0.0,0.0,78032880.0,2539587.0,0.0,0.0,19.0,317.0
20.548,54.795,8.219,0.0,0.0,16.438,0.0,4096.0,75860000.0,2459930.0,0.0,0.0,18.0,359.0
19.231,56.410,5.128,0.0,0.0,19.231,0.0,0.0,74191133.0,2403228.0,0.0,0.0,18.0,242.0
18.571,54.286,14.286,0.0,0.0,12.857,0.0,0.0,77224993.0,2508305.0,0.0,0.0,18.0,606.0
27.778,40.278,16.667,0.0,0.0,15.278,0.0,0.0,76598238.0,2473044.0,0.0,0.0,18.0,727.0
17.949,51.282,7.692,0.0,0.0,23.077,0.0,0.0,76689889.0,2493246.0,0.0,0.0,19.0,418.0
20.833,52.778,8.333,0.0,0.0,18.056,0.0,0.0,73431493.0,2380935.0,0.0,0.0,18.0,351.0
20.270,54.054,6.757,0.0,0.0,18.919,0.0,0.0,77889466.0,2512390.0,0.0,0.0,18.0,362.0
23.288,50.685,8.219,0.0,0.0,17.808,0.0,0.0,77722477.0,2521416.0,0.0,0.0,18.0,261.0
20.253,58.228,5.063,0.0,0.0,16.456,0.0,32768.0,72593724.0,2358427.0,0.0,0.0,18.0,285.0
20.270,55.405,8.108,0.0,0.0,16.216,0.0,0.0,78001742.0,2536960.0,0.0,0.0,19.0,371.0
21.053,51.316,11.842,0.0,0.0,15.789,0.0,0.0,76703898.0,2482486.0,0.0,0.0,18.0,437.0
19.737,48.684,11.842,0.0,0.0,19.737,0.0,0.0,73155039.0,2367829.0,0.0,0.0,18.0,556.0
22.973,51.351,6.757,0.0,0.0,18.919,0.0,0.0,78835397.0,2555988.0,0.0,0.0,18.0,368.0
19.481,55.844,7.792,0.0,0.0,16.883,0.0,0.0,75938883.0,2457528.0,0.0,0.0,18.0,374.0
18.421,52.632,10.526,0.0,0.0,18.421,0.0,0.0,75757652.0,2457571.0,0.0,0.0,19.0,515.0
20.732,54.878,3.659,0.0,0.0,20.732,0.0,0.0,76466077.0,2481412.0,0.0,0.0,18.0,251.0
23.684,52.632,6.579,0.0,0.0,17.105,0.0,0.0,73193302.0,2370050.0,0.0,0.0,18.0,399.0
18.841,56.522,5.797,0.0,0.0,18.841,0.0,0.0,78088826.0,2530079.0,0.0,0.0,18.0,345.0
20.270,51.351,4.054,0.0,0.0,24.324,0.0,0.0,76998036.0,2487912.0,0.0,0.0,18.0,245.0
19.481,54.545,5.195,0.0,0.0,20.779,0.0,0.0,74647797.0,2425958.0,0.0,0.0,19.0,220.0
17.284,61.728,1.235,0.0,0.0,19.753,0.0,0.0,76330911.0,2476957.0,0.0,0.0,18.0,243.0
23.377,54.545,6.494,0.0,0.0,15.584,0.0,0.0,76064176.0,2466320.0,0.0,0.0,18.0,369.0
27.632,50.0,5.263,0.0,0.0,17.105,0.0,0.0,75092183.0,2432254.0,0.0,0.0,18.0,235.0
16.216,60.811,2.703,0.0,0.0,20.270,0.0,0.0,75025757.0,2427274.0,0.0,0.0,18.0,224.0
28.378,51.351,4.054,0.0,0.0,16.216,0.0,0.0,77171668.0,2509293.0,0.0,0.0,19.0,323.0
22.500,46.250,16.250,0.0,0.0,15.0,0.0,0.0,72689846.0,2356158.0,0.0,0.0,18.0,511.0
18.056,41.667,23.611,0.0,0.0,16.667,0.0,0.0,74454588.0,2415094.0,0.0,0.0,18.0,1227.0
27.273,44.156,12.987,0.0,0.0,15.584,0.0,0.0,70183753.0,2275761.0,0.0,0.0,18.0,611.0
22.368,53.947,6.579,0.0,0.0,17.105,0.0,0.0,73462946.0,2380734.0,0.0,0.0,19.0,227.0
20.896,52.239,11.940,0.0,0.0,14.925,0.0,0.0,78924459.0,2554238.0,0.0,0.0,18.0,310.0
