"Dstat 0.7.2 CSV output"
"Author:","Dag Wieers <dag@wieers.com>",,,,"URL:","http://dag.wieers.com/home-made/dstat/"
"Host:","Server1",,,,"User:","maki"
"Cmdline:","dstat --output server1_set_1_4.csv 1 60",,,,"Date:","13 Nov 2018 12:29:18 UTC"

"total cpu usage",,,,,,"dsk/total",,"net/total",,"paging",,"system",
"usr","sys","idl","wai","hiq","siq","read","writ","recv","send","in","out","int","csw"
12.784,23.029,44.835,13.105,0.0,6.247,363006.370,1918625.694,0.0,0.0,0.0,0.0,26.924,2128.370
16.049,40.741,34.568,0.0,0.0,8.642,0.0,0.0,69852224.0,2259446.0,0.0,0.0,18.0,3138.0
17.284,44.444,32.099,0.0,0.0,6.173,0.0,0.0,69697858.0,2257460.0,0.0,0.0,18.0,3103.0
18.293,45.122,29.268,0.0,0.0,7.317,0.0,0.0,68359511.0,2220241.0,0.0,0.0,18.0,3043.0
23.684,35.526,34.211,0.0,0.0,6.579,0.0,0.0,70545195.0,2283854.0,0.0,0.0,18.0,3097.0
19.767,41.860,32.558,0.0,0.0,5.814,0.0,0.0,69628578.0,2255014.0,0.0,0.0,19.0,3099.0
21.429,41.667,27.381,0.0,0.0,9.524,0.0,16384.0,65260747.0,2117045.0,0.0,0.0,18.0,2818.0
21.519,40.506,32.911,0.0,0.0,5.063,0.0,0.0,69524968.0,2251654.0,0.0,0.0,18.0,3066.0
18.824,43.529,32.941,0.0,0.0,4.706,0.0,0.0,70865003.0,2295688.0,0.0,0.0,18.0,3077.0
21.591,38.636,31.818,0.0,0.0,7.955,0.0,0.0,68173443.0,2211767.0,0.0,0.0,19.0,2941.0
14.815,41.975,34.568,0.0,0.0,8.642,0.0,0.0,69326229.0,2247454.0,0.0,0.0,18.0,3047.0
23.810,39.286,30.952,0.0,0.0,5.952,0.0,0.0,66173458.0,2141350.0,0.0,0.0,18.0,2913.0
24.390,36.585,32.927,0.0,0.0,6.098,0.0,0.0,68779627.0,2227766.0,0.0,0.0,18.0,2984.0
22.222,40.741,29.630,0.0,0.0,7.407,0.0,0.0,64444638.0,2096837.0,0.0,0.0,18.0,2804.0
16.867,44.578,30.120,0.0,0.0,8.434,0.0,0.0,68790144.0,2228508.0,0.0,0.0,19.0,3079.0
17.500,35.0,40.0,0.0,0.0,7.500,0.0,0.0,64294468.0,2083364.0,0.0,0.0,18.0,3261.0
18.072,40.964,34.940,0.0,0.0,6.024,0.0,0.0,64485604.0,2093797.0,0.0,0.0,18.0,3208.0
20.988,41.975,32.099,0.0,0.0,4.938,0.0,0.0,68286053.0,2211160.0,0.0,0.0,18.0,3205.0
1.031,7.216,89.691,0.0,0.0,2.062,0.0,0.0,11922434.0,386608.0,0.0,0.0,18.0,547.0
10.989,15.385,70.330,0.0,0.0,3.297,0.0,0.0,36064512.0,1172175.0,0.0,0.0,19.0,1554.0
14.815,38.272,37.037,0.0,0.0,9.877,0.0,0.0,67945752.0,2203572.0,0.0,0.0,18.0,2682.0
20.988,39.506,30.864,0.0,0.0,8.642,0.0,0.0,69099950.0,2239060.0,0.0,0.0,18.0,2831.0
24.675,33.766,31.169,0.0,0.0,10.390,0.0,0.0,69556985.0,2255079.0,0.0,0.0,18.0,2924.0
24.324,27.027,33.784,0.0,0.0,14.865,0.0,0.0,72507900.0,2347782.0,0.0,0.0,19.0,3103.0
19.697,33.333,39.394,0.0,0.0,7.576,0.0,0.0,71513687.0,2315354.0,0.0,0.0,18.0,2900.0
26.027,31.507,34.247,0.0,0.0,8.219,0.0,0.0,71070241.0,2306701.0,0.0,0.0,18.0,2972.0
21.250,35.0,31.250,0.0,0.0,12.500,0.0,0.0,71036582.0,2302106.0,0.0,0.0,18.0,2999.0
26.582,31.646,29.114,0.0,0.0,12.658,0.0,118784.0,71565491.0,2319806.0,0.0,0.0,18.0,3127.0
24.0,32.0,30.667,0.0,0.0,13.333,0.0,0.0,70257111.0,2278129.0,0.0,0.0,19.0,2980.0
20.0,38.667,30.667,0.0,0.0,10.667,0.0,0.0,71630348.0,2318218.0,0.0,0.0,18.0,3180.0
19.481,38.961,33.766,0.0,0.0,7.792,0.0,0.0,71660772.0,2322066.0,0.0,0.0,18.0,3005.0
19.737,36.842,32.895,0.0,0.0,10.526,0.0,0.0,70715546.0,2296689.0,0.0,0.0,18.0,3007.0
20.833,33.333,31.944,0.0,0.0,13.889,0.0,0.0,69179266.0,2239056.0,0.0,0.0,18.0,2961.0
22.667,32.0,34.667,0.0,0.0,10.667,0.0,0.0,71229854.0,2305614.0,0.0,0.0,19.0,3070.0
22.078,32.468,32.468,0.0,0.0,12.987,0.0,0.0,70399921.0,2285335.0,0.0,0.0,18.0,3101.0
22.785,35.443,31.646,0.0,0.0,10.127,0.0,0.0,70126032.0,2271328.0,0.0,0.0,18.0,3010.0
15.789,35.526,32.895,0.0,0.0,15.789,0.0,0.0,71388204.0,2312060.0,0.0,0.0,18.0,2985.0
20.0,30.667,33.333,0.0,0.0,16.0,0.0,0.0,70298947.0,2275732.0,0.0,0.0,18.0,2991.0
23.377,33.766,31.169,0.0,0.0,11.688,0.0,0.0,69491817.0,2256009.0,0.0,0.0,19.0,3043.0
22.667,34.667,28.0,0.0,0.0,14.667,0.0,0.0,71383722.0,2313902.0,0.0,0.0,18.0,2906.0
16.0,37.333,36.0,0.0,0.0,10.667,0.0,0.0,71643259.0,2318854.0,0.0,0.0,18.0,2866.0
22.059,32.353,33.824,0.0,0.0,11.765,0.0,0.0,68679295.0,2227349.0,0.0,0.0,18.0,2899.0
21.622,35.135,31.081,0.0,0.0,12.162,0.0,0.0,68243834.0,2211154.0,0.0,0.0,18.0,2890.0
27.027,32.432,33.784,0.0,0.0,6.757,0.0,0.0,71068205.0,2301708.0,0.0,0.0,19.0,2917.0
24.359,35.897,30.769,0.0,0.0,8.974,0.0,0.0,69154734.0,2243587.0,0.0,0.0,18.0,2935.0
27.143,30.0,32.857,0.0,0.0,10.0,0.0,0.0,70445707.0,2282672.0,0.0,0.0,18.0,3173.0
25.641,29.487,30.769,0.0,0.0,14.103,0.0,0.0,69687016.0,2257556.0,0.0,0.0,18.0,3277.0
21.053,31.579,38.158,0.0,0.0,9.211,0.0,0.0,66012418.0,2144023.0,0.0,0.0,18.0,3195.0
19.512,31.707,37.805,0.0,0.0,10.976,0.0,0.0,69177922.0,2240798.0,0.0,0.0,19.0,3145.0
21.519,37.975,31.646,0.0,0.0,8.861,0.0,0.0,71882389.0,2326964.0,0.0,0.0,18.0,2973.0
22.078,37.662,29.870,0.0,0.0,10.390,0.0,0.0,69725569.0,2263269.0,0.0,0.0,18.0,3019.0
27.848,25.316,32.911,0.0,0.0,13.924,0.0,0.0,70670683.0,2286900.0,0.0,0.0,18.0,2892.0
14.634,23.171,51.220,0.0,0.0,10.976,0.0,0.0,54779722.0,1776354.0,0.0,0.0,19.0,2350.0
12.195,21.951,59.756,0.0,0.0,6.098,0.0,0.0,47045607.0,1530615.0,0.0,0.0,18.0,2036.0
17.500,28.750,45.0,0.0,0.0,8.750,0.0,0.0,61098176.0,1978828.0,0.0,0.0,18.0,2523.0
16.0,30.667,45.333,0.0,0.0,8.0,0.0,0.0,61569556.0,1996528.0,0.0,0.0,18.0,2562.0
20.0,33.333,36.0,0.0,0.0,10.667,0.0,0.0,69150519.0,2243375.0,0.0,0.0,18.0,2760.0
17.808,34.247,36.986,0.0,0.0,10.959,0.0,0.0,69542498.0,2252214.0,0.0,0.0,19.0,2910.0
17.333,36.0,36.0,1.333,0.0,9.333,0.0,20480.0,71690771.0,2322022.0,0.0,0.0,18.0,2875.0
25.974,24.675,36.364,0.0,0.0,12.987,0.0,0.0,69435835.0,2253153.0,0.0,0.0,18.0,2812.0
23.377,33.766,32.468,0.0,0.0,10.390,0.0,0.0,71249860.0,2309282.0,0.0,0.0,18.0,2852.0
