1         Threads
64        Connections per thread
70        Seconds


ALL STATS
========================================================================
Type        Ops/sec     Hits/sec   Misses/sec      Latency       KB/sec 
------------------------------------------------------------------------
Sets        1953.04          ---          ---     32.76000      7882.54 
Gets           0.00         0.00         0.00      0.00000         0.00 
Waits          0.00          ---          ---      0.00000          --- 
Totals      1953.04         0.00         0.00     32.76000      7882.54 


Request Latency Distribution
Type     <= msec         Percent
------------------------------------------------------------------------
SET       0.920         0.00
SET       0.940         0.00
SET       0.950         0.00
SET       0.960         0.01
SET       0.990         0.01
SET       1.000         0.02
SET       1.100         0.06
SET       1.200         0.13
SET       1.300         0.22
SET       1.400         0.34
SET       1.500         0.46
SET       1.600         0.59
SET       1.700         0.75
SET       1.800         0.86
SET       1.900         0.98
SET       2.000         1.10
SET       2.100         1.21
SET       2.200         1.30
SET       2.300         1.35
SET       2.400         1.39
SET       2.500         1.44
SET       2.600         1.48
SET       2.700         1.51
SET       2.800         1.55
SET       2.900         1.57
SET       3.000         1.60
SET       3.100         1.61
SET       3.200         1.62
SET       3.300         1.64
SET       3.400         1.64
SET       3.500         1.65
SET       3.600         1.66
SET       3.700         1.66
SET       3.800         1.67
SET       3.900         1.68
SET       4.000         1.68
SET       4.100         1.69
SET       4.200         1.70
SET       4.300         1.70
SET       4.400         1.71
SET       4.500         1.71
SET       4.600         1.72
SET       4.700         1.72
SET       4.800         1.72
SET       5.000         1.72
SET       5.100         1.72
SET       5.200         1.73
SET       5.300         1.73
SET       5.500         1.73
SET       5.700         1.73
SET       5.800         1.73
SET       6.000         1.74
SET       6.100         1.74
SET       6.200         1.74
SET       6.300         1.74
SET       6.400         1.74
SET       6.500         1.75
SET       6.600         1.75
SET       6.700         1.76
SET       6.800         1.76
SET       6.900         1.76
SET       7.000         1.76
SET       7.100         1.76
SET       7.200         1.76
SET       7.300         1.77
SET       7.400         1.77
SET       7.500         1.77
SET       7.600         1.77
SET       7.700         1.77
SET       7.800         1.78
SET       8.500         1.78
SET       8.600         1.78
SET       8.700         1.78
SET       9.000         1.78
SET       9.100         1.79
SET       9.300         1.79
SET       9.400         1.79
SET       9.600         1.79
SET       9.700         1.79
SET      11.000         1.79
SET      12.000         1.80
SET      15.000         1.80
SET      16.000         1.81
SET      17.000         1.83
SET      18.000         1.86
SET      19.000         1.93
SET      20.000         2.07
SET      21.000         2.30
SET      22.000         2.77
SET      23.000         3.72
SET      24.000         4.95
SET      25.000         6.46
SET      26.000         8.75
SET      27.000        12.31
SET      28.000        17.10
SET      29.000        23.09
SET      30.000        30.27
SET      31.000        37.53
SET      32.000        45.07
SET      33.000        52.89
SET      34.000        61.01
SET      35.000        69.20
SET      36.000        77.27
SET      37.000        84.45
SET      38.000        89.65
SET      39.000        92.96
SET      40.000        94.94
SET      41.000        96.15
SET      42.000        96.96
SET      43.000        97.59
SET      44.000        98.02
SET      45.000        98.41
SET      46.000        98.66
SET      47.000        98.88
SET      48.000        99.01
SET      49.000        99.13
SET      50.000        99.24
SET      51.000        99.34
SET      52.000        99.43
SET      53.000        99.52
SET      54.000        99.59
SET      55.000        99.66
SET      56.000        99.73
SET      57.000        99.77
SET      58.000        99.81
SET      59.000        99.85
SET      60.000        99.87
SET      61.000        99.89
SET      62.000        99.90
SET      63.000        99.91
SET      64.000        99.92
SET      65.000        99.92
SET      66.000        99.93
SET      67.000        99.93
SET      68.000        99.93
SET      69.000        99.93
SET      70.000        99.94
SET      71.000        99.94
SET      72.000        99.94
SET      78.000        99.95
SET      80.000        99.96
SET     130.000        99.96
SET     140.000        99.96
SET     150.000        99.98
SET     160.000        99.98
SET     170.000        99.99
SET     180.000        99.99
SET     190.000        99.99
SET     270.000       100.00
SET     280.000       100.00
SET     290.000       100.00
SET     320.000       100.00
SET     330.000       100.00
---
---
