1         Threads
42        Connections per thread
70        Seconds


ALL STATS
========================================================================
Type        Ops/sec     Hits/sec   Misses/sec      Latency       KB/sec 
------------------------------------------------------------------------
Sets        1880.89          ---          ---     22.32100      7591.31 
Gets           0.00         0.00         0.00      0.00000         0.00 
Waits          0.00          ---          ---      0.00000          --- 
Totals      1880.89         0.00         0.00     22.32100      7591.31 


Request Latency Distribution
Type     <= msec         Percent
------------------------------------------------------------------------
SET       2.900         0.00
SET       3.000         0.00
SET       3.500         0.00
SET       3.700         0.00
SET       3.800         0.00
SET       3.900         0.00
SET       4.100         0.01
SET       4.200         0.01
SET       4.300         0.01
SET       4.400         0.01
SET       4.500         0.02
SET       4.600         0.02
SET       4.700         0.03
SET       4.800         0.03
SET       5.000         0.03
SET       5.100         0.03
SET       5.200         0.03
SET       5.300         0.04
SET       5.400         0.04
SET       5.500         0.04
SET       5.600         0.05
SET       5.700         0.05
SET       5.800         0.05
SET       5.900         0.05
SET       6.000         0.05
SET       6.100         0.06
SET       6.200         0.06
SET       6.300         0.06
SET       6.400         0.07
SET       6.500         0.07
SET       6.600         0.08
SET       6.700         0.08
SET       6.800         0.08
SET       6.900         0.08
SET       7.000         0.08
SET       7.100         0.08
SET       7.200         0.09
SET       7.300         0.09
SET       7.400         0.09
SET       7.700         0.09
SET       7.800         0.09
SET       8.100         0.09
SET       8.300         0.09
SET       8.400         0.10
SET       8.500         0.10
SET       8.600         0.11
SET       8.700         0.11
SET       8.800         0.11
SET       8.900         0.11
SET       9.000         0.12
SET       9.100         0.12
SET       9.200         0.12
SET       9.300         0.13
SET       9.400         0.14
SET       9.500         0.14
SET       9.600         0.14
SET       9.700         0.15
SET       9.800         0.16
SET       9.900         0.16
SET      10.000         0.24
SET      11.000         0.48
SET      12.000         0.92
SET      13.000         1.57
SET      14.000         2.40
SET      15.000         4.01
SET      16.000         6.99
SET      17.000        11.98
SET      18.000        18.49
SET      19.000        25.56
SET      20.000        32.23
SET      21.000        39.27
SET      22.000        48.32
SET      23.000        59.88
SET      24.000        72.29
SET      25.000        82.77
SET      26.000        89.81
SET      27.000        93.75
SET      28.000        95.67
SET      29.000        96.79
SET      30.000        97.52
SET      31.000        98.04
SET      32.000        98.43
SET      33.000        98.76
SET      34.000        99.01
SET      35.000        99.23
SET      36.000        99.34
SET      37.000        99.44
SET      38.000        99.53
SET      39.000        99.60
SET      40.000        99.67
SET      41.000        99.73
SET      42.000        99.78
SET      43.000        99.85
SET      44.000        99.89
SET      45.000        99.91
SET      46.000        99.92
SET      47.000        99.94
SET      48.000        99.95
SET      49.000        99.96
SET      50.000        99.96
SET      51.000        99.96
SET      53.000        99.96
SET      54.000        99.96
SET      55.000        99.96
SET      82.000        99.96
SET      87.000        99.96
SET     100.000        99.97
SET     110.000        99.97
SET     120.000        99.97
SET     130.000        99.97
SET     140.000        99.97
SET     150.000        99.99
SET     160.000       100.00
---
---
