1         Threads
2         Connections per thread
70        Seconds


ALL STATS
========================================================================
Type        Ops/sec     Hits/sec   Misses/sec      Latency       KB/sec 
------------------------------------------------------------------------
Sets        1029.36          ---          ---      1.93600      4154.52 
Gets           0.00         0.00         0.00      0.00000         0.00 
Waits          0.00          ---          ---      0.00000          --- 
Totals      1029.36         0.00         0.00      1.93600      4154.52 


Request Latency Distribution
Type     <= msec         Percent
------------------------------------------------------------------------
SET       0.720         0.00
SET       0.760         0.01
SET       0.770         0.01
SET       0.790         0.01
SET       0.800         0.02
SET       0.820         0.02
SET       0.830         0.02
SET       0.840         0.03
SET       0.850         0.04
SET       0.860         0.07
SET       0.870         0.10
SET       0.880         0.12
SET       0.890         0.16
SET       0.900         0.21
SET       0.910         0.26
SET       0.920         0.33
SET       0.930         0.40
SET       0.940         0.51
SET       0.950         0.63
SET       0.960         0.75
SET       0.970         0.90
SET       0.980         1.08
SET       0.990         1.26
SET       1.000         2.69
SET       1.100         7.36
SET       1.200        14.52
SET       1.300        23.13
SET       1.400        32.80
SET       1.500        42.26
SET       1.600        50.47
SET       1.700        57.84
SET       1.800        64.04
SET       1.900        69.15
SET       2.000        73.36
SET       2.100        76.90
SET       2.200        79.73
SET       2.300        82.15
SET       2.400        84.22
SET       2.500        86.01
SET       2.600        87.53
SET       2.700        88.73
SET       2.800        89.73
SET       2.900        90.62
SET       3.000        91.39
SET       3.100        92.02
SET       3.200        92.58
SET       3.300        93.11
SET       3.400        93.59
SET       3.500        94.02
SET       3.600        94.42
SET       3.700        94.83
SET       3.800        95.15
SET       3.900        95.47
SET       4.000        95.75
SET       4.100        95.97
SET       4.200        96.20
SET       4.300        96.42
SET       4.400        96.63
SET       4.500        96.81
SET       4.600        96.99
SET       4.700        97.14
SET       4.800        97.30
SET       4.900        97.43
SET       5.000        97.56
SET       5.100        97.68
SET       5.200        97.82
SET       5.300        97.94
SET       5.400        98.05
SET       5.500        98.15
SET       5.600        98.22
SET       5.700        98.31
SET       5.800        98.41
SET       5.900        98.49
SET       6.000        98.55
SET       6.100        98.62
SET       6.200        98.70
SET       6.300        98.76
SET       6.400        98.82
SET       6.500        98.87
SET       6.600        98.96
SET       6.700        99.02
SET       6.800        99.08
SET       6.900        99.13
SET       7.000        99.19
SET       7.100        99.24
SET       7.200        99.29
SET       7.300        99.34
SET       7.400        99.37
SET       7.500        99.41
SET       7.600        99.46
SET       7.700        99.50
SET       7.800        99.53
SET       7.900        99.57
SET       8.000        99.61
SET       8.100        99.63
SET       8.200        99.66
SET       8.300        99.69
SET       8.400        99.71
SET       8.500        99.73
SET       8.600        99.74
SET       8.700        99.76
SET       8.800        99.77
SET       8.900        99.77
SET       9.000        99.78
SET       9.100        99.80
SET       9.200        99.82
SET       9.300        99.82
SET       9.400        99.83
SET       9.500        99.85
SET       9.600        99.85
SET       9.700        99.86
SET       9.800        99.86
SET       9.900        99.88
SET      10.000        99.91
SET      11.000        99.96
SET      12.000        99.97
SET      13.000        99.98
SET      14.000        99.98
SET      15.000        99.99
SET      16.000        99.99
SET      17.000        99.99
SET      18.000       100.00
SET      21.000       100.00
---
---
