1         Threads
4         Connections per thread
70        Seconds


ALL STATS
========================================================================
Type        Ops/sec     Hits/sec   Misses/sec      Latency       KB/sec 
------------------------------------------------------------------------
Sets        1544.43          ---          ---      2.58200      6233.36 
Gets           0.00         0.00         0.00      0.00000         0.00 
Waits          0.00          ---          ---      0.00000          --- 
Totals      1544.43         0.00         0.00      2.58200      6233.36 


Request Latency Distribution
Type     <= msec         Percent
------------------------------------------------------------------------
SET       0.760         0.00
SET       0.790         0.00
SET       0.810         0.00
SET       0.820         0.01
SET       0.830         0.01
SET       0.840         0.01
SET       0.850         0.02
SET       0.860         0.03
SET       0.870         0.04
SET       0.880         0.06
SET       0.890         0.07
SET       0.900         0.09
SET       0.910         0.12
SET       0.920         0.16
SET       0.930         0.20
SET       0.940         0.23
SET       0.950         0.27
SET       0.960         0.31
SET       0.970         0.36
SET       0.980         0.44
SET       0.990         0.52
SET       1.000         1.19
SET       1.100         3.40
SET       1.200         7.20
SET       1.300        12.52
SET       1.400        19.27
SET       1.500        26.77
SET       1.600        34.14
SET       1.700        41.23
SET       1.800        47.86
SET       1.900        53.79
SET       2.000        58.98
SET       2.100        63.43
SET       2.200        67.20
SET       2.300        70.31
SET       2.400        72.79
SET       2.500        74.87
SET       2.600        76.64
SET       2.700        78.14
SET       2.800        79.44
SET       2.900        80.49
SET       3.000        81.36
SET       3.100        82.16
SET       3.200        82.83
SET       3.300        83.42
SET       3.400        83.90
SET       3.500        84.40
SET       3.600        84.87
SET       3.700        85.26
SET       3.800        85.62
SET       3.900        85.90
SET       4.000        86.17
SET       4.100        86.43
SET       4.200        86.69
SET       4.300        86.90
SET       4.400        87.13
SET       4.500        87.32
SET       4.600        87.54
SET       4.700        87.72
SET       4.800        87.91
SET       4.900        88.06
SET       5.000        88.21
SET       5.100        88.36
SET       5.200        88.54
SET       5.300        88.66
SET       5.400        88.79
SET       5.500        88.91
SET       5.600        89.06
SET       5.700        89.19
SET       5.800        89.34
SET       5.900        89.50
SET       6.000        89.71
SET       6.100        89.91
SET       6.200        90.19
SET       6.300        90.51
SET       6.400        90.90
SET       6.500        91.34
SET       6.600        91.80
SET       6.700        92.25
SET       6.800        92.77
SET       6.900        93.36
SET       7.000        93.94
SET       7.100        94.53
SET       7.200        95.05
SET       7.300        95.60
SET       7.400        96.14
SET       7.500        96.60
SET       7.600        96.99
SET       7.700        97.36
SET       7.800        97.67
SET       7.900        97.91
SET       8.000        98.14
SET       8.100        98.33
SET       8.200        98.50
SET       8.300        98.64
SET       8.400        98.79
SET       8.500        98.89
SET       8.600        98.99
SET       8.700        99.07
SET       8.800        99.14
SET       8.900        99.20
SET       9.000        99.23
SET       9.100        99.30
SET       9.200        99.35
SET       9.300        99.38
SET       9.400        99.43
SET       9.500        99.47
SET       9.600        99.51
SET       9.700        99.53
SET       9.800        99.56
SET       9.900        99.58
SET      10.000        99.71
SET      11.000        99.84
SET      12.000        99.89
SET      13.000        99.92
SET      14.000        99.93
SET      15.000        99.95
SET      16.000        99.96
SET      17.000        99.97
SET      18.000        99.98
SET      19.000        99.98
SET      20.000        99.98
SET      21.000        99.98
SET      23.000        99.99
SET      24.000        99.99
SET      26.000       100.00
SET      27.000       100.00
SET      30.000       100.00
---
---
