2         Threads
14        Connections per thread
70        Seconds


ALL STATS
========================================================================
Type        Ops/sec     Hits/sec   Misses/sec      Latency       KB/sec 
------------------------------------------------------------------------
Sets        3722.44          ---          ---      7.41100     15023.87 
Gets           0.00         0.00         0.00      0.00000         0.00 
Waits          0.00          ---          ---      0.00000          --- 
Totals      3722.44         0.00         0.00      7.41100     15023.87 


Request Latency Distribution
Type     <= msec         Percent
------------------------------------------------------------------------
SET       1.300         0.00
SET       1.400         0.00
SET       1.500         0.02
SET       1.600         0.08
SET       1.700         0.27
SET       1.800         0.62
SET       1.900         1.16
SET       2.000         1.86
SET       2.100         2.77
SET       2.200         3.80
SET       2.300         4.99
SET       2.400         6.24
SET       2.500         7.57
SET       2.600         8.92
SET       2.700        10.26
SET       2.800        11.57
SET       2.900        12.84
SET       3.000        14.12
SET       3.100        15.37
SET       3.200        16.54
SET       3.300        17.72
SET       3.400        18.87
SET       3.500        20.00
SET       3.600        21.12
SET       3.700        22.19
SET       3.800        23.25
SET       3.900        24.32
SET       4.000        25.36
SET       4.100        26.35
SET       4.200        27.28
SET       4.300        28.12
SET       4.400        28.90
SET       4.500        29.68
SET       4.600        30.37
SET       4.700        31.02
SET       4.800        31.64
SET       4.900        32.21
SET       5.000        32.75
SET       5.100        33.28
SET       5.200        33.79
SET       5.300        34.30
SET       5.400        34.74
SET       5.500        35.16
SET       5.600        35.58
SET       5.700        35.95
SET       5.800        36.35
SET       5.900        36.74
SET       6.000        37.08
SET       6.100        37.41
SET       6.200        37.73
SET       6.300        38.09
SET       6.400        38.44
SET       6.500        38.78
SET       6.600        39.15
SET       6.700        39.53
SET       6.800        39.95
SET       6.900        40.38
SET       7.000        40.85
SET       7.100        41.35
SET       7.200        41.89
SET       7.300        42.51
SET       7.400        43.20
SET       7.500        43.97
SET       7.600        44.82
SET       7.700        45.75
SET       7.800        46.82
SET       7.900        47.99
SET       8.000        49.23
SET       8.100        50.60
SET       8.200        51.96
SET       8.300        53.41
SET       8.400        54.93
SET       8.500        56.44
SET       8.600        58.02
SET       8.700        59.57
SET       8.800        61.24
SET       8.900        62.93
SET       9.000        64.64
SET       9.100        66.34
SET       9.200        68.05
SET       9.300        69.72
SET       9.400        71.34
SET       9.500        72.87
SET       9.600        74.39
SET       9.700        75.85
SET       9.800        77.33
SET       9.900        78.70
SET      10.000        85.09
SET      11.000        92.01
SET      12.000        95.29
SET      13.000        97.07
SET      14.000        97.98
SET      15.000        98.54
SET      16.000        98.90
SET      17.000        99.16
SET      18.000        99.37
SET      19.000        99.56
SET      20.000        99.67
SET      21.000        99.74
SET      22.000        99.80
SET      23.000        99.83
SET      24.000        99.85
SET      25.000        99.87
SET      26.000        99.88
SET      27.000        99.90
SET      28.000        99.92
SET      29.000        99.95
SET      30.000        99.96
SET      31.000        99.97
SET      32.000        99.97
SET      33.000        99.97
SET      34.000        99.97
SET      35.000        99.98
SET      36.000        99.98
SET      37.000        99.98
SET      39.000        99.98
SET      40.000        99.98
SET      42.000        99.98
SET     100.000        99.98
SET     110.000        99.99
SET     160.000        99.99
SET     170.000        99.99
SET     190.000        99.99
SET     210.000        99.99
SET     220.000        99.99
SET     230.000       100.00
SET     250.000       100.00
SET     260.000       100.00
---
---
