2         Threads
14        Connections per thread
70        Seconds


ALL STATS
========================================================================
Type        Ops/sec     Hits/sec   Misses/sec      Latency       KB/sec 
------------------------------------------------------------------------
Sets        2124.69          ---          ---     12.98800      8575.30 
Gets           0.00         0.00         0.00      0.00000         0.00 
Waits          0.00          ---          ---      0.00000          --- 
Totals      2124.69         0.00         0.00     12.98800      8575.30 


Request Latency Distribution
Type     <= msec         Percent
------------------------------------------------------------------------
SET       3.000         0.00
SET       3.200         0.00
SET       3.300         0.00
SET       3.800         0.00
SET       4.000         0.00
SET       4.100         0.00
SET       4.200         0.01
SET       4.300         0.01
SET       4.400         0.01
SET       4.700         0.01
SET       4.800         0.01
SET       4.900         0.01
SET       5.000         0.01
SET       5.100         0.01
SET       5.300         0.01
SET       5.400         0.01
SET       5.600         0.02
SET       5.700         0.02
SET       5.800         0.02
SET       5.900         0.02
SET       6.100         0.02
SET       6.200         0.02
SET       6.400         0.02
SET       6.500         0.02
SET       6.600         0.02
SET       6.700         0.02
SET       6.800         0.03
SET       6.900         0.03
SET       7.000         0.03
SET       7.100         0.04
SET       7.200         0.04
SET       7.300         0.05
SET       7.400         0.05
SET       7.500         0.07
SET       7.600         0.09
SET       7.700         0.11
SET       7.800         0.14
SET       7.900         0.18
SET       8.000         0.25
SET       8.100         0.33
SET       8.200         0.44
SET       8.300         0.58
SET       8.400         0.78
SET       8.500         1.01
SET       8.600         1.32
SET       8.700         1.68
SET       8.800         2.15
SET       8.900         2.68
SET       9.000         3.31
SET       9.100         4.07
SET       9.200         4.91
SET       9.300         5.88
SET       9.400         6.95
SET       9.500         8.15
SET       9.600         9.47
SET       9.700        10.95
SET       9.800        12.59
SET       9.900        14.34
SET      10.000        25.08
SET      11.000        45.04
SET      12.000        59.58
SET      13.000        69.79
SET      14.000        77.52
SET      15.000        83.60
SET      16.000        87.81
SET      17.000        90.63
SET      18.000        92.57
SET      19.000        94.06
SET      20.000        95.23
SET      21.000        96.10
SET      22.000        96.76
SET      23.000        97.32
SET      24.000        97.82
SET      25.000        98.23
SET      26.000        98.54
SET      27.000        98.82
SET      28.000        99.04
SET      29.000        99.23
SET      30.000        99.41
SET      31.000        99.58
SET      32.000        99.66
SET      33.000        99.71
SET      34.000        99.77
SET      35.000        99.81
SET      36.000        99.84
SET      37.000        99.85
SET      38.000        99.86
SET      39.000        99.88
SET      40.000        99.88
SET      41.000        99.90
SET      42.000        99.90
SET      43.000        99.91
SET      44.000        99.91
SET      45.000        99.92
SET      46.000        99.92
SET     110.000        99.95
SET     120.000        99.98
SET     130.000        99.98
SET     140.000        99.98
SET     150.000        99.99
SET     160.000        99.99
SET     210.000       100.00
SET     220.000       100.00
---
---
