2         Threads
42        Connections per thread
70        Seconds


ALL STATS
========================================================================
Type        Ops/sec     Hits/sec   Misses/sec      Latency       KB/sec 
------------------------------------------------------------------------
Sets        2166.49          ---          ---     38.76900      8744.02 
Gets           0.00         0.00         0.00      0.00000         0.00 
Waits          0.00          ---          ---      0.00000          --- 
Totals      2166.49         0.00         0.00     38.76900      8744.02 


Request Latency Distribution
Type     <= msec         Percent
------------------------------------------------------------------------
SET       3.500         0.00
SET       3.800         0.00
SET       4.200         0.00
SET       4.300         0.00
SET       4.700         0.00
SET       4.800         0.00
SET       5.400         0.00
SET       6.800         0.01
SET      11.000         0.01
SET      12.000         0.01
SET      13.000         0.01
SET      14.000         0.01
SET      15.000         0.01
SET      17.000         0.01
SET      18.000         0.01
SET      19.000         0.01
SET      20.000         0.02
SET      21.000         0.02
SET      22.000         0.02
SET      23.000         0.03
SET      24.000         0.04
SET      25.000         0.05
SET      26.000         0.08
SET      27.000         0.16
SET      28.000         0.59
SET      29.000         1.89
SET      30.000         4.89
SET      31.000        10.22
SET      32.000        17.22
SET      33.000        25.68
SET      34.000        34.58
SET      35.000        43.10
SET      36.000        50.94
SET      37.000        58.01
SET      38.000        63.97
SET      39.000        69.16
SET      40.000        73.53
SET      41.000        77.20
SET      42.000        80.32
SET      43.000        82.89
SET      44.000        85.02
SET      45.000        86.72
SET      46.000        88.11
SET      47.000        89.29
SET      48.000        90.32
SET      49.000        91.15
SET      50.000        91.87
SET      51.000        92.45
SET      52.000        92.98
SET      53.000        93.57
SET      54.000        94.14
SET      55.000        94.60
SET      56.000        95.00
SET      57.000        95.39
SET      58.000        95.83
SET      59.000        96.17
SET      60.000        96.48
SET      61.000        96.80
SET      62.000        97.09
SET      63.000        97.36
SET      64.000        97.59
SET      65.000        97.74
SET      66.000        97.96
SET      67.000        98.18
SET      68.000        98.34
SET      69.000        98.49
SET      70.000        98.64
SET      71.000        98.77
SET      72.000        98.89
SET      73.000        98.98
SET      74.000        99.07
SET      75.000        99.14
SET      76.000        99.21
SET      77.000        99.29
SET      78.000        99.36
SET      79.000        99.43
SET      80.000        99.49
SET      81.000        99.53
SET      82.000        99.55
SET      83.000        99.58
SET      84.000        99.64
SET      85.000        99.68
SET      86.000        99.71
SET      87.000        99.73
SET      88.000        99.76
SET      89.000        99.77
SET      90.000        99.78
SET      91.000        99.79
SET      92.000        99.80
SET      93.000        99.81
SET      94.000        99.82
SET      95.000        99.83
SET      96.000        99.83
SET      97.000        99.83
SET      98.000        99.84
SET      99.000        99.85
SET     100.000        99.88
SET     110.000        99.91
SET     120.000        99.91
SET     130.000        99.92
SET     140.000        99.93
SET     150.000        99.98
SET     160.000        99.99
SET     170.000        99.99
SET     180.000        99.99
SET     210.000        99.99
SET     220.000        99.99
SET     230.000       100.00
---
---
