2         Threads
42        Connections per thread
70        Seconds


ALL STATS
========================================================================
Type        Ops/sec     Hits/sec   Misses/sec      Latency       KB/sec 
------------------------------------------------------------------------
Sets        2844.78          ---          ---     29.52300     11481.61 
Gets           0.00         0.00         0.00      0.00000         0.00 
Waits          0.00          ---          ---      0.00000          --- 
Totals      2844.78         0.00         0.00     29.52300     11481.61 


Request Latency Distribution
Type     <= msec         Percent
------------------------------------------------------------------------
SET       1.300         0.00
SET       1.400         0.00
SET       1.500         0.01
SET       1.600         0.03
SET       1.700         0.05
SET       1.800         0.08
SET       1.900         0.10
SET       2.000         0.13
SET       2.100         0.15
SET       2.200         0.18
SET       2.300         0.20
SET       2.400         0.21
SET       2.500         0.23
SET       2.600         0.24
SET       2.700         0.26
SET       2.800         0.27
SET       2.900         0.28
SET       3.000         0.28
SET       3.100         0.29
SET       3.200         0.30
SET       3.300         0.30
SET       3.400         0.30
SET       3.500         0.31
SET       3.600         0.32
SET       3.700         0.32
SET       3.800         0.32
SET       3.900         0.33
SET       4.000         0.33
SET       4.100         0.33
SET       4.200         0.33
SET       4.300         0.33
SET       4.400         0.34
SET       4.500         0.34
SET       4.600         0.34
SET       4.700         0.34
SET       4.800         0.34
SET       5.000         0.34
SET       5.100         0.35
SET       5.200         0.35
SET       5.300         0.35
SET       5.400         0.35
SET       5.500         0.35
SET       5.600         0.35
SET       5.700         0.36
SET       5.800         0.36
SET       5.900         0.36
SET       6.100         0.37
SET       6.200         0.37
SET       6.300         0.37
SET       6.400         0.37
SET       6.500         0.37
SET       6.600         0.38
SET       6.700         0.38
SET       6.800         0.38
SET       6.900         0.38
SET       7.000         0.38
SET       7.100         0.39
SET       7.200         0.39
SET       7.300         0.39
SET       7.400         0.39
SET       7.500         0.40
SET       7.600         0.40
SET       7.700         0.41
SET       7.800         0.41
SET       7.900         0.42
SET       8.000         0.42
SET       8.100         0.43
SET       8.200         0.43
SET       8.300         0.43
SET       8.400         0.43
SET       8.500         0.44
SET       8.600         0.44
SET       8.700         0.44
SET       8.800         0.44
SET       8.900         0.44
SET       9.000         0.44
SET       9.100         0.44
SET       9.200         0.45
SET       9.400         0.45
SET       9.500         0.45
SET       9.600         0.45
SET       9.700         0.45
SET       9.800         0.45
SET      10.000         0.46
SET      11.000         0.46
SET      12.000         0.46
SET      13.000         0.47
SET      14.000         0.47
SET      15.000         0.47
SET      16.000         0.47
SET      17.000         0.48
SET      18.000         0.56
SET      19.000         0.97
SET      20.000         1.89
SET      21.000         3.75
SET      22.000         6.26
SET      23.000         9.35
SET      24.000        14.00
SET      25.000        19.89
SET      26.000        26.11
SET      27.000        32.85
SET      28.000        41.40
SET      29.000        53.09
SET      30.000        65.31
SET      31.000        74.27
SET      32.000        79.75
SET      33.000        83.27
SET      34.000        86.59
SET      35.000        90.13
SET      36.000        93.18
SET      37.000        95.19
SET      38.000        96.42
SET      39.000        97.15
SET      40.000        97.68
SET      41.000        98.00
SET      42.000        98.30
SET      43.000        98.49
SET      44.000        98.67
SET      45.000        98.88
SET      46.000        99.01
SET      47.000        99.17
SET      48.000        99.29
SET      49.000        99.39
SET      50.000        99.50
SET      51.000        99.60
SET      52.000        99.66
SET      53.000        99.69
SET      54.000        99.73
SET      55.000        99.77
SET      56.000        99.79
SET      57.000        99.81
SET      58.000        99.82
SET      59.000        99.82
SET      60.000        99.83
SET      61.000        99.84
SET      62.000        99.84
SET      63.000        99.85
SET      64.000        99.87
SET      65.000        99.88
SET      66.000        99.88
SET      67.000        99.88
SET      68.000        99.89
SET      69.000        99.90
SET      70.000        99.90
SET      71.000        99.90
SET      72.000        99.90
SET      73.000        99.90
SET     130.000        99.93
SET     140.000        99.95
SET     150.000        99.95
SET     160.000        99.95
SET     170.000        99.96
SET     180.000        99.97
SET     190.000        99.97
SET     200.000        99.97
SET     350.000        99.98
SET     360.000        99.99
SET     370.000       100.00
---
---
