2         Threads
8         Connections per thread
70        Seconds


ALL STATS
========================================================================
Type        Ops/sec     Hits/sec   Misses/sec      Latency       KB/sec 
------------------------------------------------------------------------
Sets        2069.53          ---          ---      7.72600      8352.68 
Gets           0.00         0.00         0.00      0.00000         0.00 
Waits          0.00          ---          ---      0.00000          --- 
Totals      2069.53         0.00         0.00      7.72600      8352.68 


Request Latency Distribution
Type     <= msec         Percent
------------------------------------------------------------------------
SET       2.000         0.00
SET       2.100         0.00
SET       2.300         0.00
SET       2.400         0.00
SET       2.500         0.01
SET       2.600         0.01
SET       2.700         0.01
SET       2.800         0.02
SET       2.900         0.02
SET       3.000         0.03
SET       3.100         0.04
SET       3.200         0.05
SET       3.300         0.07
SET       3.400         0.09
SET       3.500         0.12
SET       3.600         0.16
SET       3.700         0.22
SET       3.800         0.28
SET       3.900         0.35
SET       4.000         0.45
SET       4.100         0.59
SET       4.200         0.78
SET       4.300         1.06
SET       4.400         1.42
SET       4.500         1.90
SET       4.600         2.62
SET       4.700         3.51
SET       4.800         4.63
SET       4.900         6.02
SET       5.000         7.70
SET       5.100         9.72
SET       5.200        11.97
SET       5.300        14.51
SET       5.400        17.31
SET       5.500        20.17
SET       5.600        23.28
SET       5.700        26.41
SET       5.800        29.62
SET       5.900        32.88
SET       6.000        36.01
SET       6.100        39.11
SET       6.200        42.16
SET       6.300        45.08
SET       6.400        47.85
SET       6.500        50.52
SET       6.600        53.01
SET       6.700        55.43
SET       6.800        57.59
SET       6.900        59.73
SET       7.000        61.72
SET       7.100        63.59
SET       7.200        65.29
SET       7.300        66.94
SET       7.400        68.47
SET       7.500        69.96
SET       7.600        71.27
SET       7.700        72.49
SET       7.800        73.60
SET       7.900        74.74
SET       8.000        75.79
SET       8.100        76.74
SET       8.200        77.66
SET       8.300        78.46
SET       8.400        79.17
SET       8.500        79.95
SET       8.600        80.61
SET       8.700        81.28
SET       8.800        81.85
SET       8.900        82.43
SET       9.000        83.03
SET       9.100        83.56
SET       9.200        83.99
SET       9.300        84.44
SET       9.400        84.84
SET       9.500        85.30
SET       9.600        85.72
SET       9.700        86.14
SET       9.800        86.56
SET       9.900        86.97
SET      10.000        89.06
SET      11.000        92.60
SET      12.000        94.96
SET      13.000        96.37
SET      14.000        97.39
SET      15.000        98.17
SET      16.000        98.74
SET      17.000        99.08
SET      18.000        99.30
SET      19.000        99.43
SET      20.000        99.53
SET      21.000        99.63
SET      22.000        99.71
SET      23.000        99.74
SET      24.000        99.78
SET      25.000        99.82
SET      26.000        99.84
SET      27.000        99.86
SET      28.000        99.86
SET      29.000        99.88
SET      30.000        99.88
SET      31.000        99.88
SET      32.000        99.89
SET      33.000        99.89
SET      35.000        99.89
SET      37.000        99.89
SET      38.000        99.89
SET      56.000        99.89
SET      58.000        99.89
SET      64.000        99.89
SET      65.000        99.90
SET      75.000        99.90
SET      87.000        99.90
SET      90.000        99.90
SET      92.000        99.90
SET      93.000        99.90
SET      94.000        99.91
SET      95.000        99.91
SET      96.000        99.91
SET      97.000        99.91
SET      98.000        99.91
SET      99.000        99.91
SET     100.000        99.92
SET     110.000        99.94
SET     130.000        99.94
SET     140.000        99.94
SET     190.000        99.95
SET     210.000        99.95
SET     280.000        99.96
SET     290.000        99.96
SET     380.000        99.96
SET     460.000        99.97
SET     690.000        99.97
SET     710.000        99.97
SET     800.000        99.98
SET     840.000        99.98
SET     960.000        99.98
SET     970.000        99.99
SET    1100.000       100.00
---
---
