2         Threads
10        Connections per thread
70        Seconds


ALL STATS
========================================================================
Type        Ops/sec     Hits/sec   Misses/sec      Latency       KB/sec 
------------------------------------------------------------------------
Sets           0.00          ---          ---      0.00000         0.00 
Gets         976.63       976.63         0.00     20.47400      3955.90 
Waits          0.00          ---          ---      0.00000          --- 
Totals       976.63       976.63         0.00     20.47400      3955.90 


Request Latency Distribution
Type     <= msec         Percent
------------------------------------------------------------------------
---
GET       0.360         0.00
GET       0.410         0.00
GET       0.420         0.01
GET       0.430         0.01
GET       0.440         0.01
GET       0.460         0.01
GET       0.490         0.01
GET       0.500         0.02
GET       0.510         0.02
GET       0.520         0.02
GET       0.530         0.03
GET       0.540         0.03
GET       0.550         0.04
GET       0.560         0.04
GET       0.570         0.04
GET       0.580         0.05
GET       0.590         0.05
GET       0.600         0.05
GET       0.610         0.05
GET       0.640         0.06
GET       0.650         0.06
GET       0.660         0.06
GET       0.670         0.07
GET       0.680         0.07
GET       0.690         0.08
GET       0.700         0.08
GET       0.710         0.09
GET       0.720         0.09
GET       0.740         0.10
GET       0.750         0.10
GET       0.770         0.10
GET       0.790         0.11
GET       0.800         0.12
GET       0.810         0.12
GET       0.820         0.12
GET       0.830         0.13
GET       0.840         0.13
GET       0.850         0.14
GET       0.860         0.15
GET       0.870         0.15
GET       0.880         0.15
GET       0.890         0.16
GET       0.900         0.16
GET       0.910         0.16
GET       0.920         0.17
GET       0.930         0.17
GET       0.940         0.18
GET       0.950         0.18
GET       0.970         0.18
GET       0.980         0.19
GET       0.990         0.19
GET       1.000         0.20
GET       1.100         0.21
GET       1.200         0.23
GET       1.300         0.25
GET       1.400         0.29
GET       1.500         0.32
GET       1.600         0.33
GET       1.700         0.35
GET       1.800         0.37
GET       1.900         0.38
GET       6.700         0.38
GET       6.800         0.38
GET       6.900         0.39
GET       7.600         0.39
GET       7.700         0.40
GET       8.900         0.40
GET       9.600         0.41
GET      11.000         0.51
GET      12.000         0.52
GET      13.000         0.64
GET      14.000         0.94
GET      15.000        14.44
GET      16.000        75.39
GET      17.000        75.81
GET      18.000        76.02
GET      19.000        76.10
GET      20.000        76.21
GET      21.000        76.23
GET      22.000        76.25
GET      23.000        76.26
GET      24.000        76.27
GET      25.000        76.27
GET      26.000        76.29
GET      27.000        76.31
GET      28.000        76.38
GET      29.000        76.49
GET      30.000        76.81
GET      31.000        94.02
GET      32.000        94.69
GET      33.000        94.71
GET      34.000        94.72
GET      35.000        94.72
GET      36.000        94.72
GET      40.000        94.74
GET      44.000        94.76
GET      45.000        94.78
GET      46.000        95.61
GET      47.000        98.39
GET      49.000        98.40
GET      50.000        98.40
GET      52.000        98.42
GET      59.000        98.43
GET      60.000        98.44
GET      61.000        98.45
GET      62.000        99.38
GET      63.000        99.52
GET      77.000        99.53
GET      78.000        99.75
GET      93.000        99.82
GET      94.000        99.91
GET     110.000        99.97
GET     120.000        99.99
GET     130.000        99.99
GET     140.000       100.00
---
