2         Threads
42        Connections per thread
70        Seconds


ALL STATS
========================================================================
Type        Ops/sec     Hits/sec   Misses/sec      Latency       KB/sec 
------------------------------------------------------------------------
Sets           0.00          ---          ---      0.00000         0.00 
Gets         972.33       972.33         0.00     86.37500      3938.53 
Waits          0.00          ---          ---      0.00000          --- 
Totals       972.33       972.33         0.00     86.37500      3938.53 


Request Latency Distribution
Type     <= msec         Percent
------------------------------------------------------------------------
---
GET       1.400         0.01
GET       1.500         0.03
GET       1.600         0.04
GET       1.700         0.07
GET       1.800         0.11
GET       1.900         0.14
GET       2.000         0.17
GET       2.100         0.22
GET       2.200         0.25
GET       2.300         0.31
GET       2.400         0.34
GET       2.500         0.37
GET       2.600         0.39
GET       2.700         0.41
GET       2.800         0.43
GET       2.900         0.44
GET       3.000         0.46
GET       3.100         0.47
GET       3.200         0.49
GET       3.300         0.51
GET       3.400         0.52
GET       3.500         0.53
GET       3.600         0.55
GET       3.700         0.55
GET       3.800         0.56
GET       3.900         0.57
GET       4.000         0.57
GET       4.100         0.57
GET       4.200         0.58
GET       4.300         0.58
GET       4.400         0.58
GET       4.500         0.59
GET       4.700         0.59
GET       4.900         0.59
GET       5.000         0.60
GET       5.100         0.60
GET       5.300         0.60
GET       5.700         0.60
GET       5.800         0.60
GET       5.900         0.61
GET       6.000         0.61
GET       6.100         0.61
GET       6.200         0.62
GET       6.600         0.62
GET       6.800         0.62
GET       6.900         0.63
GET       7.100         0.63
GET       7.200         0.63
GET       7.300         0.63
GET       7.400         0.63
GET       7.600         0.63
GET       7.800         0.63
GET       7.900         0.64
GET       8.000         0.64
GET       8.400         0.64
GET       8.600         0.64
GET       8.700         0.64
GET       8.900         0.64
GET       9.000         0.64
GET       9.400         0.65
GET       9.500         0.65
GET       9.700         0.65
GET       9.800         0.66
GET       9.900         0.66
GET      10.000         0.66
GET      11.000         0.67
GET      12.000         0.68
GET      13.000         0.68
GET      14.000         0.71
GET      15.000         0.73
GET      16.000         0.78
GET      17.000         0.81
GET      18.000         0.84
GET      19.000         0.84
GET      20.000         0.86
GET      21.000         0.87
GET      22.000         0.89
GET      23.000         0.89
GET      24.000         0.90
GET      25.000         0.90
GET      26.000         0.91
GET      27.000         0.92
GET      28.000         0.93
GET      29.000         0.95
GET      30.000         0.97
GET      31.000         0.99
GET      32.000         1.01
GET      33.000         1.05
GET      34.000         1.06
GET      35.000         1.06
GET      36.000         1.07
GET      37.000         1.07
GET      38.000         1.07
GET      39.000         1.09
GET      40.000         1.10
GET      41.000         1.12
GET      42.000         1.13
GET      43.000         1.15
GET      44.000         1.17
GET      45.000         1.19
GET      46.000         1.25
GET      47.000         1.33
GET      48.000         1.39
GET      49.000         1.43
GET      50.000         1.46
GET      51.000         1.51
GET      52.000         1.56
GET      53.000         1.58
GET      54.000         1.61
GET      55.000         1.65
GET      56.000         1.67
GET      57.000         1.69
GET      58.000         1.71
GET      59.000         1.73
GET      60.000         1.77
GET      61.000         1.81
GET      62.000         1.83
GET      63.000         1.89
GET      64.000         1.95
GET      65.000         2.05
GET      66.000         2.15
GET      67.000         2.24
GET      68.000         2.35
GET      69.000         2.45
GET      70.000         2.53
GET      71.000         2.59
GET      72.000         2.71
GET      73.000         2.87
GET      74.000         3.12
GET      75.000         3.42
GET      76.000         3.83
GET      77.000         4.37
GET      78.000         5.03
GET      79.000         6.63
GET      80.000        11.63
GET      81.000        23.19
GET      82.000        34.35
GET      83.000        41.64
GET      84.000        45.99
GET      85.000        49.03
GET      86.000        51.57
GET      87.000        54.91
GET      88.000        59.64
GET      89.000        67.71
GET      90.000        79.54
GET      91.000        90.41
GET      92.000        94.95
GET      93.000        96.55
GET      94.000        97.32
GET      95.000        97.74
GET      96.000        98.08
GET      97.000        98.31
GET      98.000        98.46
GET      99.000        98.55
GET     100.000        98.83
GET     110.000        99.03
GET     120.000        99.16
GET     130.000        99.21
GET     140.000        99.28
GET     150.000        99.29
GET     160.000        99.34
GET     170.000        99.43
GET     180.000        99.46
GET     190.000        99.48
GET     200.000        99.51
GET     210.000        99.52
GET     220.000        99.54
GET     230.000        99.57
GET     240.000        99.58
GET     250.000        99.60
GET     260.000        99.63
GET     270.000        99.64
GET     280.000        99.67
GET     290.000        99.71
GET     300.000        99.74
GET     310.000        99.78
GET     320.000        99.78
GET     330.000        99.79
GET     340.000        99.81
GET     350.000        99.82
GET     360.000        99.84
GET     370.000        99.85
GET     380.000        99.86
GET     390.000        99.88
GET     400.000        99.89
GET     410.000        99.90
GET     420.000        99.90
GET     430.000        99.91
GET     440.000        99.92
GET     450.000        99.93
GET     470.000        99.95
GET     490.000        99.96
GET     510.000        99.97
GET     520.000        99.98
GET     540.000        99.99
GET     570.000        99.99
GET     590.000        99.99
GET     600.000        99.99
GET     610.000        99.99
GET     720.000        99.99
GET     740.000       100.00
GET     750.000       100.00
---
