2         Threads
14        Connections per thread
70        Seconds


ALL STATS
========================================================================
Type        Ops/sec     Hits/sec   Misses/sec      Latency       KB/sec 
------------------------------------------------------------------------
Sets           0.00          ---          ---      0.00000         0.00 
Gets         972.53       972.53         0.00     28.77600      3939.31 
Waits          0.00          ---          ---      0.00000          --- 
Totals       972.53       972.53         0.00     28.77600      3939.31 


Request Latency Distribution
Type     <= msec         Percent
------------------------------------------------------------------------
---
GET       8.200         0.00
GET       8.400         0.00
GET       9.500         0.00
GET      11.000         0.02
GET      12.000         0.05
GET      13.000         0.12
GET      14.000         0.24
GET      15.000         0.41
GET      16.000         0.52
GET      17.000         0.69
GET      18.000         0.85
GET      19.000         1.43
GET      20.000         4.09
GET      21.000         8.22
GET      22.000        11.84
GET      23.000        14.44
GET      24.000        16.22
GET      25.000        17.95
GET      26.000        20.04
GET      27.000        23.07
GET      28.000        29.46
GET      29.000        43.06
GET      30.000        70.90
GET      31.000        87.10
GET      32.000        93.25
GET      33.000        96.09
GET      34.000        97.56
GET      35.000        98.33
GET      36.000        98.76
GET      37.000        99.04
GET      38.000        99.25
GET      39.000        99.38
GET      40.000        99.47
GET      41.000        99.54
GET      42.000        99.59
GET      43.000        99.63
GET      44.000        99.71
GET      45.000        99.80
GET      46.000        99.90
GET      47.000        99.93
GET      48.000        99.95
GET      49.000        99.95
GET      51.000        99.96
GET      59.000        99.96
GET     200.000        99.96
GET     210.000        99.97
GET     220.000       100.00
---
