1         Threads
1         Connections per thread
70        Seconds


ALL STATS
========================================================================
Type        Ops/sec     Hits/sec   Misses/sec      Latency       KB/sec 
------------------------------------------------------------------------
Sets        1482.73          ---          ---      0.66800      5984.33 
Gets           0.00         0.00         0.00      0.00000         0.00 
Waits          0.00          ---          ---      0.00000          --- 
Totals      1482.73         0.00         0.00      0.66800      5984.33 


Request Latency Distribution
Type     <= msec         Percent
------------------------------------------------------------------------
SET       0.200         0.00
SET       0.210         0.00
SET       0.220         0.01
SET       0.230         0.04
SET       0.240         0.12
SET       0.250         0.23
SET       0.260         0.44
SET       0.270         0.72
SET       0.280         1.09
SET       0.290         1.50
SET       0.300         1.99
SET       0.310         2.56
SET       0.320         3.20
SET       0.330         3.90
SET       0.340         4.75
SET       0.350         5.68
SET       0.360         6.88
SET       0.370         8.11
SET       0.380         9.53
SET       0.390        11.11
SET       0.400        12.76
SET       0.410        14.58
SET       0.420        16.45
SET       0.430        18.44
SET       0.440        20.59
SET       0.450        22.78
SET       0.460        24.91
SET       0.470        27.12
SET       0.480        29.34
SET       0.490        31.60
SET       0.500        33.92
SET       0.510        36.16
SET       0.520        38.44
SET       0.530        40.70
SET       0.540        42.92
SET       0.550        45.08
SET       0.560        47.22
SET       0.570        49.27
SET       0.580        51.27
SET       0.590        53.19
SET       0.600        55.09
SET       0.610        56.90
SET       0.620        58.63
SET       0.630        60.42
SET       0.640        62.07
SET       0.650        63.69
SET       0.660        65.14
SET       0.670        66.64
SET       0.680        67.98
SET       0.690        69.34
SET       0.700        70.59
SET       0.710        71.83
SET       0.720        72.94
SET       0.730        73.97
SET       0.740        75.01
SET       0.750        76.06
SET       0.760        77.01
SET       0.770        77.91
SET       0.780        78.74
SET       0.790        79.54
SET       0.800        80.32
SET       0.810        81.06
SET       0.820        81.79
SET       0.830        82.43
SET       0.840        83.07
SET       0.850        83.70
SET       0.860        84.29
SET       0.870        84.88
SET       0.880        85.42
SET       0.890        85.97
SET       0.900        86.47
SET       0.910        86.95
SET       0.920        87.39
SET       0.930        87.84
SET       0.940        88.25
SET       0.950        88.70
SET       0.960        89.10
SET       0.970        89.50
SET       0.980        89.91
SET       0.990        90.29
SET       1.000        92.10
SET       1.100        94.56
SET       1.200        96.17
SET       1.300        97.19
SET       1.400        97.76
SET       1.500        98.12
SET       1.600        98.34
SET       1.700        98.48
SET       1.800        98.62
SET       1.900        98.72
SET       2.000        98.81
SET       2.100        98.90
SET       2.200        98.96
SET       2.300        99.03
SET       2.400        99.10
SET       2.500        99.16
SET       2.600        99.21
SET       2.700        99.24
SET       2.800        99.28
SET       2.900        99.31
SET       3.000        99.35
SET       3.100        99.38
SET       3.200        99.41
SET       3.300        99.44
SET       3.400        99.47
SET       3.500        99.49
SET       3.600        99.52
SET       3.700        99.55
SET       3.800        99.57
SET       3.900        99.60
SET       4.000        99.62
SET       4.100        99.65
SET       4.200        99.67
SET       4.300        99.68
SET       4.400        99.71
SET       4.500        99.73
SET       4.600        99.75
SET       4.700        99.77
SET       4.800        99.78
SET       4.900        99.80
SET       5.000        99.80
SET       5.100        99.81
SET       5.200        99.83
SET       5.300        99.84
SET       5.400        99.84
SET       5.500        99.85
SET       5.600        99.86
SET       5.700        99.87
SET       5.800        99.88
SET       5.900        99.89
SET       6.000        99.89
SET       6.100        99.89
SET       6.200        99.90
SET       6.300        99.90
SET       6.400        99.91
SET       6.500        99.91
SET       6.600        99.92
SET       6.700        99.92
SET       6.800        99.93
SET       6.900        99.93
SET       7.000        99.94
SET       7.100        99.94
SET       7.200        99.95
SET       7.300        99.95
SET       7.400        99.95
SET       7.500        99.96
SET       7.600        99.96
SET       7.700        99.97
SET       7.800        99.97
SET       7.900        99.97
SET       8.000        99.97
SET       8.100        99.98
SET       8.300        99.98
SET       8.400        99.98
SET       8.500        99.98
SET       8.700        99.98
SET       8.800        99.98
SET       9.000        99.99
SET       9.100        99.99
SET       9.400        99.99
SET       9.900        99.99
SET      10.000        99.99
SET      11.000       100.00
SET      13.000       100.00
SET      14.000       100.00
SET      16.000       100.00
SET      25.000       100.00
---
---
