second,get,set,multiget,multigetsharded,cachemisses
1,1148,0,0,0,0
2,2519,0,0,0,0
3,3896,0,0,0,0
4,5324,0,0,0,0
5,6748,0,0,0,0
6,8138,0,0,0,0
7,9549,0,0,0,0
8,10918,0,0,0,0
9,12284,0,0,0,0
10,13665,0,0,0,0
11,15071,0,0,0,0
12,16500,0,0,0,0
13,17984,0,0,0,0
14,19362,0,0,0,0
15,20766,0,0,0,0
16,22121,0,0,0,0
17,23488,0,0,0,0
18,24932,0,0,0,0
19,26335,0,0,0,0
20,27741,0,0,0,0
21,29201,0,0,0,0
22,30632,0,0,0,0
23,32044,0,0,0,0
24,33465,0,0,0,0
25,34850,0,0,0,0
26,36324,0,0,0,0
27,37730,0,0,0,0
28,39176,0,0,0,0
29,40618,0,0,0,0
30,42016,0,0,0,0
31,43420,0,0,0,0
32,44827,0,0,0,0
33,46159,0,0,0,0
34,47491,0,0,0,0
35,48923,0,0,0,0
36,50357,0,0,0,0
37,51753,0,0,0,0
38,53104,0,0,0,0
39,54517,0,0,0,0
40,55919,0,0,0,0
41,57362,0,0,0,0
42,58725,0,0,0,0
43,60078,0,0,0,0
44,61513,0,0,0,0
45,62904,0,0,0,0
46,64289,0,0,0,0
47,65657,0,0,0,0
48,67054,0,0,0,0
49,68414,0,0,0,0
50,69801,0,0,0,0
51,71177,0,0,0,0
52,72570,0,0,0,0
53,73959,0,0,0,0
54,75359,0,0,0,0
55,76730,0,0,0,0
56,78127,0,0,0,0
57,79506,0,0,0,0
58,80886,0,0,0,0
59,82298,0,0,0,0
60,83640,0,0,0,0
61,85064,0,0,0,0
62,86480,0,0,0,0
63,87947,0,0,0,0
64,89306,0,0,0,0
65,90697,0,0,0,0
66,92123,0,0,0,0
67,93547,0,0,0,0
68,94944,0,0,0,0
69,96355,0,0,0,0
70,97759,0,0,0,0
71,98395,0,0,0,0
72,98395,0,0,0,0
73,98395,0,0,0,0
74,98395,0,0,0,0
75,98395,0,0,0,0
76,98395,0,0,0,0
77,98395,0,0,0,0
78,98395,0,0,0,0
79,98395,0,0,0,0
80,98395,0,0,0,0
81,98395,0,0,0,0
82,98395,0,0,0,0
83,98395,0,0,0,0
84,98395,0,0,0,0
85,98395,0,0,0,0
86,98395,0,0,0,0
86,98395,0,0,0,0
