run,server,mw,mw_thread,c_rt,c_th
1,-1,-1,-1,28.056,6846.73
1,-1,1,-1,20.7451666666667,9254.88
1,1,-1,-1,38.5916666666667,4974.53
1,1,1,-1,27.7561666666667,8249.91
1,-1,-1,1,19.0496666666667,11194.38
1,-1,1,1,15.497,12385.68
1,1,-1,1,26.3093333333333,7298.73
1,1,1,1,17.7316666666667,9842.11
2,-1,-1,-1,29.056,6846.73
2,-1,1,-1,21.7451666666667,9254.88
2,1,-1,-1,39.5916666666667,4974.53
2,1,1,-1,28.7561666666667,8249.91
2,-1,-1,1,22.0496666666667,11194.38
2,-1,1,1,16.497,12385.68
2,1,-1,1,27.3093333333333,7298.73
2,1,1,1,18.7316666666667,9842.11
